%!PS-Adobe-3.0 EPSF-3.0
%%Creator: cairo 1.13.1 (http://cairographics.org)
%%CreationDate: Mon Aug 11 03:38:30 2014
%%Pages: 1
%%DocumentData: Clean7Bit
%%LanguageLevel: 2
%%BoundingBox: 0 -1 522 417
%%EndComments
%%BeginProlog
save
50 dict begin
/q { gsave } bind def
/Q { grestore } bind def
/cm { 6 array astore concat } bind def
/w { setlinewidth } bind def
/J { setlinecap } bind def
/j { setlinejoin } bind def
/M { setmiterlimit } bind def
/d { setdash } bind def
/m { moveto } bind def
/l { lineto } bind def
/c { curveto } bind def
/h { closepath } bind def
/re { exch dup neg 3 1 roll 5 3 roll moveto 0 rlineto
      0 exch rlineto 0 rlineto closepath } bind def
/S { stroke } bind def
/f { fill } bind def
/f* { eofill } bind def
/n { newpath } bind def
/W { clip } bind def
/W* { eoclip } bind def
/BT { } bind def
/ET { } bind def
/pdfmark where { pop globaldict /?pdfmark /exec load put }
    { globaldict begin /?pdfmark /pop load def /pdfmark
    /cleartomark load def end } ifelse
/BDC { mark 3 1 roll /BDC pdfmark } bind def
/EMC { mark /EMC pdfmark } bind def
/cairo_store_point { /cairo_point_y exch def /cairo_point_x exch def } def
/Tj { show currentpoint cairo_store_point } bind def
/TJ {
  {
    dup
    type /stringtype eq
    { show } { -0.001 mul 0 cairo_font_matrix dtransform rmoveto } ifelse
  } forall
  currentpoint cairo_store_point
} bind def
/cairo_selectfont { cairo_font_matrix aload pop pop pop 0 0 6 array astore
    cairo_font exch selectfont cairo_point_x cairo_point_y moveto } bind def
/Tf { pop /cairo_font exch def /cairo_font_matrix where
      { pop cairo_selectfont } if } bind def
/Td { matrix translate cairo_font_matrix matrix concatmatrix dup
      /cairo_font_matrix exch def dup 4 get exch 5 get cairo_store_point
      /cairo_font where { pop cairo_selectfont } if } bind def
/Tm { 2 copy 8 2 roll 6 array astore /cairo_font_matrix exch def
      cairo_store_point /cairo_font where { pop cairo_selectfont } if } bind def
/g { setgray } bind def
/rg { setrgbcolor } bind def
/d1 { setcachedevice } bind def
%%EndProlog
%%BeginSetup
%%EndSetup
%%Page: 1 1
%%BeginPageSetup
%%PageBoundingBox: 0 -1 522 417
%%EndPageSetup
q 0 -1 522 418 rectclip q
0 g
1.293367 w
0 J
0 j
[] 0.0 d
4 M q 1 0 0 -1 0 416.801666 cm
8.234 42.527 m 22.051 55.066 37.723 69.035 46.512 76.969 c 80.867 107.98
 76.469 103.809 76.469 103.809 c S Q
42.672 343.302 m 39.016 343.114 l 47.469 338.966 l 42.484 346.954 l h
42.672 343.302 m f*
0.48005 w
q -1 0.902622 0.902622 1 0 416.801666 cm
-60.072 -19.278 m -58.151 -21.199 l -64.872 -19.281 l -58.152 -17.358 l
 h
-60.072 -19.278 m S Q
1.303522 w
q 1 0 0 -1 0 416.801666 cm
77.98 102.93 m 94.98 103.043 114.055 102.969 124.836 103.008 c 166.973 
103.16 161.41 102.977 161.41 102.977 c S Q
119.621 313.813 m 117.004 311.216 l 126.137 313.79 l 117.023 316.431 l 
h
119.621 313.813 m f*
0.651757 w
q -1 0.00363475 0.00363475 1 0 416.801666 cm
-119.994 -102.552 m -117.386 -105.159 l -126.509 -102.552 l -117.387 -99.944
 l h
-119.994 -102.552 m S Q
1.148357 w
q 1 0 0 -1 0 416.801666 cm
410.113 94.477 m 425.902 103.074 443.816 112.652 453.859 118.09 c 493.125
 139.352 488.102 136.496 488.102 136.496 c S Q
449.82 300.899 m 446.707 299.97 l 454.871 298.165 l 448.895 304.013 l h
449.82 300.899 m f*
0.504901 w
q -1 0.541523 0.541523 1 0 416.801666 cm
-396.354 98.733 m -394.336 96.71 l -401.405 98.733 l -394.335 100.752 l
 h
-396.354 98.733 m S Q
1.303522 w
q 1 0 0 -1 0 416.801666 cm
412.551 94.371 m 426.711 84.965 442.484 74.238 451.445 68.242 c 486.469
 44.812 481.754 47.77 481.754 47.77 c S Q
447.109 345.657 m 446.391 342.044 l 452.527 349.282 l 443.492 346.376 l
 h
447.109 345.657 m f*
0.541724 w
q -1 -0.668959 -0.668959 1 0 416.801666 cm
-276.003 -255.779 m -273.837 -257.944 l -281.422 -255.779 l -273.837 -253.611
 l h
-276.003 -255.779 m S Q
136.859 234.712 m 136.859 234.751 l 136.922 234.786 l 136.922 235.126 l
 136.988 235.165 l 136.988 235.333 l 136.988 235.938 136.602 236.29 136.027
 236.29 c 135.707 236.29 134.871 236.036 134.742 234.782 c 134.168 236.071
 133.012 236.985 131.793 236.985 c 131.793 236.212 l 133.91 236.212 134.359
 233.384 134.359 233.208 c 134.359 233.032 134.297 232.829 134.23 232.681
 c 132.691 226.009 l 132.562 225.095 131.793 224.231 131.09 223.559 c 130.449
 222.934 129.422 222.302 128.523 222.302 c 126.922 222.302 126.41 224.122
 126.41 225.509 c 126.41 227.2 127.371 231.321 128.203 233.102 c 129.102
 234.821 130.449 236.212 131.793 236.212 c 131.793 236.985 l 128.141 236.985
 124.164 232.091 124.164 227.059 c 124.164 223.595 126.09 221.532 128.398
 221.532 c 130.32 221.532 131.793 223.181 132.117 223.559 c 132.117 223.532
 l 131.473 220.415 131.09 218.977 131.09 218.915 c 130.961 218.591 129.871
 215.13 126.473 215.13 c 125.898 215.13 124.871 215.173 123.91 215.481 c
 124.871 215.798 125.254 216.712 125.254 217.302 c 125.254 217.86 124.871
 218.528 124.039 218.528 c 123.332 218.528 122.305 217.888 122.305 216.501
 c 122.305 215.059 123.461 214.36 126.539 214.36 c 130.512 214.36 132.883
 217.091 133.332 219.188 c h
136.859 234.712 m f
28.641 416.419 m 28.641 416.536 l 28.578 416.556 l 28.578 416.638 l 28.516
 416.653 l 28.516 416.692 l 28.453 416.704 l 28.453 416.724 l 28.391 416.731
 l 28.391 416.743 l 28.332 416.743 l 28.023 416.743 26.789 415.458 26.234
 414.513 c 25.555 416.255 24.383 416.774 23.398 416.774 c 23.398 416.063
 l 25.371 416.063 25.801 413.446 25.801 413.227 c 25.801 413.024 24.137 
405.946 24.016 405.817 c 23.582 404.915 21.855 402.849 20.129 402.849 c 
18.281 402.849 18.156 405.337 18.156 405.892 c 18.156 407.438 19.082 410.958
 19.574 412.313 c 20.5 414.708 22.102 416.063 23.398 416.063 c 23.398 416.774
 l 19.758 416.774 16 411.989 16 407.306 c 16 404.145 17.785 402.134 20.008
 402.134 c 21.363 402.134 22.535 402.907 23.645 404.075 c 23.398 402.946
 22.348 398.579 22.289 398.286 c 22.043 397.384 21.793 397.247 20.066 397.224
 c 19.699 397.224 19.391 397.224 19.391 396.575 c 19.391 396.54 19.391 396.216
 19.758 396.216 c 20.746 396.216 21.793 396.321 22.844 396.321 c 23.891 
396.321 25 396.216 25.988 396.216 c 26.172 396.216 26.543 396.216 26.543
 396.864 c 26.543 397.224 26.234 397.224 25.742 397.224 c 24.262 397.224
 24.262 397.454 24.262 397.735 c 24.262 397.97 24.324 398.165 24.383 398.45
 c h
28.641 416.419 m f
137.32 362.087 m 137.32 362.204 l 137.258 362.224 l 137.258 362.306 l 137.195
 362.321 l 137.195 362.36 l 137.133 362.372 l 137.133 362.392 l 137.074 
362.395 l 137.074 362.411 l 137.012 362.411 l 136.703 362.411 135.469 361.126
 134.914 360.177 c 134.234 361.923 133.066 362.442 132.078 362.442 c 132.078
 361.727 l 134.051 361.727 134.484 359.114 134.484 358.895 c 134.484 358.692
 132.816 351.614 132.695 351.485 c 132.262 350.583 130.535 348.513 128.809
 348.513 c 126.961 348.513 126.836 351.005 126.836 351.556 c 126.836 353.106
 127.762 356.622 128.254 357.977 c 129.18 360.372 130.781 361.727 132.078
 361.727 c 132.078 362.442 l 128.441 362.442 124.68 357.653 124.68 352.97
 c 124.68 349.813 126.469 347.802 128.688 347.802 c 130.043 347.802 131.215
 348.571 132.324 349.739 c 132.078 348.61 131.031 344.247 130.969 343.954
 c 130.723 343.052 130.477 342.915 128.75 342.888 c 128.379 342.888 128.07
 342.888 128.07 342.239 c 128.07 342.208 128.07 341.884 128.441 341.884 
c 129.426 341.884 130.477 341.989 131.523 341.989 c 132.57 341.989 133.68
 341.884 134.668 341.884 c 134.852 341.884 135.223 341.884 135.223 342.532
 c 135.223 342.888 134.914 342.888 134.422 342.888 c 132.941 342.888 132.941
 343.122 132.941 343.403 c 132.941 343.634 133.004 343.829 133.066 344.114
 c h
137.32 362.087 m f
475.941 253.474 m 475.941 253.591 l 475.883 253.61 l 475.883 253.692 l 
475.82 253.708 l 475.82 253.743 l 475.758 253.759 l 475.758 253.778 l 475.695
 253.782 l 475.695 253.798 l 475.633 253.798 l 475.324 253.798 474.094 252.513
 473.539 251.563 c 472.859 253.309 471.688 253.829 470.703 253.829 c 470.703
 253.114 l 472.676 253.114 473.105 250.501 473.105 250.282 c 473.105 250.079
 471.441 243.001 471.316 242.872 c 470.887 241.97 469.16 239.899 467.434
 239.899 c 465.582 239.899 465.461 242.392 465.461 242.942 c 465.461 244.493
 466.387 248.009 466.879 249.364 c 467.805 251.759 469.406 253.114 470.703
 253.114 c 470.703 253.829 l 467.062 253.829 463.301 249.04 463.301 244.356
 c 463.301 241.196 465.09 239.188 467.309 239.188 c 468.668 239.188 469.84
 239.958 470.949 241.126 c 470.703 239.997 469.652 235.634 469.59 235.341
 c 469.344 234.438 469.098 234.302 467.371 234.274 c 467 234.274 466.695
 234.274 466.695 233.626 c 466.695 233.595 466.695 233.27 467.062 233.27
 c 468.051 233.27 469.098 233.376 470.148 233.376 c 471.195 233.376 472.305
 233.27 473.293 233.27 c 473.477 233.27 473.848 233.27 473.848 233.919 c
 473.848 234.274 473.539 234.274 473.043 234.274 c 471.566 234.274 471.566
 234.509 471.566 234.79 c 471.566 235.02 471.625 235.216 471.688 235.501
 c h
475.941 253.474 m f
450.383 403.638 m 450.383 403.755 l 450.32 403.774 l 450.32 403.86 l 450.258
 403.872 l 450.258 403.911 l 450.199 403.923 l 450.199 403.942 l 450.137
 403.95 l 450.137 403.962 l 450.074 403.962 l 449.766 403.962 448.531 402.681
 447.977 401.731 c 447.301 403.477 446.129 403.997 445.141 403.997 c 445.141
 403.282 l 447.113 403.282 447.547 400.669 447.547 400.446 c 447.547 400.247
 445.883 393.169 445.758 393.04 c 445.328 392.138 443.602 390.067 441.875
 390.067 c 440.023 390.067 439.898 392.559 439.898 393.11 c 439.898 394.661
 440.824 398.177 441.316 399.532 c 442.242 401.927 443.848 403.282 445.141
 403.282 c 445.141 403.997 l 441.504 403.997 437.742 399.208 437.742 394.524
 c 437.742 391.364 439.531 389.352 441.75 389.352 c 443.105 389.352 444.277
 390.126 445.387 391.294 c 445.141 390.165 444.094 385.798 444.031 385.505
 c 443.785 384.606 443.539 384.47 441.812 384.442 c 441.441 384.442 441.133
 384.442 441.133 383.794 c 441.133 383.763 441.133 383.438 441.504 383.438
 c 442.488 383.438 443.539 383.54 444.586 383.54 c 445.633 383.54 446.746
 383.438 447.73 383.438 c 447.914 383.438 448.285 383.438 448.285 384.087
 c 448.285 384.442 447.977 384.442 447.484 384.442 c 446.004 384.442 446.004
 384.677 446.004 384.954 c 446.004 385.188 446.066 385.384 446.129 385.669
 c h
450.383 403.638 m f
1.122599 w
q 1 0 0 -1 0 416.801666 cm
104.645 308.574 m 115.59 320.496 128.008 333.777 134.973 341.32 c 162.195
 370.805 158.707 366.84 158.707 366.84 c S Q
131.926 78.782 m 128.754 78.907 l 135.734 74.657 l 132.055 81.954 l h
131.926 78.782 m f*
0.412408 w
q -0.923257 1 1 0.923257 0 416.801666 cm
-248.229 -97.254 m -246.581 -98.904 l -252.354 -97.254 l -246.581 -95.603
 l h
-248.229 -97.254 m S Q
1.283001 w
q 1 0 0 -1 0 416.801666 cm
23.906 310.586 m 40.379 310.703 58.859 310.625 69.301 310.664 c 110.125
 310.816 104.734 310.633 104.734 310.633 c S Q
64.168 106.157 m 61.594 103.602 l 70.582 106.134 l 61.613 108.731 l h
64.168 106.157 m f*
0.641496 w
q -1 0.00375195 0.00375195 1 0 416.801666 cm
-65.333 -310.399 m -62.768 -312.964 l -71.747 -310.399 l -62.768 -307.835
 l h
-65.333 -310.399 m S Q
1.73209 w
1.5 M q 1 0 0 -1 0 416.801666 cm
297.16 291.801 m 297.25 292.414 297.387 293.039 297.574 293.66 c 297.758
 294.281 297.992 294.898 298.27 295.496 c 298.551 296.098 298.875 296.676
 299.246 297.227 c 299.613 297.781 300.027 298.301 300.477 298.781 c 300.926
 299.258 301.41 299.699 301.926 300.086 c 302.445 300.473 302.988 300.809
 303.559 301.086 c 304.125 301.367 304.715 301.586 305.316 301.742 c 305.922
 301.902 306.535 301.996 307.152 302.027 c 307.766 302.055 308.387 302.02
 308.996 301.922 c 309.609 301.824 310.211 301.66 310.797 301.438 c 311.383
 301.211 311.953 300.926 312.496 300.59 c 313.039 300.25 313.555 299.855
 314.035 299.418 c 314.52 298.977 314.965 298.492 315.375 297.973 c 315.781
 297.449 316.148 296.895 316.469 296.316 c 316.793 295.734 317.066 295.133
 317.297 294.52 c 317.527 293.902 317.707 293.281 317.84 292.656 c 317.973
 292.035 318.059 291.418 318.098 290.816 c 318.137 290.215 318.129 289.629
 318.074 289.07 c 318.023 288.516 317.93 287.984 317.797 287.496 c 317.664
 287.012 317.492 286.562 317.289 286.164 c 317.09 285.77 316.855 285.422
 316.602 285.129 c 316.344 284.84 316.066 284.605 315.777 284.438 c 315.484
 284.266 315.18 284.16 314.875 284.117 c 314.566 284.074 314.258 284.094
 313.953 284.18 c 313.648 284.27 313.352 284.418 313.07 284.629 c 312.789
 284.84 312.523 285.113 312.285 285.441 c 312.047 285.77 311.832 286.152
 311.652 286.582 c 311.473 287.012 311.324 287.488 311.219 288.004 c 311.109
 288.516 311.043 289.066 311.023 289.641 c 311 290.215 311.023 290.816 311.09
 291.43 c 311.16 292.039 311.277 292.664 311.445 293.285 c 311.609 293.906
 311.824 294.527 312.086 295.133 c 312.344 295.738 312.652 296.328 313.004
 296.891 c 313.355 297.453 313.754 297.988 314.188 298.484 c 314.621 298.98
 315.094 299.438 315.598 299.844 c 316.102 300.25 316.637 300.609 317.195
 300.91 c 317.754 301.215 318.336 301.457 318.934 301.641 c 319.531 301.824
 320.141 301.945 320.754 302 c 321.371 302.055 321.992 302.047 322.605 301.973
 c 323.219 301.902 323.828 301.762 324.418 301.562 c 325.012 301.363 325.59
 301.105 326.141 300.789 c 326.695 300.469 327.223 300.098 327.719 299.676
 c 328.215 299.258 328.676 298.789 329.098 298.281 c 329.523 297.777 329.906
 297.234 330.246 296.664 c 330.586 296.094 330.883 295.496 331.129 294.887
 c 331.379 294.277 331.578 293.656 331.734 293.035 c 331.887 292.414 331.988
 291.789 332.047 291.184 c 332.105 290.574 332.113 289.98 332.078 289.41
 c 332.047 288.844 331.965 288.301 331.848 287.797 c 331.73 287.293 331.574
 286.828 331.387 286.41 c 331.195 285.996 330.977 285.625 330.73 285.312
 c 330.484 285 330.215 284.742 329.93 284.547 c 329.645 284.352 329.344 
284.219 329.039 284.148 c 328.73 284.082 328.422 284.078 328.113 284.137
 c 327.809 284.195 327.508 284.32 327.219 284.508 c 326.934 284.695 326.66
 284.945 326.41 285.25 c 326.16 285.555 325.938 285.918 325.742 286.328 
c 325.551 286.738 325.387 287.199 325.266 287.695 c 325.145 288.195 325.059
 288.73 325.02 289.297 c 324.98 289.859 324.98 290.453 325.031 291.059 c
 325.082 291.664 325.18 292.285 325.328 292.906 c 325.473 293.531 325.668
 294.152 325.91 294.766 c 326.152 295.375 326.441 295.973 326.773 296.547
 c 327.109 297.121 327.488 297.668 327.906 298.18 c 328.324 298.691 328.781
 299.164 329.273 299.59 c 329.762 300.02 330.289 300.398 330.836 300.723
 c 331.387 301.047 331.961 301.316 332.551 301.523 c 333.141 301.73 333.75
 301.875 334.363 301.957 c 334.977 302.039 335.594 302.059 336.211 302.012
 c 336.824 301.961 337.438 301.852 338.035 301.676 c 338.637 301.504 339.219
 301.266 339.781 300.973 c 340.344 300.676 340.883 300.328 341.391 299.926
 c 341.898 299.523 342.379 299.074 342.816 298.582 c 343.254 298.094 343.656
 297.562 344.012 297.004 c 344.371 296.445 344.684 295.859 344.953 295.254
 c 345.219 294.652 345.441 294.031 345.613 293.41 c 345.785 292.789 345.906
 292.164 345.984 291.551 c 346.059 290.938 346.09 290.336 346.074 289.758
 c 346.059 289.18 345.996 288.625 345.895 288.105 c 345.793 287.59 345.648
 287.105 345.473 286.668 c 345.297 286.234 345.09 285.844 344.852 285.508
 c 344.617 285.172 344.355 284.891 344.078 284.672 c 343.797 284.453 343.504
 284.293 343.199 284.199 c 342.898 284.105 342.586 284.074 342.277 284.109
 c 341.969 284.141 341.664 284.242 341.371 284.402 c 341.078 284.566 340.801
 284.789 340.543 285.07 c 340.285 285.355 340.047 285.695 339.84 286.086
 c 339.637 286.477 339.461 286.918 339.324 287.398 c 339.184 287.883 339.082
 288.406 339.027 288.957 c 338.969 289.512 338.953 290.094 338.984 290.695
 c 339.02 291.293 339.098 291.91 339.223 292.531 c 339.352 293.152 339.523
 293.777 339.746 294.395 c 339.969 295.008 340.242 295.613 340.559 296.195
 c 340.871 296.781 341.234 297.34 341.637 297.867 c 342.039 298.391 342.48
 298.883 342.957 299.328 c 343.434 299.773 343.945 300.172 344.484 300.52
 c 345.023 300.863 345.59 301.156 346.176 301.391 c 346.758 301.621 347.359
 301.793 347.969 301.898 c 348.578 302.008 349.199 302.051 349.816 302.031
 c 350.434 302.008 351.047 301.922 351.652 301.773 c 352.254 301.625 352.848
 301.414 353.418 301.141 c 353.988 300.871 354.539 300.543 355.059 300.16
 c 355.578 299.781 356.07 299.348 356.523 298.875 c 356.977 298.402 357.395
 297.887 357.77 297.34 c 358.145 296.793 358.477 296.215 358.762 295.617
 c 359.051 295.02 359.289 294.406 359.48 293.785 c 359.672 293.168 359.816
 292.539 359.91 291.922 c 360.004 291.309 360.055 290.699 360.055 290.109
 c 360.055 289.523 360.012 288.957 359.93 288.426 c 359.844 287.891 359.715
 287.395 359.555 286.938 c 359.395 286.484 359.195 286.074 358.973 285.719
 c 358.746 285.359 358.492 285.059 358.223 284.812 c 357.949 284.57 357.66
 284.387 357.359 284.266 c 357.062 284.145 356.75 284.086 356.441 284.094
 c 356.133 284.105 355.828 284.176 355.531 284.312 c 355.23 284.449 354.945
 284.648 354.68 284.906 c 354.414 285.168 354.164 285.484 353.949 285.855
 c 353.73 286.223 353.543 286.648 353.387 287.113 c 353.234 287.578 353.117
 288.086 353.043 288.625 c 352.969 289.168 352.938 289.738 352.949 290.332
 c 352.965 290.926 353.023 291.539 353.129 292.156 c 353.238 292.773 353.395
 293.402 353.598 294.02 c 353.801 294.637 354.051 295.25 354.348 295.84 
c 354.648 296.434 354.988 297.004 355.375 297.543 c 355.762 298.082 356.188
 298.59 356.652 299.051 c 357.113 299.516 357.613 299.934 358.141 300.301
 c 358.668 300.672 359.227 300.984 359.801 301.242 c 360.379 301.496 360.973
 301.695 361.578 301.828 c 362.188 301.961 362.801 302.031 363.418 302.035
 c 364.035 302.043 364.652 301.98 365.262 301.855 c 365.871 301.734 366.469
 301.547 367.047 301.301 c 367.625 301.051 368.188 300.746 368.719 300.387
 c 369.25 300.027 369.754 299.613 370.223 299.156 c 370.691 298.699 371.125
 298.199 371.516 297.664 c 371.906 297.133 372.258 296.566 372.562 295.977
 c 372.867 295.387 373.125 294.777 373.336 294.16 c 373.547 293.543 373.711
 292.918 373.824 292.297 c 373.941 291.68 374.008 291.062 374.027 290.469
 c 374.047 289.875 374.023 289.297 373.953 288.75 c 373.883 288.207 373.773
 287.691 373.625 287.219 c 373.48 286.746 373.297 286.316 373.082 285.941
 c 372.867 285.562 372.625 285.234 372.363 284.969 c 372.098 284.699 371.816
 284.492 371.52 284.344 c 371.223 284.199 370.918 284.117 370.609 284.098
 c 370.301 284.078 369.988 284.125 369.688 284.238 c 369.387 284.348 369.094
 284.523 368.82 284.758 c 368.547 284.992 368.289 285.289 368.062 285.637
 c 367.832 285.984 367.629 286.387 367.465 286.836 c 367.297 287.285 367.164
 287.777 367.074 288.305 c 366.98 288.832 366.93 289.391 366.926 289.977
 c 366.922 290.559 366.961 291.168 367.051 291.781 c 367.137 292.398 367.273
 293.023 367.457 293.645 c 367.641 294.266 367.875 294.883 368.152 295.48
 c 368.43 296.078 368.758 296.66 369.125 297.215 c 369.492 297.766 369.906
 298.285 370.352 298.766 c 370.801 299.246 371.289 299.688 371.805 300.074
 c 372.32 300.461 372.863 300.801 373.434 301.078 c 374 301.359 374.59 301.582
 375.191 301.738 c 375.793 301.898 376.406 301.992 377.023 302.023 c 377.641
 302.055 378.258 302.02 378.871 301.926 c 379.48 301.824 380.086 301.664
 380.672 301.441 c 381.258 301.219 381.828 300.934 382.371 300.598 c 382.914
 300.258 383.43 299.867 383.914 299.43 c 384.395 298.988 384.844 298.504
 385.254 297.984 c 385.66 297.465 386.027 296.91 386.352 296.328 c 386.672
 295.75 386.949 295.148 387.18 294.535 c 387.41 293.918 387.594 293.297 
387.727 292.676 c 387.863 292.051 387.949 291.434 387.988 290.832 c 388.027
 290.23 388.02 289.641 387.965 289.086 c 387.914 288.527 387.82 288 387.688
 287.512 c 387.555 287.023 387.387 286.574 387.184 286.176 c 386.984 285.777
 386.75 285.43 386.496 285.137 c 386.242 284.848 385.965 284.613 385.676
 284.441 c 385.383 284.27 385.078 284.16 384.773 284.117 c 384.465 284.074
 384.152 284.094 383.852 284.18 c 383.547 284.262 383.25 284.414 382.969
 284.625 c 382.688 284.832 382.422 285.105 382.18 285.434 c 381.941 285.758
 381.727 286.141 381.547 286.57 c 381.367 287 381.219 287.477 381.109 287.988
 c 381.004 288.5 380.934 289.051 380.914 289.625 c 380.891 290.199 380.91
 290.801 380.98 291.41 c 381.047 292.023 381.164 292.645 381.328 293.27 
c 381.496 293.891 381.707 294.512 381.969 295.117 c 382.227 295.723 382.535
 296.312 382.887 296.875 c 383.238 297.438 383.633 297.973 384.062 298.469
 c 384.496 298.969 384.969 299.426 385.473 299.832 c 385.977 300.242 386.512
 300.602 387.07 300.902 c 387.629 301.207 388.211 301.453 388.809 301.637
 c 389.402 301.82 390.016 301.941 390.629 301.996 c 391.246 302.055 391.863
 302.047 392.477 301.977 c 393.094 301.902 393.699 301.766 394.293 301.57
 c 394.887 301.371 395.465 301.109 396.016 300.793 c 396.57 300.48 397.098
 300.109 397.594 299.688 c 398.09 299.27 398.555 298.801 398.977 298.297
 c 399.402 297.789 399.785 297.246 400.129 296.676 c 400.469 296.109 400.766
 295.512 401.016 294.902 c 401.262 294.293 401.465 293.672 401.617 293.051
 c 401.773 292.43 401.879 291.805 401.934 291.199 c 401.992 290.59 402.004
 289.996 401.969 289.426 c S Q
q 1 0 0 -1 0 416.801666 cm
401.816 293.5 m 401.508 294.043 401.234 294.621 401 295.223 c 400.766 295.828
 400.574 296.457 400.426 297.102 c 400.281 297.746 400.184 298.406 400.137
 299.066 c 400.09 299.73 400.098 300.395 400.156 301.047 c 400.219 301.703
 400.336 302.344 400.504 302.969 c 400.676 303.59 400.902 304.191 401.18
 304.758 c 401.461 305.328 401.789 305.863 402.168 306.355 c 402.547 306.852
 402.977 307.301 403.445 307.703 c 403.914 308.105 404.426 308.457 404.969
 308.75 c 405.512 309.047 406.09 309.289 406.688 309.473 c 407.289 309.652
 407.914 309.777 408.551 309.84 c 409.188 309.906 409.836 309.91 410.484
 309.859 c 411.137 309.809 411.785 309.699 412.426 309.535 c 413.07 309.375
 413.699 309.16 414.309 308.898 c 414.918 308.637 415.508 308.328 416.062
 307.984 c 416.621 307.641 417.148 307.258 417.633 306.848 c 418.121 306.438
 418.566 306.004 418.965 305.551 c 419.363 305.098 419.715 304.629 420.016
 304.156 c 420.316 303.684 420.566 303.211 420.758 302.742 c 420.953 302.273
 421.09 301.816 421.176 301.379 c 421.262 300.941 421.289 300.523 421.266
 300.141 c 421.242 299.754 421.164 299.398 421.039 299.086 c 420.914 298.773
 420.738 298.504 420.523 298.281 c 420.305 298.059 420.047 297.883 419.754
 297.766 c 419.461 297.648 419.133 297.586 418.781 297.578 c 418.43 297.574
 418.055 297.629 417.664 297.742 c 417.273 297.855 416.871 298.027 416.465
 298.254 c 416.059 298.484 415.648 298.77 415.25 299.113 c 414.852 299.453
 414.461 299.848 414.094 300.285 c 413.723 300.727 413.371 301.215 413.051
 301.742 c 412.734 302.266 412.445 302.832 412.195 303.426 c 411.941 304.02
 411.73 304.641 411.566 305.277 c 411.402 305.914 411.285 306.57 411.219
 307.23 c 411.152 307.891 411.137 308.555 411.176 309.215 c 411.215 309.871
 411.309 310.523 411.457 311.152 c 411.605 311.785 411.809 312.395 412.066
 312.977 c 412.324 313.559 412.633 314.105 412.992 314.617 c 413.352 315.125
 413.762 315.598 414.215 316.02 c 414.664 316.438 415.16 316.812 415.691
 317.129 c 416.219 317.449 416.785 317.711 417.375 317.918 c 417.965 318.125
 418.582 318.27 419.215 318.359 c 419.844 318.449 420.488 318.477 421.141
 318.449 c 421.789 318.418 422.441 318.332 423.086 318.191 c 423.73 318.051
 424.367 317.855 424.984 317.613 c 425.602 317.371 426.199 317.082 426.77
 316.754 c 427.34 316.426 427.879 316.055 428.383 315.656 c 428.883 315.258
 429.348 314.832 429.766 314.387 c 430.184 313.941 430.555 313.477 430.875
 313.008 c 431.195 312.535 431.465 312.059 431.684 311.59 c 431.898 311.121
 432.059 310.656 432.164 310.211 c 432.273 309.766 432.324 309.336 432.32
 308.941 c 432.316 308.543 432.262 308.172 432.156 307.844 c 432.051 307.516
 431.895 307.227 431.695 306.984 c 431.496 306.742 431.254 306.547 430.973
 306.406 c 430.695 306.27 430.379 306.184 430.039 306.152 c 429.695 306.125
 429.328 306.156 428.945 306.242 c 428.562 306.332 428.16 306.48 427.758
 306.688 c 427.352 306.895 426.945 307.156 426.543 307.477 c 426.141 307.793
 425.742 308.168 425.367 308.59 c 424.988 309.012 424.629 309.48 424.297
 309.992 c 423.965 310.5 423.664 311.051 423.398 311.633 c 423.133 312.215
 422.902 312.824 422.719 313.457 c 422.539 314.086 422.398 314.738 422.312
 315.395 c 422.223 316.055 422.188 316.719 422.207 317.379 c 422.223 318.039
 422.293 318.695 422.422 319.332 c 422.547 319.969 422.73 320.59 422.965
 321.184 c 423.199 321.777 423.488 322.34 423.828 322.867 c 424.168 323.391
 424.559 323.879 424.992 324.32 c 425.426 324.762 425.906 325.152 426.422
 325.492 c 426.938 325.832 427.488 326.121 428.07 326.348 c 428.648 326.578
 429.258 326.75 429.879 326.863 c 430.504 326.973 431.148 327.027 431.793
 327.02 c 432.441 327.016 433.094 326.953 433.742 326.832 c 434.391 326.715
 435.031 326.539 435.656 326.316 c 436.281 326.094 436.891 325.824 437.469
 325.512 c 438.051 325.199 438.605 324.844 439.121 324.457 c 439.637 324.07
 440.117 323.652 440.555 323.215 c 440.988 322.777 441.383 322.32 441.723
 321.852 c 442.066 321.387 442.355 320.91 442.594 320.438 c 442.828 319.965
 443.012 319.5 443.141 319.047 c 443.27 318.594 443.344 318.156 443.363 
317.746 c 443.383 317.34 443.348 316.957 443.262 316.613 c 443.176 316.266
 443.039 315.961 442.859 315.699 c 442.676 315.438 442.449 315.227 442.188
 315.062 c 441.922 314.902 441.621 314.793 441.289 314.742 c 440.957 314.691
 440.602 314.695 440.223 314.762 c 439.848 314.824 439.449 314.949 439.047
 315.133 c 438.648 315.316 438.238 315.555 437.832 315.852 c 437.43 316.148
 437.027 316.5 436.645 316.902 c 436.258 317.305 435.891 317.758 435.547
 318.25 c 435.207 318.746 434.891 319.281 434.609 319.848 c 434.328 320.418
 434.086 321.02 433.883 321.641 c 433.684 322.266 433.527 322.906 433.418
 323.562 c 433.312 324.215 433.254 324.879 433.25 325.543 c 433.246 326.203
 433.293 326.863 433.398 327.508 c 433.504 328.152 433.66 328.781 433.875
 329.387 c 434.09 329.988 434.359 330.566 434.676 331.109 c 434.996 331.648
 435.367 332.152 435.781 332.613 c 436.199 333.07 436.66 333.484 437.16 
333.844 c 437.66 334.207 438.199 334.516 438.77 334.766 c 439.336 335.02
 439.934 335.215 440.551 335.352 c 441.168 335.488 441.805 335.562 442.449
 335.582 c 443.094 335.598 443.746 335.559 444.398 335.461 c 445.047 335.367
 445.691 335.215 446.324 335.012 c 446.953 334.809 447.57 334.555 448.164
 334.258 c 448.754 333.965 449.32 333.625 449.852 333.25 c 450.383 332.879
 450.879 332.473 451.332 332.043 c 451.785 331.613 452.195 331.16 452.559
 330.699 c 452.918 330.234 453.23 329.762 453.488 329.289 c 453.75 328.816
 453.953 328.344 454.105 327.887 c 454.254 327.426 454.352 326.98 454.391
 326.562 c 454.434 326.141 454.418 325.746 454.355 325.391 c 454.289 325.031
 454.172 324.707 454.012 324.426 c 453.848 324.148 453.637 323.914 453.387
 323.73 c 453.141 323.551 452.852 323.418 452.531 323.344 c 452.215 323.27
 451.867 323.25 451.496 323.293 c 451.129 323.332 450.738 323.434 450.34
 323.594 c 449.941 323.754 449.531 323.969 449.125 324.246 c 448.719 324.52
 448.316 324.848 447.926 325.23 c 447.535 325.613 447.16 326.043 446.805
 326.52 c 446.453 326.996 446.125 327.52 445.832 328.074 c 445.535 328.629
 445.277 329.219 445.059 329.832 c 444.84 330.445 444.664 331.082 444.535
 331.73 c 444.41 332.383 444.332 333.043 444.305 333.707 c 444.281 334.367
 444.309 335.031 444.391 335.68 c 444.473 336.328 444.609 336.969 444.801
 337.582 c 444.992 338.195 445.238 338.785 445.539 339.34 c 445.836 339.895
 446.188 340.414 446.582 340.895 c 446.98 341.371 447.426 341.801 447.91
 342.184 c 448.395 342.566 448.922 342.898 449.477 343.172 c 450.031 343.445
 450.621 343.664 451.23 343.824 c 451.836 343.984 452.469 344.086 453.109
 344.129 c 453.75 344.168 454.402 344.152 455.051 344.078 c 455.699 344.004
 456.352 343.875 456.988 343.691 c 457.625 343.508 458.246 343.277 458.848
 342.996 c 459.449 342.719 460.027 342.395 460.574 342.035 c 461.117 341.68
 461.629 341.285 462.102 340.863 c 462.57 340.445 463 340 463.379 339.543
 c 463.762 339.082 464.094 338.613 464.375 338.137 c 464.652 337.664 464.883
 337.191 465.055 336.727 c 465.227 336.266 465.344 335.812 465.406 335.383
 c 465.473 334.953 465.48 334.547 465.434 334.176 c 465.391 333.801 465.293
 333.461 465.148 333.164 c 465.008 332.867 464.812 332.617 464.582 332.41
 c 464.348 332.207 464.074 332.055 463.77 331.961 c 463.465 331.863 463.125
 331.82 462.766 331.84 c 462.402 331.855 462.02 331.934 461.625 332.066 
c 461.23 332.203 460.824 332.398 460.418 332.648 c 460.012 332.902 459.605
 333.211 459.211 333.57 c 458.816 333.93 458.434 334.344 458.07 334.801 
c 457.707 335.262 457.367 335.766 457.062 336.305 c 456.754 336.844 456.477
 337.422 456.242 338.027 c 456.008 338.629 455.812 339.258 455.668 339.902
 c 455.52 340.547 455.422 341.207 455.375 341.867 c 455.328 342.531 455.332
 343.195 455.395 343.848 c 455.453 344.504 455.566 345.148 455.738 345.77
 c 455.906 346.395 456.133 346.996 456.41 347.562 c 456.688 348.133 457.02
 348.668 457.395 349.164 c 457.773 349.656 458.199 350.109 458.668 350.512
 c 459.137 350.914 459.648 351.266 460.191 351.562 c 460.734 351.859 461.309
 352.102 461.91 352.285 c 462.512 352.469 463.133 352.594 463.77 352.66 
c 464.406 352.723 465.055 352.73 465.703 352.68 c 466.355 352.629 467.004
 352.52 467.648 352.359 c 468.289 352.199 468.918 351.984 469.531 351.723
 c 470.141 351.465 470.727 351.156 471.285 350.812 c 471.844 350.469 472.371
 350.086 472.859 349.68 c 473.344 349.27 473.793 348.832 474.191 348.383
 c 474.59 347.93 474.945 347.461 475.246 346.988 c 475.547 346.516 475.797
 346.043 475.992 345.574 c 476.184 345.105 476.324 344.648 476.41 344.211
 c 476.496 343.773 476.527 343.355 476.504 342.969 c 476.48 342.582 476.402
 342.227 476.277 341.914 c 476.152 341.602 475.98 341.328 475.766 341.105
 c 475.551 340.883 475.289 340.707 474.996 340.59 c 474.707 340.469 474.379
 340.406 474.027 340.398 c 473.676 340.395 473.301 340.445 472.91 340.559
 c 472.52 340.668 472.117 340.84 471.711 341.066 c 471.305 341.297 470.898
 341.582 470.5 341.922 c 470.098 342.262 469.711 342.652 469.34 343.094 
c 468.969 343.535 468.617 344.02 468.297 344.547 c 467.977 345.07 467.688
 345.637 467.438 346.227 c 467.188 346.82 466.977 347.441 466.809 348.078
 c 466.645 348.719 466.523 349.371 466.457 350.031 c 466.391 350.691 466.371
 351.359 466.41 352.016 c 466.449 352.672 466.543 353.324 466.688 353.953
 c 466.836 354.586 467.039 355.199 467.297 355.781 c 467.551 356.359 467.863
 356.91 468.219 357.422 c 468.578 357.934 468.988 358.402 469.438 358.824
 c 469.891 359.246 470.383 359.621 470.914 359.941 c 471.441 360.258 472.008
 360.523 472.598 360.73 c 473.188 360.938 473.805 361.086 474.434 361.176
 c 475.062 361.266 475.711 361.297 476.359 361.266 c 477.008 361.238 477.66
 361.152 478.305 361.016 c 478.949 360.875 479.586 360.68 480.203 360.441
 c 480.824 360.199 481.422 359.91 481.992 359.582 c 482.562 359.254 483.102
 358.883 483.605 358.488 c 484.109 358.09 484.57 357.66 484.992 357.215 
c 485.41 356.77 485.781 356.309 486.105 355.836 c S Q
q 1 0 0 -1 0 416.801666 cm
403.453 294.277 m 403.922 294.688 404.434 295.07 404.977 295.422 c 405.523
 295.773 406.102 296.09 406.703 296.363 c 407.305 296.633 407.93 296.863
 408.57 297.043 c 409.207 297.219 409.859 297.348 410.512 297.418 c 411.164
 297.488 411.82 297.504 412.465 297.465 c 413.109 297.422 413.742 297.32
 414.355 297.164 c 414.969 297.004 415.559 296.789 416.117 296.516 c 416.68
 296.242 417.207 295.914 417.691 295.535 c 418.18 295.156 418.629 294.727
 419.027 294.254 c 419.426 293.781 419.777 293.266 420.078 292.715 c 420.375
 292.164 420.625 291.574 420.816 290.965 c 421.004 290.355 421.141 289.723
 421.223 289.074 c 421.301 288.426 421.324 287.766 421.297 287.105 c 421.266
 286.445 421.18 285.785 421.047 285.133 c 420.914 284.484 420.734 283.848
 420.508 283.23 c 420.281 282.617 420.012 282.023 419.711 281.465 c 419.406
 280.906 419.066 280.383 418.703 279.902 c 418.34 279.418 417.953 278.98
 417.551 278.59 c 417.148 278.203 416.734 277.863 416.316 277.578 c 415.895
 277.297 415.477 277.066 415.062 276.895 c 414.652 276.727 414.25 276.613
 413.867 276.559 c 413.484 276.504 413.121 276.508 412.789 276.57 c 412.457
 276.629 412.156 276.746 411.895 276.914 c 411.633 277.082 411.414 277.301
 411.238 277.562 c 411.062 277.828 410.938 278.133 410.859 278.477 c 410.785
 278.82 410.762 279.199 410.793 279.605 c 410.824 280.012 410.914 280.441
 411.055 280.883 c 411.199 281.328 411.398 281.785 411.652 282.242 c 411.906
 282.703 412.211 283.164 412.57 283.617 c 412.926 284.066 413.332 284.508
 413.785 284.926 c 414.234 285.344 414.73 285.742 415.262 286.105 c 415.793
 286.469 416.359 286.801 416.949 287.094 c 417.543 287.383 418.16 287.629
 418.793 287.828 c 419.426 288.027 420.074 288.176 420.727 288.27 c 421.379
 288.363 422.035 288.402 422.684 288.383 c 423.332 288.363 423.973 288.285
 424.59 288.152 c 425.211 288.016 425.812 287.824 426.387 287.574 c 426.957
 287.324 427.5 287.016 428.004 286.66 c 428.508 286.301 428.973 285.891 
429.391 285.438 c 429.809 284.98 430.18 284.48 430.5 283.941 c 430.82 283.406
 431.09 282.832 431.301 282.23 c 431.516 281.633 431.672 281.004 431.777
 280.363 c 431.879 279.723 431.926 279.066 431.918 278.406 c 431.91 277.746
 431.848 277.082 431.734 276.43 c 431.621 275.773 431.457 275.129 431.25
 274.508 c 431.039 273.883 430.789 273.281 430.5 272.707 c 430.211 272.137
 429.883 271.598 429.531 271.098 c 429.18 270.598 428.801 270.141 428.402
 269.73 c 428.008 269.324 427.594 268.965 427.18 268.656 c 426.762 268.352
 426.34 268.102 425.926 267.906 c 425.508 267.711 425.102 267.578 424.711
 267.5 c 424.32 267.422 423.949 267.402 423.605 267.441 c 423.262 267.477
 422.945 267.57 422.668 267.719 c 422.391 267.863 422.152 268.062 421.961
 268.309 c 421.766 268.555 421.617 268.844 421.523 269.176 c 421.426 269.504
 421.379 269.871 421.391 270.262 c 421.398 270.656 421.465 271.078 421.586
 271.516 c 421.707 271.953 421.883 272.406 422.113 272.867 c 422.344 273.324
 422.633 273.785 422.969 274.242 c 423.305 274.695 423.695 275.141 424.125
 275.57 c 424.559 275.996 425.039 276.406 425.555 276.781 c 426.07 277.16
 426.625 277.504 427.203 277.812 c 427.785 278.117 428.395 278.383 429.023
 278.602 c 429.648 278.82 430.293 278.988 430.941 279.105 c 431.594 279.219
 432.25 279.281 432.898 279.285 c 433.551 279.289 434.195 279.238 434.824
 279.125 c 435.449 279.016 436.062 278.844 436.645 278.617 c 437.23 278.391
 437.785 278.105 438.305 277.77 c 438.82 277.434 439.305 277.043 439.738
 276.605 c 440.176 276.168 440.57 275.684 440.91 275.164 c 441.25 274.641
 441.539 274.082 441.777 273.492 c 442.012 272.902 442.191 272.285 442.316
 271.648 c 442.441 271.016 442.512 270.363 442.523 269.703 c 442.539 269.047
 442.496 268.383 442.406 267.727 c 442.312 267.07 442.168 266.418 441.977
 265.785 c 441.789 265.156 441.551 264.543 441.277 263.957 c 441.004 263.375
 440.691 262.82 440.352 262.305 c 440.008 261.789 439.641 261.312 439.25
 260.887 c 438.863 260.457 438.453 260.074 438.039 259.75 c 437.625 259.422
 437.203 259.148 436.785 258.93 c 436.367 258.715 435.957 258.555 435.559
 258.453 c 435.16 258.352 434.781 258.309 434.426 258.324 c 434.07 258.34
 433.742 258.41 433.449 258.535 c 433.16 258.66 432.902 258.84 432.691 259.066
 c 432.48 259.293 432.312 259.566 432.195 259.879 c 432.078 260.191 432.012
 260.547 432 260.93 c 431.988 261.309 432.031 261.723 432.129 262.152 c 
432.227 262.582 432.383 263.031 432.59 263.488 c 432.801 263.945 433.062
 264.406 433.379 264.863 c 433.695 265.324 434.066 265.773 434.48 266.207
 c 434.895 266.645 435.355 267.059 435.855 267.449 c 436.355 267.84 436.898
 268.199 437.465 268.52 c 438.035 268.844 438.637 269.125 439.254 269.363
 c 439.875 269.602 440.512 269.789 441.16 269.926 c 441.809 270.066 442.465
 270.148 443.117 270.176 c 443.77 270.203 444.418 270.176 445.051 270.086
 c 445.688 269.996 446.305 269.852 446.898 269.648 c 447.492 269.445 448.062
 269.184 448.594 268.867 c 449.129 268.551 449.625 268.18 450.082 267.766
 c 450.535 267.348 450.945 266.879 451.309 266.375 c 451.668 265.867 451.98
 265.32 452.238 264.746 c 452.492 264.168 452.695 263.559 452.844 262.934
 c 452.992 262.305 453.082 261.656 453.121 261 c 453.156 260.348 453.137
 259.684 453.062 259.023 c 452.992 258.363 452.867 257.711 452.699 257.07
 c 452.527 256.434 452.309 255.809 452.051 255.215 c 451.793 254.617 451.492
 254.051 451.164 253.52 c 450.836 252.988 450.473 252.496 450.094 252.051
 c 449.711 251.602 449.309 251.203 448.898 250.852 c 448.488 250.504 448.066
 250.207 447.648 249.969 c 447.23 249.727 446.812 249.547 446.41 249.422
 c 446.008 249.297 445.617 249.23 445.254 249.223 c 444.887 249.215 444.547
 249.262 444.242 249.367 c 443.938 249.469 443.664 249.629 443.434 249.836
 c 443.207 250.043 443.02 250.297 442.883 250.594 c 442.746 250.891 442.66
 251.23 442.625 251.602 c 442.59 251.969 442.609 252.371 442.688 252.793
 c 442.762 253.219 442.895 253.66 443.082 254.113 c 443.27 254.566 443.512
 255.027 443.805 255.488 c 444.102 255.945 444.449 256.402 444.844 256.844
 c 445.242 257.285 445.684 257.711 446.168 258.109 c 446.652 258.512 447.18
 258.883 447.734 259.223 c 448.293 259.559 448.883 259.859 449.492 260.113
 c 450.105 260.371 450.734 260.578 451.379 260.738 c 452.023 260.895 452.676
 261.004 453.332 261.051 c 453.984 261.102 454.637 261.098 455.277 261.031
 c 455.914 260.969 456.543 260.844 457.148 260.664 c 457.75 260.484 458.332
 260.246 458.879 259.949 c 459.426 259.656 459.938 259.309 460.41 258.91
 c 460.883 258.512 461.312 258.066 461.691 257.574 c 462.074 257.086 462.406
 256.555 462.684 255.988 c 462.965 255.426 463.188 254.828 463.359 254.211
 c 463.527 253.59 463.641 252.949 463.699 252.297 c 463.758 251.645 463.762
 250.984 463.711 250.324 c 463.66 249.664 463.559 249.004 463.406 248.359
 c 463.254 247.715 463.055 247.082 462.812 246.477 c 462.57 245.871 462.285
 245.289 461.969 244.746 c 461.652 244.199 461.305 243.691 460.93 243.227
 c 460.559 242.762 460.164 242.34 459.758 241.969 c 459.352 241.602 458.93
 241.281 458.512 241.02 c 458.094 240.758 457.676 240.551 457.266 240.402
 c 456.859 240.254 456.461 240.164 456.086 240.133 c 455.711 240.102 455.359
 240.129 455.043 240.211 c 454.723 240.293 454.434 240.43 454.188 240.617
 c 453.941 240.801 453.738 241.039 453.582 241.32 c 453.426 241.602 453.316
 241.922 453.262 242.281 c 453.207 242.637 453.203 243.027 453.258 243.441
 c 453.312 243.855 453.422 244.293 453.586 244.742 c 453.75 245.188 453.969
 245.648 454.242 246.109 c 454.52 246.57 454.844 247.027 455.223 247.477
 c 455.598 247.922 456.023 248.355 456.492 248.766 c 456.957 249.176 457.469
 249.562 458.012 249.914 c 458.555 250.266 459.133 250.582 459.734 250.855
 c 460.336 251.129 460.965 251.355 461.602 251.535 c 462.242 251.715 462.891
 251.844 463.547 251.914 c 464.199 251.988 464.852 252.004 465.496 251.965
 c 466.141 251.922 466.777 251.824 467.391 251.668 c 468 251.508 468.594
 251.293 469.152 251.023 c 469.715 250.75 470.242 250.422 470.73 250.047
 c 471.219 249.668 471.664 249.238 472.066 248.766 c 472.465 248.293 472.82
 247.777 473.121 247.227 c 473.418 246.676 473.668 246.09 473.859 245.48
 c 474.051 244.871 474.188 244.238 474.27 243.59 c 474.352 242.941 474.375
 242.285 474.348 241.621 c 474.316 240.961 474.234 240.301 474.102 239.652
 c 473.969 239 473.789 238.363 473.562 237.746 c 473.34 237.133 473.07 236.539
 472.766 235.98 c 472.465 235.422 472.125 234.895 471.766 234.414 c 471.402
 233.93 471.016 233.488 470.613 233.102 c 470.211 232.711 469.793 232.371
 469.375 232.086 c 468.957 231.801 468.535 231.57 468.125 231.398 c 467.711
 231.227 467.309 231.113 466.926 231.059 c 466.543 231.004 466.18 231.008
 465.848 231.066 c 465.516 231.125 465.215 231.242 464.953 231.41 c 464.691
 231.574 464.469 231.793 464.293 232.055 c 464.117 232.316 463.988 232.625
 463.914 232.969 c 463.836 233.312 463.812 233.691 463.844 234.094 c 463.875
 234.496 463.961 234.926 464.102 235.371 c 464.246 235.812 464.441 236.273
 464.695 236.73 c 464.945 237.191 465.254 237.652 465.609 238.102 c 465.965
 238.555 466.371 238.996 466.824 239.414 c 467.273 239.832 467.77 240.23
 468.297 240.598 c 468.828 240.961 469.395 241.293 469.984 241.582 c 470.578
 241.875 471.195 242.121 471.828 242.32 c 472.461 242.52 473.109 242.668
 473.762 242.766 c 474.414 242.859 475.066 242.898 475.715 242.883 c 476.363
 242.863 477.004 242.789 477.625 242.656 c 478.246 242.52 478.848 242.328
 479.422 242.078 c 479.992 241.832 480.535 241.523 481.039 241.168 c 481.543
 240.812 482.008 240.402 482.43 239.949 c 482.848 239.492 483.219 238.992
 483.543 238.457 c 483.863 237.922 484.133 237.348 484.348 236.746 c 484.562
 236.148 484.719 235.52 484.824 234.879 c 484.926 234.238 484.973 233.582
 484.969 232.922 c 484.961 232.262 484.898 231.602 484.785 230.945 c 484.676
 230.293 484.512 229.648 484.305 229.023 c 484.098 228.398 483.844 227.793
 483.555 227.223 c 483.27 226.648 482.941 226.109 482.59 225.609 c 482.238
 225.109 481.859 224.652 481.465 224.242 c S Q
12.664 82.54 m 12.664 82.657 l 12.602 82.677 l 12.602 82.759 l 12.539 82.77
 l 12.539 82.809 l 12.48 82.825 l 12.48 82.845 l 12.418 82.849 l 12.418 
82.864 l 12.355 82.864 l 12.047 82.864 10.812 81.579 10.258 80.63 c 9.582
 82.376 8.41 82.895 7.422 82.895 c 7.422 82.181 l 9.395 82.181 9.828 79.567
 9.828 79.349 c 9.828 79.145 8.164 72.067 8.039 71.938 c 7.609 71.036 5.883
 68.966 4.156 68.966 c 2.305 68.966 2.18 71.458 2.18 72.009 c 2.18 73.559
 3.105 77.075 3.598 78.431 c 4.523 80.825 6.129 82.181 7.422 82.181 c 7.422
 82.895 l 3.785 82.895 0.023 78.106 0.023 73.423 c 0.023 70.263 1.812 68.255
 4.031 68.255 c 5.387 68.255 6.559 69.024 7.668 70.192 c 7.422 69.063 6.375
 64.696 6.312 64.407 c 6.066 63.505 5.82 63.368 4.094 63.341 c 3.723 63.341
 3.414 63.341 3.414 62.692 c 3.414 62.661 3.414 62.337 3.785 62.337 c 4.77
 62.337 5.82 62.438 6.867 62.438 c 7.914 62.438 9.027 62.337 10.012 62.337
 c 10.195 62.337 10.566 62.337 10.566 62.985 c 10.566 63.341 10.258 63.341
 9.766 63.341 c 8.285 63.341 8.285 63.575 8.285 63.856 c 8.285 64.087 8.348
 64.282 8.41 64.567 c h
12.664 82.54 m f
150.051 20.235 m 150.051 20.352 l 149.988 20.372 l 149.988 20.458 l 149.926
 20.47 l 149.926 20.509 l 149.863 20.52 l 149.863 20.54 l 149.805 20.548
 l 149.805 20.559 l 149.742 20.559 l 149.434 20.559 148.199 19.274 147.645
 18.329 c 146.965 20.075 145.797 20.591 144.809 20.591 c 144.809 19.88 l
 146.781 19.88 147.215 17.263 147.215 17.044 c 147.215 16.841 145.547 9.767
 145.426 9.634 c 144.992 8.731 143.266 6.665 141.539 6.665 c 139.691 6.665
 139.566 9.153 139.566 9.708 c 139.566 11.259 140.492 14.774 140.984 16.13
 c 141.91 18.524 143.516 19.88 144.809 19.88 c 144.809 20.591 l 141.172 
20.591 137.41 15.806 137.41 11.122 c 137.41 7.962 139.199 5.95 141.418 5.95
 c 142.773 5.95 143.945 6.724 145.055 7.892 c 144.809 6.763 143.762 2.395
 143.699 2.102 c 143.453 1.2 143.207 1.063 141.48 1.04 c 141.109 1.04 140.801
 1.04 140.801 0.392 c 140.801 0.356 140.801 0.032 141.172 0.032 c 142.156
 0.032 143.207 0.138 144.254 0.138 c 145.301 0.138 146.41 0.032 147.398 
0.032 c 147.582 0.032 147.953 0.032 147.953 0.681 c 147.953 1.04 147.645
 1.04 147.152 1.04 c 145.672 1.04 145.672 1.274 145.672 1.552 c 145.672 
1.786 145.734 1.981 145.797 2.267 c h
150.051 20.235 m f
374.594 276.552 m 374.594 276.595 l 374.656 276.63 l 374.656 276.966 l 
374.723 277.009 l 374.723 277.177 l 374.723 277.778 374.336 278.13 373.762
 278.13 c 373.441 278.13 372.605 277.876 372.477 276.622 c 371.902 277.911
 370.746 278.825 369.527 278.825 c 369.527 278.052 l 371.645 278.052 372.094
 275.224 372.094 275.048 c 372.094 274.872 372.031 274.669 371.965 274.524
 c 370.426 267.849 l 370.297 266.938 369.527 266.075 368.824 265.399 c 368.184
 264.774 367.156 264.145 366.258 264.145 c 364.656 264.145 364.145 265.962
 364.145 267.352 c 364.145 269.044 365.105 273.161 365.938 274.942 c 366.836
 276.665 368.184 278.052 369.527 278.052 c 369.527 278.825 l 365.875 278.825
 361.898 273.934 361.898 268.903 c 361.898 265.434 363.824 263.372 366.133
 263.372 c 368.055 263.372 369.527 265.02 369.852 265.399 c 369.852 265.372
 l 369.207 262.255 368.824 260.817 368.824 260.755 c 368.695 260.431 367.605
 256.974 364.207 256.974 c 363.633 256.974 362.605 257.013 361.645 257.325
 c 362.605 257.638 362.988 258.552 362.988 259.142 c 362.988 259.704 362.605
 260.368 361.773 260.368 c 361.066 260.368 360.039 259.731 360.039 258.341
 c 360.039 256.903 361.195 256.2 364.273 256.2 c 368.246 256.2 370.617 258.931
 371.066 261.028 c h
374.594 276.552 m f
195.672 153.544 m 195.672 153.583 l 195.738 153.618 l 195.738 153.958 l
 195.801 153.997 l 195.801 154.169 l 195.801 154.77 195.418 155.122 194.84
 155.122 c 194.52 155.122 193.684 154.868 193.559 153.614 c 192.98 154.903
 191.824 155.817 190.609 155.817 c 190.609 155.044 l 192.723 155.044 193.172
 152.216 193.172 152.04 c 193.172 151.864 193.109 151.661 193.043 151.513
 c 191.504 144.841 l 191.379 143.927 190.609 143.067 189.902 142.392 c 189.262
 141.767 188.234 141.134 187.34 141.134 c 185.734 141.134 185.223 142.954
 185.223 144.341 c 185.223 146.032 186.184 150.153 187.016 151.934 c 187.914
 153.653 189.262 155.044 190.609 155.044 c 190.609 155.817 l 186.953 155.817
 182.977 150.927 182.977 145.892 c 182.977 142.427 184.902 140.364 187.211
 140.364 c 189.133 140.364 190.609 142.013 190.93 142.392 c 190.93 142.364
 l 190.289 139.247 189.902 137.809 189.902 137.747 c 189.773 137.423 188.684
 133.966 185.285 133.966 c 184.711 133.966 183.684 134.005 182.723 134.313
 c 183.684 134.63 184.066 135.544 184.066 136.134 c 184.066 136.692 183.684
 137.36 182.852 137.36 c 182.145 137.36 181.121 136.724 181.121 135.333 
c 181.121 133.895 182.273 133.192 185.352 133.192 c 189.324 133.192 191.699
 135.923 192.145 138.02 c h
195.672 153.544 m f
321.875 83.251 m 321.875 83.294 l 321.941 83.329 l 321.941 83.665 l 322.004
 83.708 l 322.004 83.876 l 322.004 84.481 321.621 84.829 321.043 84.829 
c 320.723 84.829 319.887 84.579 319.762 83.321 c 319.184 84.614 318.031 
85.524 316.812 85.524 c 316.812 84.755 l 318.926 84.755 319.375 81.927 319.375
 81.751 c 319.375 81.575 319.312 81.372 319.246 81.224 c 317.707 74.552 
l 317.582 73.638 316.812 72.774 316.105 72.102 c 315.465 71.477 314.438 
70.845 313.543 70.845 c 311.938 70.845 311.426 72.661 311.426 74.052 c 311.426
 75.743 312.387 79.864 313.223 81.645 c 314.117 83.364 315.465 84.755 316.812
 84.755 c 316.812 85.524 l 313.156 85.524 309.184 80.634 309.184 75.602 
c 309.184 72.138 311.105 70.071 313.414 70.071 c 315.336 70.071 316.812 
71.724 317.133 72.102 c 317.133 72.071 l 316.492 68.958 316.105 67.52 316.105
 67.454 c 315.977 67.134 314.887 63.673 311.488 63.673 c 310.914 63.673 
309.887 63.716 308.926 64.024 c 309.887 64.341 310.273 65.251 310.273 65.841
 c 310.273 66.403 309.887 67.071 309.055 67.071 c 308.348 67.071 307.324
 66.431 307.324 65.04 c 307.324 63.602 308.477 62.903 311.555 62.903 c 315.527
 62.903 317.902 65.63 318.352 67.727 c h
321.875 83.251 m f
521.566 67.278 m 521.566 67.317 l 521.629 67.352 l 521.629 67.692 l 521.695
 67.731 l 521.695 67.899 l 521.695 68.505 521.309 68.856 520.73 68.856 c
 520.41 68.856 519.578 68.602 519.449 67.349 c 518.871 68.638 517.719 69.552
 516.5 69.552 c 516.5 68.778 l 518.617 68.778 519.066 65.95 519.066 65.774
 c 519.066 65.599 519 65.395 518.938 65.247 c 517.398 58.575 l 517.27 57.661
 516.5 56.798 515.797 56.126 c 515.152 55.501 514.129 54.868 513.23 54.868
 c 511.629 54.868 511.113 56.688 511.113 58.075 c 511.113 59.767 512.078
 63.888 512.91 65.669 c 513.809 67.388 515.152 68.778 516.5 68.778 c 516.5
 69.552 l 512.848 69.552 508.871 64.661 508.871 59.626 c 508.871 56.161 
510.793 54.099 513.102 54.099 c 515.027 54.099 516.5 55.747 516.82 56.126
 c 516.82 56.099 l 516.18 52.981 515.797 51.544 515.797 51.481 c 515.668
 51.157 514.578 47.696 511.18 47.696 c 510.602 47.696 509.578 47.739 508.613
 48.048 c 509.578 48.364 509.961 49.278 509.961 49.868 c 509.961 50.427 
509.578 51.095 508.742 51.095 c 508.039 51.095 507.012 50.454 507.012 49.067
 c 507.012 47.63 508.168 46.927 511.242 46.927 c 515.219 46.927 517.59 49.657
 518.039 51.755 c h
521.566 67.278 m f
510.383 191.884 m 510.383 191.927 l 510.445 191.962 l 510.445 192.298 l
 510.512 192.341 l 510.512 192.509 l 510.512 193.11 510.125 193.462 509.551
 193.462 c 509.23 193.462 508.395 193.208 508.266 191.954 c 507.691 193.243
 506.535 194.157 505.316 194.157 c 505.316 193.384 l 507.434 193.384 507.883
 190.556 507.883 190.38 c 507.883 190.204 507.816 190.001 507.754 189.856
 c 506.215 183.181 l 506.086 182.27 505.316 181.407 504.613 180.731 c 503.973
 180.106 502.945 179.477 502.047 179.477 c 500.445 179.477 499.934 181.294
 499.934 182.684 c 499.934 184.376 500.895 188.493 501.727 190.274 c 502.625
 191.997 503.973 193.384 505.316 193.384 c 505.316 194.157 l 501.664 194.157
 497.688 189.267 497.688 184.235 c 497.688 180.767 499.613 178.704 501.922
 178.704 c 503.844 178.704 505.316 180.352 505.637 180.731 c 505.637 180.704
 l 504.996 177.587 504.613 176.149 504.613 176.087 c 504.484 175.763 503.395
 172.306 499.996 172.306 c 499.418 172.306 498.395 172.345 497.434 172.653
 c 498.395 172.97 498.777 173.884 498.777 174.474 c 498.777 175.032 498.395
 175.7 497.559 175.7 c 496.855 175.7 495.828 175.063 495.828 173.673 c 495.828
 172.235 496.984 171.532 500.062 171.532 c 504.035 171.532 506.406 174.263
 506.855 176.36 c h
510.383 191.884 m f
q 1 0 0 -1 0 416.801666 cm
106.168 307.309 m 106.637 307.719 107.148 308.102 107.691 308.453 c 108.234
 308.805 108.812 309.121 109.418 309.395 c 110.02 309.664 110.645 309.895
 111.285 310.07 c 111.922 310.25 112.574 310.379 113.227 310.449 c 113.879
 310.52 114.535 310.535 115.18 310.496 c 115.824 310.453 116.457 310.352
 117.07 310.195 c 117.684 310.035 118.273 309.82 118.832 309.547 c 119.391
 309.273 119.922 308.945 120.406 308.566 c 120.895 308.188 121.34 307.758
 121.742 307.285 c 122.141 306.812 122.492 306.297 122.793 305.746 c 123.09
 305.191 123.336 304.605 123.527 303.996 c 123.719 303.387 123.855 302.75
 123.934 302.105 c 124.016 301.457 124.039 300.797 124.008 300.137 c 123.98
 299.477 123.895 298.816 123.762 298.164 c 123.629 297.516 123.445 296.879
 123.223 296.262 c 122.996 295.648 122.727 295.055 122.422 294.496 c 122.121
 293.938 121.781 293.414 121.418 292.93 c 121.055 292.449 120.668 292.012
 120.266 291.621 c 119.863 291.23 119.449 290.895 119.027 290.609 c 118.609
 290.324 118.191 290.098 117.777 289.926 c 117.367 289.758 116.965 289.645
 116.582 289.59 c 116.199 289.535 115.836 289.539 115.504 289.602 c 115.172
 289.66 114.871 289.777 114.609 289.945 c 114.348 290.113 114.129 290.332
 113.953 290.594 c 113.777 290.859 113.648 291.164 113.574 291.508 c 113.5
 291.852 113.477 292.23 113.508 292.637 c 113.539 293.039 113.629 293.469
 113.77 293.914 c 113.914 294.359 114.113 294.816 114.367 295.273 c 114.617
 295.734 114.926 296.195 115.285 296.648 c 115.641 297.098 116.047 297.539
 116.5 297.957 c 116.949 298.375 117.445 298.773 117.977 299.137 c 118.508
 299.5 119.074 299.832 119.664 300.121 c 120.258 300.414 120.875 300.66 
121.508 300.859 c 122.141 301.055 122.789 301.203 123.441 301.301 c 124.094
 301.395 124.75 301.434 125.398 301.414 c 126.047 301.395 126.684 301.316
 127.305 301.184 c 127.926 301.047 128.527 300.855 129.102 300.605 c 129.672
 300.355 130.215 300.047 130.719 299.691 c 131.223 299.332 131.684 298.922
 132.105 298.469 c 132.523 298.012 132.895 297.512 133.215 296.973 c 133.535
 296.438 133.805 295.863 134.016 295.262 c 134.23 294.664 134.387 294.035
 134.488 293.395 c 134.594 292.754 134.641 292.098 134.629 291.438 c 134.621
 290.777 134.559 290.113 134.445 289.461 c 134.336 288.805 134.172 288.16
 133.961 287.539 c 133.754 286.914 133.5 286.309 133.211 285.738 c 132.922
 285.168 132.598 284.629 132.246 284.129 c 131.895 283.629 131.512 283.172
 131.117 282.762 c 130.723 282.355 130.309 281.992 129.891 281.688 c 129.477
 281.383 129.055 281.133 128.637 280.938 c 128.223 280.742 127.816 280.609
 127.426 280.531 c 127.035 280.453 126.664 280.434 126.32 280.473 c 125.977
 280.508 125.66 280.602 125.383 280.75 c 125.105 280.895 124.867 281.094
 124.672 281.34 c 124.48 281.586 124.332 281.875 124.234 282.203 c 124.141
 282.535 124.094 282.898 124.105 283.293 c 124.113 283.688 124.18 284.109
 124.301 284.547 c 124.422 284.984 124.598 285.438 124.828 285.895 c 125.059
 286.355 125.344 286.816 125.684 287.273 c 126.02 287.727 126.406 288.172
 126.84 288.602 c 127.273 289.027 127.754 289.434 128.27 289.812 c 128.785
 290.191 129.336 290.535 129.918 290.844 c 130.5 291.148 131.109 291.414
 131.734 291.633 c 132.363 291.852 133.008 292.02 133.656 292.137 c 134.309
 292.25 134.965 292.312 135.613 292.316 c 136.266 292.32 136.91 292.27 137.539
 292.156 c 138.164 292.047 138.777 291.875 139.359 291.648 c 139.941 291.422
 140.5 291.137 141.016 290.801 c 141.535 290.465 142.02 290.074 142.453 
289.637 c 142.891 289.199 143.281 288.715 143.625 288.195 c 143.965 287.672
 144.254 287.113 144.488 286.523 c 144.727 285.934 144.906 285.316 145.031
 284.68 c 145.156 284.047 145.223 283.395 145.238 282.734 c 145.254 282.078
 145.211 281.414 145.117 280.758 c 145.027 280.098 144.883 279.449 144.691
 278.816 c 144.504 278.184 144.266 277.57 143.992 276.988 c 143.719 276.402
 143.406 275.852 143.066 275.336 c 142.723 274.82 142.352 274.344 141.965
 273.914 c 141.574 273.488 141.168 273.105 140.754 272.777 c 140.34 272.453
 139.918 272.18 139.5 271.961 c 139.082 271.746 138.668 271.586 138.273 
271.484 c 137.875 271.383 137.492 271.34 137.141 271.355 c 136.785 271.371
 136.457 271.441 136.164 271.566 c 135.871 271.691 135.617 271.871 135.406
 272.098 c 135.195 272.324 135.027 272.598 134.91 272.91 c 134.793 273.223
 134.727 273.578 134.715 273.961 c 134.703 274.34 134.746 274.754 134.844
 275.184 c 134.941 275.613 135.098 276.062 135.305 276.52 c 135.516 276.977
 135.777 277.438 136.094 277.895 c 136.41 278.352 136.781 278.805 137.195
 279.238 c 137.609 279.676 138.07 280.09 138.57 280.48 c 139.07 280.871 
139.609 281.23 140.18 281.551 c 140.75 281.875 141.352 282.156 141.969 282.395
 c 142.59 282.633 143.227 282.82 143.875 282.957 c 144.523 283.094 145.176
 283.18 145.828 283.207 c 146.48 283.234 147.133 283.203 147.766 283.117
 c 148.398 283.027 149.02 282.883 149.613 282.68 c 150.207 282.473 150.777
 282.211 151.309 281.898 c 151.844 281.582 152.34 281.211 152.793 280.793
 c 153.25 280.379 153.66 279.91 154.02 279.406 c 154.383 278.898 154.695
 278.352 154.949 277.777 c 155.207 277.199 155.41 276.59 155.559 275.961
 c 155.707 275.336 155.797 274.688 155.832 274.031 c 155.871 273.379 155.852
 272.715 155.777 272.055 c 155.707 271.395 155.582 270.742 155.41 270.102
 c 155.242 269.461 155.023 268.84 154.766 268.246 c 154.504 267.648 154.207
 267.082 153.879 266.551 c 153.547 266.02 153.188 265.527 152.809 265.082
 c 152.426 264.633 152.023 264.23 151.613 263.883 c 151.203 263.535 150.781
 263.238 150.363 263 c 149.945 262.758 149.527 262.578 149.125 262.453 c
 148.723 262.328 148.332 262.262 147.969 262.254 c 147.602 262.242 147.262
 262.293 146.957 262.398 c 146.648 262.5 146.379 262.66 146.148 262.867 
c 145.922 263.074 145.734 263.328 145.598 263.625 c 145.461 263.922 145.375
 264.262 145.34 264.633 c 145.305 265 145.324 265.402 145.402 265.824 c 
145.477 266.25 145.609 266.691 145.797 267.145 c 145.98 267.598 146.223 
268.059 146.52 268.52 c 146.816 268.977 147.164 269.434 147.559 269.875 
c 147.957 270.316 148.398 270.742 148.883 271.141 c 149.367 271.543 149.891
 271.914 150.449 272.254 c 151.008 272.59 151.598 272.891 152.207 273.145
 c 152.816 273.398 153.449 273.609 154.094 273.77 c 154.738 273.926 155.391
 274.035 156.043 274.082 c 156.699 274.133 157.352 274.129 157.988 274.062
 c 158.629 274 159.258 273.875 159.859 273.695 c 160.465 273.516 161.047
 273.273 161.594 272.98 c 162.141 272.688 162.652 272.34 163.125 271.941
 c 163.598 271.543 164.027 271.098 164.406 270.605 c 164.789 270.117 165.121
 269.586 165.398 269.02 c 165.676 268.457 165.902 267.859 166.074 267.238
 c 166.242 266.621 166.355 265.98 166.414 265.328 c 166.473 264.676 166.477
 264.016 166.426 263.355 c 166.375 262.695 166.273 262.035 166.121 261.391
 c 165.969 260.746 165.766 260.113 165.527 259.508 c 165.285 258.902 165
 258.32 164.684 257.777 c 164.367 257.23 164.02 256.723 163.645 256.258 
c 163.273 255.793 162.879 255.371 162.473 255 c 162.062 254.633 161.645 
254.312 161.227 254.051 c 160.809 253.789 160.387 253.582 159.98 253.434
 c 159.57 253.285 159.176 253.195 158.801 253.164 c 158.426 253.133 158.074
 253.16 157.754 253.242 c 157.438 253.324 157.148 253.461 156.902 253.645
 c 156.656 253.832 156.453 254.07 156.297 254.352 c 156.141 254.633 156.031
 254.953 155.977 255.312 c 155.922 255.668 155.918 256.059 155.973 256.473
 c 156.027 256.887 156.133 257.324 156.301 257.773 c 156.465 258.219 156.684
 258.68 156.957 259.141 c 157.23 259.602 157.559 260.059 157.938 260.504
 c 158.312 260.953 158.738 261.387 159.203 261.797 c 159.672 262.207 160.184
 262.594 160.727 262.945 c 161.27 263.297 161.848 263.613 162.449 263.887
 c 163.051 264.156 163.676 264.387 164.316 264.566 c 164.953 264.746 165.605
 264.875 166.258 264.945 c 166.914 265.02 167.566 265.035 168.211 264.996
 c 168.855 264.953 169.488 264.855 170.102 264.695 c 170.715 264.539 171.309
 264.324 171.867 264.055 c 172.43 263.781 172.957 263.453 173.445 263.078
 c 173.934 262.699 174.379 262.27 174.781 261.797 c 175.18 261.324 175.535
 260.809 175.832 260.258 c 176.133 259.707 176.383 259.121 176.574 258.512
 c 176.766 257.902 176.902 257.27 176.984 256.621 c 177.062 255.973 177.09
 255.312 177.059 254.652 c 177.031 253.992 176.949 253.332 176.816 252.684
 c 176.684 252.031 176.504 251.395 176.277 250.777 c 176.051 250.164 175.785
 249.57 175.48 249.012 c 175.18 248.453 174.84 247.926 174.477 247.445 c
 174.117 246.961 173.727 246.52 173.328 246.129 c 172.926 245.742 172.508
 245.402 172.09 245.117 c 171.672 244.832 171.25 244.602 170.84 244.43 c
 170.426 244.258 170.023 244.145 169.641 244.09 c 169.258 244.035 168.895
 244.039 168.562 244.098 c 168.23 244.156 167.93 244.273 167.668 244.438
 c 167.406 244.605 167.184 244.824 167.008 245.086 c 166.832 245.348 166.703
 245.656 166.625 246 c 166.551 246.344 166.527 246.719 166.559 247.125 c
 166.59 247.527 166.676 247.957 166.816 248.402 c 166.957 248.844 167.156
 249.301 167.41 249.762 c 167.66 250.223 167.969 250.684 168.324 251.133
 c 168.68 251.586 169.086 252.027 169.539 252.445 c 169.988 252.863 170.48
 253.262 171.012 253.625 c 171.543 253.992 172.105 254.324 172.699 254.613
 c 173.289 254.906 173.91 255.152 174.543 255.352 c 175.176 255.551 175.824
 255.699 176.473 255.797 c 177.125 255.891 177.781 255.93 178.43 255.914
 c 179.078 255.895 179.719 255.82 180.34 255.684 c 180.961 255.551 181.562
 255.359 182.137 255.109 c 182.707 254.859 183.25 254.555 183.754 254.199
 c 184.258 253.844 184.723 253.434 185.145 252.977 c 185.562 252.523 185.934
 252.023 186.254 251.488 c 186.578 250.949 186.848 250.379 187.062 249.777
 c 187.273 249.18 187.434 248.551 187.539 247.91 c 187.641 247.27 187.688
 246.613 187.68 245.953 c 187.672 245.293 187.613 244.629 187.5 243.977 
c 187.387 243.324 187.227 242.676 187.02 242.055 c 186.812 241.43 186.559
 240.824 186.27 240.254 c 185.98 239.68 185.656 239.141 185.305 238.641 
c 184.953 238.141 184.574 237.684 184.18 237.273 c S Q
q 1 0 0 -1 0 416.801666 cm
76.879 105.816 m 76.574 106.355 76.297 106.934 76.062 107.539 c 75.828 
108.141 75.637 108.773 75.492 109.418 c 75.344 110.062 75.246 110.723 75.199
 111.383 c 75.156 112.043 75.16 112.707 75.223 113.363 c 75.281 114.016 
75.398 114.66 75.57 115.285 c 75.742 115.906 75.965 116.508 76.246 117.074
 c 76.523 117.645 76.855 118.18 77.234 118.672 c 77.613 119.164 78.039 119.617
 78.508 120.02 c 78.977 120.418 79.488 120.77 80.031 121.066 c 80.574 121.363
 81.152 121.605 81.754 121.785 c 82.355 121.969 82.977 122.094 83.613 122.156
 c 84.25 122.223 84.898 122.227 85.551 122.176 c 86.199 122.121 86.852 122.012
 87.492 121.852 c 88.133 121.688 88.762 121.473 89.371 121.215 c 89.984 
120.953 90.57 120.645 91.129 120.301 c 91.688 119.957 92.211 119.574 92.699
 119.164 c 93.184 118.754 93.629 118.316 94.027 117.863 c 94.43 117.414 
94.781 116.945 95.082 116.473 c 95.379 116 95.629 115.523 95.824 115.059
 c 96.016 114.59 96.156 114.133 96.238 113.695 c 96.324 113.258 96.352 112.84
 96.328 112.453 c 96.305 112.066 96.227 111.715 96.102 111.402 c 95.977 
111.09 95.801 110.816 95.586 110.594 c 95.371 110.371 95.109 110.199 94.816
 110.082 c 94.523 109.965 94.195 109.898 93.844 109.895 c 93.492 109.891
 93.117 109.945 92.727 110.055 c 92.336 110.168 91.934 110.34 91.527 110.57
 c 91.121 110.801 90.715 111.086 90.316 111.426 c 89.918 111.766 89.527 
112.16 89.156 112.602 c 88.785 113.043 88.438 113.531 88.117 114.055 c 87.797
 114.582 87.508 115.148 87.258 115.738 c 87.008 116.332 86.797 116.953 86.633
 117.594 c 86.469 118.23 86.348 118.887 86.281 119.547 c 86.215 120.207 
86.199 120.871 86.238 121.527 c 86.277 122.188 86.371 122.836 86.52 123.469
 c 86.668 124.098 86.871 124.711 87.129 125.289 c 87.387 125.871 87.699 
126.422 88.059 126.934 c 88.418 127.441 88.824 127.91 89.277 128.332 c 89.73
 128.754 90.223 129.125 90.754 129.445 c 91.285 129.762 91.848 130.027 92.441
 130.234 c 93.031 130.438 93.648 130.586 94.277 130.676 c 94.906 130.762
 95.555 130.793 96.203 130.762 c 96.852 130.734 97.504 130.648 98.148 130.508
 c 98.793 130.367 99.43 130.172 100.047 129.93 c 100.668 129.688 101.266
 129.398 101.836 129.066 c 102.402 128.738 102.945 128.371 103.445 127.973
 c 103.949 127.574 104.41 127.148 104.828 126.699 c 105.246 126.254 105.617
 125.793 105.941 125.32 c 106.262 124.852 106.531 124.375 106.746 123.906
 c 106.961 123.434 107.125 122.973 107.23 122.527 c 107.336 122.082 107.387
 121.652 107.383 121.254 c 107.383 120.855 107.324 120.488 107.219 120.16
 c 107.113 119.832 106.957 119.543 106.758 119.301 c 106.559 119.059 106.316
 118.863 106.039 118.723 c 105.758 118.582 105.445 118.496 105.102 118.469
 c 104.762 118.441 104.395 118.469 104.008 118.559 c 103.625 118.648 103.227
 118.797 102.82 119 c 102.418 119.207 102.008 119.473 101.605 119.789 c 
101.203 120.109 100.809 120.484 100.43 120.902 c 100.051 121.324 99.691 
121.797 99.359 122.305 c 99.031 122.816 98.727 123.367 98.461 123.949 c 
98.195 124.527 97.969 125.141 97.785 125.773 c 97.602 126.402 97.465 127.055
 97.375 127.711 c 97.289 128.367 97.254 129.035 97.27 129.695 c 97.285 130.352
 97.359 131.008 97.484 131.648 c 97.609 132.285 97.793 132.906 98.027 133.5
 c 98.266 134.09 98.555 134.656 98.895 135.184 c 99.234 135.707 99.621 136.195
 100.059 136.637 c 100.492 137.074 100.969 137.469 101.484 137.809 c 102
 138.148 102.555 138.434 103.133 138.664 c 103.715 138.895 104.32 139.062
 104.945 139.176 c 105.57 139.289 106.211 139.34 106.859 139.336 c 107.504
 139.332 108.16 139.266 108.805 139.148 c 109.453 139.031 110.094 138.855
 110.719 138.633 c 111.344 138.41 111.953 138.141 112.535 137.824 c 113.113
 137.512 113.668 137.16 114.184 136.773 c 114.703 136.387 115.184 135.969
 115.617 135.531 c 116.055 135.094 116.445 134.637 116.785 134.168 c 117.129
 133.703 117.418 133.227 117.656 132.754 c 117.895 132.281 118.078 131.812
 118.207 131.359 c 118.336 130.91 118.406 130.473 118.426 130.062 c 118.445
 129.652 118.41 129.27 118.324 128.926 c 118.238 128.582 118.105 128.277
 117.922 128.016 c 117.742 127.754 117.516 127.539 117.25 127.379 c 116.984
 127.215 116.684 127.109 116.352 127.055 c 116.023 127.004 115.664 127.012
 115.285 127.074 c 114.91 127.141 114.516 127.266 114.113 127.449 c 113.711
 127.629 113.301 127.871 112.898 128.168 c 112.492 128.465 112.094 128.816
 111.707 129.219 c 111.324 129.621 110.953 130.07 110.613 130.566 c 110.27
 131.059 109.953 131.594 109.676 132.164 c 109.395 132.73 109.148 133.332
 108.949 133.957 c 108.746 134.578 108.59 135.223 108.484 135.879 c 108.375
 136.531 108.316 137.195 108.312 137.855 c 108.309 138.52 108.359 139.18
 108.461 139.824 c 108.566 140.469 108.727 141.098 108.941 141.699 c 109.152
 142.305 109.422 142.883 109.742 143.422 c 110.059 143.965 110.43 144.469
 110.848 144.926 c 111.262 145.387 111.727 145.801 112.227 146.16 c 112.727
 146.523 113.266 146.832 113.832 147.082 c 114.402 147.336 115 147.531 115.617
 147.664 c 116.234 147.801 116.871 147.879 117.516 147.898 c 118.16 147.914
 118.812 147.875 119.461 147.777 c 120.109 147.68 120.758 147.527 121.387
 147.328 c 122.02 147.125 122.637 146.871 123.227 146.574 c 123.816 146.277
 124.383 145.938 124.914 145.566 c 125.445 145.195 125.941 144.789 126.395
 144.359 c 126.852 143.93 127.262 143.477 127.621 143.016 c 127.984 142.551
 128.297 142.078 128.555 141.602 c 128.812 141.129 129.02 140.66 129.168
 140.199 c 129.32 139.742 129.414 139.297 129.457 138.879 c 129.496 138.457
 129.484 138.062 129.418 137.703 c 129.355 137.344 129.238 137.02 129.074
 136.742 c 128.91 136.465 128.703 136.23 128.453 136.047 c 128.203 135.863
 127.914 135.734 127.598 135.66 c 127.277 135.586 126.93 135.566 126.559
 135.609 c 126.191 135.648 125.801 135.75 125.402 135.91 c 125.004 136.066
 124.598 136.285 124.191 136.559 c 123.785 136.832 123.379 137.164 122.988
 137.547 c 122.602 137.926 122.223 138.359 121.871 138.836 c 121.52 139.312
 121.191 139.832 120.895 140.387 c 120.602 140.941 120.34 141.531 120.121
 142.145 c 119.906 142.758 119.727 143.398 119.602 144.047 c 119.473 144.695
 119.395 145.359 119.371 146.02 c 119.344 146.684 119.371 147.344 119.453
 147.996 c 119.535 148.645 119.672 149.281 119.863 149.895 c 120.055 150.512
 120.305 151.102 120.602 151.656 c 120.898 152.211 121.25 152.73 121.648
 153.207 c 122.047 153.684 122.488 154.117 122.973 154.5 c 123.457 154.883
 123.984 155.211 124.539 155.488 c 125.098 155.762 125.684 155.98 126.293
 156.141 c 126.902 156.301 127.531 156.402 128.172 156.441 c 128.812 156.484
 129.465 156.469 130.113 156.395 c 130.766 156.32 131.414 156.188 132.051
 156.008 c 132.688 155.824 133.312 155.59 133.914 155.312 c 134.516 155.035
 135.094 154.711 135.637 154.352 c 136.184 153.992 136.695 153.598 137.164
 153.18 c 137.633 152.758 138.062 152.316 138.445 151.855 c 138.824 151.398
 139.16 150.926 139.438 150.453 c 139.719 149.98 139.945 149.508 140.117
 149.043 c 140.293 148.582 140.41 148.129 140.473 147.699 c 140.535 147.27
 140.543 146.863 140.5 146.488 c 140.453 146.117 140.359 145.777 140.215
 145.48 c 140.07 145.184 139.879 144.93 139.645 144.727 c 139.414 144.523
 139.141 144.371 138.832 144.273 c 138.527 144.176 138.188 144.137 137.828
 144.152 c 137.469 144.172 137.086 144.246 136.691 144.383 c 136.297 144.52
 135.891 144.715 135.484 144.965 c 135.078 145.215 134.672 145.523 134.273
 145.887 c 133.879 146.246 133.496 146.66 133.133 147.117 c 132.773 147.574
 132.434 148.078 132.125 148.621 c 131.816 149.16 131.543 149.738 131.309
 150.34 c 131.07 150.945 130.879 151.574 130.73 152.219 c 130.586 152.863
 130.484 153.523 130.438 154.184 c 130.391 154.844 130.398 155.508 130.457
 156.164 c 130.516 156.816 130.633 157.461 130.801 158.086 c 130.973 158.707
 131.195 159.309 131.473 159.879 c 131.75 160.449 132.082 160.984 132.461
 161.477 c 132.84 161.973 133.266 162.426 133.734 162.828 c 134.203 163.23
 134.711 163.582 135.254 163.879 c 135.797 164.176 136.375 164.418 136.973
 164.602 c 137.574 164.785 138.199 164.906 138.832 164.973 c 139.469 165.039
 140.117 165.047 140.77 164.996 c 141.418 164.945 142.07 164.836 142.711
 164.676 c 143.352 164.516 143.984 164.301 144.594 164.039 c 145.203 163.777
 145.793 163.473 146.352 163.129 c 146.91 162.785 147.434 162.402 147.922
 161.992 c 148.41 161.586 148.855 161.148 149.254 160.695 c 149.656 160.242
 150.008 159.777 150.309 159.305 c 150.609 158.832 150.859 158.355 151.055
 157.891 c 151.25 157.422 151.391 156.965 151.477 156.523 c 151.559 156.086
 151.59 155.668 151.566 155.285 c 151.543 154.898 151.469 154.543 151.344
 154.23 c 151.219 153.914 151.043 153.645 150.828 153.422 c 150.613 153.195
 150.355 153.023 150.062 152.902 c 149.77 152.785 149.441 152.719 149.09
 152.715 c 148.742 152.707 148.363 152.762 147.977 152.871 c 147.586 152.984
 147.184 153.156 146.777 153.383 c 146.371 153.613 145.961 153.898 145.562
 154.238 c 145.164 154.578 144.773 154.969 144.402 155.41 c 144.031 155.848
 143.684 156.336 143.363 156.863 c 143.043 157.387 142.754 157.949 142.5
 158.543 c 142.25 159.137 142.039 159.758 141.875 160.395 c 141.707 161.031
 141.59 161.688 141.52 162.348 c 141.453 163.008 141.438 163.672 141.477
 164.332 c 141.512 164.988 141.605 165.641 141.754 166.27 c 141.902 166.902
 142.105 167.512 142.359 168.094 c 142.617 168.676 142.926 169.227 143.285
 169.738 c 143.645 170.25 144.051 170.719 144.504 171.141 c 144.953 171.562
 145.449 171.938 145.977 172.254 c 146.508 172.574 147.07 172.84 147.66 
173.047 c 148.25 173.254 148.867 173.402 149.496 173.492 c 150.129 173.582
 150.773 173.609 151.422 173.582 c 152.07 173.555 152.723 173.469 153.371
 173.328 c 154.016 173.191 154.652 172.996 155.27 172.754 c 155.887 172.516
 156.488 172.227 157.055 171.895 c 157.625 171.566 158.168 171.199 158.668
 170.801 c 159.172 170.406 159.637 169.977 160.055 169.531 c 160.473 169.086
 160.848 168.621 161.168 168.152 c S Q
q 1 0 0 -1 0 416.801666 cm
305.383 98.5 m 305.473 99.117 305.609 99.742 305.793 100.363 c 305.977 
100.984 306.211 101.598 306.492 102.199 c 306.77 102.797 307.098 103.379
 307.465 103.93 c 307.836 104.48 308.246 105 308.695 105.48 c 309.145 105.961
 309.633 106.398 310.148 106.785 c 310.664 107.172 311.211 107.508 311.777
 107.789 c 312.348 108.066 312.938 108.285 313.539 108.445 c 314.141 108.602
 314.754 108.695 315.371 108.727 c 315.988 108.758 316.605 108.723 317.219
 108.621 c 317.828 108.523 318.434 108.359 319.02 108.137 c 319.605 107.914
 320.176 107.629 320.715 107.289 c 321.258 106.949 321.773 106.559 322.258
 106.117 c 322.738 105.68 323.188 105.195 323.594 104.672 c 324 104.152 
324.367 103.594 324.691 103.016 c 325.012 102.438 325.289 101.832 325.52
 101.219 c 325.746 100.605 325.93 99.98 326.062 99.359 c 326.195 98.738 
326.281 98.117 326.32 97.516 c 326.355 96.914 326.348 96.328 326.297 95.773
 c 326.246 95.215 326.148 94.688 326.016 94.199 c 325.883 93.711 325.711
 93.262 325.512 92.867 c 325.309 92.469 325.078 92.121 324.82 91.832 c 324.566
 91.539 324.289 91.309 323.996 91.137 c 323.707 90.969 323.402 90.859 323.094
 90.816 c 322.789 90.773 322.477 90.797 322.172 90.883 c 321.867 90.969 
321.57 91.117 321.289 91.332 c 321.008 91.543 320.746 91.816 320.508 92.145
 c 320.266 92.469 320.055 92.855 319.875 93.285 c 319.691 93.715 319.547
 94.191 319.438 94.703 c 319.332 95.219 319.266 95.77 319.242 96.344 c 319.219
 96.918 319.242 97.516 319.312 98.129 c 319.383 98.742 319.5 99.363 319.664
 99.984 c 319.832 100.609 320.043 101.227 320.305 101.832 c 320.566 102.438
 320.875 103.031 321.227 103.594 c 321.578 104.156 321.973 104.691 322.406
 105.184 c 322.84 105.68 323.312 106.137 323.816 106.547 c 324.32 106.953
 324.855 107.312 325.414 107.613 c 325.977 107.914 326.559 108.16 327.152
 108.34 c 327.75 108.523 328.363 108.645 328.977 108.699 c 329.594 108.758
 330.211 108.75 330.824 108.676 c 331.438 108.602 332.047 108.465 332.641
 108.266 c 333.234 108.066 333.809 107.805 334.363 107.488 c 334.914 107.172
 335.445 106.801 335.938 106.379 c 336.434 105.957 336.898 105.488 337.32
 104.984 c 337.742 104.477 338.129 103.934 338.469 103.363 c 338.809 102.793
 339.102 102.199 339.352 101.59 c 339.602 100.98 339.801 100.359 339.953
 99.734 c 340.105 99.113 340.211 98.492 340.27 97.883 c 340.324 97.273 340.336
 96.68 340.301 96.113 c 340.266 95.543 340.188 95.004 340.07 94.5 c 339.953
 93.996 339.797 93.531 339.605 93.113 c 339.418 92.695 339.195 92.328 338.949
 92.012 c 338.707 91.699 338.434 91.445 338.148 91.25 c 337.863 91.055 337.566
 90.922 337.258 90.852 c 336.953 90.781 336.641 90.777 336.336 90.836 c 
336.031 90.898 335.727 91.023 335.441 91.211 c 335.152 91.395 334.879 91.645
 334.633 91.949 c 334.383 92.254 334.156 92.617 333.965 93.027 c 333.77 
93.438 333.609 93.898 333.488 94.398 c 333.363 94.895 333.281 95.434 333.238
 95.996 c 333.199 96.562 333.203 97.152 333.254 97.758 c 333.305 98.367 
333.402 98.988 333.547 99.609 c 333.695 100.23 333.891 100.855 334.133 101.465
 c 334.371 102.074 334.664 102.676 334.996 103.246 c 335.328 103.82 335.707
 104.367 336.125 104.879 c 336.543 105.391 337.004 105.863 337.492 106.293
 c 337.984 106.719 338.508 107.098 339.059 107.422 c 339.605 107.746 340.184
 108.016 340.773 108.223 c 341.363 108.43 341.969 108.578 342.582 108.66
 c 343.195 108.742 343.816 108.758 344.43 108.711 c 345.047 108.664 345.66
 108.551 346.258 108.379 c 346.855 108.203 347.441 107.965 348.004 107.672
 c 348.566 107.379 349.105 107.027 349.613 106.625 c 350.121 106.227 350.598
 105.773 351.035 105.285 c 351.477 104.793 351.875 104.266 352.234 103.703
 c 352.594 103.145 352.906 102.559 353.172 101.957 c 353.441 101.352 353.66
 100.734 353.832 100.109 c 354.004 99.488 354.129 98.867 354.203 98.254 
c 354.281 97.641 354.309 97.035 354.293 96.457 c 354.277 95.879 354.215 
95.324 354.113 94.809 c 354.012 94.289 353.871 93.809 353.695 93.371 c 353.52
 92.934 353.309 92.543 353.074 92.211 c 352.84 91.875 352.578 91.594 352.297
 91.375 c 352.02 91.152 351.723 90.996 351.422 90.898 c 351.117 90.805 350.809
 90.773 350.5 90.809 c 350.191 90.844 349.887 90.941 349.594 91.105 c 349.301
 91.266 349.02 91.488 348.762 91.773 c 348.504 92.055 348.27 92.395 348.062
 92.785 c 347.855 93.176 347.68 93.617 347.543 94.102 c 347.406 94.582 347.305
 95.105 347.246 95.66 c 347.188 96.211 347.176 96.793 347.207 97.395 c 347.238
 97.996 347.316 98.613 347.445 99.234 c 347.57 99.852 347.746 100.477 347.969
 101.094 c 348.191 101.707 348.461 102.312 348.777 102.898 c 349.094 103.48
 349.453 104.039 349.855 104.566 c 350.258 105.09 350.703 105.582 351.18
 106.027 c 351.656 106.473 352.168 106.875 352.707 107.219 c 353.246 107.566
 353.812 107.859 354.395 108.09 c 354.98 108.32 355.582 108.492 356.191 
108.602 c 356.801 108.707 357.418 108.754 358.035 108.73 c 358.652 108.711
 359.27 108.625 359.871 108.477 c 360.477 108.324 361.066 108.113 361.637
 107.844 c 362.211 107.574 362.758 107.242 363.281 106.863 c 363.801 106.48
 364.289 106.051 364.746 105.578 c 365.199 105.102 365.617 104.586 365.992
 104.039 c 366.367 103.492 366.699 102.914 366.984 102.316 c 367.27 101.723
 367.508 101.105 367.703 100.488 c 367.895 99.867 368.035 99.242 368.133
 98.625 c 368.227 98.008 368.273 97.398 368.277 96.812 c 368.277 96.223 
368.234 95.656 368.148 95.125 c 368.062 94.594 367.938 94.094 367.777 93.641
 c 367.613 93.184 367.418 92.777 367.191 92.418 c 366.969 92.062 366.715
 91.758 366.441 91.516 c 366.172 91.27 365.883 91.086 365.582 90.965 c 365.281
 90.844 364.973 90.789 364.664 90.797 c 364.355 90.805 364.047 90.879 363.75
 91.012 c 363.453 91.148 363.168 91.352 362.898 91.609 c 362.633 91.867 
362.387 92.184 362.168 92.555 c 361.953 92.926 361.762 93.348 361.609 93.812
 c 361.457 94.277 361.34 94.785 361.266 95.328 c 361.191 95.867 361.156 
96.441 361.172 97.035 c 361.184 97.625 361.242 98.238 361.352 98.855 c 361.457
 99.477 361.613 100.102 361.816 100.719 c 362.02 101.34 362.273 101.949 
362.57 102.543 c 362.867 103.133 363.211 103.703 363.598 104.242 c 363.98
 104.781 364.41 105.289 364.871 105.754 c 365.336 106.215 365.836 106.637
 366.363 107.004 c 366.891 107.371 367.445 107.688 368.023 107.941 c 368.598
 108.199 369.195 108.395 369.801 108.527 c 370.406 108.66 371.023 108.73
 371.641 108.734 c 372.258 108.742 372.875 108.68 373.484 108.559 c 374.09
 108.434 374.688 108.246 375.27 108 c 375.848 107.754 376.406 107.445 376.938
 107.086 c 377.473 106.727 377.977 106.316 378.445 105.859 c 378.914 105.402
 379.344 104.902 379.738 104.367 c 380.129 103.832 380.48 103.266 380.785
 102.676 c 381.09 102.09 381.348 101.48 381.559 100.863 c 381.77 100.246
 381.93 99.617 382.047 99 c 382.16 98.379 382.227 97.766 382.246 97.168 
c 382.27 96.574 382.242 95.996 382.172 95.453 c 382.105 94.906 381.996 94.391
 381.848 93.922 c 381.699 93.449 381.516 93.02 381.301 92.641 c 381.09 92.262
 380.848 91.938 380.582 91.668 c 380.32 91.402 380.035 91.191 379.738 91.047
 c 379.445 90.898 379.137 90.816 378.828 90.797 c 378.52 90.781 378.211 
90.828 377.91 90.938 c 377.609 91.051 377.316 91.223 377.043 91.461 c 376.766
 91.695 376.512 91.988 376.281 92.336 c 376.055 92.688 375.852 93.09 375.684
 93.535 c 375.516 93.984 375.387 94.477 375.293 95.004 c 375.203 95.531 
375.152 96.094 375.148 96.676 c 375.141 97.262 375.184 97.867 375.27 98.484
 c 375.359 99.098 375.492 99.723 375.68 100.344 c 375.863 100.965 376.094
 101.582 376.375 102.18 c 376.652 102.781 376.977 103.363 377.348 103.914
 c 377.715 104.465 378.125 104.988 378.574 105.469 c 379.023 105.949 379.508
 106.387 380.023 106.773 c 380.539 107.164 381.086 107.5 381.652 107.781
 c 382.223 108.059 382.812 108.281 383.414 108.441 c 384.016 108.598 384.629
 108.695 385.246 108.727 c 385.863 108.758 386.48 108.723 387.094 108.625
 c 387.703 108.527 388.309 108.363 388.895 108.141 c 389.48 107.918 390.051
 107.637 390.59 107.297 c 391.133 106.961 391.652 106.566 392.133 106.129
 c 392.617 105.691 393.066 105.207 393.473 104.688 c 393.883 104.164 394.25
 103.609 394.57 103.031 c 394.895 102.449 395.172 101.848 395.402 101.234
 c 395.633 100.621 395.812 99.996 395.949 99.375 c 396.082 98.754 396.168
 98.133 396.207 97.531 c 396.246 96.93 396.238 96.344 396.188 95.785 c 396.137
 95.227 396.043 94.699 395.91 94.211 c 395.777 93.723 395.605 93.273 395.406
 92.875 c 395.203 92.477 394.973 92.129 394.719 91.84 c 394.465 91.547 394.188
 91.312 393.895 91.141 c 393.605 90.969 393.301 90.863 392.992 90.816 c 
392.688 90.773 392.375 90.793 392.07 90.879 c 391.766 90.965 391.469 91.113
 391.188 91.324 c 390.906 91.535 390.641 91.805 390.402 92.133 c 390.164
 92.461 389.949 92.844 389.77 93.27 c 389.586 93.699 389.441 94.176 389.332
 94.688 c 389.223 95.203 389.156 95.754 389.133 96.328 c 389.109 96.902 
389.133 97.5 389.199 98.113 c 389.27 98.723 389.387 99.348 389.551 99.969
 c 389.715 100.59 389.93 101.211 390.188 101.816 c 390.449 102.422 390.754
 103.012 391.105 103.578 c 391.457 104.141 391.852 104.676 392.285 105.172
 c 392.719 105.668 393.191 106.125 393.695 106.535 c 394.195 106.941 394.73
 107.301 395.289 107.605 c 395.848 107.906 396.434 108.152 397.027 108.336
 c 397.625 108.52 398.234 108.641 398.852 108.699 c 399.465 108.758 400.086
 108.75 400.699 108.676 c 401.312 108.605 401.922 108.469 402.516 108.27
 c 403.105 108.07 403.684 107.812 404.238 107.496 c 404.793 107.18 405.32
 106.809 405.816 106.391 c 406.312 105.969 406.773 105.5 407.199 104.996
 c 407.625 104.492 408.008 103.949 408.348 103.379 c 408.691 102.809 408.984
 102.215 409.234 101.605 c 409.484 100.996 409.688 100.375 409.84 99.75 
c 409.992 99.129 410.098 98.508 410.156 97.898 c 410.215 97.289 410.227 
96.695 410.191 96.125 c S Q
Q Q
showpage
%%Trailer
end restore
%%EOF
