%!PS-Adobe-3.0 EPSF-3.0
%%Creator: cairo 1.13.1 (http://cairographics.org)
%%CreationDate: Mon Aug  4 18:29:38 2014
%%Pages: 1
%%DocumentData: Clean7Bit
%%LanguageLevel: 2
%%BoundingBox: 0 -1 440 268
%%EndComments
%%BeginProlog
save
50 dict begin
/q { gsave } bind def
/Q { grestore } bind def
/cm { 6 array astore concat } bind def
/w { setlinewidth } bind def
/J { setlinecap } bind def
/j { setlinejoin } bind def
/M { setmiterlimit } bind def
/d { setdash } bind def
/m { moveto } bind def
/l { lineto } bind def
/c { curveto } bind def
/h { closepath } bind def
/re { exch dup neg 3 1 roll 5 3 roll moveto 0 rlineto
      0 exch rlineto 0 rlineto closepath } bind def
/S { stroke } bind def
/f { fill } bind def
/f* { eofill } bind def
/n { newpath } bind def
/W { clip } bind def
/W* { eoclip } bind def
/BT { } bind def
/ET { } bind def
/pdfmark where { pop globaldict /?pdfmark /exec load put }
    { globaldict begin /?pdfmark /pop load def /pdfmark
    /cleartomark load def end } ifelse
/BDC { mark 3 1 roll /BDC pdfmark } bind def
/EMC { mark /EMC pdfmark } bind def
/cairo_store_point { /cairo_point_y exch def /cairo_point_x exch def } def
/Tj { show currentpoint cairo_store_point } bind def
/TJ {
  {
    dup
    type /stringtype eq
    { show } { -0.001 mul 0 cairo_font_matrix dtransform rmoveto } ifelse
  } forall
  currentpoint cairo_store_point
} bind def
/cairo_selectfont { cairo_font_matrix aload pop pop pop 0 0 6 array astore
    cairo_font exch selectfont cairo_point_x cairo_point_y moveto } bind def
/Tf { pop /cairo_font exch def /cairo_font_matrix where
      { pop cairo_selectfont } if } bind def
/Td { matrix translate cairo_font_matrix matrix concatmatrix dup
      /cairo_font_matrix exch def dup 4 get exch 5 get cairo_store_point
      /cairo_font where { pop cairo_selectfont } if } bind def
/Tm { 2 copy 8 2 roll 6 array astore /cairo_font_matrix exch def
      cairo_store_point /cairo_font where { pop cairo_selectfont } if } bind def
/g { setgray } bind def
/rg { setrgbcolor } bind def
/d1 { setcachedevice } bind def
%%EndProlog
%%BeginSetup
%%EndSetup
%%Page: 1 1
%%BeginPageSetup
%%PageBoundingBox: 0 -1 440 268
%%EndPageSetup
q 0 -1 440 269 rectclip q
0 g
1.079126 w
0 J
0 j
[] 0.0 d
1.5 M q 1 0 0 -1 0 403.884399 cm
176.766 332.422 m 177.434 332.719 178.121 333.031 178.77 333.309 c 179.418
 333.586 180.027 333.828 180.551 333.992 c 181.074 334.156 181.512 334.242
 181.832 334.223 c 182.152 334.207 182.355 334.082 182.438 333.848 c 182.52
 333.613 182.48 333.27 182.34 332.832 c 182.195 332.395 181.949 331.867 
181.645 331.281 c 181.336 330.695 180.969 330.055 180.594 329.406 c 180.215
 328.758 179.832 328.105 179.496 327.492 c 179.16 326.879 178.871 326.312
 178.672 325.824 c 178.477 325.34 178.371 324.938 178.387 324.645 c 178.402
 324.348 178.539 324.164 178.793 324.086 c 179.047 324.008 179.426 324.039
 179.898 324.156 c 180.371 324.277 180.938 324.48 181.562 324.734 c 182.184
 324.992 182.859 325.293 183.535 325.594 c 184.211 325.895 184.883 326.195
 185.5 326.445 c 186.117 326.695 186.68 326.891 187.141 327 c 187.602 327.109
 187.965 327.129 188.211 327.043 c 188.453 326.953 188.574 326.754 188.574
 326.449 c 188.578 326.141 188.461 325.73 188.258 325.234 c 188.051 324.742
 187.754 324.164 187.41 323.547 c 187.07 322.93 186.684 322.273 186.309 
321.629 c 185.934 320.98 185.57 320.344 185.27 319.766 c 184.969 319.184
 184.734 318.664 184.602 318.238 c 184.469 317.809 184.441 317.477 184.539
 317.254 c 184.633 317.031 184.852 316.922 185.184 316.914 c 185.516 316.906
 185.965 317.004 186.496 317.176 c 187.031 317.348 187.645 317.598 188.297
 317.879 c 188.949 318.156 189.637 318.473 190.305 318.766 c 190.973 319.059
 191.621 319.336 192.195 319.547 c 192.77 319.758 193.273 319.902 193.668
 319.953 c 194.059 320 194.344 319.949 194.508 319.785 c 194.668 319.625
 194.707 319.352 194.633 318.977 c 194.562 318.602 194.375 318.129 194.113
 317.582 c 193.855 317.039 193.516 316.426 193.148 315.789 c 192.785 315.148
 192.395 314.488 192.031 313.852 c 191.668 313.219 191.336 312.609 191.086
 312.074 c 190.832 311.539 190.66 311.074 190.598 310.711 c 190.539 310.348
 190.594 310.09 190.77 309.938 c 190.945 309.789 191.242 309.75 191.648 
309.812 c 192.055 309.871 192.57 310.023 193.152 310.242 c 193.734 310.461
 194.387 310.742 195.059 311.039 c 195.727 311.336 196.414 311.648 197.062
 311.926 c 197.711 312.203 198.32 312.445 198.84 312.609 c 199.363 312.773
 199.801 312.855 200.121 312.836 c 200.438 312.816 200.641 312.691 200.723
 312.457 c 200.805 312.223 200.762 311.879 200.621 311.441 c 200.477 311.004
 200.23 310.473 199.922 309.887 c 199.617 309.301 199.246 308.66 198.871
 308.012 c 198.496 307.363 198.109 306.707 197.773 306.098 c 197.438 305.484
 197.148 304.918 196.953 304.43 c 196.758 303.945 196.656 303.547 196.672
 303.254 c 196.688 302.961 196.824 302.773 197.082 302.695 c 197.336 302.621
 197.715 302.652 198.188 302.773 c 198.66 302.891 199.23 303.098 199.855
 303.352 c 200.477 303.609 201.152 303.91 201.828 304.211 c 202.504 304.512
 203.176 304.812 203.793 305.062 c 204.41 305.309 204.969 305.508 205.43
 305.617 c 205.891 305.727 206.254 305.742 206.496 305.652 c 206.738 305.562
 206.855 305.363 206.859 305.059 c 206.859 304.75 206.742 304.336 206.535
 303.844 c 206.328 303.348 206.031 302.77 205.691 302.152 c 205.348 301.535
 204.961 300.879 204.586 300.23 c 204.211 299.586 203.848 298.949 203.547
 298.367 c 203.25 297.789 203.016 297.27 202.883 296.844 c 202.754 296.418
 202.727 296.086 202.824 295.863 c 202.918 295.645 203.137 295.535 203.473
 295.527 c 203.805 295.52 204.254 295.617 204.789 295.793 c 205.32 295.965
 205.938 296.215 206.59 296.496 c 207.242 296.777 207.93 297.09 208.598 
297.383 c 209.266 297.68 209.91 297.953 210.484 298.164 c 211.062 298.375
 211.562 298.52 211.953 298.566 c 212.348 298.613 212.633 298.559 212.793
 298.398 c 212.953 298.234 212.992 297.961 212.918 297.586 c 212.844 297.211
 212.656 296.734 212.395 296.191 c 212.133 295.645 211.793 295.031 211.43
 294.391 c 211.062 293.754 210.672 293.094 210.309 292.457 c 209.949 291.824
 209.617 291.215 209.363 290.68 c 209.113 290.145 208.941 289.68 208.883
 289.32 c 208.824 288.957 208.879 288.699 209.055 288.551 c 209.23 288.402
 209.531 288.367 209.938 288.426 c 210.348 288.484 210.859 288.641 211.445
 288.859 c 212.027 289.078 212.68 289.359 213.352 289.656 c 214.02 289.953
 214.707 290.266 215.355 290.543 c 216.004 290.82 216.609 291.059 217.133
 291.223 c 217.652 291.387 218.09 291.473 218.406 291.449 c 218.727 291.43
 218.926 291.305 219.008 291.066 c 219.086 290.832 219.043 290.484 218.902
 290.047 c 218.758 289.609 218.508 289.078 218.203 288.492 c 217.895 287.906
 217.523 287.266 217.148 286.617 c 216.773 285.969 216.387 285.312 216.051
 284.703 c 215.715 284.09 215.43 283.523 215.234 283.039 c 215.039 282.555
 214.938 282.152 214.957 281.863 c 214.973 281.57 215.109 281.387 215.367
 281.309 c 215.625 281.234 216.004 281.266 216.477 281.387 c 216.953 281.508
 217.523 281.715 218.145 281.969 c 218.77 282.227 219.445 282.527 220.121
 282.828 c 220.797 283.133 221.469 283.43 222.086 283.68 c 222.699 283.926
 223.262 284.125 223.723 284.23 c 224.18 284.34 224.543 284.355 224.781 
284.266 c 225.023 284.176 225.141 283.973 225.141 283.664 c 225.141 283.359
 225.023 282.945 224.816 282.449 c 224.609 281.953 224.312 281.375 223.969
 280.758 c 223.625 280.141 223.238 279.484 222.863 278.836 c 222.488 278.188
 222.125 277.551 221.828 276.973 c 221.527 276.395 221.293 275.875 221.164
 275.453 c 221.035 275.027 221.012 274.695 221.105 274.477 c 221.203 274.254
 221.426 274.145 221.758 274.141 c 222.094 274.133 222.543 274.234 223.078
 274.406 c 223.613 274.582 224.23 274.832 224.883 275.113 c 225.535 275.395
 226.223 275.707 226.891 276 c 227.559 276.297 228.203 276.57 228.777 276.781
 c 229.352 276.992 229.852 277.133 230.242 277.18 c 230.637 277.227 230.918
 277.172 231.078 277.008 c 231.238 276.844 231.273 276.57 231.199 276.195
 c 231.125 275.816 230.938 275.34 230.676 274.797 c 230.41 274.25 230.07
 273.633 229.707 272.996 c 229.34 272.359 228.949 271.695 228.586 271.062
 c 228.227 270.426 227.895 269.82 227.645 269.285 c 227.395 268.75 227.223
 268.289 227.164 267.926 c 227.105 267.566 227.16 267.309 227.34 267.16 
c 227.52 267.016 227.82 266.98 228.227 267.039 c 228.637 267.102 229.152
 267.258 229.734 267.477 c 230.32 267.695 230.973 267.977 231.645 268.273
 c 232.312 268.57 233 268.883 233.648 269.16 c 234.293 269.438 234.902 269.676
 235.422 269.84 c 235.945 270 236.379 270.086 236.695 270.062 c 237.012 
270.043 237.211 269.914 237.293 269.68 c 237.371 269.441 237.328 269.094
 237.184 268.656 c 237.035 268.215 236.789 267.684 236.48 267.098 c 236.172
 266.512 235.805 265.867 235.426 265.219 c 235.051 264.57 234.668 263.918
 234.332 263.305 c 233.996 262.695 233.707 262.129 233.516 261.645 c 233.32
 261.16 233.219 260.762 233.238 260.473 c 233.258 260.18 233.395 259.996
 233.652 259.922 c 233.914 259.848 234.293 259.883 234.766 260.004 c 235.242
 260.125 235.812 260.332 236.438 260.586 c 237.062 260.844 237.738 261.145
 238.414 261.449 c 239.09 261.75 239.762 262.047 240.375 262.297 c 240.992
 262.543 241.551 262.738 242.012 262.848 c 242.469 262.953 242.832 262.969
 243.07 262.879 c 243.309 262.785 243.426 262.582 243.426 262.273 c 243.426
 261.965 243.305 261.551 243.098 261.055 c 242.887 260.559 242.59 259.98
 242.246 259.363 c 241.902 258.742 241.516 258.086 241.141 257.441 c 240.766
 256.793 240.402 256.156 240.105 255.578 c 239.809 255 239.574 254.484 239.445
 254.059 c 239.316 253.633 239.293 253.305 239.391 253.086 c 239.492 252.867
 239.711 252.758 240.047 252.754 c 240.383 252.75 240.836 252.848 241.371
 253.023 c 241.906 253.199 242.523 253.449 243.176 253.73 c 243.828 254.012
 244.516 254.324 245.184 254.617 c 245.852 254.914 246.496 255.188 247.07
 255.398 c 247.641 255.605 248.141 255.75 248.531 255.793 c 248.922 255.84
 249.203 255.785 249.363 255.621 c 249.523 255.453 249.559 255.18 249.48
 254.801 c 249.406 254.426 249.219 253.949 248.953 253.402 c 248.691 252.855
 248.352 252.238 247.984 251.602 c 247.617 250.961 247.227 250.301 246.867
 249.668 c 246.504 249.031 246.176 248.426 245.922 247.891 c 245.672 247.355
 245.504 246.895 245.445 246.535 c 245.391 246.176 245.445 245.918 245.625
 245.773 c 245.805 245.629 246.109 245.594 246.516 245.652 c 246.926 245.715
 247.441 245.875 248.027 246.094 c 248.613 246.312 249.266 246.598 249.938
 246.895 c 250.605 247.191 251.293 247.5 251.941 247.777 c 252.586 248.055
 253.191 248.293 253.715 248.457 c 254.234 248.617 254.668 248.699 254.984
 248.676 c 255.301 248.656 255.5 248.527 255.574 248.289 c 255.652 248.051
 255.609 247.703 255.461 247.262 c 255.316 246.82 255.066 246.289 254.758
 245.703 c 254.449 245.113 254.082 244.473 253.703 243.824 c 253.328 243.176
 252.945 242.523 252.609 241.91 c 252.273 241.301 251.988 240.734 251.793
 240.25 c 251.602 239.77 251.504 239.371 251.523 239.082 c 251.543 238.789
 251.68 238.609 251.941 238.535 c 252.199 238.461 252.582 238.496 253.059
 238.617 c 253.535 238.738 254.105 238.949 254.73 239.203 c 255.355 239.461
 256.031 239.766 256.707 240.066 c 257.383 240.367 258.055 240.664 258.668
 240.914 c 259.285 241.16 259.84 241.355 260.301 241.461 c 260.758 241.566
 261.117 241.582 261.355 241.488 c 261.594 241.398 261.711 241.195 261.707
 240.883 c 261.707 240.574 261.586 240.16 261.379 239.66 c 261.168 239.164
 260.867 238.586 260.523 237.965 c 260.18 237.348 259.793 236.691 259.418
 236.043 c 259.047 235.398 258.684 234.762 258.387 234.184 c 258.086 233.609
 257.855 233.09 257.727 232.668 c 257.598 232.242 257.578 231.914 257.676
 231.695 c 257.777 231.477 258 231.371 258.336 231.367 c 258.672 231.363
 259.125 231.465 259.66 231.641 c 260.195 231.816 260.816 232.066 261.469
 232.348 c 262.121 232.629 262.809 232.941 263.477 233.238 c 264.145 233.531
 264.789 233.805 265.359 234.012 c 265.934 234.223 266.434 234.363 266.82
 234.41 c 267.211 234.453 267.492 234.398 267.648 234.23 c 267.805 234.066
 267.84 233.789 267.762 233.41 c 267.688 233.031 267.496 232.555 267.234
 232.008 c 266.969 231.461 266.629 230.844 266.262 230.203 c 265.895 229.566
 265.504 228.906 265.145 228.27 c S Q
2.063795 w
4 M q 1 0 0 -1 0 403.884399 cm
30.094 333.043 m 60.25 333.043 94.113 332.75 113.238 332.699 c 188 332.508
 178.152 332.301 178.152 332.301 c S Q
104.98 71.162 m 100.863 67.025 l 115.301 71.189 l 100.844 75.279 l h
104.98 71.162 m f*
1.031894 w
q -1 -0.00256134 -0.00256134 1 0 403.884399 cm
-104.128 -332.989 m -100 -337.116 l -114.448 -332.988 l -100.001 -328.862
 l h
-104.128 -332.989 m S Q
2.091074 w
q 1 0 0 -1 0 403.884399 cm
175.125 333.129 m 206.25 333.129 241.199 332.84 260.938 332.789 c 338.102
 332.602 327.938 332.395 327.938 332.395 c S Q
252.574 71.072 m 248.402 66.88 l 263.027 71.099 l 248.379 75.244 l h
252.574 71.072 m f*
1.045534 w
q -1 -0.00246848 -0.00246848 1 0 403.884399 cm
-251.751 -333.434 m -247.569 -337.615 l -262.204 -333.432 l -247.566 -329.252
 l h
-251.751 -333.434 m S Q
1.743284 w
1.5 M q 1 0 0 -1 0 403.884399 cm
29.629 372.789 m 326.902 372.789 l S Q
169.352 35.314 m 180.781 31.115 l 169.352 26.912 l 171.18 29.392 171.168
 32.787 169.352 35.314 c h
169.352 35.314 m f*
419.277 198.552 13.035 -0.98 re f
417.168 193.513 m 417.168 193.666 l 417.094 193.685 l 417.094 193.759 l
 417.023 193.767 l 417.023 193.806 l 416.949 193.814 l 416.949 193.83 l 
416.875 193.838 l 416.875 193.849 l 416.805 193.849 l 416.805 193.857 l 
416.73 193.865 l 415.855 193.865 413.234 193.615 412.289 193.545 c 411.996
 193.513 411.562 193.482 411.562 192.916 c 411.562 192.529 411.926 192.529
 412.434 192.529 c 414.184 192.529 414.254 192.31 414.254 191.994 c 414.254
 191.775 413.816 190.283 413.598 189.427 c 411.344 181.666 l 411.195 181.189
 410.977 180.298 410.977 180.236 c 410.977 179.884 411.344 179.853 411.562
 179.853 c 412.07 179.853 l 414.617 180.236 418.551 181.478 422.266 184.517
 c 427.07 188.412 428.09 192.732 428.09 193.005 c 428.09 193.545 427.652
 193.865 426.996 193.865 c 426.707 193.865 425.906 193.744 425.613 192.818
 c 423.285 185.619 417.75 182.076 413.598 180.896 c h
417.168 193.513 m f
432.676 180.095 m 433.039 180.095 l 433.188 180.103 l 433.258 180.103 l
 433.406 180.107 l 433.551 180.115 l 433.625 180.115 l 433.77 180.123 l 
433.914 180.134 l 434.059 180.142 l 434.133 180.146 l 434.426 180.173 l 
434.715 180.197 l 435.008 180.228 l 435.297 180.267 l 435.59 180.314 l 435.879
 180.365 l 436.027 180.388 l 436.316 180.451 l 436.465 180.482 l 436.754
 180.56 l 438.648 181.138 438.938 182.201 438.938 182.869 c 438.938 184.091
 437.555 184.818 435.809 184.818 c 435.809 184.201 l 436.898 184.201 437.918
 183.709 437.918 182.869 c 437.918 180.72 433.625 180.72 432.531 180.72 
c 431.293 180.72 l 432.312 183.931 435.078 184.201 435.809 184.201 c 435.809
 184.818 l 432.824 184.818 428.672 182.779 428.672 178.99 c 428.672 176.755
 430.273 174.83 433.258 174.83 c 437.555 174.83 439.52 177.009 439.52 177.33
 c 439.52 177.463 439.301 177.709 439.086 177.709 c 438.938 177.709 438.867
 177.658 438.719 177.482 c 436.68 175.439 433.77 175.439 433.258 175.439
 c 431.73 175.439 430.711 176.322 430.711 178.123 c 430.711 178.435 430.711
 178.88 431.074 180.095 c h
432.676 180.095 m f
9.047 89.224 m 9.047 89.353 l 8.977 89.361 l 8.977 89.439 l 8.91 89.451
 l 8.91 89.486 l 8.844 89.49 l 8.844 89.513 l 8.777 89.517 l 8.777 89.529
 l 8.707 89.529 l 8.707 89.537 l 8.641 89.541 l 7.828 89.541 5.391 89.306
 4.512 89.252 c 4.242 89.224 3.836 89.201 3.836 88.677 c 3.836 88.334 4.172
 88.334 4.648 88.334 c 6.27 88.334 6.34 88.134 6.34 87.845 c 6.34 87.634
 6.07 86.666 5.867 86.06 c 3.09 76.681 l 2.684 75.236 2.551 74.779 2.551
 73.775 c 2.551 71.045 4.375 69.252 6.879 69.252 c 6.879 69.888 l 5.73 69.888
 4.578 70.662 4.578 72.795 c 4.578 73.341 4.578 73.884 5.121 75.697 c 5.867
 78.349 l 6.07 78.986 6.07 79.037 6.406 79.353 c 8.031 81.22 9.586 81.654
 10.398 81.654 c 11.684 81.654 12.566 80.798 12.566 78.951 c 12.566 77.252
 11.414 73.947 10.805 72.845 c 9.723 70.927 8.168 69.888 6.879 69.888 c 
6.879 69.252 l 10.805 69.252 15 73.545 15 77.685 c 15 80.302 13.176 82.287
 10.469 82.287 c 8.977 82.287 7.559 81.455 6.543 80.56 c h
9.047 89.224 m f
339.363 17.88 m 339.312 17.892 l 339.312 18.025 l 339.266 18.037 l 339.266
 18.08 l 339.215 18.084 l 339.215 18.111 l 339.164 18.115 l 339.164 18.127
 l 339.117 18.127 l 339.117 18.13 l 338.82 18.13 337.828 17.142 337.434 
16.416 c 336.887 17.755 335.895 18.154 335.102 18.154 c 335.102 17.607 l
 336.738 17.607 337.086 15.595 337.086 15.427 c 337.086 15.271 335.699 9.83
 335.648 9.732 c 335.254 9.037 333.914 7.447 332.527 7.447 c 331.043 7.447
 330.941 9.361 330.941 9.787 c 330.941 10.978 331.637 13.681 332.082 14.724
 c 332.824 16.564 334.113 17.607 335.102 17.607 c 335.102 18.154 l 332.23
 18.154 329.16 14.474 329.16 10.873 c 329.16 8.443 330.645 6.896 332.43 
6.896 c 333.52 6.896 334.461 7.49 335.352 8.388 c 335.102 7.521 334.312 
4.166 334.211 3.939 c 334.012 3.248 333.816 3.142 332.477 3.123 c 332.133
 3.123 331.883 3.123 331.883 2.623 c 331.883 2.599 331.883 2.349 332.23 
2.349 c 333.023 2.349 333.863 2.427 334.707 2.427 c 335.5 2.427 336.391 
2.349 337.234 2.349 c 337.332 2.349 337.68 2.349 337.68 2.845 c 337.68 3.123
 337.434 3.123 337.035 3.123 c 335.848 3.123 335.848 3.302 335.848 3.517
 c 335.848 3.693 335.895 3.845 335.945 4.064 c h
339.363 17.88 m f
346.598 9.931 m 346.598 9.92 l 346.547 9.912 l 346.496 9.896 l 346.449 
9.88 l 346.449 9.865 l 346.398 9.849 l 346.348 9.83 l 346.301 9.81 l 346.301
 9.791 l 346.25 9.767 l 346.25 9.744 l 346.199 9.72 l 346.152 9.697 l 346.152
 9.67 l 346.102 9.646 l 346.102 9.615 l 346.051 9.591 l 346.051 9.533 l 
346.004 9.502 l 346.004 9.47 l 345.953 9.443 l 345.953 9.345 l 345.902 9.318
 l 345.902 9.123 l 345.902 8.716 346.25 8.56 346.449 8.56 c 346.645 8.56
 347.289 8.67 347.289 9.552 c 347.289 10.677 346.051 11.064 345.012 11.064
 c 342.336 11.064 341.84 9.068 341.84 8.529 c 341.84 7.88 342.188 7.47 342.434
 7.255 c 342.883 6.908 343.18 6.849 344.367 6.634 c 344.762 6.564 345.852
 6.353 345.852 5.49 c 345.852 5.193 345.656 4.529 344.914 4.095 c 344.27
 3.709 343.426 3.709 343.227 3.709 c 342.535 3.709 341.543 3.869 341.148
 4.443 c 341.691 4.513 342.09 4.943 342.09 5.435 c 342.09 5.869 341.793 
6.076 341.395 6.076 c 340.898 6.076 340.402 5.673 340.402 4.912 c 340.402
 3.869 341.492 3.232 343.18 3.232 c 346.348 3.232 346.941 5.42 346.941 6.099
 c 346.941 7.697 345.211 8.005 344.566 8.13 c 344.418 8.166 343.973 8.236
 343.871 8.263 c 343.227 8.388 342.93 8.752 342.93 9.138 c 342.93 9.537 
343.227 10.002 343.625 10.248 c 344.07 10.548 344.664 10.58 344.961 10.58
 c 345.359 10.58 346.25 10.525 346.598 9.931 c h
346.598 9.931 m f
349.816 1.279 m 349.816 1.236 l 349.766 1.189 l 349.766 1.041 l 349.719
 1.005 l 349.719 0.916 l 349.668 0.892 l 349.668 0.841 l 349.617 0.822 l
 349.617 0.783 l 349.57 0.767 l 349.57 0.752 l 349.52 0.736 l 349.52 0.728
 l 349.469 0.713 l 349.422 0.701 l 349.422 0.693 l 349.32 0.677 l 349.273
 0.673 l 349.273 0.666 l 349.223 0.666 l 349.172 0.662 l 349.121 0.662 l
 349.121 0.658 l 348.973 0.658 l 348.727 0.658 348.527 0.658 348.527 0.287
 c 348.527 0.095 348.676 0.025 348.727 0.025 c 349.172 0.025 349.766 0.095
 350.211 0.095 c 350.809 0.095 351.453 0.025 352.047 0.025 c 352.195 0.025
 352.391 0.08 352.391 0.408 c 352.391 0.658 352.145 0.658 351.945 0.658 
c 351.551 0.658 351.105 0.658 351.105 0.861 c 351.105 0.951 351.203 1.404
 351.301 1.658 c 351.5 2.584 351.75 3.525 351.898 4.248 c 352.145 3.904 
352.641 3.232 353.68 3.232 c 353.68 3.709 l 352.492 3.709 352.145 5.052 
352.145 5.228 c 352.145 5.295 352.195 5.42 352.195 5.49 c 353.086 8.982 
l 354.078 10.318 354.969 10.58 355.512 10.58 c 356.156 10.58 356.754 10.068
 356.754 8.892 c 356.754 8.177 356.355 6.408 355.859 5.396 c 355.414 4.548
 354.574 3.709 353.68 3.709 c 353.68 3.232 l 355.812 3.232 358.141 5.576
 358.141 8.166 c 358.141 10.193 356.754 11.064 355.562 11.064 c 354.473 
11.064 353.531 10.338 353.086 9.845 c 352.789 10.838 351.848 11.064 351.301
 11.064 c 350.66 11.064 350.211 10.607 349.965 10.138 c 349.617 9.552 349.32
 8.513 349.32 8.404 c 349.32 8.177 349.57 8.177 349.617 8.177 c 349.867 
8.177 349.867 8.236 350.016 8.697 c 350.262 9.716 350.609 10.58 351.254 
10.58 c 351.699 10.58 351.848 10.193 351.848 9.732 c 351.848 9.537 351.797
 9.306 351.797 9.209 c h
349.816 1.279 m f
10.234 28.72 m 10.188 28.732 l 10.188 28.865 l 10.137 28.877 l 10.137 28.92
 l 10.086 28.923 l 10.086 28.951 l 10.039 28.955 l 10.039 28.966 l 9.988
 28.966 l 9.988 28.97 l 9.691 28.97 8.699 27.982 8.305 27.255 c 7.758 28.595
 6.77 28.994 5.977 28.994 c 5.977 28.447 l 7.609 28.447 7.957 26.435 7.957
 26.267 c 7.957 26.111 6.57 20.67 6.52 20.568 c 6.125 19.877 4.785 18.287
 3.398 18.287 c 1.914 18.287 1.812 20.201 1.812 20.627 c 1.812 21.818 2.508
 24.521 2.953 25.564 c 3.695 27.404 4.984 28.447 5.977 28.447 c 5.977 28.994
 l 3.102 28.994 0.031 25.314 0.031 21.713 c 0.031 19.283 1.516 17.736 3.301
 17.736 c 4.391 17.736 5.332 18.33 6.223 19.228 c 5.977 18.361 5.184 15.002
 5.082 14.779 c 4.887 14.084 4.688 13.982 3.352 13.963 c 3.004 13.963 2.754
 13.963 2.754 13.463 c 2.754 13.435 2.754 13.189 3.102 13.189 c 3.895 13.189
 4.738 13.267 5.578 13.267 c 6.371 13.267 7.262 13.189 8.105 13.189 c 8.203
 13.189 8.551 13.189 8.551 13.685 c 8.551 13.963 8.305 13.963 7.906 13.963
 c 6.719 13.963 6.719 14.142 6.719 14.353 c 6.719 14.533 6.77 14.685 6.816
 14.904 c h
10.234 28.72 m f
17.469 20.771 m 17.469 20.759 l 17.418 20.748 l 17.371 20.736 l 17.32 20.72
 l 17.32 20.705 l 17.27 20.689 l 17.223 20.67 l 17.172 20.65 l 17.172 20.63
 l 17.121 20.603 l 17.121 20.584 l 17.074 20.56 l 17.023 20.537 l 17.023
 20.509 l 16.973 20.486 l 16.973 20.455 l 16.922 20.431 l 16.922 20.369 
l 16.875 20.341 l 16.875 20.31 l 16.824 20.279 l 16.824 20.185 l 16.773 
20.158 l 16.773 19.963 l 16.773 19.556 17.121 19.396 17.32 19.396 c 17.52
 19.396 18.164 19.509 18.164 20.392 c 18.164 21.517 16.922 21.9 15.883 21.9
 c 13.207 21.9 12.715 19.908 12.715 19.369 c 12.715 18.72 13.059 18.31 13.309
 18.095 c 13.754 17.748 14.051 17.685 15.238 17.474 c 15.637 17.404 16.727
 17.193 16.727 16.33 c 16.727 16.029 16.527 15.369 15.785 14.935 c 15.141
 14.548 14.297 14.548 14.102 14.548 c 13.406 14.548 12.414 14.709 12.02 
15.283 c 12.562 15.353 12.961 15.783 12.961 16.275 c 12.961 16.709 12.664
 16.912 12.266 16.912 c 11.773 16.912 11.277 16.513 11.277 15.752 c 11.277
 14.709 12.367 14.072 14.051 14.072 c 17.223 14.072 17.816 16.259 17.816
 16.939 c 17.816 18.533 16.082 18.845 15.438 18.97 c 15.289 19.005 14.844
 19.072 14.742 19.103 c 14.102 19.228 13.805 19.591 13.805 19.978 c 13.805
 20.377 14.102 20.838 14.496 21.088 c 14.941 21.388 15.535 21.42 15.832 
21.42 c 16.23 21.42 17.121 21.365 17.469 20.771 c h
17.469 20.771 m f
20.688 12.119 m 20.688 12.076 l 20.641 12.029 l 20.641 11.88 l 20.59 11.845
 l 20.59 11.755 l 20.539 11.732 l 20.539 11.681 l 20.492 11.662 l 20.492
 11.623 l 20.441 11.607 l 20.441 11.591 l 20.391 11.576 l 20.391 11.568 
l 20.344 11.552 l 20.293 11.541 l 20.293 11.533 l 20.242 11.525 l 20.195
 11.517 l 20.145 11.513 l 20.145 11.505 l 20.094 11.505 l 20.043 11.502 
l 19.996 11.502 l 19.996 11.498 l 19.848 11.498 l 19.598 11.498 19.402 11.498
 19.402 11.127 c 19.402 10.931 19.551 10.865 19.598 10.865 c 20.043 10.865
 20.641 10.931 21.086 10.931 c 21.68 10.931 22.324 10.865 22.918 10.865 
c 23.066 10.865 23.266 10.92 23.266 11.248 c 23.266 11.498 23.016 11.498
 22.82 11.498 c 22.422 11.498 21.977 11.498 21.977 11.701 c 21.977 11.791
 22.074 12.244 22.176 12.498 c 22.375 13.423 22.621 14.365 22.77 15.088 
c 23.016 14.744 23.512 14.072 24.555 14.072 c 24.555 14.548 l 23.363 14.548
 23.016 15.892 23.016 16.064 c 23.016 16.134 23.066 16.259 23.066 16.33 
c 23.957 19.822 l 24.949 21.158 25.84 21.42 26.387 21.42 c 27.031 21.42 
27.625 20.908 27.625 19.732 c 27.625 19.017 27.227 17.248 26.734 16.236 
c 26.285 15.388 25.445 14.548 24.555 14.548 c 24.555 14.072 l 26.684 14.072
 29.012 16.416 29.012 19.005 c 29.012 21.033 27.625 21.9 26.434 21.9 c 25.344
 21.9 24.402 21.177 23.957 20.685 c 23.66 21.677 22.719 21.9 22.176 21.9
 c 21.531 21.9 21.086 21.447 20.836 20.978 c 20.492 20.392 20.195 19.353
 20.195 19.244 c 20.195 19.017 20.441 19.017 20.492 19.017 c 20.738 19.017
 20.738 19.072 20.887 19.537 c 21.133 20.556 21.48 21.42 22.125 21.42 c 
22.57 21.42 22.719 21.033 22.719 20.568 c 22.719 20.377 22.672 20.146 22.672
 20.045 c h
20.688 12.119 m f
1.854382 w
4 M q 1 0 0 -1 0 403.884399 cm
383.605 223.285 m 359.895 223.531 333.273 224.113 318.242 224.32 c 259.465
 225.133 267.207 225.266 267.207 225.266 c S Q
325.656 179.666 m 329.316 183.427 l 316.387 179.541 l 329.418 176.009 l
 h
325.656 179.666 m f*
0.927102 w
q 1 0.0138318 0.0138318 -1 0 403.884399 cm
322.493 228.679 m 326.205 224.969 l 313.224 228.676 l 326.204 232.387 l
 h
322.493 228.679 m S Q
1.854382 w
q 1 0 0 -1 0 403.884399 cm
268.266 226.254 m 286.621 211.242 307.043 194.156 318.648 184.602 c 364.031
 147.238 357.902 151.977 357.902 151.977 c S Q
312.922 214.568 m 312.418 209.349 l 320.082 220.463 l 307.703 215.076 l
 h
312.922 214.568 m f*
0.71582 w
q -1 -0.823264 -0.823264 1 0 403.884399 cm
-93.615 -266.387 m -90.754 -269.25 l -100.775 -266.387 l -90.754 -263.523
 l h
-93.615 -266.387 m S Q
192.645 149.9 m 192.73 150.119 l 192.812 150.326 l 192.941 150.529 l 193.027
 150.724 l 193.109 150.822 l 193.195 151.002 l 193.281 151.091 l 193.32 
151.177 l 193.363 151.255 l 193.449 151.338 l 193.535 151.416 l 193.578 
151.486 l 193.66 151.56 l 193.746 151.623 l 193.789 151.689 l 193.871 151.752
 l 193.957 151.806 l 194.043 151.857 l 194.129 151.912 l 194.211 151.955
 l 194.34 151.998 l 194.422 152.033 l 194.551 152.064 l 194.637 152.095 
l 194.762 152.119 l 194.891 152.138 l 195.016 152.154 l 195.188 152.177 
195.398 152.177 195.398 152.689 c 195.398 152.783 195.312 152.974 195.145
 152.974 c 194.637 152.974 194.043 152.896 193.535 152.896 c 192.812 152.896
 192.008 152.974 191.332 152.974 c 191.203 152.974 190.906 152.974 190.906
 152.47 c 190.906 152.177 191.121 152.154 191.246 152.154 c 191.754 152.13
 192.477 151.912 192.477 151.123 c 192.477 150.83 192.391 150.619 192.223
 150.24 c 186.504 137.767 l 185.738 150.904 l 185.699 151.439 185.656 152.13
 187.223 152.154 c 187.562 152.154 187.773 152.154 187.773 152.689 c 187.773
 152.955 187.52 152.974 187.477 152.974 c 186.629 152.974 185.738 152.896
 184.895 152.896 c 184.383 152.896 183.156 152.974 182.648 152.974 c 182.562
 152.974 182.266 152.974 182.266 152.443 c 182.266 152.154 182.48 152.154
 182.773 152.154 c 183.707 152.154 183.836 151.998 183.875 151.49 c 184.004
 149.455 l 178.668 137.767 l 177.863 151.197 l 177.863 151.513 177.863 152.13
 179.473 152.154 c 179.684 152.154 179.938 152.154 179.938 152.689 c 179.938
 152.974 179.684 152.974 179.641 152.974 c 178.793 152.974 177.902 152.896
 177.059 152.896 c 176.293 152.896 175.531 152.974 174.812 152.974 c 174.727
 152.974 174.43 152.974 174.43 152.47 c 174.43 152.154 174.641 152.154 174.98
 152.154 c 176.039 152.154 176.039 151.912 176.082 151.17 c 177.059 134.978
 l 177.059 134.498 177.059 134.291 177.352 134.291 c 177.648 134.291 177.691
 134.447 177.863 134.845 c 184.09 148.361 l 184.852 134.978 l 184.895 134.423
 184.934 134.291 185.191 134.291 c 185.484 134.291 185.613 134.556 185.699
 134.791 c h
192.645 149.9 m f
207.129 149.978 m 207.301 149.978 l 207.344 149.986 l 207.387 149.99 l 
207.387 149.994 l 207.426 150.002 l 207.426 150.005 l 207.469 150.017 l 
207.512 150.021 l 207.512 150.033 l 207.555 150.045 l 207.555 150.06 l 207.598
 150.072 l 207.598 150.103 l 207.641 150.123 l 207.641 150.154 l 207.68 
150.166 l 207.68 150.263 l 207.723 150.279 l 207.723 150.427 l 207.723 150.884
 207.387 150.884 207.129 150.884 c 198.32 150.884 l 198.109 150.884 197.77
 150.884 197.77 150.443 c 197.77 149.978 198.066 149.978 198.32 149.978 
c h
207.129 149.978 m f
379.406 254.955 m 379.719 254.955 l 379.82 254.959 l 379.926 254.959 l 
380.027 254.966 l 380.133 254.974 l 380.289 254.982 l 380.391 254.99 l 380.496
 255.002 l 380.648 255.009 l 380.754 255.021 l 380.91 255.037 l 381.168 
255.072 l 381.426 255.119 l 381.738 255.177 l 381.996 255.24 l 382.309 255.314
 l 382.566 255.396 l 382.723 255.447 l 382.828 255.502 l 382.98 255.556 
l 383.086 255.615 l 383.242 255.673 l 383.344 255.744 l 385.16 256.787 385.262
 258.826 385.262 259.298 c 385.262 260.834 384.277 262.24 382.516 262.24
 c 382.516 261.478 l 383.707 261.478 384.434 260.486 384.434 259.298 c 384.434
 255.709 380.289 255.709 379.25 255.709 c 378.164 255.709 l 379.199 260.959
 381.844 261.478 382.516 261.478 c 382.516 262.24 l 379.664 262.24 375.777
 258.888 375.777 252.838 c 375.777 249.31 377.281 246.576 379.82 246.576
 c 383.5 246.576 385.676 250.248 385.676 250.658 c 385.676 250.865 385.523
 251.115 385.367 251.115 c 385.211 251.115 385.16 251.041 385.004 250.767
 c 382.98 247.341 380.184 247.341 379.871 247.341 c 377.852 247.341 377.594
 250.248 377.594 251.353 c 377.594 251.759 377.645 252.838 378.008 254.955
 c h
379.406 254.955 m f
399.98 266.67 m 400.188 266.67 l 400.242 266.677 l 400.293 266.677 l 400.293
 266.681 l 400.344 266.689 l 400.344 266.697 l 400.395 266.705 l 400.395
 266.716 l 400.449 266.724 l 400.449 266.74 l 400.5 266.752 l 400.5 266.771
 l 400.551 266.787 l 400.551 266.806 l 400.602 266.83 l 400.602 266.857 
l 400.656 266.884 l 400.656 266.959 l 400.707 266.982 l 400.707 267.252 
l 400.707 267.849 400.293 267.849 399.98 267.849 c 389.254 267.849 l 388.941
 267.849 388.527 267.849 388.527 267.271 c 388.527 266.67 388.941 266.67
 389.254 266.67 c h
399.98 266.67 m f
350.672 81.728 m 350.672 81.775 l 350.629 81.787 l 350.629 81.912 l 350.586
 81.923 l 350.586 81.97 l 350.539 81.978 l 350.539 82.002 l 350.496 82.009
 l 350.496 82.021 l 350.453 82.025 l 350.191 82.025 349.312 80.841 348.961
 79.966 c 348.48 81.576 347.602 82.056 346.898 82.056 c 346.898 81.396 l
 348.348 81.396 348.652 78.986 348.652 78.783 c 348.652 78.599 347.426 72.068
 347.383 71.951 c 347.031 71.119 345.848 69.209 344.617 69.209 c 343.301
 69.209 343.215 71.505 343.215 72.017 c 343.215 73.447 343.828 76.689 344.223
 77.939 c 344.883 80.146 346.023 81.396 346.898 81.396 c 346.898 82.056 
l 344.355 82.056 341.637 77.638 341.637 73.322 c 341.637 70.408 342.949 
68.552 344.531 68.552 c 345.496 68.552 346.328 69.263 347.117 70.341 c 346.898
 69.298 346.199 65.271 346.109 65.002 c 345.977 64.173 345.758 64.045 344.574
 64.021 c 344.266 64.021 344.047 64.021 344.047 63.423 c 344.047 63.392 
344.047 63.095 344.355 63.095 c 345.059 63.095 345.801 63.189 346.504 63.189
 c 347.25 63.189 348.039 63.095 348.785 63.095 c 348.875 63.095 349.18 63.095
 349.18 63.693 c 349.18 64.021 348.961 64.021 348.609 64.021 c 347.559 64.021
 347.559 64.236 347.559 64.494 c 347.559 64.709 347.602 64.888 347.645 65.154
 c h
350.672 81.728 m f
372.391 78.634 m 372.562 78.634 l 372.609 78.638 l 372.652 78.638 l 372.652
 78.646 l 372.695 78.65 l 372.738 78.658 l 372.738 78.662 l 372.785 78.67
 l 372.828 78.681 l 372.828 78.693 l 372.871 78.705 l 372.914 78.724 l 372.914
 78.736 l 372.961 78.752 l 372.961 78.779 l 373.004 78.802 l 373.004 78.826
 l 373.047 78.849 l 373.047 78.916 l 373.09 78.931 l 373.09 79.119 l 373.133
 79.142 l 373.133 79.22 l 373.133 79.818 372.695 79.818 372.391 79.818 c
 359.316 79.818 l 359.008 79.818 358.57 79.818 358.57 79.22 c 358.57 78.634
 359.008 78.634 359.316 78.634 c h
372.391 78.634 m f
372.391 72.849 m 372.562 72.849 l 372.609 72.853 l 372.652 72.853 l 372.652
 72.861 l 372.695 72.865 l 372.738 72.873 l 372.738 72.877 l 372.785 72.884
 l 372.828 72.896 l 372.828 72.908 l 372.871 72.92 l 372.914 72.939 l 372.914
 72.951 l 372.961 72.974 l 372.961 72.99 l 373.004 73.013 l 373.004 73.041
 l 373.047 73.068 l 373.047 73.13 l 373.09 73.146 l 373.09 73.338 l 373.133
 73.361 l 373.133 73.447 l 373.133 74.045 372.695 74.045 372.391 74.045 
c 359.316 74.045 l 359.008 74.045 358.57 74.045 358.57 73.447 c 358.57 72.849
 359.008 72.849 359.316 72.849 c h
372.391 72.849 m f
389.059 80.213 m 388.93 80.213 l 388.883 80.209 l 388.797 80.209 l 388.754
 80.201 l 388.707 80.189 l 388.664 80.181 l 388.621 80.177 l 388.621 80.17
 l 388.535 80.146 l 388.535 80.134 l 388.488 80.123 l 388.445 80.111 l 388.445
 80.095 l 388.359 80.056 l 388.359 80.033 l 388.312 80.009 l 388.27 79.986
 l 388.27 79.963 l 388.184 79.9 l 388.184 79.865 l 388.137 79.83 l 388.094
 79.795 l 387.742 79.345 387.699 78.838 387.699 78.634 c 387.699 77.916 
388.094 77.588 388.535 77.588 c 389.148 77.588 389.762 78.306 389.762 79.494
 c 389.762 80.951 388.707 82.056 387.172 82.056 c 384.234 82.056 381.293
 77.791 381.293 73.595 c 381.293 70.908 382.566 68.552 384.848 68.552 c 
387.965 68.552 389.805 71.716 389.805 72.068 c 389.805 72.248 389.676 72.466
 389.543 72.466 c 389.453 72.466 389.41 72.4 389.277 72.166 c 387.523 69.209
 385.156 69.209 384.891 69.209 c 383.531 69.209 382.918 70.67 382.918 72.466
 c 382.918 73.677 383.355 76.576 384.102 78.42 c 384.805 80.119 385.988 
81.396 387.172 81.396 c 387.918 81.396 388.754 81.013 389.059 80.213 c h
389.059 80.213 m f
394.324 68.912 m 394.324 69.443 l 394.281 69.611 l 394.281 69.935 l 394.238
 70.084 l 394.238 70.232 l 394.191 70.369 l 394.191 70.509 l 394.105 70.767
 l 394.062 70.884 l 394.016 71.005 l 393.973 71.111 l 393.887 71.314 l 393.844
 71.404 l 393.797 71.49 l 393.754 71.572 l 393.711 71.646 l 393.621 71.713
 l 393.578 71.775 l 393.492 71.83 l 393.445 71.877 l 393.359 71.92 l 393.316
 71.955 l 393.227 71.986 l 393.141 72.009 l 393.098 72.029 l 393.008 72.041
 l 392.922 72.041 l 392.219 72.041 391.781 71.291 391.781 70.459 c 391.781
 69.658 392.219 68.88 392.922 68.88 c 393.184 68.88 393.492 69.002 393.711
 69.263 c 393.754 69.33 393.797 69.361 393.797 69.361 c 393.844 69.361 393.844
 69.33 393.844 68.912 c 393.844 66.701 393.098 64.92 392.352 63.939 c 392.133
 63.611 392.133 63.545 392.133 63.459 c 392.133 63.244 392.219 63.13 392.352
 63.13 c 392.57 63.13 394.324 65.423 394.324 68.912 c h
394.324 68.912 m f
407.223 70.556 m 407.266 70.443 l 407.266 70.33 l 407.309 70.22 l 407.355
 70.119 l 407.398 70.017 l 407.398 69.916 l 407.441 69.818 l 407.484 69.724
 l 407.531 69.634 l 407.617 69.552 l 407.66 69.466 l 407.707 69.384 l 407.75
 69.306 l 407.836 69.232 l 407.879 69.162 l 407.926 69.095 l 408.012 69.029
 l 408.055 68.97 l 408.145 68.916 l 408.188 68.861 l 408.277 68.814 l 408.363
 68.771 l 408.449 68.732 l 408.496 68.697 l 408.582 68.666 l 408.672 68.634
 l 408.758 68.611 l 408.848 68.588 l 409.02 68.564 l 409.109 68.556 l 409.195
 68.552 l 409.941 68.552 410.426 69.24 410.777 70.189 c 411.172 71.267 411.434
 73.088 411.434 73.146 c 411.434 73.447 411.258 73.447 411.172 73.447 c 
410.953 73.447 410.953 73.322 410.863 72.9 c 410.559 71.24 410.164 69.209
 409.242 69.209 c 408.758 69.209 408.582 69.599 408.582 70.588 c 408.582
 71.24 408.801 72.638 408.977 73.677 c 409.637 76.904 l 409.68 77.353 409.898
 78.482 409.988 78.931 c 410.074 79.615 410.293 80.744 410.293 80.923 c 
410.293 81.463 409.988 81.728 409.68 81.728 c 409.547 81.728 408.977 81.697
 408.801 80.693 c 408.406 78.513 407.441 73.295 407.18 71.716 c 407.18 71.591
 406.301 69.209 404.68 69.209 c 403.539 69.209 403.316 70.556 403.316 71.658
 c 403.316 73.322 403.934 75.677 404.504 77.736 c 404.766 78.634 404.898
 79.045 404.898 79.615 c 404.898 80.951 404.195 82.056 403.098 82.056 c 
401.035 82.056 400.203 77.736 400.203 77.466 c 400.203 77.166 400.422 77.166
 400.465 77.166 c 400.688 77.166 400.73 77.228 400.816 77.705 c 401.344 
80.298 402.223 81.396 403.055 81.396 c 403.23 81.396 403.582 81.373 403.582
 80.416 c 403.582 79.697 403.316 78.838 403.188 78.388 c 402.398 75.431 
401.914 73.595 401.914 72.134 c 401.914 69.298 403.449 68.552 404.633 68.552
 c 406.082 68.552 406.871 69.892 407.223 70.556 c h
407.223 70.556 m f
Q Q
showpage
%%Trailer
end restore
%%EOF
