%!PS-Adobe-3.0 EPSF-3.0
%%Creator: cairo 1.13.1 (http://cairographics.org)
%%CreationDate: Fri Aug  1 02:42:41 2014
%%Pages: 1
%%DocumentData: Clean7Bit
%%LanguageLevel: 2
%%BoundingBox: 0 -1 255 175
%%EndComments
%%BeginProlog
save
50 dict begin
/q { gsave } bind def
/Q { grestore } bind def
/cm { 6 array astore concat } bind def
/w { setlinewidth } bind def
/J { setlinecap } bind def
/j { setlinejoin } bind def
/M { setmiterlimit } bind def
/d { setdash } bind def
/m { moveto } bind def
/l { lineto } bind def
/c { curveto } bind def
/h { closepath } bind def
/re { exch dup neg 3 1 roll 5 3 roll moveto 0 rlineto
      0 exch rlineto 0 rlineto closepath } bind def
/S { stroke } bind def
/f { fill } bind def
/f* { eofill } bind def
/n { newpath } bind def
/W { clip } bind def
/W* { eoclip } bind def
/BT { } bind def
/ET { } bind def
/pdfmark where { pop globaldict /?pdfmark /exec load put }
    { globaldict begin /?pdfmark /pop load def /pdfmark
    /cleartomark load def end } ifelse
/BDC { mark 3 1 roll /BDC pdfmark } bind def
/EMC { mark /EMC pdfmark } bind def
/cairo_store_point { /cairo_point_y exch def /cairo_point_x exch def } def
/Tj { show currentpoint cairo_store_point } bind def
/TJ {
  {
    dup
    type /stringtype eq
    { show } { -0.001 mul 0 cairo_font_matrix dtransform rmoveto } ifelse
  } forall
  currentpoint cairo_store_point
} bind def
/cairo_selectfont { cairo_font_matrix aload pop pop pop 0 0 6 array astore
    cairo_font exch selectfont cairo_point_x cairo_point_y moveto } bind def
/Tf { pop /cairo_font exch def /cairo_font_matrix where
      { pop cairo_selectfont } if } bind def
/Td { matrix translate cairo_font_matrix matrix concatmatrix dup
      /cairo_font_matrix exch def dup 4 get exch 5 get cairo_store_point
      /cairo_font where { pop cairo_selectfont } if } bind def
/Tm { 2 copy 8 2 roll 6 array astore /cairo_font_matrix exch def
      cairo_store_point /cairo_font where { pop cairo_selectfont } if } bind def
/g { setgray } bind def
/rg { setrgbcolor } bind def
/d1 { setcachedevice } bind def
%%EndProlog
%%BeginSetup
%%EndSetup
%%Page: 1 1
%%BeginPageSetup
%%PageBoundingBox: 0 -1 255 175
%%EndPageSetup
q 0 -1 255 176 rectclip q
0 g
2.220203 w
0 J
0 j
[] 0.0 d
4 M q 1 0 0 -1 0 174.542252 cm
110.875 115.461 m 110.816 99.32 111.383 81.344 111.449 71.137 c 111.719
 31.223 112.188 36.594 112.188 36.594 c S Q
111.391 94.527 m 115.801 90.054 l 111.465 105.628 l 106.922 90.116 l h
111.391 94.527 m f*
1.110076 w
q -0.00669695 -1 -1 0.00669695 0 174.542252 cm
79.266 -111.921 m 83.709 -116.361 l 68.165 -111.921 l 83.706 -107.482 l
 h
79.266 -111.921 m S Q
2.414916 w
1.5 M q 1 0 0 -1 0 174.542252 cm
114.422 70.945 m 114.5 71.293 114.574 71.66 114.648 72.035 c 114.719 72.41
 114.793 72.793 114.863 73.18 c 114.934 73.566 115.008 73.949 115.078 74.328
 c 115.152 74.707 115.227 75.078 115.301 75.434 c 115.379 75.789 115.461
 76.129 115.543 76.445 c 115.629 76.762 115.715 77.059 115.809 77.324 c 
115.902 77.586 116 77.824 116.105 78.023 c 116.211 78.227 116.324 78.391
 116.441 78.52 c 116.559 78.648 116.684 78.738 116.816 78.789 c 116.949 
78.84 117.09 78.852 117.238 78.824 c 117.383 78.793 117.539 78.723 117.699
 78.617 c 117.863 78.508 118.031 78.363 118.207 78.18 c 118.383 78 118.562
 77.781 118.75 77.535 c 118.938 77.289 119.129 77.008 119.328 76.707 c 119.523
 76.406 119.727 76.078 119.93 75.734 c 120.137 75.391 120.344 75.031 120.551
 74.66 c 120.762 74.289 120.973 73.91 121.184 73.531 c 121.395 73.152 121.605
 72.77 121.816 72.398 c 122.027 72.023 122.234 71.656 122.441 71.309 c 122.648
 70.957 122.852 70.625 123.051 70.312 c 123.25 70 123.445 69.711 123.633
 69.453 c 123.82 69.191 124.008 68.965 124.184 68.766 c 124.359 68.57 124.531
 68.41 124.695 68.289 c 124.859 68.164 125.02 68.078 125.168 68.035 c 125.32
 67.988 125.461 67.984 125.598 68.02 c 125.734 68.055 125.859 68.129 125.98
 68.242 c 126.102 68.355 126.219 68.508 126.324 68.695 c 126.434 68.883 
126.535 69.105 126.629 69.359 c 126.727 69.609 126.816 69.895 126.902 70.203
 c 126.988 70.508 127.066 70.84 127.145 71.191 c 127.223 71.539 127.301 
71.906 127.371 72.281 c 127.445 72.656 127.516 73.039 127.59 73.426 c 127.66
 73.812 127.73 74.195 127.805 74.574 c 127.875 74.953 127.949 75.324 128.027
 75.68 c 128.105 76.035 128.184 76.375 128.27 76.691 c 128.352 77.004 128.441
 77.301 128.535 77.562 c 128.629 77.828 128.727 78.062 128.832 78.262 c 
128.938 78.461 129.051 78.625 129.168 78.754 c 129.285 78.883 129.414 78.973
 129.547 79.02 c 129.68 79.07 129.816 79.082 129.965 79.051 c 130.113 79.02
 130.27 78.949 130.43 78.84 c 130.59 78.73 130.762 78.582 130.938 78.402
 c 131.109 78.219 131.293 78 131.48 77.75 c 131.668 77.504 131.859 77.223
 132.059 76.922 c 132.254 76.617 132.457 76.293 132.66 75.949 c 132.867 
75.602 133.074 75.242 133.285 74.871 c 133.492 74.5 133.703 74.121 133.914
 73.742 c 134.129 73.363 134.34 72.98 134.547 72.609 c 134.758 72.234 134.969
 71.871 135.172 71.52 c 135.379 71.172 135.582 70.836 135.781 70.527 c 135.98
 70.215 136.176 69.926 136.363 69.668 c 136.551 69.41 136.734 69.18 136.914
 68.988 c 137.09 68.793 137.262 68.633 137.426 68.512 c 137.59 68.391 137.75
 68.305 137.898 68.262 c 138.047 68.219 138.191 68.215 138.324 68.25 c 138.461
 68.285 138.59 68.363 138.711 68.477 c 138.832 68.59 138.945 68.746 139.051
 68.934 c 139.16 69.121 139.262 69.344 139.355 69.598 c 139.453 69.852 139.543
 70.137 139.629 70.445 c 139.711 70.754 139.793 71.086 139.871 71.434 c 
139.949 71.785 140.023 72.152 140.098 72.527 c 140.172 72.902 140.242 73.285
 140.312 73.672 c 140.387 74.059 140.457 74.441 140.531 74.82 c 140.602 
75.199 140.676 75.57 140.754 75.926 c 140.832 76.277 140.91 76.617 140.996
 76.934 c 141.078 77.25 141.168 77.539 141.262 77.805 c 141.355 78.066 141.453
 78.301 141.559 78.5 c 141.664 78.699 141.777 78.863 141.895 78.988 c 142.016
 79.113 142.141 79.203 142.273 79.25 c 142.406 79.301 142.547 79.309 142.695
 79.277 c 142.844 79.246 142.996 79.172 143.16 79.062 c 143.32 78.953 143.492
 78.805 143.668 78.621 c 143.844 78.438 144.023 78.219 144.211 77.969 c 
144.398 77.719 144.594 77.438 144.789 77.137 c 144.988 76.832 145.188 76.504
 145.395 76.16 c 145.598 75.816 145.805 75.453 146.016 75.082 c 146.227 
74.711 146.438 74.332 146.648 73.953 c 146.859 73.57 147.07 73.191 147.281
 72.82 c 147.492 72.445 147.699 72.082 147.906 71.73 c 148.109 71.383 148.312
 71.051 148.512 70.738 c 148.711 70.43 148.906 70.141 149.094 69.883 c 149.285
 69.625 149.469 69.398 149.645 69.207 c 149.82 69.012 149.992 68.855 150.156
 68.734 c 150.32 68.613 150.477 68.531 150.625 68.488 c 150.777 68.445 150.918
 68.441 151.055 68.48 c 151.188 68.516 151.316 68.594 151.438 68.707 c 151.559
 68.824 151.672 68.98 151.781 69.168 c 151.887 69.359 151.988 69.582 152.082
 69.836 c 152.18 70.094 152.27 70.379 152.355 70.688 c 152.438 70.996 152.52
 71.328 152.598 71.68 c 152.676 72.027 152.75 72.395 152.824 72.77 c 152.898
 73.148 152.969 73.531 153.039 73.918 c 153.113 74.301 153.184 74.688 153.258
 75.066 c 153.328 75.441 153.402 75.812 153.48 76.168 c 153.559 76.52 153.637
 76.859 153.723 77.176 c 153.805 77.488 153.895 77.781 153.988 78.043 c 
154.082 78.305 154.184 78.539 154.289 78.734 c 154.395 78.934 154.504 79.098
 154.625 79.223 c 154.742 79.348 154.871 79.434 155.004 79.48 c 155.137 
79.527 155.277 79.535 155.426 79.504 c 155.574 79.469 155.727 79.398 155.891
 79.285 c 156.051 79.172 156.223 79.023 156.398 78.84 c 156.574 78.652 156.754
 78.434 156.941 78.184 c 157.129 77.934 157.324 77.652 157.52 77.348 c 157.719
 77.043 157.922 76.715 158.125 76.371 c 158.332 76.027 158.539 75.664 158.75
 75.293 c 158.957 74.922 159.168 74.543 159.379 74.164 c 159.594 73.781 
159.805 73.402 160.012 73.027 c 160.223 72.656 160.434 72.293 160.637 71.941
 c 160.844 71.594 161.047 71.262 161.246 70.953 c 161.441 70.645 161.637
 70.355 161.824 70.102 c 162.016 69.844 162.199 69.617 162.375 69.426 c 
162.551 69.23 162.723 69.074 162.887 68.953 c 163.051 68.836 163.207 68.754
 163.355 68.711 c 163.504 68.672 163.648 68.668 163.781 68.707 c 163.918
 68.746 164.047 68.824 164.164 68.945 c 164.285 69.062 164.398 69.215 164.508
 69.406 c 164.613 69.598 164.715 69.824 164.809 70.078 c 164.902 70.336 
164.992 70.621 165.078 70.93 c 165.164 71.238 165.246 71.574 165.324 71.926
 c 165.402 72.273 165.477 72.641 165.547 73.02 c 165.621 73.395 165.691 
73.777 165.766 74.164 c 165.836 74.551 165.906 74.934 165.98 75.312 c 166.055
 75.691 166.129 76.059 166.203 76.414 c 166.281 76.766 166.363 77.105 166.445
 77.418 c 166.531 77.73 166.621 78.023 166.715 78.285 c 166.809 78.547 166.906
 78.777 167.016 78.973 c 167.121 79.172 167.23 79.332 167.352 79.457 c 167.469
 79.582 167.598 79.668 167.73 79.711 c 167.863 79.758 168.004 79.766 168.152
 79.73 c 168.301 79.695 168.457 79.621 168.617 79.508 c 168.781 79.395 168.949
 79.246 169.125 79.059 c 169.301 78.871 169.484 78.652 169.672 78.402 c 
169.859 78.148 170.055 77.867 170.25 77.562 c 170.449 77.258 170.652 76.93
 170.855 76.582 c 171.062 76.238 171.27 75.875 171.48 75.504 c 171.688 75.133
 171.898 74.754 172.113 74.371 c 172.324 73.992 172.535 73.613 172.742 73.238
 c 172.953 72.867 173.164 72.504 173.367 72.156 c 173.574 71.809 173.777
 71.477 173.973 71.168 c 174.172 70.855 174.367 70.57 174.555 70.316 c 174.746
 70.062 174.926 69.836 175.105 69.645 c 175.281 69.453 175.449 69.297 175.613
 69.176 c 175.777 69.059 175.934 68.98 176.086 68.938 c 176.234 68.898 176.375
 68.898 176.512 68.938 c 176.645 68.977 176.773 69.059 176.891 69.176 c 
177.012 69.293 177.125 69.453 177.234 69.645 c 177.34 69.836 177.441 70.062
 177.535 70.316 c 177.629 70.574 177.719 70.859 177.805 71.172 c 177.891
 71.48 177.969 71.816 178.047 72.168 c 178.125 72.52 178.199 72.887 178.273
 73.262 c 178.348 73.641 178.418 74.023 178.488 74.41 c 178.562 74.793 178.633
 75.18 178.707 75.559 c 178.777 75.934 178.852 76.305 178.93 76.656 c 179.008
 77.008 179.09 77.348 179.172 77.66 c 179.258 77.973 179.348 78.262 179.441
 78.523 c 179.535 78.785 179.633 79.016 179.742 79.211 c 179.848 79.406 
179.961 79.566 180.078 79.691 c 180.199 79.812 180.324 79.898 180.457 79.941
 c 180.59 79.988 180.734 79.992 180.883 79.957 c 181.031 79.922 181.184 
79.844 181.348 79.73 c 181.512 79.617 181.68 79.465 181.855 79.277 c 182.031
 79.09 182.215 78.867 182.402 78.617 c 182.59 78.363 182.785 78.082 182.98
 77.777 c 183.18 77.473 183.383 77.141 183.586 76.797 c 183.793 76.449 184
 76.086 184.211 75.715 c 184.422 75.344 184.633 74.965 184.844 74.582 c 
185.055 74.203 185.266 73.824 185.477 73.449 c 185.684 73.078 185.895 72.715
 186.098 72.367 c 186.305 72.02 186.508 71.688 186.707 71.379 c 186.902 
71.07 187.098 70.789 187.285 70.531 c 187.473 70.277 187.656 70.055 187.836
 69.863 c 188.012 69.672 188.18 69.52 188.344 69.398 c 188.508 69.281 188.664
 69.203 188.812 69.164 c 188.961 69.125 189.105 69.129 189.238 69.168 c 
189.371 69.211 189.5 69.289 189.621 69.41 c 189.738 69.531 189.852 69.688
 189.961 69.879 c 190.066 70.074 190.168 70.301 190.262 70.559 c 190.355
 70.816 190.445 71.102 190.531 71.414 c 190.613 71.727 190.695 72.062 190.773
 72.414 c 190.852 72.766 190.926 73.133 191 73.508 c 191.07 73.887 191.145
 74.27 191.215 74.656 c 191.285 75.039 191.359 75.426 191.43 75.805 c 191.504
 76.18 191.578 76.547 191.656 76.902 c 191.734 77.254 191.812 77.59 191.898
 77.902 c 191.984 78.215 192.07 78.504 192.168 78.766 c 192.262 79.023 192.359
 79.254 192.469 79.449 c 192.574 79.641 192.688 79.801 192.805 79.922 c 
192.926 80.047 193.051 80.129 193.188 80.172 c 193.32 80.215 193.461 80.219
 193.609 80.184 c 193.758 80.145 193.914 80.066 194.078 79.953 c 194.238
 79.84 194.41 79.684 194.586 79.496 c 194.762 79.309 194.945 79.086 195.133
 78.832 c 195.32 78.578 195.516 78.297 195.711 77.992 c 195.91 77.684 196.113
 77.352 196.316 77.008 c 196.523 76.66 196.73 76.297 196.941 75.926 c 197.152
 75.555 197.363 75.172 197.574 74.793 c 197.785 74.414 197.996 74.031 198.207
 73.66 c 198.418 73.289 198.625 72.926 198.832 72.578 c S Q
1.365594 w
4 M q 1 0 0 -1 0 174.542252 cm
196.848 77.203 m 202.633 71.062 208.719 63.938 212.316 60.008 c 226.391
 44.633 224.211 46.473 224.211 46.473 c S Q
208.629 110.507 m 208.801 106.648 l 213.238 115.542 l 204.77 110.335 l 
h
208.629 110.507 m f*
0.503626 w
q -0.915472 -1 -1 0.915472 0 174.542252 cm
-69.071 -145.396 m -67.057 -147.412 l -74.106 -145.396 l -67.055 -143.382
 l h
-69.071 -145.396 m S Q
1.293617 w
q 1 0 0 -1 0 174.542252 cm
232 101.941 m 224.797 96.145 216.582 90.012 211.992 86.398 c 194.051 72.277
 196.309 74.438 196.309 74.438 c S Q
216.059 84.941 m 219.691 85.374 l 210.977 88.945 l 216.488 81.308 l h
216.059 84.941 m f*
0.508223 w
q 1 -0.787232 -0.787232 -1 0 174.542252 cm
176.94 -49.691 m 178.972 -51.725 l 171.857 -49.693 l 178.971 -47.657 l 
h
176.94 -49.691 m S Q
1.263791 w
1.5 M q 1 0 0 -1 0 174.542252 cm
23.949 38.398 m 24.027 38.793 24.145 39.191 24.301 39.59 c 24.457 39.988
 24.656 40.383 24.891 40.766 c 25.129 41.148 25.402 41.52 25.711 41.871 
c 26.02 42.223 26.367 42.555 26.742 42.863 c 27.117 43.168 27.523 43.445
 27.953 43.691 c 28.383 43.938 28.84 44.152 29.312 44.328 c 29.785 44.504
 30.273 44.641 30.773 44.738 c 31.273 44.84 31.785 44.895 32.297 44.91 c
 32.809 44.93 33.32 44.902 33.828 44.836 c 34.332 44.77 34.832 44.66 35.316
 44.516 c 35.801 44.367 36.27 44.184 36.719 43.961 c 37.164 43.742 37.59
 43.484 37.988 43.203 c 38.387 42.918 38.754 42.602 39.086 42.266 c 39.422
 41.93 39.723 41.57 39.984 41.195 c 40.25 40.824 40.477 40.434 40.66 40.039
 c 40.848 39.645 40.992 39.242 41.102 38.844 c 41.207 38.441 41.273 38.047
 41.301 37.656 c 41.328 37.27 41.316 36.895 41.273 36.539 c 41.227 36.18
 41.145 35.844 41.031 35.531 c 40.918 35.219 40.773 34.93 40.602 34.676 
c 40.434 34.422 40.238 34.199 40.023 34.016 c 39.809 33.832 39.578 33.684
 39.336 33.574 c 39.094 33.465 38.84 33.398 38.586 33.375 c 38.332 33.348
 38.074 33.363 37.82 33.418 c 37.57 33.477 37.324 33.574 37.094 33.711 c
 36.863 33.848 36.645 34.027 36.449 34.238 c 36.25 34.449 36.078 34.695 
35.93 34.973 c 35.785 35.25 35.664 35.559 35.578 35.887 c 35.496 36.219 
35.441 36.57 35.426 36.941 c 35.414 37.309 35.434 37.695 35.496 38.086 c
 35.559 38.48 35.66 38.879 35.801 39.277 c 35.941 39.676 36.125 40.074 36.344
 40.461 c 36.562 40.848 36.824 41.227 37.117 41.586 c 37.414 41.945 37.742
 42.285 38.105 42.602 c 38.469 42.918 38.863 43.207 39.285 43.469 c 39.703
 43.727 40.152 43.953 40.617 44.145 c 41.082 44.336 41.566 44.488 42.062
 44.605 c 42.559 44.719 43.066 44.793 43.578 44.824 c 44.086 44.859 44.602
 44.848 45.109 44.801 c 45.617 44.75 46.121 44.656 46.609 44.527 c 47.102
 44.395 47.578 44.227 48.035 44.02 c 48.492 43.812 48.926 43.57 49.332 43.297
 c 49.742 43.027 50.121 42.723 50.469 42.395 c 50.816 42.07 51.133 41.719
 51.41 41.352 c 51.691 40.98 51.93 40.598 52.133 40.207 c 52.336 39.812 
52.496 39.414 52.621 39.012 c 52.742 38.613 52.824 38.211 52.867 37.82 c
 52.914 37.43 52.918 37.051 52.887 36.684 c 52.852 36.32 52.785 35.973 52.684
 35.648 c 52.582 35.328 52.449 35.027 52.289 34.762 c 52.133 34.496 51.945
 34.258 51.738 34.059 c 51.535 33.859 51.309 33.695 51.07 33.574 c 50.832
 33.449 50.582 33.363 50.328 33.32 c 50.074 33.281 49.816 33.277 49.562 
33.32 c 49.312 33.359 49.062 33.441 48.824 33.562 c 48.586 33.684 48.363
 33.844 48.16 34.043 c 47.953 34.238 47.77 34.473 47.613 34.738 c 47.453
 35.004 47.324 35.297 47.227 35.617 c 47.125 35.941 47.059 36.285 47.031
 36.648 c 47 37.012 47.008 37.391 47.055 37.777 c 47.098 38.168 47.184 38.566
 47.309 38.965 c 47.434 39.363 47.598 39.762 47.805 40.152 c 48.008 40.543
 48.254 40.926 48.531 41.293 c 48.812 41.66 49.129 42.012 49.48 42.336 c
 49.828 42.664 50.211 42.965 50.621 43.234 c 51.031 43.508 51.469 43.75 
51.926 43.953 c 52.383 44.16 52.863 44.328 53.352 44.457 c 53.844 44.59 
54.348 44.68 54.855 44.73 c 55.367 44.777 55.879 44.785 56.391 44.754 c 
56.898 44.719 57.406 44.645 57.902 44.531 c 58.398 44.414 58.879 44.258 
59.344 44.066 c 59.809 43.875 60.254 43.648 60.672 43.387 c 61.09 43.129
 61.484 42.836 61.844 42.52 c 62.207 42.203 62.535 41.859 62.828 41.5 c 
63.121 41.137 63.379 40.758 63.594 40.371 c 63.812 39.98 63.992 39.582 64.129
 39.184 c 64.27 38.785 64.367 38.383 64.426 37.988 c 64.488 37.594 64.508
 37.207 64.488 36.836 c 64.473 36.465 64.418 36.109 64.328 35.777 c 64.242
 35.445 64.121 35.137 63.973 34.855 c 63.824 34.578 63.648 34.328 63.453
 34.113 c 63.254 33.898 63.035 33.723 62.801 33.582 c 62.57 33.441 62.324
 33.34 62.07 33.281 c 61.82 33.223 61.562 33.203 61.309 33.227 c 61.051 
33.25 60.801 33.316 60.559 33.422 c 60.316 33.527 60.086 33.672 59.875 33.855
 c 59.66 34.039 59.469 34.258 59.301 34.512 c 59.133 34.762 58.988 35.047
 58.879 35.355 c 58.766 35.668 58.688 36.004 58.641 36.359 c 58.598 36.715
 58.59 37.09 58.621 37.473 c 58.648 37.859 58.719 38.254 58.828 38.652 c
 58.938 39.051 59.086 39.449 59.273 39.844 c 59.461 40.238 59.691 40.625
 59.957 41 c 60.223 41.371 60.523 41.73 60.863 42.062 c 61.199 42.398 61.57
 42.711 61.969 42.996 c 62.367 43.281 62.793 43.535 63.242 43.754 c 63.691
 43.973 64.16 44.156 64.648 44.305 c 65.133 44.449 65.633 44.555 66.141 
44.621 c 66.645 44.688 67.16 44.715 67.668 44.695 c 68.18 44.68 68.691 44.621
 69.191 44.523 c 69.688 44.426 70.18 44.285 70.652 44.109 c 71.121 43.93
 71.578 43.719 72.004 43.469 c 72.434 43.223 72.84 42.941 73.211 42.637 
c 73.586 42.328 73.93 41.996 74.234 41.645 c 74.543 41.289 74.816 40.918
 75.047 40.535 c 75.281 40.148 75.477 39.754 75.629 39.355 c 75.785 38.953
 75.902 38.551 75.977 38.156 c 76.051 37.758 76.086 37.367 76.086 36.992
 c 76.082 36.613 76.043 36.25 75.969 35.91 c 75.895 35.566 75.785 35.25 
75.648 34.957 c 75.512 34.668 75.348 34.402 75.156 34.176 c 74.969 33.949
 74.758 33.754 74.531 33.598 c 74.305 33.445 74.062 33.328 73.812 33.25 
c 73.562 33.176 73.309 33.141 73.051 33.148 c 72.797 33.152 72.539 33.203
 72.297 33.293 c 72.051 33.379 71.812 33.512 71.594 33.68 c 71.375 33.848
 71.172 34.051 70.992 34.289 c 70.816 34.527 70.66 34.801 70.539 35.102 
c 70.414 35.398 70.32 35.727 70.262 36.074 c 70.203 36.422 70.18 36.789 
70.195 37.172 c 70.211 37.551 70.262 37.945 70.355 38.34 c 70.449 38.738
 70.582 39.137 70.754 39.535 c 70.926 39.93 71.141 40.32 71.391 40.699 c
 71.641 41.078 71.93 41.441 72.25 41.789 c 72.574 42.133 72.93 42.453 73.32
 42.75 c 73.707 43.043 74.121 43.312 74.562 43.547 c 75 43.777 75.465 43.977
 75.945 44.141 c 76.422 44.301 76.918 44.422 77.422 44.508 c 77.926 44.59
 78.438 44.629 78.949 44.629 c 79.461 44.633 79.973 44.59 80.477 44.508 
c 80.98 44.422 81.473 44.301 81.953 44.141 c 82.43 43.977 82.895 43.777 
83.332 43.543 c 83.77 43.312 84.188 43.043 84.57 42.746 c 84.957 42.453 
85.312 42.129 85.633 41.785 c 85.957 41.438 86.242 41.074 86.492 40.691 
c 86.738 40.312 86.949 39.922 87.121 39.523 c 87.293 39.125 87.422 38.723
 87.516 38.324 c 87.605 37.926 87.656 37.531 87.672 37.148 c 87.684 36.766
 87.656 36.398 87.598 36.047 c 87.539 35.695 87.441 35.367 87.316 35.066
 c 87.191 34.762 87.039 34.488 86.859 34.246 c 86.68 34.004 86.477 33.797
 86.254 33.625 c 86.035 33.457 85.797 33.324 85.551 33.23 c 85.305 33.137
 85.051 33.086 84.797 33.078 c 84.539 33.066 84.281 33.098 84.035 33.172
 c 83.785 33.242 83.543 33.359 83.316 33.508 c 83.094 33.66 82.883 33.852
 82.695 34.078 c 82.508 34.305 82.34 34.562 82.207 34.852 c 82.07 35.141
 81.965 35.457 81.891 35.797 c 81.82 36.133 81.781 36.496 81.781 36.871 
c 81.777 37.246 81.816 37.633 81.895 38.027 c 81.969 38.422 82.086 38.824
 82.242 39.223 c 82.398 39.621 82.598 40.016 82.832 40.398 c 83.066 40.781
 83.34 41.152 83.648 41.504 c 83.957 41.855 84.301 42.191 84.676 42.496 
c 85.051 42.801 85.457 43.082 85.887 43.328 c 86.316 43.574 86.773 43.789
 87.246 43.965 c 87.719 44.141 88.207 44.281 88.707 44.379 c 89.207 44.477
 89.719 44.535 90.23 44.555 c 90.738 44.57 91.254 44.547 91.758 44.48 c 
92.266 44.414 92.766 44.305 93.25 44.16 c 93.734 44.016 94.203 43.828 94.652
 43.609 c 95.102 43.391 95.527 43.137 95.922 42.852 c 96.32 42.566 96.691
 42.254 97.023 41.918 c 97.359 41.582 97.66 41.223 97.926 40.848 c 98.188
 40.477 98.414 40.086 98.602 39.691 c 98.789 39.297 98.938 38.895 99.043
 38.496 c 99.152 38.094 99.219 37.699 99.246 37.312 c 99.277 36.922 99.266
 36.547 99.219 36.191 c 99.172 35.832 99.09 35.492 98.98 35.18 c 98.867 
34.867 98.723 34.578 98.555 34.324 c 98.383 34.07 98.188 33.848 97.977 33.664
 c 97.762 33.477 97.531 33.328 97.289 33.219 c 97.047 33.109 96.793 33.043
 96.539 33.016 c 96.285 32.988 96.027 33.004 95.773 33.059 c 95.523 33.117
 95.277 33.215 95.047 33.352 c 94.812 33.488 94.598 33.664 94.398 33.875
 c 94.203 34.086 94.027 34.332 93.879 34.609 c 93.734 34.883 93.613 35.191
 93.527 35.52 c 93.441 35.852 93.391 36.203 93.375 36.574 c 93.359 36.941
 93.379 37.328 93.441 37.719 c 93.5 38.109 93.602 38.512 93.742 38.91 c 
93.883 39.309 94.062 39.703 94.285 40.094 c 94.504 40.48 94.762 40.859 95.055
 41.219 c 95.352 41.578 95.68 41.918 96.043 42.234 c 96.406 42.551 96.801
 42.844 97.219 43.102 c 97.641 43.363 98.086 43.59 98.551 43.781 c 99.016
 43.973 99.5 44.129 99.996 44.242 c 100.492 44.359 101 44.434 101.508 44.465
 c 102.02 44.5 102.531 44.492 103.043 44.441 c 103.551 44.395 104.055 44.301
 104.543 44.172 c 105.035 44.043 105.512 43.871 105.969 43.668 c 106.426
 43.461 106.859 43.219 107.27 42.949 c 107.68 42.676 108.059 42.375 108.406
 42.047 c 108.758 41.719 109.07 41.367 109.352 41 c 109.629 40.633 109.871
 40.25 110.074 39.859 c 110.277 39.465 110.441 39.066 110.562 38.664 c 110.688
 38.266 110.77 37.867 110.812 37.473 c 110.859 37.082 110.863 36.703 110.832
 36.336 c S Q
242.449 79.706 11.656 -0.766 re f
248.797 75.534 m 248.797 75.667 l 248.73 75.679 l 248.73 75.73 l 248.664
 75.734 l 248.664 75.761 l 248.602 75.769 l 248.602 75.781 l 248.535 75.788
 l 248.535 75.796 l 248.473 75.8 l 248.406 75.808 l 247.629 75.808 245.297
 75.605 244.457 75.558 c 244.195 75.534 243.809 75.515 243.809 75.042 c 
243.809 74.773 244.133 74.773 244.648 74.773 c 246.203 74.773 246.203 74.546
 246.203 74.355 c 246.141 73.859 l 242.059 61.554 l 241.996 61.284 241.867
 61.105 241.867 60.71 c 241.867 59.312 243.355 58.445 244.844 58.445 c 245.883
 58.445 246.723 58.941 247.242 59.824 c 247.824 60.765 248.211 62.191 248.211
 62.241 c 248.211 62.488 247.953 62.488 247.824 62.488 c 247.5 62.488 247.5
 62.386 247.371 62.038 c 246.852 60.445 246.203 58.991 244.91 58.991 c 243.938
 58.991 243.938 59.777 243.938 60.128 c 243.938 60.71 244.004 60.835 244.133
 61.308 c h
248.797 75.534 m f
243.301 132.062 m 243.301 132.218 l 243.219 132.23 l 243.219 132.284 l 
243.133 132.292 l 243.133 132.327 l 243.047 132.331 l 243.047 132.351 l 
242.961 132.355 l 242.961 132.366 l 242.879 132.374 l 242.793 132.378 l 
241.773 132.378 238.711 132.144 237.605 132.089 c 237.266 132.062 236.754
 132.038 236.754 131.484 c 236.754 131.171 237.18 131.171 237.859 131.171
 c 239.902 131.171 239.902 130.906 239.902 130.679 c 239.816 130.101 l 234.457
 115.718 l 234.375 115.398 234.203 115.191 234.203 114.73 c 234.203 113.093
 236.16 112.081 238.113 112.081 c 239.477 112.081 240.582 112.659 241.262
 113.695 c 242.027 114.792 242.535 116.46 242.535 116.519 c 242.535 116.808
 242.195 116.808 242.027 116.808 c 241.602 116.808 241.602 116.687 241.43
 116.284 c 240.75 114.417 239.902 112.718 238.199 112.718 c 236.926 112.718
 236.926 113.636 236.926 114.046 c 236.926 114.73 237.008 114.874 237.18
 115.429 c h
243.301 132.062 m f
209.84 174.249 m 209.84 174.359 l 209.793 174.366 l 209.793 174.433 l 209.742
 174.441 l 209.742 174.472 l 209.695 174.476 l 209.695 174.495 l 209.645
 174.503 l 209.645 174.511 l 209.598 174.511 l 209.598 174.515 l 209.547
 174.523 l 208.965 174.523 207.215 174.32 206.582 174.273 c 206.391 174.249
 206.098 174.23 206.098 173.777 c 206.098 173.484 206.34 173.484 206.68 
173.484 c 207.848 173.484 207.895 173.312 207.895 173.062 c 207.895 172.886
 207.703 172.05 207.555 171.531 c 205.562 163.476 l 205.27 162.238 205.176
 161.843 205.176 160.98 c 205.176 158.636 206.488 157.097 208.285 157.097
 c 208.285 157.644 l 207.457 157.644 206.633 158.308 206.633 160.14 c 206.633
 160.609 206.633 161.077 207.02 162.632 c 207.555 164.909 l 207.703 165.456
 207.703 165.499 207.945 165.773 c 209.109 167.374 210.23 167.745 210.812
 167.745 c 211.734 167.745 212.367 167.011 212.367 165.425 c 212.367 163.968
 211.539 161.132 211.105 160.183 c 210.324 158.534 209.207 157.644 208.285
 157.644 c 208.285 157.097 l 211.105 157.097 214.117 160.784 214.117 164.339
 c 214.117 166.585 212.805 168.292 210.859 168.292 c 209.793 168.292 208.77
 167.577 208.043 166.808 c h
209.84 174.249 m f
209.539 20.324 8.871 -0.73 re f
214.543 16.339 m 214.543 16.445 l 214.496 16.452 l 214.496 16.515 l 214.445
 16.523 l 214.445 16.554 l 214.395 16.558 l 214.395 16.577 l 214.348 16.581
 l 214.348 16.589 l 214.297 16.589 l 214.297 16.597 l 214.246 16.601 l 213.652
 16.601 211.867 16.406 211.223 16.363 c 211.023 16.339 210.727 16.324 210.727
 15.894 c 210.727 15.613 210.977 15.613 211.32 15.613 c 212.512 15.613 212.562
 15.449 212.562 15.214 c 212.562 15.042 212.363 14.249 212.215 13.753 c 
210.184 6.089 l 209.887 4.909 209.785 4.538 209.785 3.718 c 209.785 1.484
 211.125 0.023 212.957 0.023 c 212.957 0.542 l 212.117 0.542 211.273 1.175
 211.273 2.913 c 211.273 3.363 211.273 3.808 211.668 5.288 c 212.215 7.456
 l 212.363 7.972 212.363 8.015 212.609 8.277 c 213.801 9.8 214.941 10.156
 215.535 10.156 c 216.477 10.156 217.121 9.456 217.121 7.945 c 217.121 6.558
 216.277 3.859 215.832 2.956 c 215.039 1.39 213.898 0.542 212.957 0.542 
c 212.957 0.023 l 215.832 0.023 218.906 3.527 218.906 6.913 c 218.906 9.05
 217.566 10.671 215.586 10.671 c 214.496 10.671 213.453 9.991 212.711 9.261
 c h
214.543 16.339 m f
q 1 0 0 -1 0 174.542252 cm
24.547 116.355 m 24.625 116.75 24.742 117.152 24.898 117.547 c 25.059 117.945
 25.254 118.34 25.492 118.723 c 25.727 119.105 26 119.477 26.309 119.828
 c 26.621 120.184 26.965 120.516 27.34 120.82 c 27.715 121.125 28.121 121.406
 28.551 121.652 c 28.98 121.898 29.438 122.109 29.91 122.285 c 30.383 122.461
 30.875 122.602 31.375 122.699 c 31.875 122.797 32.383 122.855 32.895 122.871
 c 33.406 122.887 33.918 122.859 34.426 122.793 c 34.93 122.727 35.43 122.617
 35.914 122.473 c 36.398 122.324 36.871 122.141 37.316 121.918 c 37.766 
121.699 38.191 121.445 38.586 121.16 c 38.984 120.875 39.352 120.562 39.688
 120.227 c 40.02 119.887 40.32 119.527 40.586 119.156 c 40.848 118.781 41.074
 118.391 41.258 117.996 c 41.445 117.602 41.594 117.199 41.699 116.801 c
 41.805 116.402 41.871 116.004 41.898 115.617 c 41.93 115.23 41.918 114.852
 41.871 114.496 c 41.824 114.137 41.742 113.801 41.629 113.488 c 41.516 
113.176 41.371 112.887 41.199 112.633 c 41.031 112.379 40.836 112.16 40.621
 111.973 c 40.41 111.789 40.176 111.641 39.934 111.531 c 39.691 111.426 
39.441 111.355 39.184 111.332 c 38.93 111.305 38.672 111.32 38.422 111.379
 c 38.168 111.434 37.922 111.531 37.691 111.672 c 37.461 111.809 37.242 
111.984 37.047 112.195 c 36.852 112.406 36.676 112.652 36.527 112.93 c 36.383
 113.207 36.262 113.516 36.18 113.844 c 36.094 114.176 36.039 114.527 36.027
 114.898 c 36.012 115.27 36.031 115.652 36.094 116.047 c 36.156 116.438 
36.258 116.836 36.398 117.234 c 36.539 117.633 36.723 118.031 36.941 118.418
 c 37.16 118.805 37.422 119.184 37.715 119.543 c 38.012 119.902 38.344 120.242
 38.707 120.559 c 39.066 120.875 39.461 121.168 39.883 121.426 c 40.305 
121.684 40.75 121.91 41.215 122.102 c 41.68 122.293 42.164 122.449 42.66
 122.562 c 43.156 122.676 43.664 122.75 44.176 122.785 c 44.684 122.816 
45.199 122.809 45.707 122.758 c 46.215 122.707 46.719 122.617 47.211 122.484
 c 47.699 122.355 48.176 122.184 48.633 121.977 c 49.09 121.77 49.523 121.527
 49.934 121.258 c 50.34 120.984 50.723 120.68 51.07 120.355 c 51.418 120.027
 51.73 119.676 52.012 119.309 c 52.289 118.941 52.531 118.555 52.73 118.164
 c 52.934 117.77 53.098 117.371 53.219 116.969 c 53.34 116.57 53.426 116.172
 53.469 115.781 c 53.512 115.391 53.516 115.008 53.484 114.641 c 53.453 
114.277 53.383 113.93 53.281 113.609 c 53.184 113.285 53.051 112.988 52.891
 112.719 c 52.73 112.453 52.543 112.219 52.34 112.02 c 52.133 111.816 51.906
 111.656 51.668 111.531 c 51.434 111.406 51.184 111.324 50.93 111.281 c 
50.676 111.238 50.418 111.234 50.164 111.277 c 49.91 111.316 49.66 111.398
 49.422 111.52 c 49.188 111.641 48.961 111.805 48.758 112 c 48.551 112.199
 48.367 112.43 48.211 112.695 c 48.051 112.961 47.922 113.258 47.824 113.578
 c 47.723 113.898 47.66 114.242 47.629 114.605 c 47.598 114.969 47.605 115.348
 47.652 115.738 c 47.699 116.125 47.781 116.523 47.906 116.922 c 48.031 
117.32 48.199 117.723 48.402 118.113 c 48.605 118.504 48.852 118.887 49.133
 119.25 c 49.41 119.617 49.73 119.969 50.078 120.293 c 50.43 120.621 50.812
 120.922 51.223 121.195 c 51.629 121.465 52.066 121.707 52.523 121.91 c 
52.984 122.117 53.461 122.285 53.953 122.418 c 54.441 122.547 54.945 122.637
 55.457 122.688 c 55.965 122.738 56.477 122.746 56.988 122.711 c 57.5 122.68
 58.004 122.602 58.5 122.488 c 58.996 122.371 59.48 122.219 59.941 122.027
 c 60.406 121.836 60.852 121.605 61.27 121.348 c 61.691 121.086 62.082 120.793
 62.445 120.477 c 62.805 120.16 63.133 119.816 63.426 119.457 c 63.719 119.098
 63.977 118.719 64.195 118.328 c 64.41 117.941 64.59 117.543 64.73 117.141
 c 64.867 116.742 64.965 116.34 65.027 115.945 c 65.086 115.551 65.105 115.164
 65.086 114.793 c 65.07 114.422 65.016 114.066 64.93 113.734 c 64.84 113.402
 64.719 113.094 64.57 112.812 c 64.422 112.535 64.246 112.285 64.051 112.07
 c 63.852 111.859 63.633 111.68 63.402 111.539 c 63.168 111.398 62.922 111.301
 62.672 111.238 c 62.418 111.18 62.16 111.164 61.906 111.188 c 61.652 111.211
 61.398 111.273 61.156 111.379 c 60.914 111.484 60.684 111.633 60.473 111.812
 c 60.262 111.996 60.066 112.215 59.898 112.469 c 59.73 112.719 59.586 113.004
 59.477 113.312 c 59.363 113.625 59.285 113.961 59.238 114.316 c 59.195 
114.672 59.188 115.047 59.219 115.43 c 59.246 115.816 59.316 116.211 59.426
 116.609 c 59.535 117.008 59.684 117.41 59.871 117.801 c 60.062 118.195 
60.289 118.582 60.555 118.957 c 60.82 119.328 61.125 119.688 61.461 120.023
 c 61.797 120.359 62.168 120.672 62.566 120.953 c 62.965 121.238 63.391 
121.492 63.84 121.711 c 64.289 121.93 64.762 122.117 65.246 122.262 c 65.73
 122.406 66.23 122.516 66.738 122.582 c 67.242 122.648 67.758 122.672 68.27
 122.656 c 68.781 122.637 69.289 122.578 69.789 122.48 c 70.289 122.383 
70.777 122.242 71.25 122.066 c 71.723 121.891 72.176 121.676 72.605 121.43
 c 73.031 121.18 73.438 120.902 73.812 120.594 c 74.184 120.289 74.527 119.953
 74.836 119.602 c 75.141 119.25 75.414 118.875 75.645 118.492 c 75.879 118.105
 76.074 117.711 76.23 117.312 c 76.383 116.914 76.5 116.512 76.574 116.113
 c 76.648 115.719 76.684 115.324 76.684 114.949 c 76.68 114.57 76.641 114.207
 76.566 113.867 c 76.492 113.527 76.383 113.207 76.246 112.914 c 76.109 
112.625 75.945 112.363 75.758 112.133 c 75.566 111.906 75.355 111.711 75.129
 111.559 c 74.902 111.402 74.66 111.285 74.41 111.211 c 74.164 111.133 73.906
 111.098 73.648 111.105 c 73.395 111.113 73.141 111.16 72.895 111.25 c 72.648
 111.34 72.41 111.469 72.191 111.637 c 71.973 111.805 71.77 112.008 71.594
 112.246 c 71.414 112.488 71.262 112.758 71.137 113.059 c 71.012 113.359
 70.918 113.684 70.859 114.031 c 70.801 114.379 70.777 114.746 70.793 115.129
 c 70.809 115.508 70.863 115.902 70.953 116.297 c 71.047 116.695 71.18 117.098
 71.352 117.492 c 71.523 117.887 71.738 118.281 71.988 118.656 c 72.238 
119.035 72.527 119.402 72.852 119.746 c 73.172 120.09 73.531 120.414 73.918
 120.707 c 74.305 121.004 74.719 121.27 75.16 121.504 c 75.602 121.738 76.062
 121.938 76.543 122.098 c 77.023 122.258 77.516 122.383 78.02 122.465 c 
78.523 122.547 79.035 122.59 79.547 122.59 c 80.059 122.59 80.57 122.547
 81.074 122.465 c 81.578 122.383 82.07 122.258 82.551 122.098 c 83.031 121.934
 83.492 121.734 83.93 121.504 c 84.371 121.27 84.785 121 85.172 120.707 
c 85.555 120.41 85.91 120.086 86.234 119.742 c 86.555 119.398 86.84 119.031
 87.09 118.652 c 87.34 118.273 87.551 117.879 87.719 117.48 c 87.891 117.086
 88.023 116.684 88.113 116.285 c 88.203 115.883 88.254 115.488 88.27 115.109
 c 88.281 114.727 88.258 114.355 88.195 114.004 c 88.137 113.656 88.043 
113.324 87.918 113.023 c 87.793 112.723 87.637 112.445 87.457 112.203 c 
87.277 111.965 87.074 111.754 86.855 111.586 c 86.633 111.414 86.398 111.281
 86.152 111.188 c 85.906 111.098 85.648 111.043 85.395 111.035 c 85.137 
111.023 84.883 111.055 84.633 111.129 c 84.383 111.203 84.141 111.316 83.918
 111.469 c 83.691 111.621 83.48 111.812 83.293 112.035 c 83.105 112.262 
82.941 112.52 82.805 112.809 c 82.668 113.098 82.562 113.414 82.488 113.754
 c 82.418 114.094 82.379 114.453 82.379 114.828 c 82.379 115.203 82.414 
115.594 82.492 115.988 c 82.57 116.383 82.688 116.781 82.844 117.18 c 83
 117.578 83.195 117.973 83.43 118.355 c 83.664 118.738 83.938 119.109 84.246
 119.461 c 84.559 119.816 84.902 120.148 85.277 120.453 c 85.652 120.762
 86.055 121.039 86.484 121.285 c 86.918 121.531 87.371 121.746 87.844 121.922
 c 88.316 122.102 88.805 122.238 89.305 122.336 c 89.805 122.438 90.316 
122.496 90.828 122.512 c 91.34 122.527 91.852 122.504 92.359 122.438 c 92.863
 122.371 93.363 122.266 93.848 122.117 c 94.332 121.973 94.805 121.789 95.25
 121.566 c 95.699 121.348 96.125 121.094 96.523 120.809 c 96.918 120.527
 97.289 120.211 97.625 119.875 c 97.957 119.539 98.262 119.18 98.523 118.809
 c 98.789 118.434 99.016 118.047 99.199 117.648 c 99.387 117.254 99.535 
116.852 99.641 116.453 c 99.75 116.055 99.816 115.656 99.844 115.27 c 99.875
 114.883 99.863 114.504 99.816 114.148 c 99.773 113.789 99.691 113.449 99.578
 113.137 c 99.465 112.824 99.32 112.539 99.152 112.285 c 98.98 112.027 98.789
 111.805 98.574 111.621 c 98.363 111.434 98.129 111.285 97.887 111.176 c
 97.645 111.07 97.395 111 97.137 110.973 c 96.883 110.949 96.625 110.961
 96.375 111.02 c 96.121 111.074 95.875 111.172 95.645 111.309 c 95.414 111.445
 95.195 111.621 94.996 111.832 c 94.801 112.043 94.625 112.289 94.48 112.566
 c 94.332 112.844 94.211 113.148 94.125 113.48 c 94.039 113.809 93.988 114.16
 93.973 114.531 c 93.957 114.898 93.977 115.285 94.039 115.676 c 94.102 
116.07 94.203 116.469 94.34 116.867 c 94.48 117.266 94.664 117.664 94.883
 118.051 c 95.102 118.438 95.359 118.816 95.656 119.176 c 95.949 119.535
 96.281 119.879 96.641 120.195 c 97.004 120.512 97.398 120.801 97.816 121.062
 c 98.238 121.32 98.684 121.547 99.148 121.738 c 99.613 121.93 100.098 122.086
 100.594 122.203 c 101.09 122.316 101.598 122.391 102.105 122.426 c 102.617
 122.457 103.133 122.449 103.641 122.402 c 104.148 122.352 104.652 122.262
 105.141 122.129 c 105.633 122 106.109 121.828 106.566 121.625 c 107.023
 121.418 107.461 121.176 107.867 120.906 c 108.277 120.633 108.656 120.332
 109.008 120.004 c 109.355 119.68 109.672 119.328 109.949 118.961 c 110.227
 118.594 110.469 118.207 110.672 117.816 c 110.875 117.426 111.039 117.023
 111.16 116.625 c 111.285 116.223 111.367 115.824 111.414 115.434 c 111.457
 115.043 111.461 114.66 111.43 114.293 c S Q
1.673372 w
4 M q 1 0 0 -1 0 174.542252 cm
113.062 37.531 m 129.797 32.594 148.535 26.719 159.141 23.531 c 200.598
 11.074 195.094 12.453 195.094 12.453 c S Q
152.73 149.085 m 150.488 144.913 l 160.742 151.491 l 148.562 151.327 l 
h
152.73 149.085 m f*
0.801286 w
q -1 -0.300514 -0.300514 1 0 174.542252 cm
-133.063 -65.444 m -129.857 -68.653 l -141.075 -65.446 l -129.859 -62.239
 l h
-133.063 -65.444 m S Q
1.617401 w
q 1 0 0 -1 0 174.542252 cm
200.781 148.871 m 182.559 142.207 161.867 134.934 150.273 130.742 c 104.945
 114.359 110.73 116.688 110.73 116.688 c S Q
156.355 41.601 m 160.496 43.542 l 148.75 44.347 l 158.297 37.456 l h
156.355 41.601 m f*
0.760544 w
q 1 -0.361449 -0.361449 -1 0 174.542252 cm
180.788 67.596 m 183.829 64.555 l 173.183 67.598 l 183.83 70.641 l h
180.788 67.596 m S Q
11.73 145.667 m 11.73 145.702 l 11.781 145.734 l 11.781 146.011 l 11.832
 146.046 l 11.832 146.187 l 11.832 146.691 11.523 146.98 11.059 146.98 c
 10.801 146.98 10.129 146.773 10.027 145.726 c 9.562 146.8 8.633 147.558
 7.656 147.558 c 7.656 146.917 l 9.355 146.917 9.719 144.566 9.719 144.421
 c 9.719 144.277 9.668 144.105 9.613 143.984 c 8.375 138.441 l 8.273 137.683
 7.656 136.964 7.086 136.406 c 6.57 135.886 5.746 135.363 5.023 135.363 
c 3.734 135.363 3.32 136.87 3.32 138.027 c 3.32 139.429 4.094 142.855 4.766
 144.335 c 5.488 145.761 6.57 146.917 7.656 146.917 c 7.656 147.558 l 4.715
 147.558 1.516 143.495 1.516 139.316 c 1.516 136.433 3.062 134.718 4.922
 134.718 c 6.469 134.718 7.656 136.089 7.914 136.406 c 7.914 136.382 l 7.398
 133.792 7.086 132.597 7.086 132.546 c 6.984 132.277 6.105 129.402 3.375
 129.402 c 2.91 129.402 2.086 129.437 1.309 129.695 c 2.086 129.956 2.395
 130.714 2.395 131.202 c 2.395 131.671 2.086 132.226 1.414 132.226 c 0.848
 132.226 0.02 131.695 0.02 130.538 c 0.02 129.343 0.949 128.761 3.426 128.761
 c 6.625 128.761 8.531 131.031 8.895 132.773 c h
11.73 145.667 m f
12.68 66.46 m 12.68 66.491 l 12.734 66.515 l 12.734 66.753 l 12.789 66.784
 l 12.789 66.902 l 12.789 67.327 12.457 67.574 11.953 67.574 c 11.676 67.574
 10.949 67.394 10.84 66.511 c 10.336 67.421 9.332 68.062 8.273 68.062 c 
8.273 67.519 l 10.113 67.519 10.504 65.527 10.504 65.406 c 10.504 65.281
 10.449 65.14 10.395 65.034 c 9.055 60.339 l 8.941 59.695 8.273 59.089 7.66
 58.613 c 7.102 58.175 6.211 57.73 5.43 57.73 c 4.035 57.73 3.59 59.007 
3.59 59.988 c 3.59 61.179 4.426 64.077 5.152 65.331 c 5.934 66.542 7.102
 67.519 8.273 67.519 c 8.273 68.062 l 5.094 68.062 1.637 64.62 1.637 61.077
 c 1.637 58.64 3.312 57.187 5.316 57.187 c 6.992 57.187 8.273 58.347 8.551
 58.613 c 8.551 58.593 l 7.996 56.402 7.66 55.39 7.66 55.343 c 7.547 55.116
 6.602 52.683 3.645 52.683 c 3.145 52.683 2.25 52.71 1.414 52.929 c 2.25
 53.152 2.586 53.792 2.586 54.206 c 2.586 54.605 2.25 55.074 1.527 55.074
 c 0.914 55.074 0.02 54.624 0.02 53.644 c 0.02 52.632 1.023 52.14 3.703 
52.14 c 7.16 52.14 9.223 54.062 9.613 55.538 c h
12.68 66.46 m f
152.328 88.835 m 152.328 88.851 l 152.363 88.87 l 152.363 89.034 l 152.398
 89.058 l 152.398 89.144 l 152.398 89.327 152.293 89.327 151.941 89.327 
c 144.602 89.327 l 144.184 89.327 144.184 89.308 144.078 88.917 c 143.098
 85.257 l 143.062 85.156 143.062 85.015 143.062 84.972 c 143.062 84.952 
143.062 84.745 143.273 84.745 c 143.414 84.745 143.449 84.894 143.484 84.952
 c 144.148 87.355 145.055 88.699 147.781 88.699 c 150.613 88.699 l 140.895
 75.988 l 140.895 75.968 140.793 75.683 140.793 75.62 c 140.793 75.437 140.93
 75.437 141.246 75.437 c 148.832 75.437 l 149.25 75.437 149.25 75.456 149.355
 75.847 c 150.578 80.335 l 150.613 80.417 150.684 80.562 150.684 80.64 c
 150.684 80.741 150.578 80.866 150.441 80.866 c 150.301 80.866 150.266 80.788
 150.16 80.359 c 149.391 77.593 148.551 76.128 145.582 76.128 c 142.609 
76.128 l h
152.328 88.835 m f
159.598 89.913 m 159.598 89.925 l 159.633 89.937 l 159.633 90.042 l 159.668
 90.066 l 159.668 90.191 l 159.703 90.199 l 159.703 90.284 l 159.703 90.507
 159.531 90.687 159.355 90.687 c 159.215 90.687 159.109 90.628 159.039 90.507
 c 152.992 71.128 l 152.922 70.866 152.922 70.784 152.922 70.765 c 152.922
 70.538 153.062 70.355 153.273 70.355 c 153.516 70.355 153.551 70.495 153.656
 70.843 c h
159.598 89.913 m f
161.418 80.605 m 161.488 80.816 l 161.523 80.917 l 161.559 81.015 l 161.629
 81.202 l 161.66 81.288 l 161.695 81.374 l 161.766 81.46 l 161.836 81.616
 l 161.906 81.691 l 161.977 81.827 l 162.082 81.96 l 162.188 82.077 l 162.293
 82.187 l 162.43 82.284 l 162.535 82.378 l 162.641 82.46 l 162.746 82.534
 l 162.852 82.601 l 162.957 82.659 l 163.094 82.714 l 163.305 82.8 l 163.375
 82.831 l 163.48 82.863 l 163.586 82.886 l 163.656 82.906 l 163.758 82.921
 l 163.828 82.933 l 163.898 82.949 l 163.969 82.952 l 164.039 82.96 l 164.074
 82.96 l 164.109 82.964 l 164.18 82.964 l 166.801 82.964 166.977 79.406 
166.977 77.796 c 166.977 76.554 166.906 76.21 166.801 75.8 c 166.418 74.324
 165.891 71.964 165.891 71.433 c 165.891 71.21 165.961 71.062 166.102 71.062
 c 166.312 71.062 166.484 71.515 166.66 72.284 c 167.082 73.995 167.254 
75.152 167.289 75.784 c 167.324 76.05 167.359 76.312 167.43 76.581 c 167.988
 78.589 169.109 81.616 169.809 83.226 c 169.949 83.464 170.156 83.917 170.156
 83.995 c 170.156 84.199 169.98 84.199 169.949 84.199 c 169.879 84.199 169.773
 84.199 169.738 84.062 c 168.828 82.128 168.129 80.093 167.43 78.042 c 167.43
 78.671 167.395 80.214 166.73 82.191 c 166.312 83.429 165.613 84.425 164.391
 84.425 c 162.223 84.425 160.996 81.335 160.996 80.706 c 160.996 80.503 
161.172 80.503 161.348 80.503 c h
161.418 80.605 m f
175.473 84.12 m 175.473 84.456 l 175.438 84.488 l 175.438 84.616 l 175.402
 84.644 l 175.402 84.675 l 175.367 84.699 l 175.367 84.749 l 175.332 84.773
 l 175.332 84.784 l 175.297 84.796 l 175.297 84.812 l 175.262 84.824 l 175.262
 84.839 l 175.227 84.847 l 175.227 84.859 l 175.191 84.863 l 175.191 84.87
 l 175.156 84.874 l 175.156 84.882 l 175.086 84.89 l 175.086 84.894 l 175.016
 84.894 l 174.738 84.894 174.527 84.628 174.562 84.366 c 174.562 84.097 
l 174.805 80.949 l 172.605 82.839 l 172.43 82.945 172.395 82.984 172.254
 82.984 c 172.043 82.984 171.801 82.695 171.801 82.417 c 171.801 82.089 
171.977 82.007 172.148 81.906 c 174.633 80.519 l 172.219 79.163 l 171.941
 78.995 171.801 78.913 171.801 78.609 c 171.801 78.308 172.043 78.042 172.254
 78.042 c 172.395 78.042 172.43 78.042 172.883 78.429 c 174.805 80.074 l
 174.562 76.656 l 174.562 76.23 174.875 76.128 175.016 76.128 c 175.227 
76.128 175.473 76.273 175.473 76.656 c 175.227 80.074 l 177.43 78.179 l 
177.602 78.085 177.637 78.042 177.777 78.042 c 177.988 78.042 178.234 78.327
 178.234 78.609 c 178.234 78.913 178.059 79.015 177.848 79.136 c 176.836
 79.745 176.801 79.745 175.402 80.503 c 177.812 81.866 l 178.094 82.023 
178.234 82.109 178.234 82.417 c 178.234 82.722 177.988 82.984 177.777 82.984
 c 177.637 82.984 177.602 82.984 177.148 82.593 c 175.227 80.949 l h
175.473 84.12 m f
Q Q
showpage
%%Trailer
end restore
%%EOF
