%!PS-Adobe-3.0 EPSF-3.0
%%Creator: cairo 1.13.1 (http://cairographics.org)
%%CreationDate: Fri Aug  1 02:40:47 2014
%%Pages: 1
%%DocumentData: Clean7Bit
%%LanguageLevel: 2
%%BoundingBox: 0 -1 296 162
%%EndComments
%%BeginProlog
save
50 dict begin
/q { gsave } bind def
/Q { grestore } bind def
/cm { 6 array astore concat } bind def
/w { setlinewidth } bind def
/J { setlinecap } bind def
/j { setlinejoin } bind def
/M { setmiterlimit } bind def
/d { setdash } bind def
/m { moveto } bind def
/l { lineto } bind def
/c { curveto } bind def
/h { closepath } bind def
/re { exch dup neg 3 1 roll 5 3 roll moveto 0 rlineto
      0 exch rlineto 0 rlineto closepath } bind def
/S { stroke } bind def
/f { fill } bind def
/f* { eofill } bind def
/n { newpath } bind def
/W { clip } bind def
/W* { eoclip } bind def
/BT { } bind def
/ET { } bind def
/pdfmark where { pop globaldict /?pdfmark /exec load put }
    { globaldict begin /?pdfmark /pop load def /pdfmark
    /cleartomark load def end } ifelse
/BDC { mark 3 1 roll /BDC pdfmark } bind def
/EMC { mark /EMC pdfmark } bind def
/cairo_store_point { /cairo_point_y exch def /cairo_point_x exch def } def
/Tj { show currentpoint cairo_store_point } bind def
/TJ {
  {
    dup
    type /stringtype eq
    { show } { -0.001 mul 0 cairo_font_matrix dtransform rmoveto } ifelse
  } forall
  currentpoint cairo_store_point
} bind def
/cairo_selectfont { cairo_font_matrix aload pop pop pop 0 0 6 array astore
    cairo_font exch selectfont cairo_point_x cairo_point_y moveto } bind def
/Tf { pop /cairo_font exch def /cairo_font_matrix where
      { pop cairo_selectfont } if } bind def
/Td { matrix translate cairo_font_matrix matrix concatmatrix dup
      /cairo_font_matrix exch def dup 4 get exch 5 get cairo_store_point
      /cairo_font where { pop cairo_selectfont } if } bind def
/Tm { 2 copy 8 2 roll 6 array astore /cairo_font_matrix exch def
      cairo_store_point /cairo_font where { pop cairo_selectfont } if } bind def
/g { setgray } bind def
/rg { setrgbcolor } bind def
/d1 { setcachedevice } bind def
%%EndProlog
%%BeginSetup
%%EndSetup
%%Page: 1 1
%%BeginPageSetup
%%PageBoundingBox: 0 -1 296 162
%%EndPageSetup
q 0 -1 296 163 rectclip q
0 g
1.673372 w
0 J
0 j
[] 0.0 d
4 M q 1 0 0 -1 0 372.279724 cm
17.887 237.699 m 30.941 249.277 45.855 262.055 54.176 269.359 c 86.711 
297.914 82.625 293.977 82.625 293.977 c S Q
49.148 107.334 m 44.426 107.03 l 55.434 101.815 l 48.84 112.057 l h
49.148 107.334 m f*
0.628812 w
q -1 0.877752 0.877752 1 0 372.279724 cm
-159.115 -125.282 m -156.598 -127.795 l -165.401 -125.283 l -156.599 -122.767
 l h
-159.115 -125.282 m S Q
1.891355 w
q 1 0 0 -1 0 372.279724 cm
85.656 294.469 m 72.148 307.965 57.344 323.301 48.84 331.891 c 15.586 365.469
 20.258 361.191 20.258 361.191 c S Q
54.164 45.764 m 54.137 51.116 l 47.508 39.045 l 59.512 45.791 l h
54.164 45.764 m f*
0.671958 w
q 0.990264 1 1 -0.990264 0 372.279724 cm
-137.774 190.597 m -135.086 187.908 l -144.495 190.596 l -135.087 193.283
 l h
-137.774 190.597 m S Q
1.407492 w
1.5 M q 1 0 0 -1 0 372.279724 cm
206.438 328.016 m 206.617 328.172 206.805 328.34 206.992 328.512 c 207.18
 328.684 207.375 328.859 207.566 329.039 c 207.758 329.219 207.949 329.395
 208.141 329.57 c 208.332 329.746 208.52 329.914 208.703 330.074 c 208.883
 330.238 209.059 330.391 209.23 330.527 c 209.398 330.668 209.559 330.793
 209.707 330.902 c 209.859 331.012 210 331.105 210.129 331.176 c 210.254
 331.25 210.371 331.301 210.473 331.332 c 210.578 331.363 210.668 331.375
 210.742 331.359 c 210.816 331.348 210.879 331.309 210.926 331.25 c 210.977
 331.191 211.008 331.105 211.027 331.004 c 211.047 330.898 211.055 330.77
 211.051 330.625 c 211.043 330.477 211.027 330.309 210.996 330.125 c 210.969
 329.938 210.93 329.738 210.883 329.52 c 210.832 329.305 210.777 329.074
 210.715 328.832 c 210.652 328.594 210.582 328.344 210.512 328.086 c 210.441
 327.832 210.363 327.57 210.289 327.312 c 210.215 327.051 210.141 326.789
 210.066 326.531 c 209.992 326.273 209.922 326.02 209.859 325.777 c 209.793
 325.531 209.734 325.297 209.684 325.074 c 209.633 324.855 209.59 324.645
 209.559 324.453 c 209.523 324.262 209.5 324.086 209.492 323.934 c 209.48
 323.777 209.48 323.641 209.496 323.527 c 209.512 323.414 209.539 323.324
 209.582 323.254 c 209.625 323.184 209.68 323.141 209.75 323.117 c 209.82
 323.094 209.902 323.094 210 323.117 c 210.098 323.137 210.211 323.184 210.332
 323.246 c 210.457 323.312 210.59 323.398 210.738 323.5 c 210.883 323.602
 211.039 323.723 211.207 323.855 c 211.371 323.988 211.547 324.137 211.727
 324.293 c 211.906 324.453 212.09 324.617 212.281 324.793 c 212.469 324.965
 212.66 325.141 212.855 325.32 c 213.047 325.496 213.238 325.676 213.43 
325.852 c 213.621 326.023 213.809 326.195 213.988 326.355 c 214.172 326.516
 214.348 326.668 214.516 326.809 c 214.684 326.945 214.844 327.07 214.996
 327.18 c 215.145 327.289 215.285 327.379 215.414 327.453 c 215.543 327.523
 215.656 327.578 215.758 327.605 c 215.863 327.637 215.949 327.645 216.027
 327.633 c 216.102 327.617 216.164 327.578 216.211 327.52 c 216.258 327.457
 216.289 327.375 216.309 327.27 c 216.328 327.164 216.336 327.035 216.328
 326.891 c 216.324 326.742 216.305 326.574 216.277 326.387 c 216.246 326.203
 216.207 326 216.16 325.781 c 216.109 325.566 216.055 325.336 215.992 325.094
 c 215.93 324.855 215.859 324.605 215.789 324.348 c 215.715 324.094 215.641
 323.832 215.566 323.57 c 215.492 323.309 215.414 323.047 215.344 322.793
 c 215.27 322.535 215.199 322.281 215.137 322.039 c 215.07 321.793 215.012
 321.559 214.961 321.336 c 214.91 321.117 214.867 320.91 214.836 320.719
 c 214.801 320.527 214.781 320.352 214.77 320.195 c 214.758 320.043 214.762
 319.906 214.777 319.793 c 214.793 319.684 214.82 319.59 214.863 319.523
 c 214.906 319.453 214.961 319.41 215.031 319.387 c 215.102 319.367 215.188
 319.367 215.285 319.391 c 215.383 319.41 215.496 319.457 215.617 319.523
 c 215.742 319.586 215.879 319.672 216.023 319.777 c 216.172 319.879 216.328
 320 216.496 320.133 c 216.66 320.266 216.836 320.414 217.016 320.574 c 
217.195 320.73 217.379 320.898 217.57 321.07 c 217.758 321.242 217.949 321.422
 218.145 321.602 c 218.336 321.777 218.527 321.957 218.719 322.133 c 218.91
 322.305 219.098 322.477 219.277 322.637 c 219.461 322.797 219.637 322.949
 219.805 323.086 c 219.973 323.223 220.133 323.348 220.281 323.457 c 220.434
 323.566 220.57 323.656 220.699 323.727 c 220.828 323.801 220.941 323.852
 221.043 323.879 c 221.145 323.91 221.234 323.918 221.309 323.902 c 221.383
 323.887 221.445 323.852 221.492 323.789 c 221.539 323.727 221.57 323.645
 221.59 323.539 c 221.609 323.43 221.617 323.305 221.609 323.156 c 221.602
 323.008 221.582 322.836 221.555 322.652 c 221.523 322.465 221.484 322.262
 221.438 322.043 c 221.387 321.828 221.332 321.598 221.27 321.355 c 221.207
 321.113 221.137 320.863 221.066 320.609 c 220.992 320.352 220.918 320.094
 220.844 319.832 c 220.77 319.57 220.691 319.309 220.621 319.051 c 220.547
 318.793 220.477 318.543 220.414 318.297 c 220.348 318.055 220.289 317.82
 220.238 317.602 c 220.188 317.379 220.145 317.172 220.113 316.98 c 220.082
 316.789 220.059 316.617 220.051 316.461 c 220.039 316.309 220.043 316.176
 220.059 316.062 c 220.074 315.949 220.102 315.859 220.145 315.793 c 220.188
 315.723 220.246 315.68 220.316 315.66 c 220.387 315.637 220.473 315.641
 220.57 315.66 c 220.668 315.688 220.781 315.73 220.902 315.797 c 221.027
 315.863 221.164 315.949 221.312 316.051 c 221.457 316.156 221.617 316.277
 221.781 316.41 c 221.949 316.547 222.121 316.695 222.301 316.852 c 222.484
 317.012 222.668 317.18 222.859 317.352 c 223.047 317.523 223.238 317.703
 223.434 317.879 c 223.625 318.059 223.816 318.238 224.008 318.41 c 224.199
 318.586 224.387 318.754 224.566 318.914 c 224.75 319.074 224.926 319.227
 225.094 319.363 c 225.262 319.504 225.422 319.625 225.57 319.734 c 225.719
 319.844 225.859 319.934 225.984 320.004 c 226.113 320.074 226.227 320.125
 226.328 320.152 c 226.43 320.184 226.52 320.191 226.594 320.176 c 226.668
 320.156 226.727 320.121 226.773 320.059 c 226.82 319.996 226.852 319.91
 226.871 319.805 c 226.891 319.695 226.895 319.566 226.887 319.418 c 226.883
 319.27 226.863 319.102 226.832 318.914 c 226.805 318.727 226.762 318.523
 226.715 318.305 c 226.664 318.09 226.609 317.855 226.547 317.617 c 226.48
 317.375 226.414 317.125 226.34 316.867 c 226.27 316.613 226.195 316.352
 226.121 316.09 c 226.043 315.828 225.969 315.566 225.898 315.312 c 225.824
 315.055 225.754 314.801 225.691 314.559 c 225.625 314.316 225.566 314.082
 225.516 313.859 c 225.465 313.641 225.426 313.434 225.391 313.242 c 225.359
 313.055 225.34 312.879 225.328 312.727 c 225.32 312.574 225.324 312.441
 225.34 312.328 c 225.355 312.219 225.383 312.129 225.426 312.062 c 225.469
 311.992 225.527 311.949 225.598 311.93 c 225.672 311.91 225.754 311.91 
225.855 311.938 c 225.953 311.961 226.066 312.008 226.191 312.074 c 226.312
 312.141 226.449 312.227 226.598 312.332 c 226.746 312.434 226.902 312.555
 227.07 312.691 c 227.234 312.824 227.41 312.973 227.59 313.133 c 227.77
 313.289 227.957 313.457 228.148 313.633 c 228.336 313.805 228.527 313.984
 228.723 314.16 c 228.914 314.34 229.105 314.52 229.297 314.691 c 229.484
 314.867 229.672 315.035 229.855 315.195 c 230.035 315.355 230.211 315.508
 230.379 315.645 c 230.547 315.781 230.707 315.906 230.855 316.012 c 231.004
 316.121 231.145 316.211 231.27 316.281 c 231.398 316.348 231.512 316.398
 231.613 316.43 c 231.715 316.457 231.801 316.461 231.875 316.445 c 231.949
 316.43 232.012 316.391 232.055 316.328 c 232.102 316.266 232.133 316.18
 232.152 316.07 c 232.172 315.965 232.176 315.836 232.168 315.684 c 232.16
 315.535 232.141 315.367 232.109 315.18 c 232.082 314.992 232.039 314.785
 231.992 314.57 c 231.941 314.352 231.887 314.117 231.82 313.879 c 231.758
 313.637 231.691 313.387 231.617 313.129 c 231.547 312.871 231.473 312.613
 231.395 312.352 c 231.32 312.09 231.246 311.828 231.172 311.57 c 231.102
 311.316 231.031 311.062 230.965 310.82 c 230.902 310.578 230.844 310.344
 230.793 310.125 c 230.742 309.902 230.703 309.695 230.672 309.508 c 230.641
 309.316 230.617 309.145 230.609 308.992 c 230.598 308.84 230.602 308.707
 230.617 308.598 c 230.637 308.484 230.664 308.395 230.707 308.328 c 230.754
 308.266 230.809 308.223 230.883 308.199 c 230.953 308.18 231.039 308.184
 231.137 308.207 c 231.238 308.234 231.352 308.281 231.477 308.348 c 231.602
 308.414 231.738 308.504 231.883 308.605 c 232.031 308.711 232.191 308.832
 232.355 308.969 c 232.523 309.105 232.699 309.254 232.879 309.41 c 233.059
 309.57 233.246 309.738 233.434 309.91 c 233.625 310.086 233.816 310.262
 234.008 310.441 c 234.203 310.621 234.395 310.797 234.586 310.973 c 234.773
 311.145 234.961 311.316 235.145 311.473 c 235.324 311.633 235.5 311.785
 235.668 311.922 c 235.836 312.059 235.992 312.184 236.145 312.289 c 236.293
 312.395 236.43 312.484 236.555 312.555 c 236.684 312.625 236.797 312.672
 236.898 312.699 c 237 312.73 237.086 312.734 237.16 312.719 c 237.234 312.699
 237.293 312.66 237.336 312.598 c 237.383 312.535 237.414 312.445 237.434
 312.34 c 237.449 312.23 237.453 312.102 237.445 311.949 c 237.441 311.801
 237.418 311.629 237.391 311.441 c 237.359 311.254 237.316 311.051 237.27
 310.832 c 237.219 310.613 237.164 310.379 237.098 310.137 c 237.035 309.898
 236.965 309.645 236.895 309.391 c 236.82 309.133 236.746 308.871 236.672
 308.609 c 236.598 308.352 236.523 308.09 236.449 307.832 c 236.375 307.574
 236.309 307.324 236.242 307.082 c 236.18 306.84 236.121 306.605 236.07 
306.387 c 236.023 306.164 235.98 305.961 235.949 305.77 c 235.918 305.582
 235.895 305.41 235.887 305.258 c 235.879 305.105 235.883 304.973 235.898
 304.863 c 235.914 304.754 235.945 304.664 235.992 304.598 c 236.035 304.535
 236.094 304.492 236.164 304.473 c 236.238 304.453 236.324 304.457 236.422
 304.484 c 236.523 304.508 236.637 304.555 236.762 304.625 c 236.887 304.691
 237.023 304.777 237.172 304.883 c 237.32 304.988 237.477 305.113 237.645
 305.246 c 237.812 305.383 237.984 305.531 238.168 305.691 c 238.348 305.852
 238.535 306.02 238.723 306.191 c 238.914 306.367 239.105 306.543 239.297
 306.723 c 239.492 306.898 239.684 307.078 239.875 307.254 c 240.062 307.426
 240.25 307.594 240.43 307.754 c 240.613 307.914 240.789 308.062 240.953
 308.199 c 241.121 308.336 241.281 308.461 241.43 308.566 c 241.578 308.672
 241.715 308.762 241.844 308.832 c 241.969 308.898 242.082 308.949 242.184
 308.977 c 242.281 309 242.371 309.008 242.441 308.988 c 242.516 308.973
 242.574 308.93 242.621 308.867 c 242.664 308.801 242.695 308.715 242.711
 308.605 c 242.73 308.496 242.734 308.367 242.727 308.215 c 242.719 308.062
 242.699 307.895 242.668 307.707 c 242.637 307.516 242.598 307.312 242.547
 307.094 c 242.496 306.875 242.438 306.641 242.375 306.398 c 242.312 306.156
 242.242 305.906 242.172 305.648 c 242.098 305.395 242.023 305.133 241.949
 304.871 c 241.871 304.609 241.797 304.348 241.727 304.094 c 241.652 303.836
 241.582 303.586 241.52 303.344 c S Q
1.365594 w
4 M q 1 0 0 -1 0 372.279724 cm
241.121 302.621 m 246.906 296.48 252.992 289.355 256.59 285.422 c 270.664
 270.051 268.484 271.891 268.484 271.891 c S Q
252.902 82.827 m 253.074 78.967 l 257.512 87.866 l 249.043 82.659 l h
252.902 82.827 m f*
0.503626 w
q -0.915472 -1 -1 0.915472 0 372.279724 cm
31.515 -281.754 m 33.53 -283.77 l 26.478 -281.752 l 33.529 -279.738 l h
31.515 -281.754 m S Q
1.026603 w
q 1 0 0 -1 0 372.279724 cm
278.324 317.914 m 270.68 314.473 261.961 310.832 257.094 308.688 c 238.059
 300.305 240.457 301.586 240.457 301.586 c S Q
260.852 61.936 m 263.559 62.987 l 256.152 64.006 l 261.902 59.229 l h
260.852 61.936 m f*
0.46976 w
q 1 -0.440421 -0.440421 -1 0 372.279724 cm
332.951 163.705 m 334.83 161.827 l 328.251 163.705 l 334.829 165.585 l 
h
332.951 163.705 m S Q
1.240425 w
1.5 M q 1 0 0 -1 0 372.279724 cm
84.492 292.98 m 84.562 293.406 84.668 293.84 84.809 294.27 c 84.945 294.703
 85.121 295.129 85.332 295.543 c 85.543 295.957 85.785 296.359 86.062 296.742
 c 86.336 297.121 86.645 297.48 86.977 297.812 c 87.312 298.145 87.672 298.445
 88.055 298.711 c 88.441 298.977 88.844 299.207 89.266 299.398 c 89.688 
299.59 90.125 299.738 90.566 299.844 c 91.012 299.953 91.469 300.016 91.922
 300.031 c 92.379 300.047 92.836 300.02 93.285 299.949 c 93.734 299.875 
94.18 299.758 94.609 299.602 c 95.043 299.441 95.461 299.242 95.859 299.004
 c 96.258 298.766 96.637 298.488 96.988 298.18 c 97.34 297.871 97.668 297.531
 97.969 297.168 c 98.266 296.805 98.531 296.414 98.766 296.012 c 99 295.605
 99.203 295.184 99.367 294.758 c 99.535 294.328 99.664 293.895 99.758 293.461
 c 99.852 293.027 99.914 292.598 99.938 292.18 c 99.961 291.762 99.953 291.355
 99.91 290.969 c 99.871 290.582 99.797 290.215 99.695 289.875 c 99.594 289.539
 99.465 289.227 99.316 288.953 c 99.164 288.676 98.992 288.438 98.801 288.238
 c 98.609 288.035 98.402 287.875 98.188 287.762 c 97.973 287.645 97.746 
287.57 97.52 287.543 c 97.293 287.516 97.066 287.531 96.84 287.594 c 96.617
 287.652 96.398 287.762 96.191 287.91 c 95.984 288.059 95.793 288.25 95.617
 288.477 c 95.441 288.707 95.289 288.973 95.156 289.273 c 95.027 289.574
 94.922 289.906 94.844 290.262 c 94.77 290.621 94.723 291.004 94.711 291.402
 c 94.695 291.805 94.715 292.219 94.77 292.645 c 94.824 293.07 94.914 293.5
 95.043 293.934 c 95.168 294.363 95.328 294.793 95.523 295.215 c 95.719 
295.633 95.949 296.043 96.215 296.43 c 96.477 296.82 96.77 297.188 97.094
 297.531 c 97.418 297.875 97.77 298.188 98.141 298.469 c 98.516 298.75 98.914
 298.996 99.328 299.199 c 99.742 299.406 100.172 299.574 100.613 299.699
 c 101.055 299.82 101.508 299.902 101.961 299.938 c 102.418 299.973 102.875
 299.965 103.328 299.91 c 103.777 299.855 104.227 299.754 104.664 299.613
 c 105.098 299.473 105.523 299.289 105.93 299.066 c 106.336 298.84 106.723
 298.578 107.086 298.285 c 107.449 297.988 107.789 297.66 108.098 297.309
 c 108.406 296.953 108.688 296.574 108.938 296.176 c 109.184 295.777 109.398
 295.363 109.578 294.938 c 109.758 294.512 109.902 294.078 110.012 293.645
 c 110.121 293.211 110.195 292.781 110.234 292.355 c 110.273 291.934 110.277
 291.52 110.246 291.125 c 110.219 290.73 110.156 290.355 110.07 290.008 
c 109.98 289.656 109.859 289.336 109.719 289.047 c 109.578 288.758 109.41
 288.5 109.227 288.285 c 109.047 288.07 108.844 287.891 108.633 287.758 
c 108.422 287.625 108.199 287.531 107.973 287.488 c 107.746 287.441 107.52
 287.438 107.293 287.484 c 107.066 287.527 106.844 287.613 106.633 287.746
 c 106.422 287.879 106.223 288.051 106.039 288.266 c 105.859 288.48 105.695
 288.73 105.555 289.02 c 105.414 289.305 105.297 289.625 105.211 289.973
 c 105.121 290.32 105.062 290.691 105.035 291.086 c 105.012 291.477 105.016
 291.891 105.059 292.312 c 105.098 292.73 105.172 293.164 105.285 293.594
 c 105.395 294.027 105.543 294.457 105.727 294.879 c 105.906 295.305 106.125
 295.719 106.375 296.113 c 106.625 296.512 106.906 296.891 107.219 297.242
 c 107.527 297.598 107.867 297.922 108.234 298.215 c 108.598 298.512 108.988
 298.77 109.395 298.992 c 109.801 299.215 110.227 299.398 110.664 299.539
 c 111.102 299.68 111.551 299.781 112.004 299.832 c 112.457 299.887 112.914
 299.895 113.367 299.859 c 113.82 299.824 114.273 299.742 114.711 299.617
 c 115.152 299.492 115.582 299.324 115.996 299.117 c 116.41 298.91 116.805
 298.664 117.18 298.383 c 117.551 298.102 117.902 297.785 118.223 297.441
 c 118.543 297.098 118.836 296.727 119.098 296.336 c 119.359 295.945 119.586
 295.535 119.781 295.117 c 119.973 294.695 120.133 294.262 120.258 293.832
 c 120.379 293.398 120.469 292.965 120.52 292.535 c 120.574 292.109 120.59
 291.691 120.574 291.289 c 120.562 290.887 120.512 290.504 120.434 290.145
 c 120.355 289.785 120.25 289.449 120.117 289.148 c 119.984 288.844 119.828
 288.574 119.652 288.344 c 119.477 288.113 119.281 287.918 119.074 287.766
 c 118.867 287.617 118.648 287.508 118.426 287.441 c 118.199 287.379 117.973
 287.359 117.742 287.383 c 117.516 287.41 117.293 287.48 117.078 287.594
 c 116.863 287.707 116.656 287.867 116.469 288.062 c 116.277 288.262 116.105
 288.5 115.957 288.773 c 115.809 289.043 115.68 289.352 115.582 289.688 
c 115.48 290.023 115.41 290.387 115.371 290.773 c 115.332 291.156 115.324
 291.562 115.352 291.98 c 115.379 292.395 115.441 292.824 115.535 293.254
 c 115.633 293.688 115.766 294.121 115.934 294.547 c 116.102 294.973 116.305
 295.391 116.543 295.793 c 116.777 296.199 117.047 296.586 117.348 296.949
 c 117.648 297.312 117.977 297.648 118.332 297.957 c 118.688 298.266 119.066
 298.539 119.465 298.777 c 119.863 299.016 120.285 299.215 120.715 299.371
 c 121.148 299.531 121.594 299.645 122.043 299.719 c 122.496 299.789 122.953
 299.816 123.406 299.797 c 123.863 299.781 124.316 299.715 124.762 299.609
 c 125.203 299.504 125.641 299.352 126.059 299.16 c 126.48 298.969 126.883
 298.738 127.266 298.469 c 127.648 298.203 128.008 297.898 128.34 297.566
 c 128.672 297.234 128.977 296.875 129.25 296.492 c 129.523 296.109 129.766
 295.707 129.973 295.293 c 130.18 294.875 130.355 294.445 130.492 294.016
 c 130.629 293.582 130.734 293.148 130.801 292.719 c 130.867 292.289 130.898
 291.867 130.895 291.457 c 130.895 291.051 130.859 290.656 130.793 290.285
 c 130.727 289.918 130.629 289.57 130.508 289.258 c 130.387 288.941 130.238
 288.656 130.07 288.41 c 129.902 288.164 129.715 287.953 129.512 287.785
 c 129.312 287.617 129.098 287.492 128.875 287.41 c 128.652 287.328 128.426
 287.289 128.195 287.297 c 127.969 287.305 127.742 287.355 127.523 287.453
 c 127.305 287.551 127.094 287.691 126.898 287.871 c 126.703 288.055 126.523
 288.277 126.367 288.535 c 126.207 288.793 126.07 289.086 125.961 289.41
 c 125.848 289.734 125.766 290.09 125.715 290.465 c 125.66 290.84 125.641
 291.238 125.652 291.652 c 125.668 292.062 125.715 292.488 125.797 292.918
 c 125.879 293.348 126 293.781 126.152 294.211 c 126.305 294.637 126.496
 295.062 126.719 295.473 c 126.941 295.883 127.195 296.277 127.484 296.648
 c 127.773 297.02 128.09 297.371 128.434 297.691 c 128.777 298.008 129.148
 298.297 129.543 298.551 c 129.934 298.805 130.344 299.02 130.77 299.195
 c 131.199 299.367 131.641 299.504 132.086 299.59 c 132.535 299.68 132.992
 299.727 133.445 299.727 c 133.902 299.727 134.355 299.68 134.805 299.59
 c 135.254 299.504 135.691 299.367 136.117 299.195 c 136.547 299.02 136.957
 298.805 137.348 298.551 c 137.738 298.297 138.105 298.008 138.449 297.688
 c 138.793 297.367 139.109 297.02 139.395 296.645 c 139.684 296.27 139.938
 295.875 140.16 295.465 c 140.379 295.055 140.566 294.629 140.719 294.199
 c 140.871 293.77 140.988 293.332 141.07 292.902 c 141.152 292.469 141.195
 292.043 141.207 291.629 c 141.219 291.215 141.199 290.812 141.145 290.438
 c 141.09 290.059 141.008 289.699 140.895 289.375 c 140.781 289.047 140.645
 288.75 140.484 288.488 c 140.324 288.227 140.145 288 139.949 287.816 c 
139.754 287.629 139.543 287.488 139.324 287.387 c 139.105 287.289 138.879
 287.23 138.648 287.219 c 138.422 287.211 138.195 287.242 137.973 287.324
 c 137.75 287.402 137.535 287.523 137.336 287.688 c 137.133 287.855 136.945
 288.062 136.777 288.305 c 136.613 288.547 136.465 288.828 136.344 289.141
 c 136.223 289.453 136.129 289.797 136.066 290.164 c 136 290.531 135.965
 290.922 135.965 291.328 c 135.965 291.73 136 292.152 136.066 292.582 c 
136.137 293.008 136.238 293.441 136.379 293.871 c 136.52 294.301 136.691
 294.73 136.902 295.145 c 137.109 295.559 137.355 295.961 137.629 296.344
 c 137.906 296.723 138.211 297.086 138.543 297.414 c 138.879 297.746 139.238
 298.051 139.621 298.316 c 140.004 298.582 140.41 298.816 140.828 299.008
 c 141.25 299.195 141.688 299.348 142.133 299.453 c 142.578 299.562 143.031
 299.625 143.484 299.645 c 143.941 299.66 144.398 299.633 144.848 299.562
 c 145.297 299.492 145.742 299.375 146.176 299.219 c 146.605 299.059 147.023
 298.859 147.422 298.621 c 147.82 298.383 148.199 298.109 148.555 297.801
 c 148.906 297.492 149.234 297.152 149.535 296.789 c 149.832 296.426 150.102
 296.039 150.336 295.633 c 150.57 295.23 150.773 294.809 150.938 294.379
 c 151.105 293.953 151.234 293.52 151.332 293.086 c 151.426 292.652 151.488
 292.223 151.512 291.805 c 151.539 291.383 151.527 290.977 151.488 290.59
 c 151.445 290.203 151.375 289.836 151.273 289.496 c 151.172 289.16 151.047
 288.848 150.895 288.57 c 150.742 288.297 150.57 288.055 150.383 287.855
 c 150.191 287.652 149.984 287.492 149.77 287.375 c 149.555 287.258 149.328
 287.184 149.102 287.156 c 148.875 287.125 148.645 287.141 148.422 287.203
 c 148.199 287.266 147.98 287.371 147.773 287.516 c 147.566 287.664 147.371
 287.855 147.199 288.082 c 147.023 288.312 146.867 288.578 146.734 288.879
 c 146.605 289.176 146.5 289.508 146.422 289.867 c 146.344 290.223 146.297
 290.605 146.285 291.004 c 146.27 291.402 146.289 291.82 146.344 292.246
 c 146.398 292.668 146.488 293.102 146.613 293.535 c 146.738 293.965 146.898
 294.395 147.094 294.812 c 147.289 295.234 147.52 295.641 147.781 296.031
 c 148.043 296.422 148.34 296.793 148.66 297.133 c 148.984 297.477 149.332
 297.793 149.707 298.074 c 150.082 298.355 150.48 298.602 150.891 298.809
 c 151.305 299.016 151.738 299.184 152.18 299.309 c 152.621 299.43 153.07
 299.512 153.527 299.547 c 153.98 299.586 154.438 299.578 154.891 299.523
 c 155.344 299.469 155.789 299.371 156.227 299.23 c 156.664 299.09 157.09
 298.906 157.496 298.684 c 157.902 298.461 158.289 298.199 158.652 297.906
 c 159.016 297.609 159.355 297.281 159.664 296.93 c 159.977 296.574 160.258
 296.195 160.504 295.797 c 160.754 295.402 160.969 294.984 161.148 294.562
 c 161.328 294.137 161.473 293.703 161.586 293.27 c 161.695 292.836 161.77
 292.402 161.809 291.98 c 161.848 291.559 161.852 291.145 161.824 290.75
 c S Q
1.879136 w
4 M q 1 0 0 -1 0 372.279724 cm
163.285 289.301 m 176.27 277.391 190.719 263.566 198.93 255.938 c 231.027
 226.113 226.699 229.684 226.699 229.684 c S Q
193.422 111.225 m 193.227 105.916 l 200.305 117.623 l 188.109 111.42 l 
h
193.422 111.225 m f*
0.688309 w
q -1 -0.929156 -0.929156 1 0 372.279724 cm
26.371 -236.552 m 29.123 -239.303 l 19.487 -236.55 l 29.125 -233.798 l 
h
26.371 -236.552 m S Q
1.889831 w
q 1 0 0 -1 0 372.279724 cm
229.301 352.23 m 215.875 339.285 200.633 325.141 192.09 317 c 158.691 285.16
 162.961 289.668 162.961 289.668 c S Q
197.559 50.065 m 202.902 50.194 l 190.723 56.584 l 197.688 44.721 l h
197.559 50.065 m f*
0.683939 w
q 1 -0.953288 -0.953288 -1 0 372.279724 cm
264.424 70.142 m 267.16 67.406 l 257.587 70.141 l 267.161 72.877 l h
264.424 70.142 m S Q
9.582 18.873 10.082 -0.742 re f
18.211 15.053 m 18.211 15.139 l 18.152 15.155 l 18.152 15.217 l 18.098 
15.225 l 18.098 15.256 l 18.039 15.264 l 18.039 15.28 l 17.984 15.284 l 
17.984 15.295 l 17.93 15.295 l 17.648 15.295 16.527 14.338 16.023 13.635
 c 15.41 14.932 14.344 15.319 13.449 15.319 c 13.449 14.788 l 15.238 14.788
 15.633 12.842 15.633 12.678 c 15.633 12.53 14.121 7.264 14.008 7.166 c 
13.617 6.495 12.047 4.956 10.48 4.956 c 8.797 4.956 8.688 6.811 8.688 7.221
 c 8.688 8.373 9.527 10.991 9.977 11.998 c 10.816 13.78 12.27 14.788 13.449
 14.788 c 13.449 15.319 l 10.145 15.319 6.727 11.756 6.727 8.272 c 6.727
 5.92 8.352 4.424 10.367 4.424 c 11.598 4.424 12.664 4.998 13.672 5.87 c
 13.449 5.03 12.496 1.78 12.438 1.565 c 12.215 0.893 11.992 0.791 10.422
 0.772 c 10.086 0.772 9.809 0.772 9.809 0.291 c 9.809 0.268 9.809 0.026 
10.145 0.026 c 11.039 0.026 11.992 0.104 12.945 0.104 c 13.895 0.104 14.902
 0.026 15.801 0.026 c 15.969 0.026 16.305 0.026 16.305 0.506 c 16.305 0.772
 16.023 0.772 15.578 0.772 c 14.23 0.772 14.23 0.948 14.23 1.155 c 14.23
 1.327 14.289 1.471 14.344 1.686 c h
18.211 15.053 m f
11.707 143.553 m 11.707 143.643 l 11.652 143.659 l 11.652 143.721 l 11.594
 143.729 l 11.594 143.76 l 11.535 143.768 l 11.535 143.784 l 11.48 143.788
 l 11.48 143.799 l 11.422 143.799 l 11.137 143.799 9.996 142.834 9.484 142.12
 c 8.859 143.432 7.773 143.823 6.863 143.823 c 6.863 143.288 l 8.688 143.288
 9.086 141.323 9.086 141.155 c 9.086 141.002 7.547 135.682 7.434 135.584
 c 7.035 134.909 5.438 133.35 3.84 133.35 c 2.129 133.35 2.016 135.225 2.016
 135.639 c 2.016 136.803 2.871 139.448 3.328 140.467 c 4.184 142.268 5.664
 143.288 6.863 143.288 c 6.863 143.823 l 3.5 143.823 0.02 140.225 0.02 136.702
 c 0.02 134.327 1.676 132.815 3.727 132.815 c 4.98 132.815 6.062 133.397
 7.09 134.272 c 6.863 133.424 5.895 130.143 5.836 129.924 c 5.609 129.245
 5.379 129.143 3.785 129.123 c 3.441 129.123 3.156 129.123 3.156 128.635
 c 3.156 128.612 3.156 128.366 3.5 128.366 c 4.41 128.366 5.379 128.444 
6.348 128.444 c 7.316 128.444 8.344 128.366 9.258 128.366 c 9.426 128.366
 9.77 128.366 9.77 128.854 c 9.77 129.123 9.484 129.123 9.027 129.123 c 
7.66 129.123 7.66 129.299 7.66 129.51 c 7.66 129.686 7.719 129.831 7.773
 130.045 c h
11.707 143.553 m f
283.848 71.182 11.66 -0.766 re f
290.195 67.01 m 290.195 67.143 l 290.129 67.155 l 290.129 67.206 l 290.066
 67.209 l 290.066 67.241 l 290 67.245 l 290 67.26 l 289.938 67.264 l 289.938
 67.272 l 289.871 67.28 l 289.809 67.284 l 289.031 67.284 286.699 67.081
 285.855 67.038 c 285.598 67.01 285.207 66.991 285.207 66.518 c 285.207 
66.248 285.531 66.248 286.051 66.248 c 287.605 66.248 287.605 66.022 287.605
 65.831 c 287.539 65.334 l 283.461 53.03 l 283.395 52.76 283.266 52.581 
283.266 52.186 c 283.266 50.788 284.754 49.924 286.246 49.924 c 287.281 
49.924 288.121 50.416 288.641 51.303 c 289.223 52.241 289.613 53.67 289.613
 53.717 c 289.613 53.963 289.352 53.963 289.223 53.963 c 288.898 53.963 
288.898 53.862 288.77 53.514 c 288.254 51.92 287.605 50.467 286.309 50.467
 c 285.336 50.467 285.336 51.252 285.336 51.604 c 285.336 52.186 285.402
 52.311 285.531 52.784 c h
290.195 67.01 m f
280.871 123.538 m 280.871 123.694 l 280.785 123.706 l 280.785 123.764 l
 280.699 123.768 l 280.699 123.803 l 280.617 123.807 l 280.617 123.827 l
 280.531 123.831 l 280.531 123.842 l 280.445 123.85 l 280.359 123.854 l 
279.34 123.854 276.277 123.62 275.172 123.565 c 274.832 123.538 274.324 
123.514 274.324 122.959 c 274.324 122.647 274.75 122.647 275.43 122.647 
c 277.469 122.647 277.469 122.381 277.469 122.155 c 277.383 121.581 l 272.027
 107.194 l 271.941 106.873 271.773 106.666 271.773 106.206 c 271.773 104.569
 273.727 103.557 275.684 103.557 c 277.043 103.557 278.148 104.135 278.828
 105.17 c 279.594 106.268 280.105 107.94 280.105 107.995 c 280.105 108.284
 279.766 108.284 279.594 108.284 c 279.172 108.284 279.172 108.163 279 107.76
 c 278.32 105.893 277.469 104.194 275.77 104.194 c 274.492 104.194 274.492
 105.112 274.492 105.522 c 274.492 106.206 274.578 106.35 274.75 106.905
 c h
280.871 123.538 m f
231.125 160.936 m 231.125 161.045 l 231.078 161.053 l 231.078 161.12 l 
231.027 161.127 l 231.027 161.159 l 230.98 161.163 l 230.98 161.182 l 230.934
 161.19 l 230.934 161.198 l 230.883 161.198 l 230.883 161.206 l 230.836 
161.209 l 230.25 161.209 228.5 161.006 227.871 160.959 c 227.676 160.936
 227.383 160.916 227.383 160.463 c 227.383 160.17 227.629 160.17 227.969
 160.17 c 229.133 160.17 229.184 159.998 229.184 159.748 c 229.184 159.573
 228.988 158.737 228.844 158.217 c 226.848 150.163 l 226.559 148.924 226.461
 148.534 226.461 147.67 c 226.461 145.323 227.773 143.784 229.57 143.784
 c 229.57 144.331 l 228.746 144.331 227.918 144.995 227.918 146.827 c 227.918
 147.295 227.918 147.764 228.309 149.319 c 228.844 151.596 l 228.988 152.143
 228.988 152.186 229.23 152.459 c 230.398 154.061 231.516 154.432 232.098
 154.432 c 233.023 154.432 233.652 153.702 233.652 152.112 c 233.652 150.655
 232.828 147.819 232.391 146.87 c 231.613 145.225 230.496 144.331 229.57
 144.331 c 229.57 143.784 l 232.391 143.784 235.402 147.471 235.402 151.026
 c 235.402 153.272 234.09 154.979 232.148 154.979 c 231.078 154.979 230.059
 154.264 229.328 153.495 c h
231.125 160.936 m f
241.359 24.252 8.871 -0.734 re f
246.367 20.268 m 246.367 20.373 l 246.316 20.381 l 246.316 20.444 l 246.266
 20.452 l 246.266 20.479 l 246.219 20.487 l 246.219 20.502 l 246.168 20.51
 l 246.168 20.518 l 246.117 20.518 l 246.117 20.522 l 246.07 20.526 l 245.473
 20.526 243.691 20.334 243.047 20.291 c 242.848 20.268 242.551 20.248 242.551
 19.819 c 242.551 19.541 242.797 19.541 243.145 19.541 c 244.332 19.541 
244.383 19.377 244.383 19.139 c 244.383 18.971 244.184 18.178 244.035 17.682
 c 242.004 10.018 l 241.707 8.838 241.609 8.467 241.609 7.643 c 241.609 
5.413 242.945 3.948 244.781 3.948 c 244.781 4.467 l 243.938 4.467 243.094
 5.1 243.094 6.842 c 243.094 7.291 243.094 7.733 243.492 9.217 c 244.035
 11.381 l 244.184 11.901 244.184 11.944 244.434 12.202 c 245.621 13.729 
246.762 14.081 247.355 14.081 c 248.301 14.081 248.945 13.381 248.945 11.873
 c 248.945 10.487 248.102 7.788 247.656 6.885 c 246.863 5.319 245.723 4.467
 244.781 4.467 c 244.781 3.948 l 247.656 3.948 250.727 7.456 250.727 10.838
 c 250.727 12.975 249.391 14.6 247.406 14.6 c 246.316 14.6 245.277 13.92
 244.531 13.19 c h
246.367 20.268 m f
208.391 81.62 m 208.391 81.631 l 208.426 81.647 l 208.426 81.78 l 208.461
 81.799 l 208.461 81.866 l 208.461 82.018 208.355 82.018 207.996 82.018 
c 200.465 82.018 l 200.035 82.018 200.035 82.002 199.93 81.686 c 198.926
 78.713 l 198.887 78.631 198.887 78.518 198.887 78.483 c 198.887 78.467 
198.887 78.299 199.102 78.299 c 199.246 78.299 199.281 78.42 199.32 78.467
 c 200 80.416 200.934 81.506 203.727 81.506 c 206.633 81.506 l 196.664 71.19
 l 196.664 71.174 196.559 70.944 196.559 70.893 c 196.559 70.745 196.703
 70.745 197.023 70.745 c 204.805 70.745 l 205.234 70.745 205.234 70.76 205.344
 71.077 c 206.598 74.721 l 206.633 74.784 206.703 74.905 206.703 74.967 
c 206.703 75.049 206.598 75.151 206.453 75.151 c 206.309 75.151 206.273 
75.088 206.168 74.741 c 205.379 72.495 204.516 71.303 201.469 71.303 c 198.422
 71.303 l h
208.391 81.62 m f
215.848 82.495 m 215.848 82.502 l 215.883 82.514 l 215.883 82.6 l 215.918
 82.616 l 215.918 82.717 l 215.953 82.725 l 215.953 82.795 l 215.953 82.975
 215.773 83.12 215.598 83.12 c 215.453 83.12 215.344 83.073 215.273 82.975
 c 209.07 67.248 l 209 67.034 209 66.967 209 66.952 c 209 66.772 209.141
 66.62 209.359 66.62 c 209.609 66.62 209.645 66.733 209.75 67.014 c h
215.848 82.495 m f
217.711 74.936 m 217.746 75.026 l 217.781 75.112 l 217.82 75.194 l 217.891
 75.35 l 217.926 75.424 l 217.961 75.495 l 218 75.565 l 218.07 75.635 l 
218.141 75.76 l 218.215 75.819 l 218.285 75.932 l 218.395 76.038 l 218.5
 76.135 l 218.609 76.221 l 218.75 76.303 l 218.859 76.377 l 218.965 76.444
 l 219.074 76.506 l 219.18 76.557 l 219.289 76.608 l 219.434 76.651 l 219.539
 76.686 l 219.648 76.721 l 219.719 76.745 l 219.828 76.768 l 219.934 76.788
 l 220.008 76.807 l 220.113 76.819 l 220.184 76.831 l 220.258 76.838 l 220.328
 76.842 l 220.402 76.85 l 220.438 76.85 l 220.473 76.854 l 220.543 76.854
 l 223.234 76.854 223.414 73.963 223.414 72.659 c 223.414 71.651 223.34 
71.37 223.234 71.038 c 222.84 69.842 222.301 67.924 222.301 67.495 c 222.301
 67.315 222.371 67.194 222.516 67.194 c 222.73 67.194 222.91 67.561 223.09
 68.186 c 223.52 69.577 223.699 70.514 223.734 71.026 c 223.77 71.241 223.805
 71.452 223.879 71.67 c 224.453 73.303 225.598 75.76 226.316 77.065 c 226.461
 77.26 226.676 77.627 226.676 77.69 c 226.676 77.858 226.496 77.858 226.461
 77.858 c 226.387 77.858 226.281 77.858 226.246 77.745 c 225.312 76.174 
224.594 74.526 223.879 72.858 c 223.879 73.37 223.844 74.62 223.16 76.225
 c 222.73 77.229 222.016 78.038 220.758 78.038 c 218.535 78.038 217.281 
75.53 217.281 75.022 c 217.281 74.854 217.461 74.854 217.641 74.854 c h
217.711 74.936 m f
232.125 77.791 m 232.125 78.065 l 232.09 78.092 l 232.09 78.194 l 232.055
 78.217 l 232.055 78.241 l 232.016 78.26 l 232.016 78.303 l 231.98 78.319
 l 231.98 78.331 l 231.945 78.338 l 231.945 78.354 l 231.91 78.362 l 231.91
 78.377 l 231.875 78.381 l 231.875 78.389 l 231.836 78.393 l 231.836 78.401
 l 231.801 78.401 l 231.801 78.409 l 231.73 78.416 l 231.73 78.42 l 231.66
 78.42 l 231.371 78.42 231.156 78.206 231.191 77.991 c 231.191 77.772 l 
231.441 75.217 l 229.184 76.752 l 229.004 76.834 228.969 76.87 228.824 76.87
 c 228.609 76.87 228.359 76.635 228.359 76.409 c 228.359 76.143 228.539 
76.077 228.719 75.995 c 231.266 74.87 l 228.789 73.768 l 228.504 73.631 
228.359 73.565 228.359 73.319 c 228.359 73.073 228.609 72.858 228.824 72.858
 c 228.969 72.858 229.004 72.858 229.473 73.174 c 231.441 74.506 l 231.191
 71.737 l 231.191 71.389 231.516 71.303 231.66 71.303 c 231.875 71.303 232.125
 71.424 232.125 71.737 c 231.875 74.506 l 234.133 72.971 l 234.312 72.893
 234.348 72.858 234.492 72.858 c 234.707 72.858 234.957 73.088 234.957 73.319
 c 234.957 73.565 234.777 73.651 234.562 73.745 c 233.523 74.241 233.488
 74.241 232.055 74.854 c 234.527 75.963 l 234.812 76.092 234.957 76.159 
234.957 76.409 c 234.957 76.659 234.707 76.87 234.492 76.87 c 234.348 76.87
 234.312 76.87 233.844 76.549 c 231.875 75.217 l h
232.125 77.791 m f
125.914 62.057 m 125.914 62.081 l 125.969 62.104 l 125.969 62.295 l 126.023
 62.323 l 126.023 62.416 l 126.023 62.768 125.688 62.967 125.188 62.967 
c 124.91 62.967 124.184 62.823 124.07 62.1 c 123.57 62.842 122.566 63.37
 121.508 63.37 c 121.508 62.924 l 123.348 62.924 123.738 61.291 123.738 
61.19 c 123.738 61.092 123.684 60.975 123.625 60.889 c 122.289 57.038 l 
122.176 56.514 121.508 56.014 120.895 55.627 c 120.336 55.264 119.445 54.901
 118.664 54.901 c 117.27 54.901 116.824 55.952 116.824 56.752 c 116.824 
57.725 117.66 60.104 118.383 61.131 c 119.164 62.123 120.336 62.924 121.508
 62.924 c 121.508 63.37 l 118.328 63.37 114.871 60.549 114.871 57.647 c 
114.871 55.647 116.543 54.456 118.551 54.456 c 120.223 54.456 121.508 55.409
 121.785 55.627 c 121.785 55.612 l 121.227 53.811 120.895 52.983 120.895
 52.948 c 120.781 52.76 119.836 50.764 116.879 50.764 c 116.379 50.764 115.484
 50.788 114.648 50.967 c 115.484 51.151 115.82 51.674 115.82 52.014 c 115.82
 52.338 115.484 52.725 114.762 52.725 c 114.148 52.725 113.254 52.354 113.254
 51.553 c 113.254 50.725 114.258 50.319 116.934 50.319 c 120.391 50.319 
122.453 51.893 122.844 53.104 c h
125.914 62.057 m f
Q Q
showpage
%%Trailer
end restore
%%EOF
