%!PS-Adobe-3.0 EPSF-3.0
%%Creator: cairo 1.13.1 (http://cairographics.org)
%%CreationDate: Fri Aug  1 02:38:41 2014
%%Pages: 1
%%DocumentData: Clean7Bit
%%LanguageLevel: 2
%%BoundingBox: 0 -1 221 192
%%EndComments
%%BeginProlog
save
50 dict begin
/q { gsave } bind def
/Q { grestore } bind def
/cm { 6 array astore concat } bind def
/w { setlinewidth } bind def
/J { setlinecap } bind def
/j { setlinejoin } bind def
/M { setmiterlimit } bind def
/d { setdash } bind def
/m { moveto } bind def
/l { lineto } bind def
/c { curveto } bind def
/h { closepath } bind def
/re { exch dup neg 3 1 roll 5 3 roll moveto 0 rlineto
      0 exch rlineto 0 rlineto closepath } bind def
/S { stroke } bind def
/f { fill } bind def
/f* { eofill } bind def
/n { newpath } bind def
/W { clip } bind def
/W* { eoclip } bind def
/BT { } bind def
/ET { } bind def
/pdfmark where { pop globaldict /?pdfmark /exec load put }
    { globaldict begin /?pdfmark /pop load def /pdfmark
    /cleartomark load def end } ifelse
/BDC { mark 3 1 roll /BDC pdfmark } bind def
/EMC { mark /EMC pdfmark } bind def
/cairo_store_point { /cairo_point_y exch def /cairo_point_x exch def } def
/Tj { show currentpoint cairo_store_point } bind def
/TJ {
  {
    dup
    type /stringtype eq
    { show } { -0.001 mul 0 cairo_font_matrix dtransform rmoveto } ifelse
  } forall
  currentpoint cairo_store_point
} bind def
/cairo_selectfont { cairo_font_matrix aload pop pop pop 0 0 6 array astore
    cairo_font exch selectfont cairo_point_x cairo_point_y moveto } bind def
/Tf { pop /cairo_font exch def /cairo_font_matrix where
      { pop cairo_selectfont } if } bind def
/Td { matrix translate cairo_font_matrix matrix concatmatrix dup
      /cairo_font_matrix exch def dup 4 get exch 5 get cairo_store_point
      /cairo_font where { pop cairo_selectfont } if } bind def
/Tm { 2 copy 8 2 roll 6 array astore /cairo_font_matrix exch def
      cairo_store_point /cairo_font where { pop cairo_selectfont } if } bind def
/g { setgray } bind def
/rg { setrgbcolor } bind def
/d1 { setcachedevice } bind def
%%EndProlog
%%BeginSetup
%%EndSetup
%%Page: 1 1
%%BeginPageSetup
%%PageBoundingBox: 0 -1 221 192
%%EndPageSetup
q 0 -1 221 193 rectclip q
0 g
1.6 w
0 J
0 j
[] 0.0 d
4 M q 1 0 0 -1 0 398.139801 cm
26.844 247.277 m 40.773 256.348 56.59 266.266 65.453 271.977 c 100.105 
294.289 95.68 291.137 95.68 291.137 c S Q
60.074 129.628 m 55.652 128.671 l 66.801 125.3 l 59.117 134.054 l h
60.074 129.628 m f*
0.672594 w
q -1 0.643997 0.643997 1 0 398.139801 cm
-164.692 -162.451 m -162.002 -165.14 l -171.417 -162.448 l -162.001 -159.758
 l h
-164.692 -162.451 m S Q
1.175838 w
q 1 0 0 -1 0 398.139801 cm
95.137 292.121 m 95.156 300.469 95.523 309.84 95.594 315.129 c 95.871 335.82
 96.109 333.098 96.109 333.098 c S Q
95.531 87.714 m 93.148 90.03 l 95.609 81.835 l 97.852 90.097 l h
95.531 87.714 m f*
0.587867 w
q -0.0133795 1 1 0.0133795 0 398.139801 cm
-311.648 91.362 m -309.3 89.01 l -317.527 91.361 l -309.297 93.713 l h
-311.648 91.362 m S Q
1.6 w
q 1 0 0 -1 0 398.139801 cm
96.672 334.426 m 83.441 344.496 68.781 356.055 60.426 362.48 c 27.754 387.609
 32.211 384.504 32.211 384.504 c S Q
65.496 39.562 m 66.082 44.046 l 59.156 34.683 l 69.984 38.976 l h
65.496 39.562 m f*
0.634116 w
q 1 0.769177 0.769177 -1 0 398.139801 cm
-132.137 256.941 m -129.602 254.407 l -138.478 256.943 l -129.6 259.478
 l h
-132.137 256.941 m S Q
1.807436 w
1.5 M q 1 0 0 -1 0 398.139801 cm
95.535 287.906 m 95.785 288.094 96.039 288.293 96.301 288.496 c 96.562 
288.703 96.832 288.914 97.098 289.125 c 97.363 289.34 97.629 289.551 97.895
 289.758 c 98.156 289.965 98.418 290.168 98.668 290.359 c 98.922 290.555
 99.168 290.734 99.398 290.898 c 99.633 291.066 99.855 291.215 100.066 291.344
 c 100.273 291.477 100.469 291.586 100.645 291.672 c 100.824 291.758 100.984
 291.82 101.125 291.859 c 101.27 291.895 101.391 291.906 101.496 291.891
 c 101.602 291.875 101.688 291.828 101.754 291.758 c 101.82 291.688 101.863
 291.59 101.895 291.465 c 101.922 291.34 101.93 291.188 101.922 291.012 
c 101.914 290.836 101.891 290.637 101.848 290.418 c 101.809 290.199 101.754
 289.957 101.688 289.699 c 101.621 289.441 101.543 289.168 101.457 288.883
 c 101.371 288.594 101.277 288.297 101.176 287.992 c 101.078 287.688 100.973
 287.379 100.871 287.066 c 100.766 286.758 100.66 286.445 100.562 286.141
 c 100.461 285.832 100.363 285.531 100.273 285.242 c 100.184 284.949 100.102
 284.672 100.031 284.406 c 99.961 284.145 99.898 283.895 99.855 283.664 
c 99.809 283.438 99.777 283.23 99.762 283.043 c 99.75 282.859 99.75 282.699
 99.77 282.562 c 99.789 282.43 99.828 282.32 99.887 282.238 c 99.945 282.156
 100.023 282.102 100.121 282.074 c 100.219 282.047 100.332 282.047 100.469
 282.074 c 100.605 282.098 100.758 282.152 100.93 282.23 c 101.098 282.305
 101.285 282.406 101.488 282.527 c 101.691 282.652 101.91 282.793 102.137
 282.953 c 102.367 283.113 102.609 283.289 102.859 283.477 c 103.105 283.664
 103.363 283.863 103.625 284.066 c 103.887 284.273 104.152 284.484 104.422
 284.695 c 104.688 284.91 104.953 285.121 105.219 285.328 c 105.48 285.535
 105.742 285.738 105.992 285.93 c 106.246 286.121 106.488 286.305 106.723
 286.469 c 106.957 286.633 107.18 286.785 107.387 286.914 c 107.594 287.043
 107.789 287.152 107.965 287.238 c 108.141 287.324 108.301 287.383 108.441
 287.422 c 108.586 287.457 108.707 287.469 108.812 287.449 c 108.918 287.434
 109 287.387 109.066 287.316 c 109.133 287.246 109.18 287.145 109.207 287.02
 c 109.234 286.895 109.242 286.742 109.234 286.566 c 109.223 286.391 109.199
 286.191 109.16 285.969 c 109.117 285.75 109.062 285.508 108.996 285.25 
c 108.93 284.988 108.852 284.715 108.766 284.43 c 108.68 284.141 108.582
 283.844 108.484 283.539 c 108.383 283.234 108.281 282.926 108.176 282.613
 c 108.074 282.305 107.969 281.992 107.867 281.688 c 107.766 281.379 107.668
 281.078 107.582 280.789 c 107.492 280.5 107.41 280.219 107.34 279.957 c
 107.27 279.691 107.207 279.445 107.164 279.215 c 107.117 278.988 107.086
 278.781 107.074 278.598 c 107.059 278.414 107.062 278.254 107.082 278.117
 c 107.105 277.984 107.145 277.875 107.203 277.793 c 107.262 277.715 107.34
 277.66 107.438 277.633 c 107.535 277.605 107.652 277.609 107.785 277.637
 c 107.922 277.66 108.078 277.715 108.25 277.793 c 108.418 277.871 108.609
 277.973 108.812 278.094 c 109.016 278.219 109.23 278.359 109.461 278.52
 c 109.691 278.68 109.934 278.855 110.18 279.043 c 110.43 279.234 110.688
 279.434 110.949 279.637 c 111.211 279.844 111.477 280.055 111.746 280.266
 c 112.012 280.48 112.277 280.691 112.543 280.898 c 112.805 281.105 113.062
 281.309 113.316 281.5 c 113.566 281.691 113.812 281.871 114.047 282.039
 c 114.277 282.203 114.5 282.352 114.707 282.48 c 114.914 282.609 115.109
 282.715 115.285 282.801 c 115.461 282.887 115.621 282.949 115.762 282.984
 c 115.902 283.02 116.027 283.027 116.129 283.008 c 116.234 282.992 116.316
 282.945 116.383 282.875 c 116.445 282.801 116.492 282.699 116.52 282.574
 c 116.543 282.449 116.555 282.297 116.543 282.117 c 116.535 281.941 116.508
 281.742 116.469 281.52 c 116.426 281.297 116.371 281.055 116.305 280.797
 c 116.238 280.539 116.16 280.262 116.07 279.977 c 115.984 279.688 115.891
 279.391 115.789 279.086 c 115.691 278.781 115.586 278.473 115.484 278.16
 c 115.379 277.852 115.273 277.539 115.176 277.234 c 115.074 276.926 114.977
 276.625 114.887 276.336 c 114.797 276.047 114.719 275.766 114.648 275.504
 c 114.578 275.242 114.52 274.992 114.473 274.766 c 114.43 274.539 114.398
 274.332 114.383 274.148 c 114.371 273.965 114.375 273.805 114.395 273.672
 c 114.418 273.539 114.457 273.43 114.516 273.352 c 114.574 273.27 114.656
 273.219 114.754 273.191 c 114.852 273.168 114.969 273.168 115.105 273.195
 c 115.242 273.227 115.395 273.277 115.566 273.359 c 115.738 273.438 115.93
 273.539 116.133 273.66 c 116.336 273.785 116.555 273.93 116.785 274.09 
c 117.012 274.25 117.254 274.426 117.504 274.613 c 117.754 274.801 118.012
 275.004 118.273 275.207 c 118.535 275.414 118.801 275.625 119.07 275.84
 c 119.336 276.051 119.602 276.262 119.867 276.469 c 120.129 276.676 120.387
 276.879 120.641 277.07 c 120.891 277.262 121.137 277.441 121.367 277.605
 c 121.602 277.77 121.82 277.918 122.027 278.047 c 122.234 278.176 122.43
 278.281 122.605 278.367 c 122.781 278.449 122.938 278.512 123.078 278.547
 c 123.223 278.578 123.344 278.59 123.445 278.57 c 123.547 278.551 123.633
 278.504 123.695 278.43 c 123.762 278.355 123.805 278.258 123.832 278.129
 c 123.855 278 123.863 277.848 123.855 277.672 c 123.848 277.492 123.82 
277.293 123.777 277.07 c 123.738 276.848 123.68 276.605 123.613 276.344 
c 123.547 276.086 123.469 275.812 123.379 275.523 c 123.293 275.238 123.199
 274.938 123.098 274.633 c 123 274.328 122.895 274.02 122.789 273.707 c 
122.688 273.395 122.582 273.086 122.48 272.777 c 122.383 272.473 122.285
 272.172 122.195 271.883 c 122.105 271.594 122.027 271.316 121.957 271.051
 c 121.887 270.789 121.828 270.543 121.781 270.316 c 121.738 270.09 121.707
 269.883 121.695 269.703 c 121.684 269.52 121.688 269.359 121.707 269.227
 c 121.73 269.094 121.77 268.988 121.832 268.906 c 121.891 268.828 121.969
 268.777 122.07 268.754 c 122.168 268.727 122.285 268.73 122.422 268.758
 c 122.559 268.789 122.715 268.844 122.887 268.922 c 123.059 269 123.25 
269.105 123.453 269.23 c 123.656 269.352 123.875 269.496 124.105 269.656
 c 124.336 269.82 124.578 269.996 124.828 270.184 c 125.078 270.371 125.336
 270.574 125.598 270.777 c 125.859 270.984 126.125 271.195 126.395 271.41
 c 126.66 271.621 126.926 271.832 127.191 272.043 c 127.453 272.25 127.711
 272.449 127.965 272.641 c 128.215 272.832 128.457 273.012 128.691 273.176
 c 128.922 273.34 129.145 273.484 129.352 273.613 c 129.559 273.742 129.75
 273.848 129.926 273.93 c 130.102 274.016 130.258 274.074 130.398 274.109
 c 130.539 274.141 130.66 274.148 130.762 274.129 c 130.863 274.109 130.949
 274.062 131.012 273.988 c 131.074 273.914 131.117 273.812 131.145 273.684
 c 131.168 273.555 131.176 273.402 131.168 273.223 c 131.156 273.047 131.129
 272.844 131.086 272.621 c 131.047 272.398 130.988 272.152 130.922 271.895
 c 130.855 271.633 130.773 271.359 130.688 271.07 c 130.602 270.785 130.504
 270.484 130.406 270.18 c 130.305 269.875 130.199 269.562 130.098 269.254
 c 129.992 268.941 129.887 268.633 129.789 268.324 c 129.688 268.02 129.59
 267.719 129.504 267.43 c 129.414 267.141 129.332 266.863 129.266 266.602
 c 129.195 266.34 129.137 266.094 129.094 265.867 c 129.047 265.641 129.02
 265.438 129.008 265.254 c 128.992 265.07 129 264.914 129.02 264.781 c 129.043
 264.648 129.086 264.543 129.145 264.465 c 129.207 264.387 129.285 264.336
 129.387 264.312 c 129.484 264.289 129.602 264.293 129.742 264.32 c 129.879
 264.352 130.035 264.406 130.207 264.488 c 130.379 264.566 130.57 264.672
 130.773 264.797 c 130.977 264.918 131.199 265.062 131.43 265.227 c 131.66
 265.387 131.902 265.566 132.152 265.754 c 132.402 265.941 132.66 266.145
 132.922 266.348 c 133.184 266.555 133.449 266.766 133.719 266.98 c 133.984
 267.191 134.25 267.402 134.512 267.609 c 134.777 267.816 135.035 268.02
 135.285 268.211 c 135.539 268.398 135.781 268.578 136.012 268.742 c 136.246
 268.906 136.465 269.055 136.672 269.18 c 136.879 269.305 137.07 269.414
 137.242 269.496 c 137.418 269.578 137.578 269.637 137.715 269.672 c 137.855
 269.703 137.977 269.711 138.078 269.691 c 138.18 269.668 138.262 269.621
 138.324 269.547 c 138.387 269.469 138.434 269.367 138.457 269.238 c 138.48
 269.109 138.488 268.953 138.477 268.777 c 138.469 268.598 138.438 268.395
 138.398 268.172 c 138.355 267.949 138.297 267.703 138.23 267.441 c 138.164
 267.184 138.082 266.906 137.996 266.617 c 137.906 266.332 137.812 266.031
 137.711 265.727 c 137.613 265.422 137.508 265.109 137.402 264.801 c 137.301
 264.488 137.195 264.18 137.094 263.871 c 136.996 263.566 136.898 263.266
 136.809 262.977 c 136.723 262.688 136.641 262.41 136.57 262.148 c 136.504
 261.887 136.445 261.645 136.402 261.418 c 136.359 261.191 136.328 260.988
 136.316 260.805 c 136.305 260.625 136.309 260.469 136.332 260.336 c 136.355
 260.207 136.398 260.102 136.461 260.023 c 136.52 259.945 136.602 259.895
 136.703 259.871 c 136.801 259.848 136.922 259.852 137.059 259.883 c 137.195
 259.914 137.352 259.973 137.527 260.051 c 137.699 260.133 137.891 260.238
 138.094 260.363 c 138.301 260.488 138.52 260.633 138.75 260.793 c 138.98
 260.957 139.223 261.133 139.473 261.324 c 139.727 261.512 139.984 261.715
 140.246 261.918 c 140.508 262.125 140.773 262.34 141.043 262.551 c 141.309
 262.762 141.574 262.977 141.836 263.184 c 142.102 263.391 142.359 263.59
 142.609 263.781 c 142.859 263.969 143.102 264.148 143.336 264.312 c 143.566
 264.473 143.785 264.621 143.992 264.746 c 144.199 264.875 144.391 264.98
 144.562 265.062 c 144.738 265.145 144.895 265.199 145.035 265.234 c 145.172
 265.266 145.293 265.27 145.395 265.25 c 145.496 265.227 145.578 265.18 
145.641 265.102 c 145.703 265.027 145.746 264.922 145.77 264.793 c 145.793
 264.664 145.801 264.508 145.789 264.328 c 145.777 264.148 145.75 263.945
 145.707 263.723 c 145.664 263.496 145.605 263.254 145.539 262.992 c 145.469
 262.73 145.391 262.453 145.301 262.168 c 145.215 261.879 145.117 261.578
 145.02 261.273 c 144.918 260.969 144.816 260.656 144.711 260.348 c 144.605
 260.035 144.504 259.723 144.402 259.418 c 144.301 259.113 144.207 258.812
 144.117 258.527 c S Q
1.49312 w
4 M q 1 0 0 -1 0 398.139801 cm
144.449 260.414 m 150.008 252.773 155.852 243.902 159.309 239.008 c 172.824
 219.875 170.73 222.168 170.73 222.168 c S Q
155.863 154.253 m 156.578 150.089 l 160.168 160.351 l 151.699 153.538 l
 h
155.863 154.253 m f*
0.609742 w
q -0.706487 -1 -1 0.706487 0 398.139801 cm
89.233 -218.905 m 91.674 -221.344 l 83.137 -218.903 l 91.672 -216.464 l
 h
89.233 -218.905 m S Q
1.26955 w
q 1 0 0 -1 0 398.139801 cm
187.211 283.312 m 178.461 278.715 168.48 273.855 162.906 270.992 c 141.109
 259.793 143.855 261.504 143.855 261.504 c S Q
167.422 124.827 m 170.84 125.929 l 161.777 127.73 l 168.52 121.409 l h
167.422 124.827 m f*
0.564615 w
q 1 -0.513776 -0.513776 -1 0 398.139801 cm
243.553 148.181 m 245.81 145.92 l 237.908 148.179 l 245.811 150.439 l h
243.553 148.181 m S Q
0.971238 w
1.5 M q 1 0 0 -1 0 398.139801 cm
96.93 331.453 m 96.898 331.797 96.895 332.152 96.918 332.512 c 96.941 332.871
 96.988 333.234 97.066 333.594 c 97.145 333.953 97.25 334.309 97.383 334.656
 c 97.516 335 97.68 335.336 97.863 335.652 c 98.051 335.973 98.262 336.27
 98.5 336.547 c 98.734 336.824 98.992 337.078 99.27 337.301 c 99.547 337.527
 99.844 337.723 100.156 337.887 c 100.469 338.051 100.797 338.18 101.133
 338.277 c 101.469 338.375 101.812 338.438 102.164 338.461 c 102.516 338.488
 102.867 338.48 103.219 338.434 c 103.57 338.391 103.922 338.312 104.266
 338.199 c 104.605 338.09 104.941 337.941 105.266 337.77 c 105.586 337.594
 105.895 337.391 106.188 337.164 c 106.477 336.938 106.75 336.684 107.004
 336.414 c 107.254 336.141 107.484 335.852 107.688 335.551 c 107.895 335.25
 108.074 334.938 108.227 334.617 c 108.379 334.301 108.504 333.977 108.602
 333.656 c 108.703 333.336 108.773 333.02 108.812 332.711 c 108.855 332.406
 108.871 332.109 108.859 331.828 c 108.852 331.547 108.812 331.281 108.754
 331.043 c 108.691 330.801 108.609 330.582 108.504 330.395 c 108.398 330.203
 108.277 330.043 108.137 329.91 c 108 329.781 107.844 329.684 107.68 329.621
 c 107.516 329.559 107.344 329.527 107.164 329.535 c 106.984 329.543 106.801
 329.586 106.621 329.66 c 106.438 329.738 106.258 329.852 106.082 329.996
 c 105.91 330.145 105.742 330.32 105.59 330.531 c 105.434 330.738 105.293
 330.977 105.168 331.242 c 105.043 331.504 104.938 331.793 104.852 332.098
 c 104.766 332.406 104.699 332.734 104.66 333.074 c 104.621 333.41 104.605
 333.762 104.617 334.121 c 104.629 334.477 104.668 334.84 104.734 335.203
 c 104.801 335.562 104.895 335.922 105.02 336.27 c 105.141 336.621 105.289
 336.961 105.465 337.285 c 105.641 337.609 105.844 337.918 106.07 338.203
 c 106.297 338.488 106.547 338.754 106.816 338.988 c 107.086 339.223 107.375
 339.434 107.68 339.609 c 107.988 339.785 108.309 339.93 108.641 340.039
 c 108.973 340.152 109.316 340.227 109.664 340.27 c 110.012 340.309 110.367
 340.312 110.719 340.285 c 111.07 340.254 111.422 340.188 111.766 340.09
 c 112.113 339.992 112.453 339.859 112.777 339.695 c 113.105 339.535 113.422
 339.34 113.719 339.125 c 114.016 338.906 114.297 338.664 114.559 338.398
 c 114.82 338.137 115.059 337.852 115.273 337.559 c 115.488 337.262 115.68
 336.953 115.844 336.637 c 116.004 336.32 116.145 335.996 116.254 335.676
 c 116.359 335.355 116.441 335.035 116.496 334.727 c 116.551 334.414 116.574
 334.113 116.574 333.824 c 116.574 333.539 116.547 333.266 116.496 333.016
 c 116.445 332.766 116.371 332.539 116.277 332.336 c 116.18 332.137 116.062
 331.961 115.93 331.82 c 115.801 331.676 115.652 331.566 115.492 331.488
 c 115.332 331.41 115.16 331.367 114.984 331.359 c 114.805 331.355 114.625
 331.383 114.441 331.445 c 114.258 331.508 114.078 331.605 113.902 331.738
 c 113.723 331.871 113.555 332.039 113.395 332.234 c 113.234 332.43 113.09
 332.656 112.957 332.91 c 112.824 333.164 112.711 333.441 112.617 333.742
 c 112.523 334.039 112.449 334.359 112.398 334.695 c 112.348 335.027 112.324
 335.375 112.324 335.73 c 112.324 336.086 112.355 336.449 112.41 336.809
 c 112.465 337.172 112.547 337.531 112.66 337.883 c 112.77 338.238 112.91
 338.582 113.074 338.914 c 113.238 339.242 113.43 339.559 113.648 339.852
 c 113.863 340.148 114.105 340.422 114.367 340.668 c 114.629 340.914 114.91
 341.133 115.211 341.324 c 115.508 341.512 115.824 341.672 116.152 341.797
 c 116.48 341.918 116.82 342.008 117.164 342.066 c 117.512 342.121 117.863
 342.141 118.215 342.125 c 118.566 342.105 118.922 342.055 119.27 341.969
 c 119.617 341.887 119.957 341.766 120.289 341.617 c 120.621 341.465 120.941
 341.285 121.246 341.078 c 121.551 340.871 121.84 340.637 122.109 340.383
 c 122.379 340.129 122.625 339.852 122.852 339.559 c 123.074 339.27 123.277
 338.965 123.449 338.652 c 123.625 338.34 123.773 338.02 123.895 337.695
 c 124.016 337.375 124.105 337.055 124.172 336.738 c 124.238 336.426 124.273
 336.117 124.285 335.824 c 124.293 335.531 124.277 335.254 124.234 334.996
 c 124.195 334.738 124.129 334.5 124.043 334.289 c 123.953 334.074 123.848
 333.891 123.723 333.734 c 123.594 333.582 123.453 333.457 123.297 333.363
 c 123.141 333.273 122.977 333.219 122.801 333.195 c 122.625 333.172 122.445
 333.188 122.262 333.238 c 122.082 333.285 121.898 333.371 121.719 333.488
 c 121.539 333.609 121.367 333.762 121.203 333.945 c 121.039 334.129 120.887
 334.344 120.75 334.586 c 120.613 334.828 120.488 335.098 120.387 335.387
 c 120.285 335.68 120.203 335.992 120.141 336.32 c 120.082 336.648 120.047
 336.992 120.039 337.344 c 120.027 337.695 120.047 338.055 120.09 338.414
 c 120.133 338.777 120.207 339.141 120.305 339.496 c 120.406 339.852 120.535
 340.199 120.688 340.535 c 120.844 340.871 121.023 341.195 121.23 341.496
 c 121.438 341.801 121.668 342.082 121.922 342.34 c 122.176 342.598 122.449
 342.828 122.742 343.031 c 123.035 343.23 123.344 343.402 123.668 343.543
 c 123.988 343.68 124.324 343.785 124.668 343.852 c 125.012 343.922 125.363
 343.957 125.715 343.953 c 126.066 343.953 126.418 343.914 126.77 343.844
 c 127.117 343.773 127.465 343.668 127.801 343.527 c 128.137 343.391 128.461
 343.223 128.773 343.027 c 129.082 342.828 129.379 342.605 129.656 342.359
 c 129.934 342.113 130.191 341.844 130.426 341.559 c 130.656 341.277 130.867
 340.977 131.055 340.664 c 131.238 340.355 131.398 340.039 131.527 339.715
 c 131.66 339.395 131.766 339.074 131.84 338.758 c 131.918 338.441 131.965
 338.129 131.984 337.832 c 132.008 337.531 132 337.246 131.969 336.98 c 
131.938 336.715 131.883 336.465 131.805 336.246 c 131.727 336.023 131.625
 335.824 131.508 335.66 c 131.387 335.492 131.25 335.355 131.102 335.25 
c 130.949 335.145 130.789 335.074 130.617 335.039 c 130.445 335.004 130.266
 335 130.086 335.035 c 129.902 335.07 129.719 335.141 129.539 335.246 c 
129.359 335.352 129.184 335.492 129.016 335.664 c 128.848 335.832 128.688
 336.039 128.547 336.27 c 128.402 336.5 128.273 336.758 128.164 337.039 
c 128.051 337.324 127.961 337.629 127.891 337.949 c 127.824 338.27 127.777
 338.609 127.758 338.957 c 127.738 339.305 127.746 339.664 127.777 340.023
 c 127.812 340.383 127.871 340.746 127.961 341.105 c 128.047 341.461 128.164
 341.816 128.309 342.156 c 128.453 342.5 128.625 342.828 128.82 343.137 
c 129.016 343.449 129.238 343.742 129.48 344.008 c 129.727 344.273 129.992
 344.52 130.277 344.73 c 130.562 344.945 130.867 345.129 131.184 345.281
 c 131.5 345.43 131.832 345.551 132.172 345.633 c 132.512 345.715 132.859
 345.766 133.211 345.777 c 133.562 345.789 133.918 345.766 134.27 345.707
 c 134.617 345.652 134.969 345.559 135.305 345.434 c 135.645 345.309 135.977
 345.152 136.293 344.969 c 136.609 344.781 136.914 344.57 137.199 344.332
 c 137.48 344.094 137.746 343.836 137.992 343.555 c 138.234 343.277 138.453
 342.984 138.648 342.676 c 138.844 342.371 139.016 342.055 139.156 341.734
 c 139.301 341.418 139.414 341.094 139.504 340.773 c 139.59 340.457 139.648
 340.141 139.68 339.84 c 139.711 339.535 139.719 339.242 139.695 338.969
 c 139.676 338.695 139.629 338.441 139.559 338.207 c 139.488 337.977 139.398
 337.77 139.285 337.59 c 139.176 337.41 139.047 337.262 138.902 337.145 
c 138.758 337.023 138.598 336.941 138.43 336.891 c 138.262 336.84 138.086
 336.824 137.906 336.848 c 137.727 336.867 137.543 336.922 137.359 337.012
 c 137.18 337.105 137 337.23 136.828 337.387 c 136.656 337.547 136.496 337.738
 136.344 337.957 c 136.195 338.176 136.059 338.426 135.941 338.699 c 135.824
 338.973 135.727 339.27 135.648 339.582 c 135.57 339.898 135.516 340.23 
135.484 340.574 c 135.453 340.918 135.449 341.273 135.473 341.633 c 135.496
 341.988 135.543 342.352 135.621 342.715 c 135.699 343.074 135.805 343.43
 135.938 343.773 c 136.07 344.121 136.23 344.457 136.414 344.773 c 136.602
 345.09 136.812 345.391 137.047 345.668 c 137.281 345.945 137.543 346.199
 137.82 346.426 c 138.098 346.648 138.395 346.844 138.703 347.012 c 139.016
 347.176 139.344 347.305 139.68 347.402 c 140.016 347.5 140.359 347.562 
140.711 347.59 c 141.062 347.617 141.414 347.609 141.766 347.566 c 142.117
 347.52 142.469 347.441 142.812 347.332 c 143.152 347.219 143.488 347.074
 143.812 346.902 c 144.133 346.727 144.441 346.523 144.734 346.297 c 145.027
 346.07 145.301 345.82 145.551 345.547 c 145.805 345.277 146.035 344.988
 146.238 344.688 c 146.445 344.387 146.625 344.074 146.777 343.754 c 146.934
 343.438 147.059 343.113 147.156 342.793 c 147.254 342.473 147.324 342.156
 147.367 341.848 c 147.414 341.543 147.426 341.242 147.418 340.965 c 147.406
 340.684 147.371 340.418 147.309 340.176 c 147.25 339.934 147.168 339.719
 147.062 339.527 c 146.961 339.336 146.836 339.172 146.699 339.043 c 146.559
 338.914 146.406 338.816 146.242 338.75 c 146.078 338.688 145.902 338.656
 145.727 338.664 c 145.547 338.668 145.363 338.711 145.18 338.789 c 145 
338.863 144.816 338.977 144.645 339.121 c 144.469 339.266 144.305 339.445
 144.148 339.652 c 143.996 339.863 143.852 340.098 143.727 340.363 c 143.602
 340.625 143.496 340.914 143.41 341.219 c 143.32 341.527 143.258 341.852
 143.219 342.191 c 143.176 342.531 143.16 342.883 143.172 343.238 c 143.184
 343.598 143.223 343.961 143.289 344.32 c 143.355 344.68 143.449 345.039
 143.57 345.391 c 143.691 345.738 143.84 346.082 144.016 346.406 c 144.191
 346.73 144.395 347.039 144.621 347.324 c 144.844 347.609 145.094 347.875
 145.363 348.109 c 145.633 348.348 145.922 348.555 146.23 348.73 c 146.535
 348.91 146.855 349.055 147.188 349.164 c 147.52 349.277 147.863 349.355
 148.211 349.395 c 148.559 349.438 148.91 349.441 149.266 349.414 c 149.617
 349.383 149.969 349.316 150.312 349.219 c 150.66 349.121 151 348.992 151.324
 348.828 c 151.652 348.668 151.969 348.477 152.266 348.258 c 152.566 348.039
 152.848 347.797 153.109 347.535 c 153.367 347.273 153.609 346.988 153.824
 346.691 c 154.039 346.398 154.23 346.086 154.395 345.773 c 154.559 345.457
 154.695 345.133 154.805 344.812 c 154.914 344.492 154.996 344.172 155.051
 343.863 c S Q
1.240465 w
4 M q 1 0 0 -1 0 398.139801 cm
154.348 347.09 m 164.137 340.203 175.031 332.215 181.223 327.809 c 205.43
 310.57 202.164 312.637 202.164 312.637 c S Q
177.18 67.456 m 176.598 63.995 l 182.234 71.054 l 173.723 68.038 l h
177.18 67.456 m f*
0.505229 w
q -1 -0.712086 -0.712086 1 0 398.139801 cm
38.681 -303.139 m 40.703 -305.161 l 33.628 -303.14 l 40.7 -301.119 l h
38.681 -303.139 m S Q
1.199078 w
q 1 0 0 -1 0 398.139801 cm
201.871 382.27 m 192.363 374.906 181.574 366.867 175.523 362.234 c 151.879
 344.133 154.902 346.695 154.902 346.695 c S Q
179.332 32.991 m 182.695 33.437 l 174.574 36.632 l 179.777 29.628 l h
179.332 32.991 m f*
0.476049 w
q 1 -0.765574 -0.765574 -1 0 398.139801 cm
289.313 143.658 m 291.218 141.754 l 284.556 143.659 l 291.217 145.564 l
 h
289.313 143.658 m S Q
10.539 18.874 10.086 -0.742 re f
19.168 15.054 m 19.168 15.14 l 19.109 15.155 l 19.109 15.218 l 19.055 15.226
 l 19.055 15.257 l 19 15.265 l 19 15.28 l 18.941 15.284 l 18.941 15.292 
l 18.887 15.292 l 18.605 15.292 17.488 14.339 16.98 13.632 c 16.367 14.933
 15.301 15.319 14.406 15.319 c 14.406 14.788 l 16.199 14.788 16.59 12.843
 16.59 12.679 c 16.59 12.53 15.078 7.265 14.965 7.167 c 14.574 6.495 13.004
 4.956 11.438 4.956 c 9.758 4.956 9.645 6.812 9.645 7.222 c 9.645 8.374 
10.484 10.987 10.934 11.999 c 11.773 13.777 13.23 14.788 14.406 14.788 c
 14.406 15.319 l 11.102 15.319 7.684 11.757 7.684 8.273 c 7.684 5.921 9.309
 4.425 11.324 4.425 c 12.559 4.425 13.621 4.999 14.629 5.87 c 14.406 5.03
 13.453 1.78 13.398 1.566 c 13.172 0.894 12.949 0.792 11.379 0.773 c 11.043
 0.773 10.766 0.773 10.766 0.292 c 10.766 0.265 10.766 0.027 11.102 0.027
 c 11.996 0.027 12.949 0.101 13.902 0.101 c 14.855 0.101 15.863 0.027 16.758
 0.027 c 16.926 0.027 17.262 0.027 17.262 0.507 c 17.262 0.773 16.98 0.773
 16.535 0.773 c 15.191 0.773 15.191 0.948 15.191 1.155 c 15.191 1.327 15.246
 1.472 15.301 1.687 c h
19.168 15.054 m f
11.707 153.132 m 11.707 153.222 l 11.652 153.234 l 11.652 153.3 l 11.594
 153.308 l 11.594 153.339 l 11.535 153.347 l 11.535 153.362 l 11.48 153.366
 l 11.48 153.378 l 11.422 153.378 l 11.137 153.378 9.996 152.409 9.484 151.698
 c 8.859 153.011 7.773 153.402 6.863 153.402 c 6.863 152.866 l 8.688 152.866
 9.086 150.898 9.086 150.734 c 9.086 150.581 7.547 145.261 7.434 145.163
 c 7.035 144.487 5.438 142.929 3.84 142.929 c 2.129 142.929 2.016 144.804
 2.016 145.218 c 2.016 146.382 2.871 149.027 3.328 150.046 c 4.184 151.847
 5.664 152.866 6.863 152.866 c 6.863 153.402 l 3.5 153.402 0.02 149.8 0.02
 146.28 c 0.02 143.905 1.676 142.394 3.727 142.394 c 4.98 142.394 6.062 
142.972 7.09 143.851 c 6.863 143.003 5.895 139.722 5.836 139.503 c 5.609
 138.823 5.379 138.722 3.785 138.702 c 3.441 138.702 3.156 138.702 3.156
 138.214 c 3.156 138.191 3.156 137.944 3.5 137.944 c 4.41 137.944 5.379 
138.023 6.348 138.023 c 7.316 138.023 8.344 137.944 9.258 137.944 c 9.426
 137.944 9.77 137.944 9.77 138.433 c 9.77 138.702 9.484 138.702 9.027 138.702
 c 7.66 138.702 7.66 138.878 7.66 139.085 c 7.66 139.261 7.719 139.409 7.773
 139.624 c h
11.707 153.132 m f
193.816 136.312 11.66 -0.766 re f
200.164 132.14 m 200.164 132.273 l 200.098 132.284 l 200.098 132.335 l 
200.035 132.339 l 200.035 132.366 l 199.969 132.374 l 199.969 132.386 l 
199.906 132.394 l 199.906 132.402 l 199.84 132.405 l 199.773 132.413 l 199
 132.413 196.668 132.21 195.824 132.167 c 195.566 132.14 195.176 132.12 
195.176 131.648 c 195.176 131.378 195.5 131.378 196.02 131.378 c 197.574
 131.378 197.574 131.152 197.574 130.96 c 197.508 130.464 l 193.43 118.159
 l 193.363 117.89 193.234 117.71 193.234 117.316 c 193.234 115.917 194.723
 115.054 196.215 115.054 c 197.25 115.054 198.09 115.546 198.609 116.429
 c 199.191 117.37 199.582 118.796 199.582 118.847 c 199.582 119.093 199.32
 119.093 199.191 119.093 c 198.867 119.093 198.867 118.991 198.738 118.644
 c 198.223 117.05 197.574 115.597 196.277 115.597 c 195.305 115.597 195.305
 116.382 195.305 116.734 c 195.305 117.316 195.371 117.441 195.5 117.913
 c h
200.164 132.14 m f
183.176 190.581 m 183.176 190.737 l 183.094 190.749 l 183.094 190.808 l
 183.008 190.812 l 183.008 190.847 l 182.922 190.855 l 182.922 190.87 l 
182.836 190.878 l 182.836 190.89 l 182.754 190.894 l 182.668 190.902 l 181.648
 190.902 178.586 190.663 177.48 190.612 c 177.141 190.581 176.629 190.558
 176.629 190.003 c 176.629 189.691 177.055 189.691 177.734 189.691 c 179.777
 189.691 179.777 189.425 179.777 189.202 c 179.691 188.624 l 174.332 174.237
 l 174.25 173.921 174.078 173.71 174.078 173.249 c 174.078 171.612 176.035
 170.605 177.988 170.605 c 179.352 170.605 180.457 171.183 181.137 172.214
 c 181.902 173.312 182.41 174.984 182.41 175.042 c 182.41 175.331 182.07
 175.331 181.902 175.331 c 181.477 175.331 181.477 175.206 181.305 174.804
 c 180.625 172.937 179.777 171.237 178.074 171.237 c 176.801 171.237 176.801
 172.159 176.801 172.569 c 176.801 173.249 176.883 173.394 177.055 173.948
 c h
183.176 190.581 m f
211.973 95.808 m 211.973 95.917 l 211.922 95.925 l 211.922 95.991 l 211.875
 95.999 l 211.875 96.03 l 211.824 96.034 l 211.824 96.054 l 211.777 96.058
 l 211.777 96.069 l 211.727 96.069 l 211.727 96.073 l 211.68 96.081 l 211.098
 96.081 209.348 95.874 208.715 95.831 c 208.52 95.808 208.227 95.788 208.227
 95.335 c 208.227 95.042 208.473 95.042 208.812 95.042 c 209.977 95.042 
210.027 94.87 210.027 94.62 c 210.027 94.444 209.832 93.609 209.688 93.089
 c 207.695 85.034 l 207.402 83.796 207.305 83.402 207.305 82.538 c 207.305
 80.194 208.617 78.655 210.414 78.655 c 210.414 79.202 l 209.59 79.202 208.762
 79.866 208.762 81.698 c 208.762 82.167 208.762 82.632 209.152 84.191 c 
209.688 86.468 l 209.832 87.015 209.832 87.058 210.074 87.331 c 211.242 
88.933 212.359 89.304 212.941 89.304 c 213.867 89.304 214.5 88.569 214.5
 86.984 c 214.5 85.527 213.672 82.687 213.234 81.741 c 212.457 80.093 211.34
 79.202 210.414 79.202 c 210.414 78.655 l 213.234 78.655 216.246 82.343 
216.246 85.898 c 216.246 88.144 214.934 89.851 212.992 89.851 c 211.922 
89.851 210.902 89.136 210.172 88.366 c h
211.973 95.808 m f
207.836 28.081 11.594 -0.801 re f
214.379 23.722 m 214.379 23.835 l 214.312 23.847 l 214.312 23.913 l 214.25
 23.925 l 214.25 23.956 l 214.184 23.96 l 214.184 23.98 l 214.121 23.987
 l 214.121 23.995 l 214.055 23.995 l 214.055 24.003 l 213.992 24.007 l 213.215
 24.007 210.883 23.796 210.039 23.749 c 209.781 23.722 209.391 23.702 209.391
 23.234 c 209.391 22.929 209.715 22.929 210.168 22.929 c 211.723 22.929 
211.789 22.749 211.789 22.487 c 211.789 22.304 211.531 21.437 211.336 20.894
 c 208.68 12.507 l 208.289 11.214 208.16 10.808 208.16 9.909 c 208.16 7.464
 209.91 5.866 212.305 5.866 c 212.305 6.433 l 211.207 6.433 210.105 7.124
 210.105 9.03 c 210.105 9.523 210.105 10.007 210.621 11.628 c 211.336 13.999
 l 211.531 14.566 211.531 14.612 211.852 14.898 c 213.406 16.566 214.898
 16.952 215.676 16.952 c 216.906 16.952 217.746 16.187 217.746 14.534 c 
217.746 13.019 216.645 10.062 216.062 9.077 c 215.027 7.362 213.539 6.433
 212.305 6.433 c 212.305 5.866 l 216.062 5.866 220.078 9.702 220.078 13.405
 c 220.078 15.745 218.332 17.523 215.738 17.523 c 214.312 17.523 212.953
 16.777 211.984 15.976 c h
214.379 23.722 m f
96.848 149.796 m 96.848 149.808 l 96.887 149.819 l 96.887 149.941 l 96.926
 149.952 l 96.926 150.015 l 96.926 150.148 96.805 150.148 96.402 150.148
 c 87.934 150.148 l 87.449 150.148 87.449 150.136 87.332 149.855 c 86.199
 147.23 l 86.16 147.155 86.16 147.054 86.16 147.023 c 86.16 147.007 86.16
 146.862 86.402 146.862 c 86.562 146.862 86.605 146.968 86.645 147.007 c
 87.41 148.734 88.461 149.694 91.605 149.694 c 94.871 149.694 l 83.66 140.577
 l 83.66 140.566 83.539 140.359 83.539 140.316 c 83.539 140.183 83.699 140.183
 84.062 140.183 c 92.812 140.183 l 93.297 140.183 93.297 140.198 93.418 
140.476 c 94.832 143.698 l 94.871 143.757 94.953 143.862 94.953 143.917 
c 94.953 143.991 94.832 144.077 94.668 144.077 c 94.508 144.077 94.469 144.023
 94.348 143.714 c 93.461 141.73 92.492 140.679 89.062 140.679 c 85.637 140.679
 l h
96.848 149.796 m f
105.234 150.569 m 105.234 150.577 l 105.273 150.585 l 105.273 150.663 l
 105.316 150.675 l 105.316 150.769 l 105.355 150.773 l 105.355 150.835 l
 105.355 150.991 105.152 151.12 104.953 151.12 c 104.789 151.12 104.668 
151.081 104.59 150.991 c 97.613 137.093 l 97.531 136.905 97.531 136.847 
97.531 136.831 c 97.531 136.671 97.695 136.538 97.938 136.538 c 98.219 136.538
 98.258 136.64 98.379 136.886 c h
105.234 150.569 m f
107.332 143.89 m 107.371 143.968 l 107.41 144.042 l 107.453 144.116 l 107.492
 144.187 l 107.531 144.253 l 107.574 144.319 l 107.652 144.444 l 107.734
 144.507 l 107.773 144.562 l 107.816 144.616 l 107.895 144.667 l 107.977
 144.769 l 108.098 144.862 l 108.219 144.948 l 108.34 145.027 l 108.5 145.097
 l 108.621 145.163 l 108.742 145.222 l 108.863 145.277 l 108.984 145.323
 l 109.105 145.366 l 109.266 145.405 l 109.387 145.437 l 109.508 145.464
 l 109.59 145.487 l 109.711 145.511 l 109.832 145.527 l 109.914 145.542 
l 110.031 145.554 l 110.195 145.569 l 110.273 145.573 l 110.355 145.581 
l 110.516 145.581 l 113.543 145.581 113.742 143.03 113.742 141.874 c 113.742
 140.987 113.664 140.737 113.543 140.444 c 113.098 139.386 112.492 137.691
 112.492 137.312 c 112.492 137.152 112.574 137.046 112.734 137.046 c 112.977
 137.046 113.18 137.37 113.379 137.925 c 113.863 139.152 114.066 139.98 
114.105 140.433 c 114.145 140.624 114.188 140.812 114.266 141.003 c 114.914
 142.444 116.203 144.616 117.008 145.769 c 117.172 145.941 117.414 146.269
 117.414 146.323 c 117.414 146.468 117.211 146.468 117.172 146.468 c 117.09
 146.468 116.969 146.468 116.93 146.37 c 115.879 144.984 115.074 143.523
 114.266 142.05 c 114.266 142.503 114.227 143.609 113.461 145.03 c 112.977
 145.917 112.172 146.632 110.758 146.632 c 108.258 146.632 106.848 144.413
 106.848 143.964 c 106.848 143.816 107.051 143.816 107.25 143.816 c h
107.332 143.89 m f
123.543 146.413 m 123.543 146.655 l 123.5 146.679 l 123.5 146.769 l 123.461
 146.788 l 123.461 146.808 l 123.422 146.827 l 123.422 146.866 l 123.379
 146.878 l 123.379 146.89 l 123.34 146.898 l 123.34 146.909 l 123.301 146.917
 l 123.301 146.929 l 123.258 146.937 l 123.258 146.941 l 123.219 146.944
 l 123.219 146.948 l 123.18 146.952 l 123.18 146.96 l 123.141 146.96 l 123.098
 146.964 l 123.098 146.968 l 123.02 146.968 l 122.695 146.968 122.453 146.777
 122.492 146.589 c 122.492 146.398 l 122.777 144.136 l 120.234 145.495 l
 120.035 145.569 119.992 145.597 119.832 145.597 c 119.59 145.597 119.309
 145.39 119.309 145.191 c 119.309 144.956 119.508 144.898 119.711 144.823
 c 122.574 143.827 l 119.793 142.859 l 119.469 142.737 119.309 142.679 119.309
 142.46 c 119.309 142.241 119.59 142.05 119.832 142.05 c 119.992 142.05 
120.035 142.05 120.559 142.331 c 122.777 143.511 l 122.492 141.058 l 122.492
 140.753 122.855 140.679 123.02 140.679 c 123.258 140.679 123.543 140.784
 123.543 141.058 c 123.258 143.511 l 125.801 142.152 l 126 142.085 126.043
 142.05 126.203 142.05 c 126.445 142.05 126.727 142.257 126.727 142.46 c
 126.727 142.679 126.527 142.753 126.285 142.835 c 125.113 143.277 125.074
 143.277 123.461 143.816 c 126.242 144.796 l 126.566 144.909 126.727 144.972
 126.727 145.191 c 126.727 145.409 126.445 145.597 126.203 145.597 c 126.043
 145.597 126 145.597 125.477 145.316 c 123.258 144.136 l h
123.543 146.413 m f
Q Q
showpage
%%Trailer
end restore
%%EOF
