%!PS-Adobe-2.0 EPSF-2.0
%%BoundingBox:  0 0 567 326
%%Title: /home/rohin/Analysis/dataAna/2014/February/16/plots_v2/Et_5_10/decisionTree.eps: Reading weight file: /home/rohin/Analysis/dataAna/2014/February/16/plots_v2/Et_5_10/weights/TMVAClassification_BDTG.weights.xml
%%Creator: ROOT Version 5.34/14
%%CreationDate: Sun Jul  6 18:40:36 2014
%%EndComments
%%BeginProlog
80 dict begin
/s {stroke} def /l {lineto} def /m {moveto} def /t {translate} def
/r {rotate} def /rl {roll}  def /R {repeat} def
/d {rlineto} def /rm {rmoveto} def /gr {grestore} def /f {eofill} def
/c {setrgbcolor} def /black {0 setgray} def /sd {setdash} def
/cl {closepath} def /sf {scalefont setfont} def /lw {setlinewidth} def
/box {m dup 0 exch d exch 0 d 0 exch neg d cl} def
/NC{systemdict begin initclip end}def/C{NC box clip newpath}def
/bl {box s} def /bf {box f} def /Y { 0 exch d} def /X { 0 d} def 
/K {{pop pop 0 moveto} exch kshow} bind def
/ita {/ang 15 def gsave [1 0 ang dup sin exch cos div 1 0 0] concat} def 
/mp {newpath /y exch def /x exch def} def
/side {[w .77 mul w .23 mul] .385 w mul sd w 0 l currentpoint t -144 r} def
/mr {mp x y w2 0 360 arc} def /m24 {mr s} def /m20 {mr f} def
/mb {mp x y w2 add m w2 neg 0 d 0 w neg d w 0 d 0 w d cl} def
/mt {mp x y w2 add m w2 neg w neg d w 0 d cl} def
/m21 {mb f} def /m25 {mb s} def /m22 {mt f} def /m26{mt s} def
/m23 {mp x y w2 sub m w2 w d w neg 0 d cl f} def
/m27 {mp x y w2 add m w3 neg w2 neg d w3 w2 neg d w3 w2 d cl s} def
/m28 {mp x w2 sub y w2 sub w3 add m w3 0 d  0 w3 neg d w3 0 d 0 w3 d w3 0 d  0 w3 d w3 neg 0 d 0 w3 d w3 neg 0 d 0 w3 neg d w3 neg 0 d cl s } def
/m29 {mp gsave x w2 sub y w2 add w3 sub m currentpoint t 4 {side} repeat cl fill gr} def
/m30 {mp gsave x w2 sub y w2 add w3 sub m currentpoint t 4 {side} repeat cl s gr} def
/m31 {mp x y w2 sub m 0 w d x w2 sub y m w 0 d x w2 sub y w2 add m w w neg d x w2 sub y w2 sub m w w d s} def
/m32 {mp x y w2 sub m w2 w d w neg 0 d cl s} def
/m33 {mp x y w2 add m w3 neg w2 neg d w3 w2 neg d w3 w2 d cl f} def
/m34 {mp x w2 sub y w2 sub w3 add m w3 0 d  0 w3 neg d w3 0 d 0 w3 d w3 0 d  0 w3 d w3 neg 0 d 0 w3 d w3 neg 0 d 0 w3 neg d w3 neg 0 d cl f } def
/m2 {mp x y w2 sub m 0 w d x w2 sub y m w 0 d s} def
/m5 {mp x w2 sub y w2 sub m w w d x w2 sub y w2 add m w w neg d s} def
/reEncode {exch findfont dup length dict begin {1 index /FID eq  {pop pop} {def} ifelse } forall /Encoding exch def currentdict end dup /FontName get exch definefont pop } def [/Times-Bold /Times-Italic /Times-BoldItalic /Helvetica /Helvetica-Oblique
 /Helvetica-Bold /Helvetica-BoldOblique /Courier /Courier-Oblique /Courier-Bold /Courier-BoldOblique /Times-Roman /AvantGarde-Book /AvantGarde-BookOblique /AvantGarde-Demi /AvantGarde-DemiOblique /Bookman-Demi /Bookman-DemiItalic /Bookman-Light
 /Bookman-LightItalic /Helvetica-Narrow /Helvetica-Narrow-Bold /Helvetica-Narrow-BoldOblique /Helvetica-Narrow-Oblique /NewCenturySchlbk-Roman /NewCenturySchlbk-Bold /NewCenturySchlbk-BoldItalic /NewCenturySchlbk-Italic /Palatino-Bold
 /Palatino-BoldItalic /Palatino-Italic /Palatino-Roman ] {ISOLatin1Encoding reEncode } forall
%%EndProlog
%%BeginSetup
%%EndSetup
newpath  gsave  .25 .25 scale  gsave  0 0 t 0.490196 0.545098 0.615686 c[  ] 0 sd 3 lw 1 1 1 c 2268 1302 0 0 bf 0.490196 0.545098 0.615686 c 6 lw 992 941 m -425 -145 d s 494 508 m -212 -146 d s 3 lw 0.35 0.83 0.33 c 0.490196 0.545098 0.615686 c 423
 289 71 73 bl 71 73 m 423 X s 494 73 m 289 Y s 494 362 m -423 X s 71 362 m -289 Y s 1 1 1 c black
 gsave  2268 1302 0 0 C 84.2425 200.361 t 0 r /Helvetica-Bold findfont 59.1974 sf 0 0 m (S/\(S+B\)=0.939) show NC gr  0.490196 0.545098 0.615686 c 6 lw 638 506 m 212 -144 d s 3 lw 0.24 0 0.76 c 0.490196 0.545098 0.615686 c 423 289 638 73 bl 638 73 m
 423 X s 1061 73 m 289 Y s 1061 362 m -423 X s 638 362 m -289 Y s 1 1 1 c black
 gsave  2268 1302 0 0 C 651.172 200.361 t 0 r /Helvetica-Bold findfont 59.1974 sf 0 0 m (S/\(S+B\)=0.767) show NC gr  0.490196 0.545098 0.615686 c 0.12 0 0.88 c 0.490196 0.545098 0.615686 c 453 289 339 508 bl 339 508 m 453 X s 792 508 m 289 Y s 792
 797 m -453 X s 339 797 m -289 Y s 1 1 1 c black
 gsave  2268 1302 0 0 C 350.631 708.092 t 0 r /Helvetica-Bold findfont 63.7511 sf 0 0 m (S/\(S+B\)=0.887) show NC gr 
 gsave  2268 1302 0 0 C 407.551 555.545 t 0 r /Helvetica-Bold findfont 63.7511 sf 0 0 m (reta<0.894) show NC gr  0.490196 0.545098 0.615686 c 6 lw 1276 941 m 425 -145 d s 1630 506 m -213 -144 d s 3 lw 0.45 0 0.55 c 0.490196 0.545098 0.615686 c 424
 289 1204 73 bl 1204 73 m 424 X s 1628 73 m 289 Y s 1628 362 m -424 X s 1204 362 m -289 Y s 1 1 1 c black
 gsave  2268 1302 0 0 C 1218.1 200.361 t 0 r /Helvetica-Bold findfont 59.1974 sf 0 0 m (S/\(S+B\)=0.557) show NC gr  0.490196 0.545098 0.615686 c 6 lw 1772 506 m 212 -144 d s 3 lw 0.88 0 0.12 c 0.490196 0.545098 0.615686 c 424 289 1771 73 bl 1771 73
 m 424 X s 2195 73 m 289 Y s 2195 362 m -424 X s 1771 362 m -289 Y s 1 1 1 c black
 gsave  2268 1302 0 0 C 1785.03 200.361 t 0 r /Helvetica-Bold findfont 59.1974 sf 0 0 m (S/\(S+B\)=0.127) show NC gr  0.490196 0.545098 0.615686 c 0.75 0 0.25 c 0.490196 0.545098 0.615686 c 453 289 1473 508 bl 1473 508 m 453 X s 1926 508 m 289 Y s
 1926 797 m -453 X s 1473 797 m -289 Y s 1 1 1 c black
 gsave  2268 1302 0 0 C 1491.32 708.092 t 0 r /Helvetica-Bold findfont 63.7511 sf 0 0 m (S/\(S+B\)=0.251) show NC gr 
 gsave  2268 1302 0 0 C 1502.7 562.375 t 0 r /Helvetica-Bold findfont 63.7511 sf 0 0 m (trackpt< 5.49) show NC gr  0.490196 0.545098 0.615686 c 0.5 0 0.5 c 0.490196 0.545098 0.615686 c 454 289 907 941 bl 907 941 m 454 X s 1361 941 m 289 Y s 1361 1230
 m -454 X s 907 1230 m -289 Y s 1 1 1 c black
 gsave  2268 1302 0 0 C 922.114 1140.69 t 0 r /Helvetica-Bold findfont 63.7511 sf 0 0 m (S/\(S+B\)=0.506) show NC gr 
 gsave  2268 1302 0 0 C 928.944 988.142 t 0 r /Helvetica-Bold findfont 63.7511 sf 0 0 m (EOverP> 1.15) show NC gr  0.490196 0.545098 0.615686 c 1 1 0.2 c 0.490196 0.545098 0.615686 c 294 173 1928 1116 bl 1928 1116 m 294 X s 2222 1116 m 173 Y s 2222
 1289 m -294 X s 1928 1289 m -173 Y s 1 1 1 c black
 gsave  2268 1302 0 0 C 1944.41 1193.06 t 0 r /Helvetica-Bold findfont 27.3219 sf 0 0 m (Decision Tree no.: 0) show NC gr 
 gr  gr showpage
end
%%EOF
