%!PS-Adobe-3.0 EPSF-3.0
%%Title: reta_scheme.fig
%%Creator: fig2dev Version 3.2 Patchlevel 5e
%%CreationDate: Tue Jul  8 00:46:22 2014
%%BoundingBox: 0 0 342 347
%Magnification: 1.0000
%%EndComments
%%BeginProlog
/$F2psDict 200 dict def
$F2psDict begin
$F2psDict /mtrx matrix put
/col-1 {0 setgray} bind def
/col0 {0.000 0.000 0.000 srgb} bind def
/col1 {0.000 0.000 1.000 srgb} bind def
/col2 {0.000 1.000 0.000 srgb} bind def
/col3 {0.000 1.000 1.000 srgb} bind def
/col4 {1.000 0.000 0.000 srgb} bind def
/col5 {1.000 0.000 1.000 srgb} bind def
/col6 {1.000 1.000 0.000 srgb} bind def
/col7 {1.000 1.000 1.000 srgb} bind def
/col8 {0.000 0.000 0.560 srgb} bind def
/col9 {0.000 0.000 0.690 srgb} bind def
/col10 {0.000 0.000 0.820 srgb} bind def
/col11 {0.530 0.810 1.000 srgb} bind def
/col12 {0.000 0.560 0.000 srgb} bind def
/col13 {0.000 0.690 0.000 srgb} bind def
/col14 {0.000 0.820 0.000 srgb} bind def
/col15 {0.000 0.560 0.560 srgb} bind def
/col16 {0.000 0.690 0.690 srgb} bind def
/col17 {0.000 0.820 0.820 srgb} bind def
/col18 {0.560 0.000 0.000 srgb} bind def
/col19 {0.690 0.000 0.000 srgb} bind def
/col20 {0.820 0.000 0.000 srgb} bind def
/col21 {0.560 0.000 0.560 srgb} bind def
/col22 {0.690 0.000 0.690 srgb} bind def
/col23 {0.820 0.000 0.820 srgb} bind def
/col24 {0.500 0.190 0.000 srgb} bind def
/col25 {0.630 0.250 0.000 srgb} bind def
/col26 {0.750 0.380 0.000 srgb} bind def
/col27 {1.000 0.500 0.500 srgb} bind def
/col28 {1.000 0.630 0.630 srgb} bind def
/col29 {1.000 0.750 0.750 srgb} bind def
/col30 {1.000 0.880 0.880 srgb} bind def
/col31 {1.000 0.840 0.000 srgb} bind def

end

/cp {closepath} bind def
/ef {eofill} bind def
/gr {grestore} bind def
/gs {gsave} bind def
/sa {save} bind def
/rs {restore} bind def
/l {lineto} bind def
/m {moveto} bind def
/rm {rmoveto} bind def
/n {newpath} bind def
/s {stroke} bind def
/sh {show} bind def
/slc {setlinecap} bind def
/slj {setlinejoin} bind def
/slw {setlinewidth} bind def
/srgb {setrgbcolor} bind def
/rot {rotate} bind def
/sc {scale} bind def
/sd {setdash} bind def
/ff {findfont} bind def
/sf {setfont} bind def
/scf {scalefont} bind def
/sw {stringwidth} bind def
/tr {translate} bind def
/tnt {dup dup currentrgbcolor
  4 -2 roll dup 1 exch sub 3 -1 roll mul add
  4 -2 roll dup 1 exch sub 3 -1 roll mul add
  4 -2 roll dup 1 exch sub 3 -1 roll mul add srgb}
  bind def
/shd {dup dup currentrgbcolor 4 -2 roll mul 4 -2 roll mul
  4 -2 roll mul srgb} bind def
/$F2psBegin {$F2psDict begin /$F2psEnteredState save def} def
/$F2psEnd {$F2psEnteredState restore end} def

/pageheader {
save
newpath 0 347 moveto 0 0 lineto 342 0 lineto 342 347 lineto closepath clip newpath
142.7 374.2 translate
1 -1 scale
$F2psBegin
10 setmiterlimit
0 slj 0 slc
 0.06299 0.06299 sc
} bind def
/pagefooter {
$F2psEnd
restore
} bind def
%%EndProlog
pageheader
%
% Fig objects follow
%
% 
% here starts figure with depth 50
% Polyline
0 slj
0 slc
7.500 slw
n -900 1350 m
 -900 4500 l gs col0 s gr 
% Polyline
n -450 1350 m
 -450 4500 l gs col0 s gr 
% Polyline
n 0 1350 m
 0 4500 l gs col0 s gr 
% Polyline
n 450 1350 m
 450 4500 l gs col0 s gr 
% Polyline
n 900 1350 m
 900 4500 l gs col0 s gr 
% Polyline
n 1350 1350 m
 1350 4500 l gs col0 s gr 
% Polyline
n -1350 4050 m
 1800 4050 l gs col0 s gr 
% Polyline
n 1800 3600 m
 -1350 3600 l gs col0 s gr 
% Polyline
n -1350 3150 m
 1800 3150 l gs col0 s gr 
% Polyline
n -1350 2250 m
 1800 2250 l gs col0 s gr 
% Polyline
n 1800 1800 m
 -1350 1800 l gs col0 s gr 
% Polyline
n -1350 900 m
 -1350 4950 l gs col0 s gr 
% Polyline
n 1800 900 m
 1800 4950 l gs col0 s gr 
% Polyline
n -1350 4950 m
 1800 4950 l gs col0 s gr 
% Polyline
n -1350 900 m
 1800 900 l gs col0 s gr 
% Polyline
n -1350 4500 m
 1800 4500 l gs col0 s gr 
% Polyline
n -1350 1350 m
 1800 1350 l gs col0 s gr 
% Polyline
n -900 4500 m
 -900 4950 l gs col0 s gr 
% Polyline
n -450 4500 m
 -450 4950 l gs col0 s gr 
% Polyline
n 0 4500 m
 0 4950 l gs col0 s gr 
% Polyline
n 450 4500 m
 450 4950 l gs col0 s gr 
% Polyline
n 900 4500 m
 900 4950 l gs col0 s gr 
% Polyline
n 1350 4500 m
 1350 4950 l gs col0 s gr 
% Polyline
n 1350 1350 m
 1350 900 l gs col0 s gr 
% Polyline
n 900 1350 m
 900 900 l gs col0 s gr 
% Polyline
n 450 1350 m
 450 900 l gs col0 s gr 
% Polyline
n 0 1350 m
 0 900 l gs col0 s gr 
% Polyline
n -450 1350 m
 -450 900 l gs col0 s gr 
% Polyline
n -900 1350 m
 -900 900 l gs col0 s gr 
% Polyline
n 2250 900 m 2250 4950 l
 1800 4950 l gs col0 s gr 
% Polyline
n 2250 900 m
 1800 900 l gs col0 s gr 
% Polyline
n 1800 1350 m
 2250 1350 l gs col0 s gr 
% Polyline
n 2250 1800 m
 1800 1800 l gs col0 s gr 
% Polyline
n 1800 2250 m
 2250 2250 l gs col0 s gr 
% Polyline
n 2250 2700 m
 1800 2700 l gs col0 s gr 
% Polyline
n 1800 3150 m
 2250 3150 l gs col0 s gr 
% Polyline
n 2250 3600 m
 1800 3600 l gs col0 s gr 
% Polyline
n 1800 4050 m
 2250 4050 l gs col0 s gr 
% Polyline
n 2250 4500 m
 1800 4500 l gs col0 s gr 
% Polyline
n 2250 4500 m
 2700 4500 l gs col0 s gr 
% Polyline
n 2250 4050 m
 2700 4050 l gs col0 s gr 
% Polyline
n 2250 3600 m
 2700 3600 l gs col0 s gr 
% Polyline
n 2250 3150 m
 2700 3150 l gs col0 s gr 
% Polyline
n 2250 2700 m
 2700 2700 l gs col0 s gr 
% Polyline
n 2250 2250 m
 2700 2250 l gs col0 s gr 
% Polyline
n 2250 1800 m
 2700 1800 l gs col0 s gr 
% Polyline
n 2250 1350 m
 2700 1350 l gs col0 s gr 
% Polyline
n 2250 900 m 2700 900 l 2700 4950 l
 2250 4950 l gs col0 s gr 
% Polyline
n 1800 2700 m
 -1350 2700 l gs col0 s gr 
% Polyline
n -900 3600 m -900 2250 l 2250 2250 l 2250 3600 l
 cp gs col6 1.00 shd ef gr gs col0 s gr 
% Polyline
n -900 3600 m 2250 3600 l 2250 4500 l -900 4500 l
 cp gs col12 1.00 shd ef gr gs col0 s gr 
% Polyline
n -900 2250 m 2250 2250 l 2250 1350 l -900 1350 l
 cp gs col12 1.00 shd ef gr gs col0 s gr 
% Polyline
n -900 1800 m 2250 1800 l 2250 2250 l -900 2250 l -900 2700 l 2250 2700 l
 2250 3150 l -900 3150 l -900 3600 l
 2250 3600 l gs col0 s gr 
% Polyline
n -450 1350 m -450 3600 l 0 3600 l 0 1350 l 450 1350 l 450 3600 l
 900 3600 l 900 1350 l 1350 1350 l 1350 3600 l 1800 3600 l

 1800 1350 l gs col0 s gr 
% Polyline
n -450 3600 m -450 4500 l 0 4500 l 0 3600 l 450 3600 l 450 4500 l
 900 4500 l 900 3600 l 1350 3600 l 1350 4500 l 1800 4500 l

 1800 3600 l gs col0 s gr 
% Polyline
n -900 4050 m
 2250 4050 l gs col0 s gr 
% Polyline
gs  clippath
2900 5430 m 3165 5430 l 3165 5370 l 2900 5370 l 2900 5370 l 3020 5400 l 2900 5430 l cp
eoclip
n -1800 5400 m
 3150 5400 l gs col0 s gr gr

% arrowhead
60.000 slw
n 2900 5430 m 3020 5400 l 2900 5370 l 2900 5430 l  cp gs 0.00 setgray ef gr  col0 s
% Polyline
7.500 slw
gs  clippath
-1769 700 m -1770 435 l -1830 435 l -1829 700 l -1829 700 l -1799 580 l -1769 700 l cp
eoclip
n -1800 5400 m
 -1800 450 l gs col0 s gr gr

% arrowhead
60.000 slw
n -1769 700 m -1799 580 l -1829 700 l -1769 700 l  cp gs 0.00 setgray ef gr  col0 s
/Symbol ff 333.38 scf sf
1350 5850 m
gs 1 -1 sc (h) col0 sh gr
/Symbol ff 333.38 scf sf
-2250 1350 m
gs 1 -1 sc (f) col0 sh gr
% here ends figure;
pagefooter
showpage
%%Trailer
%EOF
