#FIG 3.2  Produced by xfig version 3.2.5c
Landscape
Center
Metric
A4      
100.00
Single
-2
1200 2
2 2 0 1 0 12 50 -1 20 0.000 0 0 -1 0 0 5
	 5850 1350 7200 1350 7200 4500 5850 4500 5850 1350
2 2 0 1 0 6 50 -1 20 0.000 0 0 -1 0 0 5
	 5850 2250 7200 2250 7200 3600 5850 3600 5850 2250
2 2 0 1 0 7 50 -1 -1 0.000 0 0 -1 0 0 5
	 4500 900 8550 900 8550 4950 4500 4950 4500 900
2 1 0 1 0 7 50 -1 -1 0.000 0 0 -1 0 0 16
	 4500 1350 8550 1350 8550 1800 4500 1800 4500 2250 8550 2250
	 8550 2700 4500 2700 4500 3150 8550 3150 8550 3600 4500 3600
	 4500 4050 8550 4050 8550 4500 4500 4500
2 1 0 1 0 7 50 -1 -1 0.000 0 0 -1 0 0 16
	 4950 900 4950 4950 5400 4950 5400 900 5850 900 5850 4950
	 6300 4950 6300 900 6750 900 6750 4950 7200 4950 7200 900
	 7650 900 7650 4950 8100 4950 8100 900
2 1 0 1 0 7 50 -1 -1 0.000 0 0 -1 1 0 2
	1 1 5.00 60.00 120.00
	 4050 5400 9000 5400
2 1 0 1 0 7 50 -1 -1 0.000 0 0 -1 1 0 2
	1 1 5.00 60.00 120.00
	 4050 5400 4050 450
4 0 0 50 -1 32 21 0.0000 4 255 210 8550 5850 h\001
4 0 0 50 -1 32 21 0.0000 4 315 180 3600 900 f\001
