%!PS-Adobe-3.0 EPSF-3.0
%%Title: rphi_scheme.fig
%%Creator: fig2dev Version 3.2 Patchlevel 5e
%%CreationDate: Tue Jul  8 00:50:35 2014
%%BoundingBox: 0 0 342 347
%Magnification: 1.0000
%%EndComments
%%BeginProlog
/$F2psDict 200 dict def
$F2psDict begin
$F2psDict /mtrx matrix put
/col-1 {0 setgray} bind def
/col0 {0.000 0.000 0.000 srgb} bind def
/col1 {0.000 0.000 1.000 srgb} bind def
/col2 {0.000 1.000 0.000 srgb} bind def
/col3 {0.000 1.000 1.000 srgb} bind def
/col4 {1.000 0.000 0.000 srgb} bind def
/col5 {1.000 0.000 1.000 srgb} bind def
/col6 {1.000 1.000 0.000 srgb} bind def
/col7 {1.000 1.000 1.000 srgb} bind def
/col8 {0.000 0.000 0.560 srgb} bind def
/col9 {0.000 0.000 0.690 srgb} bind def
/col10 {0.000 0.000 0.820 srgb} bind def
/col11 {0.530 0.810 1.000 srgb} bind def
/col12 {0.000 0.560 0.000 srgb} bind def
/col13 {0.000 0.690 0.000 srgb} bind def
/col14 {0.000 0.820 0.000 srgb} bind def
/col15 {0.000 0.560 0.560 srgb} bind def
/col16 {0.000 0.690 0.690 srgb} bind def
/col17 {0.000 0.820 0.820 srgb} bind def
/col18 {0.560 0.000 0.000 srgb} bind def
/col19 {0.690 0.000 0.000 srgb} bind def
/col20 {0.820 0.000 0.000 srgb} bind def
/col21 {0.560 0.000 0.560 srgb} bind def
/col22 {0.690 0.000 0.690 srgb} bind def
/col23 {0.820 0.000 0.820 srgb} bind def
/col24 {0.500 0.190 0.000 srgb} bind def
/col25 {0.630 0.250 0.000 srgb} bind def
/col26 {0.750 0.380 0.000 srgb} bind def
/col27 {1.000 0.500 0.500 srgb} bind def
/col28 {1.000 0.630 0.630 srgb} bind def
/col29 {1.000 0.750 0.750 srgb} bind def
/col30 {1.000 0.880 0.880 srgb} bind def
/col31 {1.000 0.840 0.000 srgb} bind def

end

/cp {closepath} bind def
/ef {eofill} bind def
/gr {grestore} bind def
/gs {gsave} bind def
/sa {save} bind def
/rs {restore} bind def
/l {lineto} bind def
/m {moveto} bind def
/rm {rmoveto} bind def
/n {newpath} bind def
/s {stroke} bind def
/sh {show} bind def
/slc {setlinecap} bind def
/slj {setlinejoin} bind def
/slw {setlinewidth} bind def
/srgb {setrgbcolor} bind def
/rot {rotate} bind def
/sc {scale} bind def
/sd {setdash} bind def
/ff {findfont} bind def
/sf {setfont} bind def
/scf {scalefont} bind def
/sw {stringwidth} bind def
/tr {translate} bind def
/tnt {dup dup currentrgbcolor
  4 -2 roll dup 1 exch sub 3 -1 roll mul add
  4 -2 roll dup 1 exch sub 3 -1 roll mul add
  4 -2 roll dup 1 exch sub 3 -1 roll mul add srgb}
  bind def
/shd {dup dup currentrgbcolor 4 -2 roll mul 4 -2 roll mul
  4 -2 roll mul srgb} bind def
/$F2psBegin {$F2psDict begin /$F2psEnteredState save def} def
/$F2psEnd {$F2psEnteredState restore end} def

/pageheader {
save
newpath 0 347 moveto 0 0 lineto 342 0 lineto 342 347 lineto closepath clip newpath
-225.8 374.2 translate
1 -1 scale
$F2psBegin
10 setmiterlimit
0 slj 0 slc
 0.06299 0.06299 sc
} bind def
/pagefooter {
$F2psEnd
restore
} bind def
%%EndProlog
pageheader
%
% Fig objects follow
%
% 
% here starts figure with depth 50
% Polyline
0 slj
0 slc
7.500 slw
n 5850 1350 m 7200 1350 l 7200 4500 l 5850 4500 l
 cp gs col12 1.00 shd ef gr gs col0 s gr 
% Polyline
n 5850 2250 m 7200 2250 l 7200 3600 l 5850 3600 l
 cp gs col6 1.00 shd ef gr gs col0 s gr 
% Polyline
n 4500 900 m 8550 900 l 8550 4950 l 4500 4950 l
 cp gs col0 s gr 
% Polyline
n 4500 1350 m 8550 1350 l 8550 1800 l 4500 1800 l 4500 2250 l 8550 2250 l
 8550 2700 l 4500 2700 l 4500 3150 l 8550 3150 l 8550 3600 l
 4500 3600 l 4500 4050 l 8550 4050 l 8550 4500 l
 4500 4500 l gs col0 s gr 
% Polyline
n 4950 900 m 4950 4950 l 5400 4950 l 5400 900 l 5850 900 l 5850 4950 l
 6300 4950 l 6300 900 l 6750 900 l 6750 4950 l 7200 4950 l
 7200 900 l 7650 900 l 7650 4950 l 8100 4950 l
 8100 900 l gs col0 s gr 
% Polyline
gs  clippath
8750 5430 m 9015 5430 l 9015 5370 l 8750 5370 l 8750 5370 l 8870 5400 l 8750 5430 l cp
eoclip
n 4050 5400 m
 9000 5400 l gs col0 s gr gr

% arrowhead
60.000 slw
n 8750 5430 m 8870 5400 l 8750 5370 l 8750 5430 l  cp gs 0.00 setgray ef gr  col0 s
% Polyline
7.500 slw
gs  clippath
4080 700 m 4080 435 l 4020 435 l 4020 700 l 4020 700 l 4050 580 l 4080 700 l cp
eoclip
n 4050 5400 m
 4050 450 l gs col0 s gr gr

% arrowhead
60.000 slw
n 4080 700 m 4050 580 l 4020 700 l 4080 700 l  cp gs 0.00 setgray ef gr  col0 s
/Symbol ff 333.38 scf sf
8550 5850 m
gs 1 -1 sc (h) col0 sh gr
/Symbol ff 333.38 scf sf
3600 900 m
gs 1 -1 sc (f) col0 sh gr
% here ends figure;
pagefooter
showpage
%%Trailer
%EOF
