%!PS-Adobe-2.0 EPSF-2.0
%%BoundingBox:  0 0 567 384
%%Title: : c1
%%Creator: ROOT Version 5.34/14
%%CreationDate: Wed Aug 20 14:01:01 2014
%%EndComments
%%BeginProlog
80 dict begin
/s {stroke} def /l {lineto} def /m {moveto} def /t {translate} def
/r {rotate} def /rl {roll}  def /R {repeat} def
/d {rlineto} def /rm {rmoveto} def /gr {grestore} def /f {eofill} def
/c {setrgbcolor} def /black {0 setgray} def /sd {setdash} def
/cl {closepath} def /sf {scalefont setfont} def /lw {setlinewidth} def
/box {m dup 0 exch d exch 0 d 0 exch neg d cl} def
/NC{systemdict begin initclip end}def/C{NC box clip newpath}def
/bl {box s} def /bf {box f} def /Y { 0 exch d} def /X { 0 d} def 
/K {{pop pop 0 moveto} exch kshow} bind def
/ita {/ang 15 def gsave [1 0 ang dup sin exch cos div 1 0 0] concat} def 
/mp {newpath /y exch def /x exch def} def
/side {[w .77 mul w .23 mul] .385 w mul sd w 0 l currentpoint t -144 r} def
/mr {mp x y w2 0 360 arc} def /m24 {mr s} def /m20 {mr f} def
/mb {mp x y w2 add m w2 neg 0 d 0 w neg d w 0 d 0 w d cl} def
/mt {mp x y w2 add m w2 neg w neg d w 0 d cl} def
/m21 {mb f} def /m25 {mb s} def /m22 {mt f} def /m26{mt s} def
/m23 {mp x y w2 sub m w2 w d w neg 0 d cl f} def
/m27 {mp x y w2 add m w3 neg w2 neg d w3 w2 neg d w3 w2 d cl s} def
/m28 {mp x w2 sub y w2 sub w3 add m w3 0 d  0 w3 neg d w3 0 d 0 w3 d w3 0 d  0 w3 d w3 neg 0 d 0 w3 d w3 neg 0 d 0 w3 neg d w3 neg 0 d cl s } def
/m29 {mp gsave x w2 sub y w2 add w3 sub m currentpoint t 4 {side} repeat cl fill gr} def
/m30 {mp gsave x w2 sub y w2 add w3 sub m currentpoint t 4 {side} repeat cl s gr} def
/m31 {mp x y w2 sub m 0 w d x w2 sub y m w 0 d x w2 sub y w2 add m w w neg d x w2 sub y w2 sub m w w d s} def
/m32 {mp x y w2 sub m w2 w d w neg 0 d cl s} def
/m33 {mp x y w2 add m w3 neg w2 neg d w3 w2 neg d w3 w2 d cl f} def
/m34 {mp x w2 sub y w2 sub w3 add m w3 0 d  0 w3 neg d w3 0 d 0 w3 d w3 0 d  0 w3 d w3 neg 0 d 0 w3 d w3 neg 0 d 0 w3 neg d w3 neg 0 d cl f } def
/m2 {mp x y w2 sub m 0 w d x w2 sub y m w 0 d s} def
/m5 {mp x w2 sub y w2 sub m w w d x w2 sub y w2 add m w w neg d s} def
/reEncode {exch findfont dup length dict begin {1 index /FID eq  {pop pop} {def} ifelse } forall /Encoding exch def currentdict end dup /FontName get exch definefont pop } def [/Times-Bold /Times-Italic /Times-BoldItalic /Helvetica /Helvetica-Oblique
 /Helvetica-Bold /Helvetica-BoldOblique /Courier /Courier-Oblique /Courier-Bold /Courier-BoldOblique /Times-Roman /AvantGarde-Book /AvantGarde-BookOblique /AvantGarde-Demi /AvantGarde-DemiOblique /Bookman-Demi /Bookman-DemiItalic /Bookman-Light
 /Bookman-LightItalic /Helvetica-Narrow /Helvetica-Narrow-Bold /Helvetica-Narrow-BoldOblique /Helvetica-Narrow-Oblique /NewCenturySchlbk-Roman /NewCenturySchlbk-Bold /NewCenturySchlbk-BoldItalic /NewCenturySchlbk-Italic /Palatino-Bold
 /Palatino-BoldItalic /Palatino-Italic /Palatino-Roman ] {ISOLatin1Encoding reEncode } forall
%%EndProlog
%%BeginSetup
%%EndSetup
newpath  gsave  .25 .25 scale  gsave  0 0 t black[  ] 0 sd 3 lw 1 1 1 c 2268 1538 0 0 bf black 1 1 1 c 1883 1323 316 186 bf black 1883 1323 316 186 bl 1 1 1 c 1883 1323 316 186 bf black 1883 1323 316 186 bl 1 0.6 0.8 c 6 lw 1 1 1 c black 1 0.6 0.8 c
 316 1446 m 47 X -990 Y 47 X -126 Y 47 X -46 Y 47 X -26 Y 47 X -13 Y 48 X -5 Y 47 X -11 Y 47 X -1 Y 47 X -6 Y 47 X -5 Y 47 X -2 Y 47 X -2 Y 47 X -2 Y 47 X -4 Y 94 X -2 Y 47 X 1 Y 48 X -1 Y 47 X -1 Y 47 X 1 Y 47 X -2 Y 47 X -1 Y 94 X -1 Y 94 X -1 Y 94
 X 1 Y 94 X -2 Y 48 X 1 Y 47 X 1 Y 141 X 2 Y 47 X 1 Y 47 X -1 Y 94 X -11 Y 47 X s black 3 lw 316 186 m 1883 X s
 gsave  2268 1538 0 0 C 1687.75 42.3568 t 0 r /Helvetica findfont 71.6807 sf 0 0 m (BDTG response) show NC gr  505 224 m -38 Y s 552 205 m -19 Y s 599 205 m -19 Y s 647 205 m -19 Y s 694 224 m -38 Y s 741 205 m -19 Y s 788 205 m -19 Y s 836 205 m -19
 Y s 883 224 m -38 Y s 930 205 m -19 Y s 977 205 m -19 Y s 1025 205 m -19 Y s 1072 224 m -38 Y s 1119 205 m -19 Y s 1167 205 m -19 Y s 1214 205 m -19 Y s 1261 224 m -38 Y s 1308 205 m -19 Y s 1356 205 m -19 Y s 1403 205 m -19 Y s 1450 224 m -38 Y s
 1497 205 m -19 Y s 1545 205 m -19 Y s 1592 205 m -19 Y s 1639 224 m -38 Y s 1686 205 m -19 Y s 1734 205 m -19 Y s 1781 205 m -19 Y s 1828 224 m -38 Y s 1876 205 m -19 Y s 1923 205 m -19 Y s 1970 205 m -19 Y s 2017 224 m -38 Y s 505 224 m -38 Y s 457
 205 m -19 Y s 410 205 m -19 Y s 363 205 m -19 Y s 2017 224 m -38 Y s 2065 205 m -19 Y s 2112 205 m -19 Y s 2159 205 m -19 Y s
 gsave  2268 1538 0 0 C 439.859 117.296 t 0 r /Helvetica findfont 71.6807 sf 0 0 m (\2550.8) show NC gr 
 gsave  2268 1538 0 0 C 628.835 117.296 t 0 r /Helvetica findfont 71.6807 sf 0 0 m (\2550.6) show NC gr 
 gsave  2268 1538 0 0 C 817.812 117.296 t 0 r /Helvetica findfont 71.6807 sf 0 0 m (\2550.4) show NC gr 
 gsave  2268 1538 0 0 C 1010.05 117.296 t 0 r /Helvetica findfont 71.6807 sf 0 0 m (\2550.2) show NC gr 
 gsave  2268 1538 0 0 C 1241.38 117.296 t 0 r /Helvetica findfont 71.6807 sf 0 0 m (0) show NC gr 
 gsave  2268 1538 0 0 C 1401.03 117.296 t 0 r /Helvetica findfont 71.6807 sf 0 0 m (0.2) show NC gr 
 gsave  2268 1538 0 0 C 1590.01 117.296 t 0 r /Helvetica findfont 71.6807 sf 0 0 m (0.4) show NC gr 
 gsave  2268 1538 0 0 C 1778.98 117.296 t 0 r /Helvetica findfont 71.6807 sf 0 0 m (0.6) show NC gr 
 gsave  2268 1538 0 0 C 1967.96 117.296 t 0 r /Helvetica findfont 71.6807 sf 0 0 m (0.8) show NC gr  316 1509 m 1883 X s 505 1470 m 39 Y s 552 1489 m 20 Y s 599 1489 m 20 Y s 647 1489 m 20 Y s 694 1470 m 39 Y s 741 1489 m 20 Y s 788 1489 m 20 Y s 836
 1489 m 20 Y s 883 1470 m 39 Y s 930 1489 m 20 Y s 977 1489 m 20 Y s 1025 1489 m 20 Y s 1072 1470 m 39 Y s 1119 1489 m 20 Y s 1167 1489 m 20 Y s 1214 1489 m 20 Y s 1261 1470 m 39 Y s 1308 1489 m 20 Y s 1356 1489 m 20 Y s 1403 1489 m 20 Y s 1450 1470
 m 39 Y s 1497 1489 m 20 Y s 1545 1489 m 20 Y s 1592 1489 m 20 Y s 1639 1470 m 39 Y s 1686 1489 m 20 Y s 1734 1489 m 20 Y s 1781 1489 m 20 Y s 1828 1470 m 39 Y s 1876 1489 m 20 Y s 1923 1489 m 20 Y s 1970 1489 m 20 Y s 2017 1470 m 39 Y s 505 1470 m
 39 Y s 457 1489 m 20 Y s 410 1489 m 20 Y s 363 1489 m 20 Y s 2017 1470 m 39 Y s 2065 1489 m 20 Y s 2112 1489 m 20 Y s 2159 1489 m 20 Y s 316 186 m 1323 Y s
 gsave  2268 1538 0 0 C 159.652 1036.11 t 90 r /Helvetica findfont 71.6807 sf 0 0 m (Entries           ) show NC gr  375 186 m -59 X s 345 251 m -29 X s 345 316 m -29 X s 345 381 m -29 X s 375 447 m -59 X s 345 512 m -29 X s 345 577 m -29 X s 345 643
 m -29 X s 375 708 m -59 X s 345 773 m -29 X s 345 838 m -29 X s 345 904 m -29 X s 375 969 m -59 X s 345 1034 m -29 X s 345 1099 m -29 X s 345 1165 m -29 X s 375 1230 m -59 X s 345 1295 m -29 X s 345 1360 m -29 X s 345 1426 m -29 X s 375 1491 m -59 X
 s 375 1491 m -59 X s
 gsave  2268 1538 0 0 C 263.915 159.652 t 0 r /Helvetica findfont 71.6807 sf 0 0 m (0) show NC gr 
 gsave  2268 1538 0 0 C 263.915 420.31 t 0 r /Helvetica findfont 71.6807 sf 0 0 m (2) show NC gr 
 gsave  2268 1538 0 0 C 263.915 680.967 t 0 r /Helvetica findfont 71.6807 sf 0 0 m (4) show NC gr 
 gsave  2268 1538 0 0 C 263.915 944.882 t 0 r /Helvetica findfont 71.6807 sf 0 0 m (6) show NC gr 
 gsave  2268 1538 0 0 C 263.915 1205.54 t 0 r /Helvetica findfont 71.6807 sf 0 0 m (8) show NC gr 
 gsave  2268 1538 0 0 C 224.817 1466.2 t 0 r /Helvetica findfont 71.6807 sf 0 0 m (10) show NC gr  2199 186 m 1323 Y s 2141 186 m 58 X s 2170 251 m 29 X s 2170 316 m 29 X s 2170 381 m 29 X s 2141 447 m 58 X s 2170 512 m 29 X s 2170 577 m 29 X s 2170
 643 m 29 X s 2141 708 m 58 X s 2170 773 m 29 X s 2170 838 m 29 X s 2170 904 m 29 X s 2141 969 m 58 X s 2170 1034 m 29 X s 2170 1099 m 29 X s 2170 1165 m 29 X s 2141 1230 m 58 X s 2170 1295 m 29 X s 2170 1360 m 29 X s 2170 1426 m 29 X s 2141 1491 m
 58 X s 2141 1491 m 58 X s 0.6 0 0 c 6 lw 1 1 1 c 0.6 0 0 c 340 1422 m s 340 1435 m s 316 1428 m 17 X s 346 1428 m 17 X s 3 lw /w 13 def /w2 {w 2 div} def /w3 {w 3 div} def 340 1428 m20 6 lw 363 458 m 17 X s 393 458 m 17 X s 3 lw 387 458 m20 6 lw 410
 330 m 17 X s 440 330 m 17 X s 3 lw 434 330 m20 6 lw 457 286 m 17 X s 487 286 m 17 X s 3 lw 481 286 m20 6 lw 504 262 m 17 X s 534 262 m 17 X s 3 lw 528 262 m20 6 lw 551 248 m 17 X s 582 248 m 17 X s 3 lw 575 248 m20 6 lw 599 237 m 17 X s 629 237 m 17
 X s 3 lw 622 237 m20 6 lw 646 232 m 17 X s 676 232 m 17 X s 3 lw 669 232 m20 6 lw 693 229 m 17 X s 723 229 m 17 X s 3 lw 716 229 m20 6 lw 740 222 m 17 X s 770 222 m 17 X s 3 lw 763 222 m20 6 lw 787 218 m 17 X s 817 218 m 17 X s 3 lw 810 218 m20 6 lw
 834 217 m 17 X s 864 217 m 17 X s 3 lw 857 217 m20 6 lw 881 213 m 17 X s 911 213 m 17 X s 3 lw 905 213 m20 6 lw 928 211 m 17 X s 958 211 m 17 X s 3 lw 952 211 m20 6 lw 975 209 m 17 X s 1005 209 m 17 X s 3 lw 999 209 m20 6 lw 1022 208 m 17 X s 1052
 208 m 17 X s 3 lw 1046 208 m20 6 lw 1069 207 m 17 X s 1099 207 m 17 X s 3 lw 1093 207 m20 6 lw 1116 205 m 17 X s 1146 205 m 18 X s 3 lw 1140 205 m20 6 lw 1164 204 m 17 X s 1194 204 m 17 X s 3 lw 1187 204 m20 6 lw 1211 204 m 17 X s 1241 204 m 17 X s
 3 lw 1234 204 m20 6 lw 1258 204 m 17 X s 1288 204 m 17 X s 3 lw 1281 204 m20 6 lw 1305 202 m 17 X s 1335 202 m 17 X s 3 lw 1328 202 m20 6 lw 1352 201 m 17 X s 1382 201 m 17 X s 3 lw 1375 201 m20 6 lw 1399 201 m 17 X s 1429 201 m 17 X s 3 lw 1422 201
 m20 6 lw 1446 201 m 17 X s 1476 201 m 17 X s 3 lw 1470 201 m20 6 lw 1493 201 m 17 X s 1523 201 m 17 X s 3 lw 1517 201 m20 6 lw 1540 200 m 17 X s 1570 200 m 17 X s 3 lw 1564 200 m20 6 lw 1587 200 m 17 X s 1617 200 m 17 X s 3 lw 1611 200 m20 6 lw 1634
 201 m 17 X s 1664 201 m 17 X s 3 lw 1658 201 m20 6 lw 1681 201 m 17 X s 1711 201 m 17 X s 3 lw 1705 201 m20 6 lw 1728 201 m 18 X s 1759 201 m 17 X s 3 lw 1752 201 m20 6 lw 1776 200 m 17 X s 1806 200 m 17 X s 3 lw 1799 200 m20 6 lw 1823 202 m 17 X s
 1853 202 m 17 X s 3 lw 1846 202 m20 6 lw 1870 202 m 17 X s 1900 202 m 17 X s 3 lw 1893 202 m20 6 lw 1917 202 m 17 X s 1947 202 m 17 X s 3 lw 1940 202 m20 6 lw 1964 203 m 17 X s 1994 203 m 17 X s 3 lw 1987 203 m20 6 lw 2011 203 m 17 X s 2041 203 m 17
 X s 3 lw 2035 203 m20 6 lw 2058 204 m 17 X s 2088 204 m 17 X s 3 lw 2082 204 m20 6 lw 2105 203 m 17 X s 2135 203 m 17 X s 3 lw 2129 203 m20 6 lw 2152 193 m 17 X s 2182 193 m 17 X s 3 lw 2176 193 m20 6 lw 0 0.8 0.8 c 1 1 1 c black 0 0.8 0.8 c 316 195
 m 47 X 2 Y 47 X -2 Y 141 X -1 Y 48 X 1 Y 94 X -1 Y 47 X 2 Y 94 X 1 Y 47 X 1 Y 47 X -1 Y 47 X 1 Y 47 X 1 Y 47 X 1 Y 95 X 1 Y 94 X 2 Y 47 X 3 Y 47 X -1 Y 47 X 2 Y 94 X 5 Y 47 X 1 Y 47 X 6 Y 47 X 2 Y 47 X 4 Y 47 X 8 Y 48 X 4 Y 47 X 8 Y 47 X 16 Y 47 X
 30 Y 47 X 31 Y 47 X 57 Y 47 X 112 Y 47 X 224 Y 47 X 106 Y 47 X s 0 0 0.6 c 1 1 1 c 0 0 0.6 c 316 195 m 17 X s 346 195 m 17 X s 3 lw 340 195 m20 6 lw 363 195 m 17 X s 393 195 m 17 X s 3 lw 387 195 m20 6 lw 410 195 m 17 X s 440 195 m 17 X s 3 lw 434
 195 m20 6 lw 457 194 m 17 X s 487 194 m 17 X s 3 lw 481 194 m20 6 lw 504 195 m 17 X s 534 195 m 17 X s 3 lw 528 195 m20 6 lw 551 195 m 17 X s 582 195 m 17 X s 3 lw 575 195 m20 6 lw 599 195 m 17 X s 629 195 m 17 X s 3 lw 622 195 m20 6 lw 646 195 m 17
 X s 676 195 m 17 X s 3 lw 669 195 m20 6 lw 693 196 m 17 X s 723 196 m 17 X s 3 lw 716 196 m20 6 lw 740 196 m 17 X s 770 196 m 17 X s 3 lw 763 196 m20 6 lw 787 196 m 17 X s 817 196 m 17 X s 3 lw 810 196 m20 6 lw 834 197 m 17 X s 864 197 m 17 X s 3 lw
 857 197 m20 6 lw 881 197 m 17 X s 911 197 m 17 X s 3 lw 905 197 m20 6 lw 928 197 m 17 X s 958 197 m 17 X s 3 lw 952 197 m20 6 lw 975 198 m 17 X s 1005 198 m 17 X s 3 lw 999 198 m20 6 lw 1022 197 m 17 X s 1052 197 m 17 X s 3 lw 1046 197 m20 6 lw 1069
 198 m 17 X s 1099 198 m 17 X s 3 lw 1093 198 m20 6 lw 1116 199 m 17 X s 1146 199 m 18 X s 3 lw 1140 199 m20 6 lw 1164 201 m 17 X s 1194 201 m 17 X s 3 lw 1187 201 m20 6 lw 1211 202 m 17 X s 1241 202 m 17 X s 3 lw 1234 202 m20 6 lw 1258 201 m 17 X s
 1288 201 m 17 X s 3 lw 1281 201 m20 6 lw 1305 205 m 17 X s 1335 205 m 17 X s 3 lw 1328 205 m20 6 lw 1352 207 m 17 X s 1382 207 m 17 X s 3 lw 1375 207 m20 6 lw 1399 206 m 17 X s 1429 206 m 17 X s 3 lw 1422 206 m20 6 lw 1446 210 m 17 X s 1476 210 m 17
 X s 3 lw 1470 210 m20 6 lw 1493 211 m 17 X s 1523 211 m 17 X s 3 lw 1517 211 m20 6 lw 1540 214 m 17 X s 1570 214 m 17 X s 3 lw 1564 214 m20 6 lw 1587 216 m 17 X s 1617 216 m 17 X s 3 lw 1611 216 m20 6 lw 1634 221 m 17 X s 1664 221 m 17 X s 3 lw 1658
 221 m20 6 lw 1681 224 m 17 X s 1711 224 m 17 X s 3 lw 1705 224 m20 6 lw 1728 232 m 18 X s 1759 232 m 17 X s 3 lw 1752 232 m20 6 lw 1776 239 m 17 X s 1806 239 m 17 X s 3 lw 1799 239 m20 6 lw 1823 247 m 17 X s 1853 247 m 17 X s 3 lw 1846 247 m20 6 lw
 1870 266 m 17 X s 1900 266 m 17 X s 3 lw 1893 266 m20 6 lw 1917 285 m 17 X s 1947 285 m 17 X s 3 lw 1940 285 m20 6 lw 1964 320 m 17 X s 1994 320 m 17 X s 3 lw 1987 320 m20 6 lw 2011 380 m 17 X s 2041 380 m 17 X s 3 lw 2035 380 m20 6 lw 2058 495 m 17
 X s 2088 495 m 17 X s 3 lw 2082 495 m20 6 lw 2105 721 m 17 X s 2135 721 m 17 X s 3 lw 2129 721 m20 6 lw 2152 816 m 17 X s 2182 816 m 17 X s 3 lw 2176 816 m20 6 lw black
 gsave  2268 1538 0 0 C 1042.63 954.656 t 0 r /Helvetica findfont 55.3896 sf 0 0 m (signal \(training sample\)) show NC gr  0 0.8 0.8 c 840 978 m 167 X s black
 gsave  2268 1538 0 0 C 1042.63 837.361 t 0 r /Helvetica findfont 55.3896 sf 0 0 m (signal\(test sample\)) show NC gr  0 0 0.6 c 840 863 m 167 X s black
 gsave  2268 1538 0 0 C 1042.63 723.323 t 0 r /Helvetica findfont 55.3896 sf 0 0 m (bkgrnd \(training sample\)) show NC gr  1 0.6 0.8 c 840 747 m 167 X s black
 gsave  2268 1538 0 0 C 1042.63 606.028 t 0 r /Helvetica findfont 55.3896 sf 0 0 m (bkgrnd \(test sample\)) show NC gr  0.6 0 0 c 840 631 m 167 X s
 gr  gr showpage
end
%%EOF
