%!PS-Adobe-2.0 EPSF-2.0
%%BoundingBox:  0 0 567 384
%%Title: : c1_n4
%%Creator: ROOT Version 5.34/14
%%CreationDate: Wed Aug 20 00:53:22 2014
%%EndComments
%%BeginProlog
80 dict begin
/s {stroke} def /l {lineto} def /m {moveto} def /t {translate} def
/r {rotate} def /rl {roll}  def /R {repeat} def
/d {rlineto} def /rm {rmoveto} def /gr {grestore} def /f {eofill} def
/c {setrgbcolor} def /black {0 setgray} def /sd {setdash} def
/cl {closepath} def /sf {scalefont setfont} def /lw {setlinewidth} def
/box {m dup 0 exch d exch 0 d 0 exch neg d cl} def
/NC{systemdict begin initclip end}def/C{NC box clip newpath}def
/bl {box s} def /bf {box f} def /Y { 0 exch d} def /X { 0 d} def 
/K {{pop pop 0 moveto} exch kshow} bind def
/ita {/ang 15 def gsave [1 0 ang dup sin exch cos div 1 0 0] concat} def 
/mp {newpath /y exch def /x exch def} def
/side {[w .77 mul w .23 mul] .385 w mul sd w 0 l currentpoint t -144 r} def
/mr {mp x y w2 0 360 arc} def /m24 {mr s} def /m20 {mr f} def
/mb {mp x y w2 add m w2 neg 0 d 0 w neg d w 0 d 0 w d cl} def
/mt {mp x y w2 add m w2 neg w neg d w 0 d cl} def
/m21 {mb f} def /m25 {mb s} def /m22 {mt f} def /m26{mt s} def
/m23 {mp x y w2 sub m w2 w d w neg 0 d cl f} def
/m27 {mp x y w2 add m w3 neg w2 neg d w3 w2 neg d w3 w2 d cl s} def
/m28 {mp x w2 sub y w2 sub w3 add m w3 0 d  0 w3 neg d w3 0 d 0 w3 d w3 0 d  0 w3 d w3 neg 0 d 0 w3 d w3 neg 0 d 0 w3 neg d w3 neg 0 d cl s } def
/m29 {mp gsave x w2 sub y w2 add w3 sub m currentpoint t 4 {side} repeat cl fill gr} def
/m30 {mp gsave x w2 sub y w2 add w3 sub m currentpoint t 4 {side} repeat cl s gr} def
/m31 {mp x y w2 sub m 0 w d x w2 sub y m w 0 d x w2 sub y w2 add m w w neg d x w2 sub y w2 sub m w w d s} def
/m32 {mp x y w2 sub m w2 w d w neg 0 d cl s} def
/m33 {mp x y w2 add m w3 neg w2 neg d w3 w2 neg d w3 w2 d cl f} def
/m34 {mp x w2 sub y w2 sub w3 add m w3 0 d  0 w3 neg d w3 0 d 0 w3 d w3 0 d  0 w3 d w3 neg 0 d 0 w3 d w3 neg 0 d 0 w3 neg d w3 neg 0 d cl f } def
/m2 {mp x y w2 sub m 0 w d x w2 sub y m w 0 d s} def
/m5 {mp x w2 sub y w2 sub m w w d x w2 sub y w2 add m w w neg d s} def
/reEncode {exch findfont dup length dict begin {1 index /FID eq  {pop pop} {def} ifelse } forall /Encoding exch def currentdict end dup /FontName get exch definefont pop } def [/Times-Bold /Times-Italic /Times-BoldItalic /Helvetica /Helvetica-Oblique
 /Helvetica-Bold /Helvetica-BoldOblique /Courier /Courier-Oblique /Courier-Bold /Courier-BoldOblique /Times-Roman /AvantGarde-Book /AvantGarde-BookOblique /AvantGarde-Demi /AvantGarde-DemiOblique /Bookman-Demi /Bookman-DemiItalic /Bookman-Light
 /Bookman-LightItalic /Helvetica-Narrow /Helvetica-Narrow-Bold /Helvetica-Narrow-BoldOblique /Helvetica-Narrow-Oblique /NewCenturySchlbk-Roman /NewCenturySchlbk-Bold /NewCenturySchlbk-BoldItalic /NewCenturySchlbk-Italic /Palatino-Bold
 /Palatino-BoldItalic /Palatino-Italic /Palatino-Roman ] {ISOLatin1Encoding reEncode } forall
%%EndProlog
%%BeginSetup
%%EndSetup
newpath  gsave  .25 .25 scale  gsave  0 0 t black[  ] 0 sd 3 lw 1 1 1 c 2268 1538 0 0 bf black 1 1 1 c 1883 1322 317 185 bf black 1883 1322 317 185 bl 1 1 1 c 1883 1322 317 185 bf black 1883 1322 317 185 bl 0 0 0.6 c 9 lw 1 1 1 c black 0 0 0.6 c 317
 313 m 19 X -25 Y 19 X 17 Y 19 X 15 Y 38 X 20 Y 18 X -20 Y 19 X 20 Y 19 X 49 Y 19 X -62 Y 38 X 96 Y 18 X -56 Y 19 X 44 Y 19 X -18 Y 19 X 42 Y 19 X 8 Y 18 X -8 Y 19 X 59 Y 19 X 5 Y 19 X -5 Y 19 X 41 Y 19 X -3 Y 18 X 31 Y 19 X 1 Y 19 X 18 Y 19 X 22 Y
 19 X -1 Y 18 X 45 Y 19 X 14 Y 19 X 30 Y 19 X 18 Y 19 X 21 Y 19 X 28 Y 18 X 21 Y 19 X 26 Y 19 X 27 Y 19 X 28 Y 19 X 30 Y 19 X 25 Y 18 X 34 Y 19 X 36 Y 19 X 30 Y 19 X 37 Y 19 X 43 Y 18 X 45 Y 19 X 49 Y 19 X 57 Y 19 X 71 Y 19 X 110 Y 19 X 2 Y 18 X -110
 Y 19 X -71 Y 19 X -59 Y 19 X -48 Y 19 X -47 Y 19 X -39 Y 18 X -38 Y 19 X -32 Y 19 X -38 Y 19 X -31 Y 19 X -25 Y 18 X -30 Y 19 X -28 Y 19 X -23 Y 19 X -33 Y 19 X -16 Y 19 X -30 Y 18 X -17 Y 19 X -30 Y 19 X -17 Y 19 X -27 Y 19 X -15 Y 18 X -20 Y 19 X
 -9 Y 19 X -28 Y 19 X -15 Y 19 X -22 Y 19 X -25 Y 18 X -3 Y 19 X -20 Y 19 X -6 Y 19 X -28 Y 19 X 5 Y 19 X -18 Y 18 X -75 Y 19 X -35 Y 19 X 80 Y 19 X -56 Y 19 X -24 Y 18 X 13 Y 19 X -13 Y 19 X 7 Y 19 X -56 Y 19 X 10 Y 19 X 52 Y 18 X -13 Y 19 X -7 Y 19
 X -52 Y 19 X 29 Y 19 X s black 3 lw 317 185 m 1883 X s
 gsave  2268 1538 0 0 C 2062.45 45.615 t 0 r /Helvetica findfont 71.6807 sf 0 0 m ( mm) show NC gr 
 gsave  2268 1538 0 0 C 2036.38 22.8075 t 0 r /Helvetica findfont 48.8732 sf 0 0 m (0) show NC gr 
 gsave  2268 1538 0 0 C 1997.28 45.615 t 0 r /Helvetica findfont 71.6807 sf 0 0 m (d) show NC gr  317 223 m -38 Y s 355 204 m -19 Y s 393 204 m -19 Y s 430 204 m -19 Y s 468 204 m -19 Y s 506 223 m -38 Y s 543 204 m -19 Y s 581 204 m -19 Y s 619 204
 m -19 Y s 656 204 m -19 Y s 694 223 m -38 Y s 732 204 m -19 Y s 769 204 m -19 Y s 807 204 m -19 Y s 844 204 m -19 Y s 882 223 m -38 Y s 920 204 m -19 Y s 957 204 m -19 Y s 995 204 m -19 Y s 1033 204 m -19 Y s 1070 223 m -38 Y s 1108 204 m -19 Y s
 1146 204 m -19 Y s 1183 204 m -19 Y s 1221 204 m -19 Y s 1259 223 m -38 Y s 1296 204 m -19 Y s 1334 204 m -19 Y s 1372 204 m -19 Y s 1409 204 m -19 Y s 1447 223 m -38 Y s 1484 204 m -19 Y s 1522 204 m -19 Y s 1560 204 m -19 Y s 1597 204 m -19 Y s
 1635 223 m -38 Y s 1673 204 m -19 Y s 1710 204 m -19 Y s 1748 204 m -19 Y s 1786 204 m -19 Y s 1823 223 m -38 Y s 1861 204 m -19 Y s 1899 204 m -19 Y s 1936 204 m -19 Y s 1974 204 m -19 Y s 2011 223 m -38 Y s 2049 204 m -19 Y s 2087 204 m -19 Y s
 2124 204 m -19 Y s 2162 204 m -19 Y s 2200 223 m -38 Y s
 gsave  2268 1538 0 0 C 283.465 117.296 t 0 r /Helvetica findfont 71.6807 sf 0 0 m (\2555) show NC gr 
 gsave  2268 1538 0 0 C 472.441 117.296 t 0 r /Helvetica findfont 71.6807 sf 0 0 m (\2554) show NC gr 
 gsave  2268 1538 0 0 C 658.159 117.296 t 0 r /Helvetica findfont 71.6807 sf 0 0 m (\2553) show NC gr 
 gsave  2268 1538 0 0 C 847.135 117.296 t 0 r /Helvetica findfont 71.6807 sf 0 0 m (\2552) show NC gr 
 gsave  2268 1538 0 0 C 1042.63 117.296 t 0 r /Helvetica findfont 71.6807 sf 0 0 m (\2551) show NC gr 
 gsave  2268 1538 0 0 C 1238.12 117.296 t 0 r /Helvetica findfont 71.6807 sf 0 0 m (0) show NC gr 
 gsave  2268 1538 0 0 C 1433.61 117.296 t 0 r /Helvetica findfont 71.6807 sf 0 0 m (1) show NC gr 
 gsave  2268 1538 0 0 C 1612.82 117.296 t 0 r /Helvetica findfont 71.6807 sf 0 0 m (2) show NC gr 
 gsave  2268 1538 0 0 C 1801.79 117.296 t 0 r /Helvetica findfont 71.6807 sf 0 0 m (3) show NC gr 
 gsave  2268 1538 0 0 C 1990.77 117.296 t 0 r /Helvetica findfont 71.6807 sf 0 0 m (4) show NC gr 
 gsave  2268 1538 0 0 C 2179.74 117.296 t 0 r /Helvetica findfont 71.6807 sf 0 0 m (5) show NC gr  317 1507 m 1883 X s 317 1469 m 38 Y s 355 1488 m 19 Y s 393 1488 m 19 Y s 430 1488 m 19 Y s 468 1488 m 19 Y s 506 1469 m 38 Y s 543 1488 m 19 Y s 581
 1488 m 19 Y s 619 1488 m 19 Y s 656 1488 m 19 Y s 694 1469 m 38 Y s 732 1488 m 19 Y s 769 1488 m 19 Y s 807 1488 m 19 Y s 844 1488 m 19 Y s 882 1469 m 38 Y s 920 1488 m 19 Y s 957 1488 m 19 Y s 995 1488 m 19 Y s 1033 1488 m 19 Y s 1070 1469 m 38 Y s
 1108 1488 m 19 Y s 1146 1488 m 19 Y s 1183 1488 m 19 Y s 1221 1488 m 19 Y s 1259 1469 m 38 Y s 1296 1488 m 19 Y s 1334 1488 m 19 Y s 1372 1488 m 19 Y s 1409 1488 m 19 Y s 1447 1469 m 38 Y s 1484 1488 m 19 Y s 1522 1488 m 19 Y s 1560 1488 m 19 Y s
 1597 1488 m 19 Y s 1635 1469 m 38 Y s 1673 1488 m 19 Y s 1710 1488 m 19 Y s 1748 1488 m 19 Y s 1786 1488 m 19 Y s 1823 1469 m 38 Y s 1861 1488 m 19 Y s 1899 1488 m 19 Y s 1936 1488 m 19 Y s 1974 1488 m 19 Y s 2011 1469 m 38 Y s 2049 1488 m 19 Y s
 2087 1488 m 19 Y s 2124 1488 m 19 Y s 2162 1488 m 19 Y s 2200 1469 m 38 Y s 317 185 m 1322 Y s
 gsave  2268 1538 0 0 C 159.652 1052.4 t 90 r /Helvetica findfont 71.6807 sf 0 0 m (Events/0.1mm) show NC gr  347 190 m -30 X s 347 204 m -30 X s 376 217 m -59 X s
 gsave  2268 1538 0 0 C 254.141 218.3 t 0 r /Helvetica findfont 48.8732 sf 0 0 m (\2555) show NC gr 
 gsave  2268 1538 0 0 C 175.944 185.718 t 0 r /Helvetica findfont 71.6807 sf 0 0 m (10) show NC gr  347 301 m -30 X s 347 349 m -30 X s 347 384 m -30 X s 347 411 m -30 X s 347 433 m -30 X s 347 451 m -30 X s 347 467 m -30 X s 347 481 m -30 X s 376
 494 m -59 X s
 gsave  2268 1538 0 0 C 254.141 491.99 t 0 r /Helvetica findfont 48.8732 sf 0 0 m (\2554) show NC gr 
 gsave  2268 1538 0 0 C 175.944 462.666 t 0 r /Helvetica findfont 71.6807 sf 0 0 m (10) show NC gr  347 578 m -30 X s 347 626 m -30 X s 347 661 m -30 X s 347 688 m -30 X s 347 710 m -30 X s 347 728 m -30 X s 347 744 m -30 X s 347 759 m -30 X s 376
 771 m -59 X s
 gsave  2268 1538 0 0 C 254.141 772.197 t 0 r /Helvetica findfont 48.8732 sf 0 0 m (\2553) show NC gr 
 gsave  2268 1538 0 0 C 175.944 739.614 t 0 r /Helvetica findfont 71.6807 sf 0 0 m (10) show NC gr  347 855 m -30 X s 347 903 m -30 X s 347 938 m -30 X s 347 965 m -30 X s 347 987 m -30 X s 347 1005 m -30 X s 347 1021 m -30 X s 347 1036 m -30 X s 376
 1048 m -59 X s
 gsave  2268 1538 0 0 C 254.141 1045.89 t 0 r /Helvetica findfont 48.8732 sf 0 0 m (\2552) show NC gr 
 gsave  2268 1538 0 0 C 175.944 1016.56 t 0 r /Helvetica findfont 71.6807 sf 0 0 m (10) show NC gr  347 1132 m -30 X s 347 1180 m -30 X s 347 1215 m -30 X s 347 1242 m -30 X s 347 1264 m -30 X s 347 1282 m -30 X s 347 1298 m -30 X s 347 1313 m -30 X
 s 376 1325 m -59 X s
 gsave  2268 1538 0 0 C 260.657 1322.83 t 0 r /Helvetica findfont 48.8732 sf 0 0 m (\2551) show NC gr 
 gsave  2268 1538 0 0 C 182.46 1293.51 t 0 r /Helvetica findfont 71.6807 sf 0 0 m (10) show NC gr  347 1409 m -30 X s 347 1457 m -30 X s 347 1492 m -30 X s 2200 185 m 1322 Y s 2170 190 m 30 X s 2170 204 m 30 X s 2141 217 m 59 X s 2170 301 m 30 X s
 2170 349 m 30 X s 2170 384 m 30 X s 2170 411 m 30 X s 2170 433 m 30 X s 2170 451 m 30 X s 2170 467 m 30 X s 2170 481 m 30 X s 2141 494 m 59 X s 2170 578 m 30 X s 2170 626 m 30 X s 2170 661 m 30 X s 2170 688 m 30 X s 2170 710 m 30 X s 2170 728 m 30 X
 s 2170 744 m 30 X s 2170 759 m 30 X s 2141 771 m 59 X s 2170 855 m 30 X s 2170 903 m 30 X s 2170 938 m 30 X s 2170 965 m 30 X s 2170 987 m 30 X s 2170 1005 m 30 X s 2170 1021 m 30 X s 2170 1036 m 30 X s 2141 1048 m 59 X s 2170 1132 m 30 X s 2170
 1180 m 30 X s 2170 1215 m 30 X s 2170 1242 m 30 X s 2170 1264 m 30 X s 2170 1282 m 30 X s 2170 1298 m 30 X s 2170 1313 m 30 X s 2141 1325 m 59 X s 2170 1409 m 30 X s 2170 1457 m 30 X s 2170 1492 m 30 X s 0 0.6 0.6 c 9 lw 1 1 1 c black 0 0.6 0.6 c
 317 837 m 19 X 6 Y 19 X 5 Y 19 X -3 Y 19 X 3 Y 19 X 4 Y 18 X 3 Y 19 X 2 Y 19 X 4 Y 19 X 2 Y 19 X 7 Y 19 X -5 Y 18 X 9 Y 19 X -4 Y 19 X 11 Y 19 X 2 Y 19 X 1 Y 18 X 1 Y 19 X 3 Y 19 X 1 Y 19 X 3 Y 19 X 6 Y 19 X 4 Y 18 X 1 Y 19 X 5 Y 19 X 2 Y 19 X 8 Y
 19 X 3 Y 18 X 1 Y 19 X 10 Y 19 X 7 Y 19 X 11 Y 19 X -1 Y 19 X 5 Y 18 X 6 Y 19 X 8 Y 19 X 4 Y 19 X 15 Y 19 X 9 Y 19 X 14 Y 18 X 16 Y 19 X 27 Y 19 X 27 Y 19 X 27 Y 19 X 24 Y 18 X 28 Y 19 X 42 Y 19 X 48 Y 19 X 55 Y 19 X 29 Y 19 X -3 Y 18 X -26 Y 19 X
 -51 Y 19 X -47 Y 19 X -41 Y 19 X -31 Y 19 X -24 Y 18 X -27 Y 19 X -29 Y 19 X -25 Y 19 X -21 Y 19 X -17 Y 18 X -6 Y 19 X -13 Y 19 X -7 Y 19 X -5 Y 19 X -4 Y 19 X -10 Y 18 X -8 Y 19 X -5 Y 19 X -7 Y 19 X -5 Y 19 X -5 Y 18 X -4 Y 19 X -3 Y 19 X -3 Y 19
 X -6 Y 19 X -3 Y 19 X 1 Y 18 X -7 Y 19 X -7 Y 19 X 1 Y 19 X -7 Y 19 X -2 Y 19 X -2 Y 18 X -3 Y 19 X -5 Y 19 X -1 Y 19 X -1 Y 19 X -7 Y 18 X -2 Y 19 X -2 Y 19 X -2 Y 19 X -3 Y 19 X -4 Y 19 X -4 Y 18 X -1 Y 19 X -1 Y 19 X -7 Y 19 X -6 Y 19 X s 0.6 0 0
 c 1 1 1 c black 0.6 0 0 c 317 432 m 19 X 22 Y 19 X -7 Y 19 X 7 Y 19 X -7 Y 19 X 4 Y 18 X 20 Y 19 X 18 Y 19 X 6 Y 19 X -4 Y 38 X 10 Y 18 X -2 Y 19 X 39 Y 19 X -5 Y 19 X -24 Y 19 X 37 Y 18 X -15 Y 19 X 15 Y 19 X 10 Y 19 X 13 Y 19 X 9 Y 19 X 16 Y 18 X
 5 Y 19 X 18 Y 19 X 6 Y 19 X 14 Y 19 X 12 Y 18 X 12 Y 19 X 17 Y 19 X 12 Y 19 X 19 Y 19 X 19 Y 19 X 12 Y 18 X 27 Y 19 X 13 Y 19 X 24 Y 19 X 20 Y 19 X 23 Y 19 X 25 Y 18 X 26 Y 19 X 29 Y 19 X 33 Y 19 X 36 Y 19 X 36 Y 18 X 42 Y 19 X 48 Y 19 X 61 Y 19 X
 89 Y 19 X 195 Y 19 X 4 Y 18 X -196 Y 19 X -91 Y 19 X -61 Y 19 X -50 Y 19 X -41 Y 19 X -37 Y 18 X -35 Y 19 X -30 Y 19 X -29 Y 19 X -28 Y 19 X -24 Y 18 X -25 Y 19 X -22 Y 19 X -18 Y 19 X -24 Y 19 X -24 Y 19 X -13 Y 18 X -15 Y 19 X -13 Y 19 X -17 Y 19
 X -15 Y 19 X -21 Y 18 X -19 Y 19 X 3 Y 19 X -24 Y 19 X -9 Y 19 X -2 Y 19 X -23 Y 18 X 14 Y 19 X -23 Y 19 X -12 Y 19 X -4 Y 19 X -14 Y 19 X -4 Y 18 X -1 Y 19 X -28 Y 19 X 11 Y 19 X -20 Y 19 X 7 Y 18 X -13 Y 19 X -17 Y 19 X 2 Y 19 X 14 Y 19 X -35 Y 19
 X 34 Y 18 X -18 Y 19 X -8 Y 19 X -13 Y 19 X 2 Y 19 X s black
 gsave  2268 1538 0 0 C 1202.28 622.319 t 0 r /Helvetica-Bold findfont 55.3896 sf 0 0 m (B electrons) show NC gr  0 0 0.6 c 986 660 m 179 X s black
 gsave  2268 1538 0 0 C 1202.28 443.117 t 0 r /Helvetica-Bold findfont 55.3896 sf 0 0 m (conversion electrons) show NC gr  0 0.6 0.6 c 986 481 m 179 X s black
 gsave  2268 1538 0 0 C 1202.28 263.915 t 0 r /Helvetica-Bold findfont 55.3896 sf 0 0 m (Hadrons) show NC gr  0.6 0 0 c 986 301 m 179 X s
 gr  gr showpage
end
%%EOF
