%!PS-Adobe-2.0 EPSF-2.0
%%BoundingBox:  0 0 567 384
%%Title: /home/rohin/Analysis/dataAna/2014/February/16/plots/f1core.eps: c1_n9
%%Creator: ROOT Version 5.34/14
%%CreationDate: Wed Aug 20 11:30:22 2014
%%EndComments
%%BeginProlog
80 dict begin
/s {stroke} def /l {lineto} def /m {moveto} def /t {translate} def
/r {rotate} def /rl {roll}  def /R {repeat} def
/d {rlineto} def /rm {rmoveto} def /gr {grestore} def /f {eofill} def
/c {setrgbcolor} def /black {0 setgray} def /sd {setdash} def
/cl {closepath} def /sf {scalefont setfont} def /lw {setlinewidth} def
/box {m dup 0 exch d exch 0 d 0 exch neg d cl} def
/NC{systemdict begin initclip end}def/C{NC box clip newpath}def
/bl {box s} def /bf {box f} def /Y { 0 exch d} def /X { 0 d} def 
/K {{pop pop 0 moveto} exch kshow} bind def
/ita {/ang 15 def gsave [1 0 ang dup sin exch cos div 1 0 0] concat} def 
/mp {newpath /y exch def /x exch def} def
/side {[w .77 mul w .23 mul] .385 w mul sd w 0 l currentpoint t -144 r} def
/mr {mp x y w2 0 360 arc} def /m24 {mr s} def /m20 {mr f} def
/mb {mp x y w2 add m w2 neg 0 d 0 w neg d w 0 d 0 w d cl} def
/mt {mp x y w2 add m w2 neg w neg d w 0 d cl} def
/m21 {mb f} def /m25 {mb s} def /m22 {mt f} def /m26{mt s} def
/m23 {mp x y w2 sub m w2 w d w neg 0 d cl f} def
/m27 {mp x y w2 add m w3 neg w2 neg d w3 w2 neg d w3 w2 d cl s} def
/m28 {mp x w2 sub y w2 sub w3 add m w3 0 d  0 w3 neg d w3 0 d 0 w3 d w3 0 d  0 w3 d w3 neg 0 d 0 w3 d w3 neg 0 d 0 w3 neg d w3 neg 0 d cl s } def
/m29 {mp gsave x w2 sub y w2 add w3 sub m currentpoint t 4 {side} repeat cl fill gr} def
/m30 {mp gsave x w2 sub y w2 add w3 sub m currentpoint t 4 {side} repeat cl s gr} def
/m31 {mp x y w2 sub m 0 w d x w2 sub y m w 0 d x w2 sub y w2 add m w w neg d x w2 sub y w2 sub m w w d s} def
/m32 {mp x y w2 sub m w2 w d w neg 0 d cl s} def
/m33 {mp x y w2 add m w3 neg w2 neg d w3 w2 neg d w3 w2 d cl f} def
/m34 {mp x w2 sub y w2 sub w3 add m w3 0 d  0 w3 neg d w3 0 d 0 w3 d w3 0 d  0 w3 d w3 neg 0 d 0 w3 d w3 neg 0 d 0 w3 neg d w3 neg 0 d cl f } def
/m2 {mp x y w2 sub m 0 w d x w2 sub y m w 0 d s} def
/m5 {mp x w2 sub y w2 sub m w w d x w2 sub y w2 add m w w neg d s} def
/reEncode {exch findfont dup length dict begin {1 index /FID eq  {pop pop} {def} ifelse } forall /Encoding exch def currentdict end dup /FontName get exch definefont pop } def [/Times-Bold /Times-Italic /Times-BoldItalic /Helvetica /Helvetica-Oblique
 /Helvetica-Bold /Helvetica-BoldOblique /Courier /Courier-Oblique /Courier-Bold /Courier-BoldOblique /Times-Roman /AvantGarde-Book /AvantGarde-BookOblique /AvantGarde-Demi /AvantGarde-DemiOblique /Bookman-Demi /Bookman-DemiItalic /Bookman-Light
 /Bookman-LightItalic /Helvetica-Narrow /Helvetica-Narrow-Bold /Helvetica-Narrow-BoldOblique /Helvetica-Narrow-Oblique /NewCenturySchlbk-Roman /NewCenturySchlbk-Bold /NewCenturySchlbk-BoldItalic /NewCenturySchlbk-Italic /Palatino-Bold
 /Palatino-BoldItalic /Palatino-Italic /Palatino-Roman ] {ISOLatin1Encoding reEncode } forall
%%EndProlog
%%BeginSetup
%%EndSetup
newpath  gsave  .25 .25 scale  gsave  0 0 t black[  ] 0 sd 3 lw 1 1 1 c 2268 1538 0 0 bf black 1 1 1 c 1883 1322 317 185 bf black 1883 1322 317 185 bl 1 1 1 c 1883 1322 317 185 bf black 1883 1322 317 185 bl 6 lw 1 1 1 c black 496 591 m 60 Y s 496 664
 m 40 Y s 470 657 m 19 X s 502 657 m 19 X s 3 lw /w 13 def /w2 {w 2 div} def /w3 {w 3 div} def 496 657 m20 6 lw 546 664 m 47 Y s 546 724 m 33 Y s 521 717 m 19 X s 553 717 m 19 X s 3 lw 546 717 m20 6 lw 597 894 m 20 Y s 597 927 m 16 Y s 572 920 m 19 X
 s 604 920 m 19 X s 3 lw 597 920 m20 6 lw 648 1122 m 6 Y s 648 1141 m 6 Y s 623 1135 m 19 X s 655 1135 m 19 X s 3 lw 648 1135 m20 6 lw 699 1253 m 2 Y s 699 1268 m 2 Y s 674 1261 m 18 X s 706 1261 m 18 X s 3 lw 699 1261 m20 6 lw 724 1363 m 19 X s 756
 1363 m 19 X s 3 lw 750 1363 m20 6 lw 775 1397 m 19 X s 807 1397 m 19 X s 3 lw 801 1397 m20 6 lw 826 1397 m 19 X s 858 1397 m 19 X s 3 lw 852 1397 m20 6 lw 877 1379 m 19 X s 909 1379 m 19 X s 3 lw 902 1379 m20 6 lw 953 1343 m 1 Y s 928 1350 m 19 X s
 960 1350 m 19 X s 3 lw 953 1350 m20 6 lw 979 1379 m 19 X s 1011 1379 m 19 X s 3 lw 1004 1379 m20 6 lw 1030 1374 m 19 X s 1062 1374 m 19 X s 3 lw 1055 1374 m20 6 lw 1081 1384 m 18 X s 1112 1384 m 19 X s 3 lw 1106 1384 m20 6 lw 1131 1378 m 19 X s 1163
 1378 m 19 X s 3 lw 1157 1378 m20 6 lw 1208 1334 m s 1208 1347 m 1 Y s 1182 1341 m 19 X s 1214 1341 m 19 X s 3 lw 1208 1341 m20 6 lw 1259 1294 m 1 Y s 1259 1308 m 1 Y s 1233 1302 m 19 X s 1265 1302 m 19 X s 3 lw 1259 1302 m20 6 lw 1309 1213 m 4 Y s
 1309 1230 m 3 Y s 1284 1223 m 19 X s 1316 1223 m 19 X s 3 lw 1309 1223 m20 6 lw 1360 1089 m 8 Y s 1360 1110 m 7 Y s 1335 1104 m 19 X s 1367 1104 m 19 X s 3 lw 1360 1104 m20 6 lw 1411 942 m 16 Y s 1411 971 m 14 Y s 1386 965 m 19 X s 1418 965 m 19 X s
 3 lw 1411 965 m20 6 lw 1462 764 m 33 Y s 1462 810 m 25 Y s 1437 803 m 19 X s 1469 803 m 18 X s 3 lw 1462 803 m20 6 lw 1513 612 m 56 Y s 1513 681 m 38 Y s 1487 674 m 19 X s 1519 674 m 19 X s 3 lw 1513 674 m20 6 lw 1564 337 m 134 Y s 1564 484 m 68 Y s
 1538 478 m 19 X s 1570 478 m 19 X s 3 lw 1564 478 m20 6 lw 1615 185 m 106 Y s 1615 304 m 107 Y s 1589 298 m 19 X s 1621 298 m 19 X s 3 lw 1615 298 m20 6 lw 3 lw 317 185 m 1883 X s
 gsave  2268 1538 0 0 C 2016.83 42.3568 t 0 r /Helvetica findfont 71.6807 sf 0 0 m (\(core\)) show NC gr 
 gsave  2268 1538 0 0 C 1997.28 22.8075 t 0 r /Helvetica findfont 48.8732 sf 0 0 m (1) show NC gr 
 gsave  2268 1538 0 0 C 1977.74 42.3568 t 0 r /Helvetica findfont 71.6807 sf 0 0 m (f) show NC gr  470 223 m -38 Y s 521 204 m -19 Y s 572 204 m -19 Y s 623 204 m -19 Y s 674 204 m -19 Y s 724 223 m -38 Y s 775 204 m -19 Y s 826 204 m -19 Y s 877 204
 m -19 Y s 928 204 m -19 Y s 979 223 m -38 Y s 1030 204 m -19 Y s 1081 204 m -19 Y s 1131 204 m -19 Y s 1182 204 m -19 Y s 1233 223 m -38 Y s 1284 204 m -19 Y s 1335 204 m -19 Y s 1386 204 m -19 Y s 1437 204 m -19 Y s 1487 223 m -38 Y s 1538 204 m
 -19 Y s 1589 204 m -19 Y s 1640 204 m -19 Y s 1691 204 m -19 Y s 1742 223 m -38 Y s 1793 204 m -19 Y s 1844 204 m -19 Y s 1894 204 m -19 Y s 1945 204 m -19 Y s 1996 223 m -38 Y s 470 223 m -38 Y s 419 204 m -19 Y s 368 204 m -19 Y s 317 204 m -19 Y
 s 1996 223 m -38 Y s 2047 204 m -19 Y s 2098 204 m -19 Y s 2149 204 m -19 Y s 2200 204 m -19 Y s
 gsave  2268 1538 0 0 C 449.633 117.296 t 0 r /Helvetica findfont 71.6807 sf 0 0 m (0) show NC gr 
 gsave  2268 1538 0 0 C 677.708 117.296 t 0 r /Helvetica findfont 71.6807 sf 0 0 m (0.1) show NC gr 
 gsave  2268 1538 0 0 C 928.591 117.296 t 0 r /Helvetica findfont 71.6807 sf 0 0 m (0.2) show NC gr 
 gsave  2268 1538 0 0 C 1182.73 117.296 t 0 r /Helvetica findfont 71.6807 sf 0 0 m (0.3) show NC gr 
 gsave  2268 1538 0 0 C 1436.87 117.296 t 0 r /Helvetica findfont 71.6807 sf 0 0 m (0.4) show NC gr 
 gsave  2268 1538 0 0 C 1691.01 117.296 t 0 r /Helvetica findfont 71.6807 sf 0 0 m (0.5) show NC gr 
 gsave  2268 1538 0 0 C 1945.15 117.296 t 0 r /Helvetica findfont 71.6807 sf 0 0 m (0.6) show NC gr  317 1507 m 1883 X s 470 1469 m 38 Y s 521 1488 m 19 Y s 572 1488 m 19 Y s 623 1488 m 19 Y s 674 1488 m 19 Y s 724 1469 m 38 Y s 775 1488 m 19 Y s 826
 1488 m 19 Y s 877 1488 m 19 Y s 928 1488 m 19 Y s 979 1469 m 38 Y s 1030 1488 m 19 Y s 1081 1488 m 19 Y s 1131 1488 m 19 Y s 1182 1488 m 19 Y s 1233 1469 m 38 Y s 1284 1488 m 19 Y s 1335 1488 m 19 Y s 1386 1488 m 19 Y s 1437 1488 m 19 Y s 1487 1469
 m 38 Y s 1538 1488 m 19 Y s 1589 1488 m 19 Y s 1640 1488 m 19 Y s 1691 1488 m 19 Y s 1742 1469 m 38 Y s 1793 1488 m 19 Y s 1844 1488 m 19 Y s 1894 1488 m 19 Y s 1945 1488 m 19 Y s 1996 1469 m 38 Y s 470 1469 m 38 Y s 419 1488 m 19 Y s 368 1488 m 19
 Y s 317 1488 m 19 Y s 1996 1469 m 38 Y s 2047 1488 m 19 Y s 2098 1488 m 19 Y s 2149 1488 m 19 Y s 2200 1488 m 19 Y s 317 185 m 1322 Y s 347 185 m -30 X s 347 214 m -30 X s 347 240 m -30 X s 347 261 m -30 X s 347 281 m -30 X s 376 298 m -59 X s
 gsave  2268 1538 0 0 C 297.071 267.919 t 0 r  -39 0 t /Helvetica findfont 71.6807 sf 0 0 m (1) show NC gr  347 411 m -30 X s 347 478 m -30 X s 347 525 m -30 X s 347 561 m -30 X s 347 591 m -30 X s 347 616 m -30 X s 347 638 m -30 X s 347 657 m -30 X
 s 376 674 m -59 X s
 gsave  2268 1538 0 0 C 297.071 644.455 t 0 r  -79 0 t /Helvetica findfont 71.6807 sf 0 0 m (10) show NC gr  347 788 m -30 X s 347 854 m -30 X s 347 901 m -30 X s 347 938 m -30 X s 347 967 m -30 X s 347 993 m -30 X s 347 1014 m -30 X s 347 1034 m -30
 X s 376 1051 m -59 X s
 gsave  2268 1538 0 0 C 270.432 1049.14 t 0 r /Helvetica findfont 48.8732 sf 0 0 m (2) show NC gr 
 gsave  2268 1538 0 0 C 192.235 1019.82 t 0 r /Helvetica findfont 71.6807 sf 0 0 m (10) show NC gr  347 1164 m -30 X s 347 1231 m -30 X s 347 1278 m -30 X s 347 1314 m -30 X s 347 1344 m -30 X s 347 1369 m -30 X s 347 1391 m -30 X s 347 1410 m -30 X
 s 376 1428 m -59 X s
 gsave  2268 1538 0 0 C 270.432 1430.36 t 0 r /Helvetica findfont 48.8732 sf 0 0 m (3) show NC gr 
 gsave  2268 1538 0 0 C 192.235 1397.77 t 0 r /Helvetica findfont 71.6807 sf 0 0 m (10) show NC gr  2200 185 m 1322 Y s 2170 185 m 30 X s 2170 214 m 30 X s 2170 240 m 30 X s 2170 261 m 30 X s 2170 281 m 30 X s 2141 298 m 59 X s 2170 411 m 30 X s 2170
 478 m 30 X s 2170 525 m 30 X s 2170 561 m 30 X s 2170 591 m 30 X s 2170 616 m 30 X s 2170 638 m 30 X s 2170 657 m 30 X s 2141 674 m 59 X s 2170 788 m 30 X s 2170 854 m 30 X s 2170 901 m 30 X s 2170 938 m 30 X s 2170 967 m 30 X s 2170 993 m 30 X s
 2170 1014 m 30 X s 2170 1034 m 30 X s 2141 1051 m 59 X s 2170 1164 m 30 X s 2170 1231 m 30 X s 2170 1278 m 30 X s 2170 1314 m 30 X s 2170 1344 m 30 X s 2170 1369 m 30 X s 2170 1391 m 30 X s 2170 1410 m 30 X s 2141 1428 m 59 X s 0.6 0 0 c 9 lw 1 1 1
 c black 0.6 0 0 c 317 185 m 204 X 533 Y 51 X 158 Y 51 X 128 Y 51 X 176 Y 50 X 130 Y 51 X 72 Y 51 X 19 Y 51 X -12 Y 51 X -24 Y 51 X -15 Y 51 X 18 Y 51 X 19 Y 50 X -6 Y 51 X -11 Y 51 X -33 Y 51 X -57 Y 51 X -92 Y 51 X -127 Y 51 X -162 Y 50 X -105 Y 51
 X -234 Y 51 X -375 Y 611 X s black
 gsave  2268 1538 0 0 C 1013.3 762.422 t 0 r /Helvetica-Bold findfont 55.3896 sf 0 0 m ( probe \(data\)) show NC gr 
 gsave  2268 1538 0 0 C 967.689 762.422 t 0 r /Symbol findfont 55.3896 sf 0 0 m (Y) show NC gr 
 gsave  2268 1538 0 0 C 918.816 762.422 t 0 r /Helvetica-Bold findfont 55.3896 sf 0 0 m (J/) show NC gr  1 1 1 c 3 lw 786 739 m 111 X 132 Y -111 X f 9 lw black 786 805 m 111 X s 3 lw 841 805 m20 9 lw
 gsave  2268 1538 0 0 C 918.816 573.446 t 0 r /Helvetica-Bold findfont 55.3896 sf 0 0 m (B\255el \(MC\)) show NC gr  0.6 0 0 c 6 lw 786 616 m 111 X s
 gr  gr showpage
end
%%EOF
