%!PS-Adobe-2.0 EPSF-2.0
%%BoundingBox:  0 0 567 384
%%Title: : c1_n3
%%Creator: ROOT Version 5.34/14
%%CreationDate: Wed Aug 20 00:55:00 2014
%%EndComments
%%BeginProlog
80 dict begin
/s {stroke} def /l {lineto} def /m {moveto} def /t {translate} def
/r {rotate} def /rl {roll}  def /R {repeat} def
/d {rlineto} def /rm {rmoveto} def /gr {grestore} def /f {eofill} def
/c {setrgbcolor} def /black {0 setgray} def /sd {setdash} def
/cl {closepath} def /sf {scalefont setfont} def /lw {setlinewidth} def
/box {m dup 0 exch d exch 0 d 0 exch neg d cl} def
/NC{systemdict begin initclip end}def/C{NC box clip newpath}def
/bl {box s} def /bf {box f} def /Y { 0 exch d} def /X { 0 d} def 
/K {{pop pop 0 moveto} exch kshow} bind def
/ita {/ang 15 def gsave [1 0 ang dup sin exch cos div 1 0 0] concat} def 
/mp {newpath /y exch def /x exch def} def
/side {[w .77 mul w .23 mul] .385 w mul sd w 0 l currentpoint t -144 r} def
/mr {mp x y w2 0 360 arc} def /m24 {mr s} def /m20 {mr f} def
/mb {mp x y w2 add m w2 neg 0 d 0 w neg d w 0 d 0 w d cl} def
/mt {mp x y w2 add m w2 neg w neg d w 0 d cl} def
/m21 {mb f} def /m25 {mb s} def /m22 {mt f} def /m26{mt s} def
/m23 {mp x y w2 sub m w2 w d w neg 0 d cl f} def
/m27 {mp x y w2 add m w3 neg w2 neg d w3 w2 neg d w3 w2 d cl s} def
/m28 {mp x w2 sub y w2 sub w3 add m w3 0 d  0 w3 neg d w3 0 d 0 w3 d w3 0 d  0 w3 d w3 neg 0 d 0 w3 d w3 neg 0 d 0 w3 neg d w3 neg 0 d cl s } def
/m29 {mp gsave x w2 sub y w2 add w3 sub m currentpoint t 4 {side} repeat cl fill gr} def
/m30 {mp gsave x w2 sub y w2 add w3 sub m currentpoint t 4 {side} repeat cl s gr} def
/m31 {mp x y w2 sub m 0 w d x w2 sub y m w 0 d x w2 sub y w2 add m w w neg d x w2 sub y w2 sub m w w d s} def
/m32 {mp x y w2 sub m w2 w d w neg 0 d cl s} def
/m33 {mp x y w2 add m w3 neg w2 neg d w3 w2 neg d w3 w2 d cl f} def
/m34 {mp x w2 sub y w2 sub w3 add m w3 0 d  0 w3 neg d w3 0 d 0 w3 d w3 0 d  0 w3 d w3 neg 0 d 0 w3 d w3 neg 0 d 0 w3 neg d w3 neg 0 d cl f } def
/m2 {mp x y w2 sub m 0 w d x w2 sub y m w 0 d s} def
/m5 {mp x w2 sub y w2 sub m w w d x w2 sub y w2 add m w w neg d s} def
/reEncode {exch findfont dup length dict begin {1 index /FID eq  {pop pop} {def} ifelse } forall /Encoding exch def currentdict end dup /FontName get exch definefont pop } def [/Times-Bold /Times-Italic /Times-BoldItalic /Helvetica /Helvetica-Oblique
 /Helvetica-Bold /Helvetica-BoldOblique /Courier /Courier-Oblique /Courier-Bold /Courier-BoldOblique /Times-Roman /AvantGarde-Book /AvantGarde-BookOblique /AvantGarde-Demi /AvantGarde-DemiOblique /Bookman-Demi /Bookman-DemiItalic /Bookman-Light
 /Bookman-LightItalic /Helvetica-Narrow /Helvetica-Narrow-Bold /Helvetica-Narrow-BoldOblique /Helvetica-Narrow-Oblique /NewCenturySchlbk-Roman /NewCenturySchlbk-Bold /NewCenturySchlbk-BoldItalic /NewCenturySchlbk-Italic /Palatino-Bold
 /Palatino-BoldItalic /Palatino-Italic /Palatino-Roman ] {ISOLatin1Encoding reEncode } forall
%%EndProlog
%%BeginSetup
%%EndSetup
newpath  gsave  .25 .25 scale  gsave  0 0 t black[  ] 0 sd 3 lw 1 1 1 c 2268 1538 0 0 bf black 1 1 1 c 1883 1323 316 186 bf black 1883 1323 316 186 bl 1 1 1 c 1883 1323 316 186 bf black 1883 1323 316 186 bl 0 0 0.6 c 9 lw 1 1 1 c black 0 0 0.6 c 316
 1033 m 19 X 35 Y 19 X 37 Y 19 X 52 Y 18 X 42 Y 19 X 36 Y 19 X 39 Y 19 X 34 Y 19 X 28 Y 19 X 26 Y 18 X 24 Y 19 X 20 Y 19 X 17 Y 19 X 9 Y 19 X 5 Y 37 X -5 Y 19 X -7 Y 19 X -6 Y 19 X -9 Y 19 X -4 Y 19 X -1 Y 18 X 1 Y 19 X -2 Y 57 X -3 Y 19 X -8 Y 18 X
 -8 Y 19 X -13 Y 19 X -19 Y 19 X -20 Y 19 X -30 Y 19 X -30 Y 18 X -40 Y 19 X -45 Y 19 X -44 Y 19 X -56 Y 19 X -66 Y 19 X -58 Y 18 X -64 Y 19 X -78 Y 19 X -75 Y 19 X -94 Y 19 X -80 Y 19 X -155 Y 18 X -32 Y 38 X -46 Y 19 X -154 Y 56 X 77 Y 19 X -77 Y
 885 X s black 3 lw 316 186 m 1883 X s
 gsave  2268 1538 0 0 C 2016.83 45.615 t 0 r /Helvetica findfont 71.6807 sf 0 0 m (\(core\)) show NC gr 
 gsave  2268 1538 0 0 C 1997.28 26.0657 t 0 r /Helvetica findfont 48.8732 sf 0 0 m (1) show NC gr 
 gsave  2268 1538 0 0 C 1977.74 45.615 t 0 r /Helvetica findfont 71.6807 sf 0 0 m (f) show NC gr  316 224 m -38 Y s 354 205 m -19 Y s 391 205 m -19 Y s 429 205 m -19 Y s 467 205 m -19 Y s 504 224 m -38 Y s 542 205 m -19 Y s 580 205 m -19 Y s 617 205
 m -19 Y s 655 205 m -19 Y s 693 224 m -38 Y s 730 205 m -19 Y s 768 205 m -19 Y s 806 205 m -19 Y s 843 205 m -19 Y s 881 224 m -38 Y s 919 205 m -19 Y s 956 205 m -19 Y s 994 205 m -19 Y s 1032 205 m -19 Y s 1069 224 m -38 Y s 1107 205 m -19 Y s
 1145 205 m -19 Y s 1182 205 m -19 Y s 1220 205 m -19 Y s 1258 224 m -38 Y s 1295 205 m -19 Y s 1333 205 m -19 Y s 1371 205 m -19 Y s 1408 205 m -19 Y s 1446 224 m -38 Y s 1484 205 m -19 Y s 1521 205 m -19 Y s 1559 205 m -19 Y s 1597 205 m -19 Y s
 1634 224 m -38 Y s 1672 205 m -19 Y s 1710 205 m -19 Y s 1747 205 m -19 Y s 1785 205 m -19 Y s 1823 224 m -38 Y s 1860 205 m -19 Y s 1898 205 m -19 Y s 1936 205 m -19 Y s 1973 205 m -19 Y s 2011 224 m -38 Y s 2049 205 m -19 Y s 2086 205 m -19 Y s
 2124 205 m -19 Y s 2162 205 m -19 Y s 2199 224 m -38 Y s
 gsave  2268 1538 0 0 C 296.497 117.296 t 0 r /Helvetica findfont 71.6807 sf 0 0 m (0) show NC gr 
 gsave  2268 1538 0 0 C 456.15 117.296 t 0 r /Helvetica findfont 71.6807 sf 0 0 m (0.1) show NC gr 
 gsave  2268 1538 0 0 C 641.868 117.296 t 0 r /Helvetica findfont 71.6807 sf 0 0 m (0.2) show NC gr 
 gsave  2268 1538 0 0 C 830.844 117.296 t 0 r /Helvetica findfont 71.6807 sf 0 0 m (0.3) show NC gr 
 gsave  2268 1538 0 0 C 1019.82 117.296 t 0 r /Helvetica findfont 71.6807 sf 0 0 m (0.4) show NC gr 
 gsave  2268 1538 0 0 C 1208.8 117.296 t 0 r /Helvetica findfont 71.6807 sf 0 0 m (0.5) show NC gr 
 gsave  2268 1538 0 0 C 1394.52 117.296 t 0 r /Helvetica findfont 71.6807 sf 0 0 m (0.6) show NC gr 
 gsave  2268 1538 0 0 C 1583.49 117.296 t 0 r /Helvetica findfont 71.6807 sf 0 0 m (0.7) show NC gr 
 gsave  2268 1538 0 0 C 1772.47 117.296 t 0 r /Helvetica findfont 71.6807 sf 0 0 m (0.8) show NC gr 
 gsave  2268 1538 0 0 C 1961.44 117.296 t 0 r /Helvetica findfont 71.6807 sf 0 0 m (0.9) show NC gr 
 gsave  2268 1538 0 0 C 2186.26 117.296 t 0 r /Helvetica findfont 71.6807 sf 0 0 m (1) show NC gr  316 1509 m 1883 X s 316 1470 m 39 Y s 354 1489 m 20 Y s 391 1489 m 20 Y s 429 1489 m 20 Y s 467 1489 m 20 Y s 504 1470 m 39 Y s 542 1489 m 20 Y s 580
 1489 m 20 Y s 617 1489 m 20 Y s 655 1489 m 20 Y s 693 1470 m 39 Y s 730 1489 m 20 Y s 768 1489 m 20 Y s 806 1489 m 20 Y s 843 1489 m 20 Y s 881 1470 m 39 Y s 919 1489 m 20 Y s 956 1489 m 20 Y s 994 1489 m 20 Y s 1032 1489 m 20 Y s 1069 1470 m 39 Y s
 1107 1489 m 20 Y s 1145 1489 m 20 Y s 1182 1489 m 20 Y s 1220 1489 m 20 Y s 1258 1470 m 39 Y s 1295 1489 m 20 Y s 1333 1489 m 20 Y s 1371 1489 m 20 Y s 1408 1489 m 20 Y s 1446 1470 m 39 Y s 1484 1489 m 20 Y s 1521 1489 m 20 Y s 1559 1489 m 20 Y s
 1597 1489 m 20 Y s 1634 1470 m 39 Y s 1672 1489 m 20 Y s 1710 1489 m 20 Y s 1747 1489 m 20 Y s 1785 1489 m 20 Y s 1823 1470 m 39 Y s 1860 1489 m 20 Y s 1898 1489 m 20 Y s 1936 1489 m 20 Y s 1973 1489 m 20 Y s 2011 1470 m 39 Y s 2049 1489 m 20 Y s
 2086 1489 m 20 Y s 2124 1489 m 20 Y s 2162 1489 m 20 Y s 2199 1470 m 39 Y s 316 186 m 1323 Y s
 gsave  2268 1538 0 0 C 159.652 1143.63 t 90 r /Helvetica findfont 71.6807 sf 0 0 m (Events/0.01) show NC gr  345 187 m -29 X s 345 202 m -29 X s 345 215 m -29 X s 375 227 m -59 X s
 gsave  2268 1538 0 0 C 250.882 228.075 t 0 r /Helvetica findfont 48.8732 sf 0 0 m (\2556) show NC gr 
 gsave  2268 1538 0 0 C 172.685 195.493 t 0 r /Helvetica findfont 71.6807 sf 0 0 m (10) show NC gr  345 304 m -29 X s 345 349 m -29 X s 345 382 m -29 X s 345 406 m -29 X s 345 427 m -29 X s 345 444 m -29 X s 345 459 m -29 X s 345 472 m -29 X s 375
 484 m -59 X s
 gsave  2268 1538 0 0 C 250.882 485.474 t 0 r /Helvetica findfont 48.8732 sf 0 0 m (\2555) show NC gr 
 gsave  2268 1538 0 0 C 172.685 452.892 t 0 r /Helvetica findfont 71.6807 sf 0 0 m (10) show NC gr  345 561 m -29 X s 345 606 m -29 X s 345 639 m -29 X s 345 663 m -29 X s 345 684 m -29 X s 345 701 m -29 X s 345 716 m -29 X s 345 729 m -29 X s 375
 741 m -59 X s
 gsave  2268 1538 0 0 C 250.882 739.614 t 0 r /Helvetica findfont 48.8732 sf 0 0 m (\2554) show NC gr 
 gsave  2268 1538 0 0 C 172.685 710.291 t 0 r /Helvetica findfont 71.6807 sf 0 0 m (10) show NC gr  345 818 m -29 X s 345 864 m -29 X s 345 896 m -29 X s 345 921 m -29 X s 345 941 m -29 X s 345 958 m -29 X s 345 973 m -29 X s 345 986 m -29 X s 375
 998 m -59 X s
 gsave  2268 1538 0 0 C 250.882 1000.27 t 0 r /Helvetica findfont 48.8732 sf 0 0 m (\2553) show NC gr 
 gsave  2268 1538 0 0 C 172.685 967.689 t 0 r /Helvetica findfont 71.6807 sf 0 0 m (10) show NC gr  345 1075 m -29 X s 345 1121 m -29 X s 345 1153 m -29 X s 345 1178 m -29 X s 345 1198 m -29 X s 345 1215 m -29 X s 345 1230 m -29 X s 345 1243 m -29 X
 s 375 1255 m -59 X s
 gsave  2268 1538 0 0 C 250.882 1254.41 t 0 r /Helvetica findfont 48.8732 sf 0 0 m (\2552) show NC gr 
 gsave  2268 1538 0 0 C 172.685 1225.09 t 0 r /Helvetica findfont 71.6807 sf 0 0 m (10) show NC gr  345 1332 m -29 X s 345 1378 m -29 X s 345 1410 m -29 X s 345 1435 m -29 X s 345 1455 m -29 X s 345 1472 m -29 X s 345 1487 m -29 X s 345 1500 m -29 X
 s 2199 186 m 1323 Y s 2170 187 m 29 X s 2170 202 m 29 X s 2170 215 m 29 X s 2141 227 m 58 X s 2170 304 m 29 X s 2170 349 m 29 X s 2170 382 m 29 X s 2170 406 m 29 X s 2170 427 m 29 X s 2170 444 m 29 X s 2170 459 m 29 X s 2170 472 m 29 X s 2141 484 m
 58 X s 2170 561 m 29 X s 2170 606 m 29 X s 2170 639 m 29 X s 2170 663 m 29 X s 2170 684 m 29 X s 2170 701 m 29 X s 2170 716 m 29 X s 2170 729 m 29 X s 2141 741 m 58 X s 2170 818 m 29 X s 2170 864 m 29 X s 2170 896 m 29 X s 2170 921 m 29 X s 2170 941
 m 29 X s 2170 958 m 29 X s 2170 973 m 29 X s 2170 986 m 29 X s 2141 998 m 58 X s 2170 1075 m 29 X s 2170 1121 m 29 X s 2170 1153 m 29 X s 2170 1178 m 29 X s 2170 1198 m 29 X s 2170 1215 m 29 X s 2170 1230 m 29 X s 2170 1243 m 29 X s 2141 1255 m 58 X
 s 2170 1332 m 29 X s 2170 1378 m 29 X s 2170 1410 m 29 X s 2170 1435 m 29 X s 2170 1455 m 29 X s 2170 1472 m 29 X s 2170 1487 m 29 X s 2170 1500 m 29 X s 0 0.6 0.6 c 9 lw 1 1 1 c black 0 0.6 0.6 c 316 1241 m 19 X 54 Y 19 X 40 Y 19 X 36 Y 18 X 28 Y
 19 X 23 Y 19 X 18 Y 19 X 12 Y 19 X 6 Y 19 X 2 Y 18 X -1 Y 19 X -5 Y 19 X -4 Y 19 X -8 Y 19 X -8 Y 19 X -10 Y 18 X -13 Y 19 X -12 Y 19 X -13 Y 19 X -13 Y 19 X -13 Y 19 X -14 Y 18 X -19 Y 19 X -17 Y 19 X -20 Y 19 X -22 Y 19 X -20 Y 19 X -22 Y 18 X -29
 Y 19 X -31 Y 19 X -35 Y 19 X -36 Y 19 X -44 Y 19 X -46 Y 18 X -47 Y 19 X -48 Y 19 X -64 Y 19 X -55 Y 19 X -32 Y 19 X -79 Y 18 X -36 Y 19 X -101 Y 19 X -39 Y 19 X -60 Y 19 X -18 Y 19 X -20 Y 18 X -102 Y 19 X -78 Y 38 X -40 Y 19 X 40 Y 37 X -40 Y 904
 X s 0.6 0 0 c 1 1 1 c black 0.6 0 0 c 316 1393 m 19 X 5 Y 19 X 10 Y 19 X 20 Y 18 X 18 Y 19 X 11 Y 19 X 5 Y 38 X -2 Y 19 X -6 Y 18 X -7 Y 19 X -8 Y 19 X -11 Y 19 X -11 Y 19 X -13 Y 19 X -13 Y 18 X -15 Y 19 X -14 Y 19 X -16 Y 19 X -16 Y 19 X -15 Y 19
 X -14 Y 18 X -14 Y 19 X -17 Y 19 X -16 Y 19 X -15 Y 19 X -17 Y 19 X -19 Y 18 X -23 Y 19 X -27 Y 19 X -27 Y 19 X -35 Y 19 X -31 Y 19 X -36 Y 18 X -46 Y 19 X -41 Y 19 X -52 Y 19 X -39 Y 19 X -34 Y 19 X -62 Y 18 X -9 Y 19 X -20 Y 19 X -48 Y 19 X -36 Y
 19 X -16 Y 19 X -40 Y 18 X 5 Y 19 X -42 Y 19 X 10 Y 19 X -30 Y 19 X -61 Y 19 X -225 Y 18 X 217 Y 19 X -62 Y 38 X -78 Y 56 X -129 Y 19 X 52 Y 19 X 77 Y 19 X -129 Y 734 X s black
 gsave  2268 1538 0 0 C 1489 1049.14 t 0 r /Helvetica-Bold findfont 55.3896 sf 0 0 m (B electrons) show NC gr  0 0 0.6 c 1273 1087 m 179 X s black
 gsave  2268 1538 0 0 C 1489 869.943 t 0 r /Helvetica-Bold findfont 55.3896 sf 0 0 m (conversion electrons) show NC gr  0 0.6 0.6 c 1273 907 m 179 X s black
 gsave  2268 1538 0 0 C 1489 690.741 t 0 r /Helvetica-Bold findfont 55.3896 sf 0 0 m (Hadrons) show NC gr  0.6 0 0 c 1273 728 m 179 X s
 gr  gr showpage
end
%%EOF
