%!PS-Adobe-2.0 EPSF-2.0
%%BoundingBox:  0 0 567 384
%%Title: f1core.eps: c1_n10
%%Creator: ROOT Version 5.34/14
%%CreationDate: Mon Sep  8 03:16:16 2014
%%EndComments
%%BeginProlog
80 dict begin
/s {stroke} def /l {lineto} def /m {moveto} def /t {translate} def
/r {rotate} def /rl {roll}  def /R {repeat} def
/d {rlineto} def /rm {rmoveto} def /gr {grestore} def /f {eofill} def
/c {setrgbcolor} def /black {0 setgray} def /sd {setdash} def
/cl {closepath} def /sf {scalefont setfont} def /lw {setlinewidth} def
/box {m dup 0 exch d exch 0 d 0 exch neg d cl} def
/NC{systemdict begin initclip end}def/C{NC box clip newpath}def
/bl {box s} def /bf {box f} def /Y { 0 exch d} def /X { 0 d} def 
/K {{pop pop 0 moveto} exch kshow} bind def
/ita {/ang 15 def gsave [1 0 ang dup sin exch cos div 1 0 0] concat} def 
/mp {newpath /y exch def /x exch def} def
/side {[w .77 mul w .23 mul] .385 w mul sd w 0 l currentpoint t -144 r} def
/mr {mp x y w2 0 360 arc} def /m24 {mr s} def /m20 {mr f} def
/mb {mp x y w2 add m w2 neg 0 d 0 w neg d w 0 d 0 w d cl} def
/mt {mp x y w2 add m w2 neg w neg d w 0 d cl} def
/m21 {mb f} def /m25 {mb s} def /m22 {mt f} def /m26{mt s} def
/m23 {mp x y w2 sub m w2 w d w neg 0 d cl f} def
/m27 {mp x y w2 add m w3 neg w2 neg d w3 w2 neg d w3 w2 d cl s} def
/m28 {mp x w2 sub y w2 sub w3 add m w3 0 d  0 w3 neg d w3 0 d 0 w3 d w3 0 d  0 w3 d w3 neg 0 d 0 w3 d w3 neg 0 d 0 w3 neg d w3 neg 0 d cl s } def
/m29 {mp gsave x w2 sub y w2 add w3 sub m currentpoint t 4 {side} repeat cl fill gr} def
/m30 {mp gsave x w2 sub y w2 add w3 sub m currentpoint t 4 {side} repeat cl s gr} def
/m31 {mp x y w2 sub m 0 w d x w2 sub y m w 0 d x w2 sub y w2 add m w w neg d x w2 sub y w2 sub m w w d s} def
/m32 {mp x y w2 sub m w2 w d w neg 0 d cl s} def
/m33 {mp x y w2 add m w3 neg w2 neg d w3 w2 neg d w3 w2 d cl f} def
/m34 {mp x w2 sub y w2 sub w3 add m w3 0 d  0 w3 neg d w3 0 d 0 w3 d w3 0 d  0 w3 d w3 neg 0 d 0 w3 d w3 neg 0 d 0 w3 neg d w3 neg 0 d cl f } def
/m2 {mp x y w2 sub m 0 w d x w2 sub y m w 0 d s} def
/m5 {mp x w2 sub y w2 sub m w w d x w2 sub y w2 add m w w neg d s} def
/reEncode {exch findfont dup length dict begin {1 index /FID eq  {pop pop} {def} ifelse } forall /Encoding exch def currentdict end dup /FontName get exch definefont pop } def [/Times-Bold /Times-Italic /Times-BoldItalic /Helvetica /Helvetica-Oblique
 /Helvetica-Bold /Helvetica-BoldOblique /Courier /Courier-Oblique /Courier-Bold /Courier-BoldOblique /Times-Roman /AvantGarde-Book /AvantGarde-BookOblique /AvantGarde-Demi /AvantGarde-DemiOblique /Bookman-Demi /Bookman-DemiItalic /Bookman-Light
 /Bookman-LightItalic /Helvetica-Narrow /Helvetica-Narrow-Bold /Helvetica-Narrow-BoldOblique /Helvetica-Narrow-Oblique /NewCenturySchlbk-Roman /NewCenturySchlbk-Bold /NewCenturySchlbk-BoldItalic /NewCenturySchlbk-Italic /Palatino-Bold
 /Palatino-BoldItalic /Palatino-Italic /Palatino-Roman ] {ISOLatin1Encoding reEncode } forall
%%EndProlog
%%BeginSetup
%%EndSetup
newpath  gsave  .25 .25 scale  gsave  0 0 t black[  ] 0 sd 3 lw 1 1 1 c 2268 1538 0 0 bf black 1 1 1 c 1883 1322 317 185 bf black 1883 1322 317 185 bl 9 lw 1 1 1 c black 317 1431 m 3 X s 333 1431 m 3 X s 3 lw /w 13 def /w2 {w 2 div} def /w3 {w 3 div}
 def 327 1431 m20 9 lw 336 1396 m 3 X s 352 1396 m 3 X s 3 lw 346 1396 m20 9 lw 355 1342 m 3 X s 371 1342 m 3 X s 3 lw 365 1342 m20 9 lw 374 1317 m 3 X s 390 1317 m 3 X s 3 lw 383 1317 m20 9 lw 393 1315 m 3 X s 409 1315 m 3 X s 3 lw 402 1315 m20 9 lw
 412 1317 m 2 X s 428 1317 m 2 X s 3 lw 421 1317 m20 9 lw 430 1317 m 3 X s 446 1317 m 3 X s 3 lw 440 1317 m20 9 lw 449 1321 m 3 X s 465 1321 m 3 X s 3 lw 459 1321 m20 9 lw 468 1324 m 3 X s 484 1324 m 3 X s 3 lw 477 1324 m20 9 lw 487 1329 m 3 X s 503
 1329 m 3 X s 3 lw 496 1329 m20 9 lw 506 1329 m 3 X s 522 1329 m 3 X s 3 lw 515 1329 m20 9 lw 525 1338 m 2 X s 540 1338 m 3 X s 3 lw 534 1338 m20 9 lw 543 1338 m 3 X s 559 1338 m 3 X s 3 lw 553 1338 m20 9 lw 562 1334 m 3 X s 578 1334 m 3 X s 3 lw 572
 1334 m20 9 lw 581 1332 m 3 X s 597 1332 m 3 X s 3 lw 590 1332 m20 9 lw 600 1324 m 3 X s 616 1324 m 3 X s 3 lw 609 1324 m20 9 lw 619 1318 m 3 X s 635 1318 m 2 X s 3 lw 628 1318 m20 9 lw 637 1308 m 3 X s 653 1308 m 3 X s 3 lw 647 1308 m20 9 lw 656
 1300 m 3 X s 672 1300 m 3 X s 3 lw 666 1300 m20 9 lw 675 1297 m 3 X s 691 1297 m 3 X s 3 lw 685 1297 m20 9 lw 694 1296 m 3 X s 710 1296 m 3 X s 3 lw 703 1296 m20 9 lw 713 1299 m 3 X s 729 1299 m 3 X s 3 lw 722 1299 m20 9 lw 732 1302 m 2 X s 747 1302
 m 3 X s 3 lw 741 1302 m20 9 lw 750 1303 m 3 X s 766 1303 m 3 X s 3 lw 760 1303 m20 9 lw 769 1304 m 3 X s 785 1304 m 3 X s 3 lw 779 1304 m20 9 lw 788 1305 m 3 X s 804 1305 m 3 X s 3 lw 797 1305 m20 9 lw 807 1302 m 3 X s 823 1302 m 3 X s 3 lw 816 1302
 m20 9 lw 826 1289 m 3 X s 842 1289 m 2 X s 3 lw 835 1289 m20 9 lw 844 1275 m 3 X s 860 1275 m 3 X s 3 lw 854 1275 m20 9 lw 863 1255 m 3 X s 879 1255 m 3 X s 3 lw 873 1255 m20 9 lw 882 1231 m 3 X s 898 1231 m 3 X s 3 lw 892 1231 m20 9 lw 901 1209 m 3
 X s 917 1209 m 3 X s 3 lw 910 1209 m20 9 lw 920 1179 m 3 X s 936 1179 m 3 X s 3 lw 929 1179 m20 9 lw 939 1128 m 3 X s 955 1128 m 2 X s 3 lw 948 1128 m20 9 lw 957 1084 m 3 X s 973 1084 m 3 X s 3 lw 967 1084 m20 9 lw 976 1036 m 3 X s 992 1036 m 3 X s
 3 lw 986 1036 m20 9 lw 1004 982 m s 1004 995 m 1 Y s 995 989 m 3 X s 1011 989 m 3 X s 3 lw 1004 989 m20 9 lw 1023 910 m 3 Y s 1023 926 m 2 Y s 1014 920 m 3 X s 1030 920 m 3 X s 3 lw 1023 920 m20 9 lw 1042 816 m 8 Y s 1042 837 m 7 Y s 1033 831 m 3 X
 s 1049 831 m 3 X s 3 lw 1042 831 m20 9 lw 1061 769 m 11 Y s 1061 793 m 9 Y s 1052 787 m 2 X s 1067 787 m 3 X s 3 lw 1061 787 m20 9 lw 1080 655 m 23 Y s 1080 691 m 16 Y s 1070 684 m 3 X s 1086 684 m 3 X s 3 lw 1080 684 m20 9 lw 1099 465 m 58 Y s 1099
 536 m 35 Y s 1089 530 m 3 X s 1105 530 m 3 X s 3 lw 1099 530 m20 9 lw 1117 426 m 69 Y s 1117 508 m 39 Y s 1108 501 m 3 X s 1124 501 m 3 X s 3 lw 1117 501 m20 9 lw 1136 541 m 40 Y s 1136 594 m 27 Y s 1127 588 m 3 X s 1143 588 m 3 X s 3 lw 1136 588
 m20 9 lw 1155 266 m 137 Y s 1155 416 m 56 Y s 1146 409 m 3 X s 1162 409 m 2 X s 3 lw 1155 409 m20 9 lw 1174 185 m 111 Y s 1174 309 m 81 Y s 1164 302 m 3 X s 1180 302 m 3 X s 3 lw 1174 302 m20 9 lw 1193 266 m 137 Y s 1193 416 m 56 Y s 1183 409 m 3 X
 s 1199 409 m 3 X s 3 lw 1193 409 m20 9 lw 1306 185 m 137 Y s 1306 335 m 74 Y s 1296 328 m 3 X s 1312 328 m 3 X s 3 lw 1306 328 m20 9 lw 3 lw 317 185 m 1883 X s
 gsave  2268 1538 0 0 C 1964.7 6.51643 t 0 r /Helvetica findfont 84.7135 sf 0 0 m (f1core) show NC gr  317 223 m -38 Y s 355 204 m -19 Y s 393 204 m -19 Y s 430 204 m -19 Y s 468 204 m -19 Y s 506 223 m -38 Y s 543 204 m -19 Y s 581 204 m -19 Y s 619
 204 m -19 Y s 656 204 m -19 Y s 694 223 m -38 Y s 732 204 m -19 Y s 769 204 m -19 Y s 807 204 m -19 Y s 844 204 m -19 Y s 882 223 m -38 Y s 920 204 m -19 Y s 957 204 m -19 Y s 995 204 m -19 Y s 1033 204 m -19 Y s 1070 223 m -38 Y s 1108 204 m -19 Y
 s 1146 204 m -19 Y s 1183 204 m -19 Y s 1221 204 m -19 Y s 1259 223 m -38 Y s 1296 204 m -19 Y s 1334 204 m -19 Y s 1372 204 m -19 Y s 1409 204 m -19 Y s 1447 223 m -38 Y s 1484 204 m -19 Y s 1522 204 m -19 Y s 1560 204 m -19 Y s 1597 204 m -19 Y s
 1635 223 m -38 Y s 1673 204 m -19 Y s 1710 204 m -19 Y s 1748 204 m -19 Y s 1786 204 m -19 Y s 1823 223 m -38 Y s 1861 204 m -19 Y s 1899 204 m -19 Y s 1936 204 m -19 Y s 1974 204 m -19 Y s 2011 223 m -38 Y s 2049 204 m -19 Y s 2087 204 m -19 Y s
 2124 204 m -19 Y s 2162 204 m -19 Y s 2200 223 m -38 Y s
 gsave  2268 1538 0 0 C 293.239 104.263 t 0 r /Helvetica findfont 84.7135 sf 0 0 m (0) show NC gr 
 gsave  2268 1538 0 0 C 452.892 104.263 t 0 r /Helvetica findfont 84.7135 sf 0 0 m (0.1) show NC gr 
 gsave  2268 1538 0 0 C 632.093 104.263 t 0 r /Helvetica findfont 84.7135 sf 0 0 m (0.2) show NC gr 
 gsave  2268 1538 0 0 C 821.07 104.263 t 0 r /Helvetica findfont 84.7135 sf 0 0 m (0.3) show NC gr 
 gsave  2268 1538 0 0 C 1010.05 104.263 t 0 r /Helvetica findfont 84.7135 sf 0 0 m (0.4) show NC gr 
 gsave  2268 1538 0 0 C 1199.02 104.263 t 0 r /Helvetica findfont 84.7135 sf 0 0 m (0.5) show NC gr 
 gsave  2268 1538 0 0 C 1388 104.263 t 0 r /Helvetica findfont 84.7135 sf 0 0 m (0.6) show NC gr 
 gsave  2268 1538 0 0 C 1573.72 104.263 t 0 r /Helvetica findfont 84.7135 sf 0 0 m (0.7) show NC gr 
 gsave  2268 1538 0 0 C 1762.69 104.263 t 0 r /Helvetica findfont 84.7135 sf 0 0 m (0.8) show NC gr 
 gsave  2268 1538 0 0 C 1951.67 104.263 t 0 r /Helvetica findfont 84.7135 sf 0 0 m (0.9) show NC gr 
 gsave  2268 1538 0 0 C 2183 104.263 t 0 r /Helvetica findfont 84.7135 sf 0 0 m (1) show NC gr  317 1507 m 1883 X s 317 1469 m 38 Y s 355 1488 m 19 Y s 393 1488 m 19 Y s 430 1488 m 19 Y s 468 1488 m 19 Y s 506 1469 m 38 Y s 543 1488 m 19 Y s 581 1488
 m 19 Y s 619 1488 m 19 Y s 656 1488 m 19 Y s 694 1469 m 38 Y s 732 1488 m 19 Y s 769 1488 m 19 Y s 807 1488 m 19 Y s 844 1488 m 19 Y s 882 1469 m 38 Y s 920 1488 m 19 Y s 957 1488 m 19 Y s 995 1488 m 19 Y s 1033 1488 m 19 Y s 1070 1469 m 38 Y s 1108
 1488 m 19 Y s 1146 1488 m 19 Y s 1183 1488 m 19 Y s 1221 1488 m 19 Y s 1259 1469 m 38 Y s 1296 1488 m 19 Y s 1334 1488 m 19 Y s 1372 1488 m 19 Y s 1409 1488 m 19 Y s 1447 1469 m 38 Y s 1484 1488 m 19 Y s 1522 1488 m 19 Y s 1560 1488 m 19 Y s 1597
 1488 m 19 Y s 1635 1469 m 38 Y s 1673 1488 m 19 Y s 1710 1488 m 19 Y s 1748 1488 m 19 Y s 1786 1488 m 19 Y s 1823 1469 m 38 Y s 1861 1488 m 19 Y s 1899 1488 m 19 Y s 1936 1488 m 19 Y s 1974 1488 m 19 Y s 2011 1469 m 38 Y s 2049 1488 m 19 Y s 2087
 1488 m 19 Y s 2124 1488 m 19 Y s 2162 1488 m 19 Y s 2200 1469 m 38 Y s 317 185 m 1322 Y s 347 187 m -30 X s 347 221 m -30 X s 347 247 m -30 X s 347 269 m -30 X s 347 287 m -30 X s 347 302 m -30 X s 347 316 m -30 X s 376 328 m -59 X s
 gsave  2268 1538 0 0 C 295.257 291.742 t 0 r  -47 0 t /Helvetica findfont 84.7135 sf 0 0 m (1) show NC gr  347 409 m -30 X s 347 457 m -30 X s 347 490 m -30 X s 347 516 m -30 X s 347 538 m -30 X s 347 556 m -30 X s 347 571 m -30 X s 347 585 m -30 X
 s 376 597 m -59 X s
 gsave  2268 1538 0 0 C 295.257 560.947 t 0 r  -95 0 t /Helvetica findfont 84.7135 sf 0 0 m (10) show NC gr  347 678 m -30 X s 347 726 m -30 X s 347 760 m -30 X s 347 786 m -30 X s 347 807 m -30 X s 347 825 m -30 X s 347 841 m -30 X s 347 854 m -30 X
 s 376 867 m -59 X s
 gsave  2268 1538 0 0 C 260.657 863.427 t 0 r /Helvetica findfont 58.6478 sf 0 0 m (2) show NC gr 
 gsave  2268 1538 0 0 C 169.427 827.586 t 0 r /Helvetica findfont 84.7135 sf 0 0 m (10) show NC gr  347 948 m -30 X s 347 995 m -30 X s 347 1029 m -30 X s 347 1055 m -30 X s 347 1076 m -30 X s 347 1094 m -30 X s 347 1110 m -30 X s 347 1124 m -30 X s
 376 1136 m -59 X s
 gsave  2268 1538 0 0 C 260.657 1137.12 t 0 r /Helvetica findfont 58.6478 sf 0 0 m (3) show NC gr 
 gsave  2268 1538 0 0 C 169.427 1098.02 t 0 r /Helvetica findfont 84.7135 sf 0 0 m (10) show NC gr  347 1217 m -30 X s 347 1264 m -30 X s 347 1298 m -30 X s 347 1324 m -30 X s 347 1345 m -30 X s 347 1363 m -30 X s 347 1379 m -30 X s 347 1393 m -30 X
 s 376 1405 m -59 X s
 gsave  2268 1538 0 0 C 260.657 1404.29 t 0 r /Helvetica findfont 58.6478 sf 0 0 m (4) show NC gr 
 gsave  2268 1538 0 0 C 169.427 1368.45 t 0 r /Helvetica findfont 84.7135 sf 0 0 m (10) show NC gr  347 1486 m -30 X s 2200 185 m 1322 Y s 2170 187 m 30 X s 2170 221 m 30 X s 2170 247 m 30 X s 2170 269 m 30 X s 2170 287 m 30 X s 2170 302 m 30 X s
 2170 316 m 30 X s 2141 328 m 59 X s 2170 409 m 30 X s 2170 457 m 30 X s 2170 490 m 30 X s 2170 516 m 30 X s 2170 538 m 30 X s 2170 556 m 30 X s 2170 571 m 30 X s 2170 585 m 30 X s 2141 597 m 59 X s 2170 678 m 30 X s 2170 726 m 30 X s 2170 760 m 30 X
 s 2170 786 m 30 X s 2170 807 m 30 X s 2170 825 m 30 X s 2170 841 m 30 X s 2170 854 m 30 X s 2141 867 m 59 X s 2170 948 m 30 X s 2170 995 m 30 X s 2170 1029 m 30 X s 2170 1055 m 30 X s 2170 1076 m 30 X s 2170 1094 m 30 X s 2170 1110 m 30 X s 2170
 1124 m 30 X s 2141 1136 m 59 X s 2170 1217 m 30 X s 2170 1264 m 30 X s 2170 1298 m 30 X s 2170 1324 m 30 X s 2170 1345 m 30 X s 2170 1363 m 30 X s 2170 1379 m 30 X s 2170 1393 m 30 X s 2141 1405 m 59 X s 2170 1486 m 30 X s 1 0 0 c 9 lw 1 1 1 c 1 0 0
 c 317 1205 m 19 X -136 Y 19 X 7 Y 19 X 23 Y 19 X 19 Y 19 X 33 Y 18 X 43 Y 19 X 28 Y 19 X 36 Y 19 X 35 Y 19 X 28 Y 19 X 26 Y 18 X 13 Y 19 X 14 Y 19 X 9 Y 19 X -11 Y 19 X -7 Y 18 X -5 Y 38 X -10 Y 19 X -4 Y 19 X 6 Y 19 X 1 Y 18 X -1 Y 19 X -1 Y 19 X
 -1 Y 19 X -4 Y 19 X -10 Y 18 X -10 Y 19 X -20 Y 19 X -21 Y 19 X -20 Y 19 X -31 Y 19 X -19 Y 18 X -45 Y 19 X -40 Y 19 X -57 Y 19 X -49 Y 19 X -41 Y 19 X -76 Y 18 X -49 Y 19 X -71 Y 19 X -91 Y 19 X -53 Y 19 X -147 Y 18 X -311 Y 19 X 230 Y 19 X -230 Y
 998 X s black
 gsave  2268 1538 0 0 C 641.868 707.032 t 0 r /Helvetica-Bold findfont 42.3568 sf 0 0 m ( probe electron \(data\)) show NC gr 
 gsave  2268 1538 0 0 C 606.028 707.032 t 0 r /Symbol findfont 42.3568 sf 0 0 m (Y) show NC gr 
 gsave  2268 1538 0 0 C 570.187 707.032 t 0 r /Helvetica-Bold findfont 42.3568 sf 0 0 m (J/) show NC gr  414 750 m 131 X s
 gsave  2268 1538 0 0 C 570.187 514.798 t 0 r /Helvetica-Bold findfont 42.3568 sf 0 0 m (B electron \(MC\)) show NC gr  1 0 0 c 414 557 m 131 X s
 gr  gr showpage
end
%%EOF
