%!PS-Adobe-2.0 EPSF-2.0
%%BoundingBox:  0 0 567 384
%%Title: massFitjpsiMass_10_15_raw.eps: c1
%%Creator: ROOT Version 5.34/14
%%CreationDate: Mon Sep 15 09:44:04 2014
%%EndComments
%%BeginProlog
80 dict begin
/s {stroke} def /l {lineto} def /m {moveto} def /t {translate} def
/r {rotate} def /rl {roll}  def /R {repeat} def
/d {rlineto} def /rm {rmoveto} def /gr {grestore} def /f {eofill} def
/c {setrgbcolor} def /black {0 setgray} def /sd {setdash} def
/cl {closepath} def /sf {scalefont setfont} def /lw {setlinewidth} def
/box {m dup 0 exch d exch 0 d 0 exch neg d cl} def
/NC{systemdict begin initclip end}def/C{NC box clip newpath}def
/bl {box s} def /bf {box f} def /Y { 0 exch d} def /X { 0 d} def 
/K {{pop pop 0 moveto} exch kshow} bind def
/ita {/ang 15 def gsave [1 0 ang dup sin exch cos div 1 0 0] concat} def 
/mp {newpath /y exch def /x exch def} def
/side {[w .77 mul w .23 mul] .385 w mul sd w 0 l currentpoint t -144 r} def
/mr {mp x y w2 0 360 arc} def /m24 {mr s} def /m20 {mr f} def
/mb {mp x y w2 add m w2 neg 0 d 0 w neg d w 0 d 0 w d cl} def
/mt {mp x y w2 add m w2 neg w neg d w 0 d cl} def
/m21 {mb f} def /m25 {mb s} def /m22 {mt f} def /m26{mt s} def
/m23 {mp x y w2 sub m w2 w d w neg 0 d cl f} def
/m27 {mp x y w2 add m w3 neg w2 neg d w3 w2 neg d w3 w2 d cl s} def
/m28 {mp x w2 sub y w2 sub w3 add m w3 0 d  0 w3 neg d w3 0 d 0 w3 d w3 0 d  0 w3 d w3 neg 0 d 0 w3 d w3 neg 0 d 0 w3 neg d w3 neg 0 d cl s } def
/m29 {mp gsave x w2 sub y w2 add w3 sub m currentpoint t 4 {side} repeat cl fill gr} def
/m30 {mp gsave x w2 sub y w2 add w3 sub m currentpoint t 4 {side} repeat cl s gr} def
/m31 {mp x y w2 sub m 0 w d x w2 sub y m w 0 d x w2 sub y w2 add m w w neg d x w2 sub y w2 sub m w w d s} def
/m32 {mp x y w2 sub m w2 w d w neg 0 d cl s} def
/m33 {mp x y w2 add m w3 neg w2 neg d w3 w2 neg d w3 w2 d cl f} def
/m34 {mp x w2 sub y w2 sub w3 add m w3 0 d  0 w3 neg d w3 0 d 0 w3 d w3 0 d  0 w3 d w3 neg 0 d 0 w3 d w3 neg 0 d 0 w3 neg d w3 neg 0 d cl f } def
/m2 {mp x y w2 sub m 0 w d x w2 sub y m w 0 d s} def
/m5 {mp x w2 sub y w2 sub m w w d x w2 sub y w2 add m w w neg d s} def
/reEncode {exch findfont dup length dict begin {1 index /FID eq  {pop pop} {def} ifelse } forall /Encoding exch def currentdict end dup /FontName get exch definefont pop } def [/Times-Bold /Times-Italic /Times-BoldItalic /Helvetica /Helvetica-Oblique
 /Helvetica-Bold /Helvetica-BoldOblique /Courier /Courier-Oblique /Courier-Bold /Courier-BoldOblique /Times-Roman /AvantGarde-Book /AvantGarde-BookOblique /AvantGarde-Demi /AvantGarde-DemiOblique /Bookman-Demi /Bookman-DemiItalic /Bookman-Light
 /Bookman-LightItalic /Helvetica-Narrow /Helvetica-Narrow-Bold /Helvetica-Narrow-BoldOblique /Helvetica-Narrow-Oblique /NewCenturySchlbk-Roman /NewCenturySchlbk-Bold /NewCenturySchlbk-BoldItalic /NewCenturySchlbk-Italic /Palatino-Bold
 /Palatino-BoldItalic /Palatino-Italic /Palatino-Roman ] {ISOLatin1Encoding reEncode } forall
%%EndProlog
%%BeginSetup
%%EndSetup
newpath  gsave  .25 .25 scale  gsave  0 0 t black[  ] 0 sd 3 lw 1 1 1 c 2268 1538 0 0 bf black 1 1 1 c 1883 1322 317 185 bf black 1883 1322 317 185 bl 317 185 m 1883 X s
 gsave  2268 1538 0 0 C 1622.59 13.0329 t 0 r /Helvetica findfont 84.7135 sf 0 0 m (jpsiMass \(GeV\)) show NC gr  519 223 m -38 Y s 586 204 m -19 Y s 654 204 m -19 Y s 721 204 m -19 Y s 788 204 m -19 Y s 855 223 m -38 Y s 922 204 m -19 Y s 990 204 m
 -19 Y s 1057 204 m -19 Y s 1124 204 m -19 Y s 1191 223 m -38 Y s 1259 204 m -19 Y s 1326 204 m -19 Y s 1393 204 m -19 Y s 1460 204 m -19 Y s 1527 223 m -38 Y s 1595 204 m -19 Y s 1662 204 m -19 Y s 1729 204 m -19 Y s 1796 204 m -19 Y s 1864 223 m
 -38 Y s 1931 204 m -19 Y s 1998 204 m -19 Y s 2065 204 m -19 Y s 2132 204 m -19 Y s 2200 223 m -38 Y s 519 223 m -38 Y s 452 204 m -19 Y s 385 204 m -19 Y s
 gsave  2268 1538 0 0 C 459.408 104.263 t 0 r /Helvetica findfont 84.7135 sf 0 0 m (2.5) show NC gr 
 gsave  2268 1538 0 0 C 830.844 104.263 t 0 r /Helvetica findfont 84.7135 sf 0 0 m (3) show NC gr 
 gsave  2268 1538 0 0 C 1130.6 104.263 t 0 r /Helvetica findfont 84.7135 sf 0 0 m (3.5) show NC gr 
 gsave  2268 1538 0 0 C 1502.04 104.263 t 0 r /Helvetica findfont 84.7135 sf 0 0 m (4) show NC gr 
 gsave  2268 1538 0 0 C 1801.79 104.263 t 0 r /Helvetica findfont 84.7135 sf 0 0 m (4.5) show NC gr 
 gsave  2268 1538 0 0 C 2176.49 104.263 t 0 r /Helvetica findfont 84.7135 sf 0 0 m (5) show NC gr  317 1507 m 1883 X s 519 1469 m 38 Y s 586 1488 m 19 Y s 654 1488 m 19 Y s 721 1488 m 19 Y s 788 1488 m 19 Y s 855 1469 m 38 Y s 922 1488 m 19 Y s 990
 1488 m 19 Y s 1057 1488 m 19 Y s 1124 1488 m 19 Y s 1191 1469 m 38 Y s 1259 1488 m 19 Y s 1326 1488 m 19 Y s 1393 1488 m 19 Y s 1460 1488 m 19 Y s 1527 1469 m 38 Y s 1595 1488 m 19 Y s 1662 1488 m 19 Y s 1729 1488 m 19 Y s 1796 1488 m 19 Y s 1864
 1469 m 38 Y s 1931 1488 m 19 Y s 1998 1488 m 19 Y s 2065 1488 m 19 Y s 2132 1488 m 19 Y s 2200 1469 m 38 Y s 519 1469 m 38 Y s 452 1488 m 19 Y s 385 1488 m 19 Y s 317 185 m 1322 Y s
 gsave  2268 1538 0 0 C 120.554 723.323 t 90 r /Helvetica findfont 84.7135 sf 0 0 m (Events / \( 0.08 GeV \)) show NC gr  376 185 m -59 X s 347 223 m -30 X s 347 261 m -30 X s 347 300 m -30 X s 347 338 m -30 X s 376 376 m -59 X s 347 415 m -30 X s
 347 453 m -30 X s 347 491 m -30 X s 347 530 m -30 X s 376 568 m -59 X s 347 607 m -30 X s 347 645 m -30 X s 347 683 m -30 X s 347 722 m -30 X s 376 760 m -59 X s 347 798 m -30 X s 347 837 m -30 X s 347 875 m -30 X s 347 914 m -30 X s 376 952 m -59 X
 s 347 990 m -30 X s 347 1029 m -30 X s 347 1067 m -30 X s 347 1105 m -30 X s 376 1144 m -59 X s 347 1182 m -30 X s 347 1220 m -30 X s 347 1259 m -30 X s 347 1297 m -30 X s 376 1336 m -59 X s 376 1336 m -59 X s 347 1374 m -30 X s 347 1412 m -30 X s
 347 1451 m -30 X s 347 1489 m -30 X s
 gsave  2268 1538 0 0 C 257.399 153.136 t 0 r /Helvetica findfont 84.7135 sf 0 0 m (0) show NC gr 
 gsave  2268 1538 0 0 C 71.6807 345.371 t 0 r /Helvetica findfont 84.7135 sf 0 0 m (10000) show NC gr 
 gsave  2268 1538 0 0 C 71.6807 537.605 t 0 r /Helvetica findfont 84.7135 sf 0 0 m (20000) show NC gr 
 gsave  2268 1538 0 0 C 71.6807 729.84 t 0 r /Helvetica findfont 84.7135 sf 0 0 m (30000) show NC gr 
 gsave  2268 1538 0 0 C 71.6807 922.074 t 0 r /Helvetica findfont 84.7135 sf 0 0 m (40000) show NC gr 
 gsave  2268 1538 0 0 C 71.6807 1114.31 t 0 r /Helvetica findfont 84.7135 sf 0 0 m (50000) show NC gr 
 gsave  2268 1538 0 0 C 71.6807 1303.29 t 0 r /Helvetica findfont 84.7135 sf 0 0 m (60000) show NC gr  2200 185 m 1322 Y s 2141 185 m 59 X s 2170 223 m 30 X s 2170 261 m 30 X s 2170 300 m 30 X s 2170 338 m 30 X s 2141 376 m 59 X s 2170 415 m 30 X s
 2170 453 m 30 X s 2170 491 m 30 X s 2170 530 m 30 X s 2141 568 m 59 X s 2170 607 m 30 X s 2170 645 m 30 X s 2170 683 m 30 X s 2170 722 m 30 X s 2141 760 m 59 X s 2170 798 m 30 X s 2170 837 m 30 X s 2170 875 m 30 X s 2170 914 m 30 X s 2141 952 m 59 X
 s 2170 990 m 30 X s 2170 1029 m 30 X s 2170 1067 m 30 X s 2170 1105 m 30 X s 2141 1144 m 59 X s 2170 1182 m 30 X s 2170 1220 m 30 X s 2170 1259 m 30 X s 2170 1297 m 30 X s 2141 1336 m 59 X s 2141 1336 m 59 X s 2170 1374 m 30 X s 2170 1412 m 30 X s
 2170 1451 m 30 X s 2170 1489 m 30 X s 344 826 m -27 X s 317 819 m 13 Y s 344 826 m 27 X s 371 819 m 13 Y s 344 826 m 3 Y s 338 829 m 13 X s 344 826 m -4 Y s 338 822 m 13 X s 398 821 m -27 X s 371 815 m 13 Y s 398 821 m 27 X s 425 815 m 13 Y s 398
 821 m 4 Y s 392 825 m 13 X s 398 821 m -3 Y s 392 818 m 13 X s 452 810 m -27 X s 425 804 m 13 Y s 452 810 m 27 X s 479 804 m 13 Y s 452 810 m 4 Y s 445 814 m 13 X s 452 810 m -3 Y s 445 807 m 13 X s 506 796 m -27 X s 479 789 m 13 Y s 506 796 m 27 X
 s 533 789 m 13 Y s 506 796 m 3 Y s 499 799 m 13 X s 506 796 m -4 Y s 499 792 m 13 X s 559 789 m -26 X s 533 782 m 13 Y s 559 789 m 27 X s 586 782 m 13 Y s 559 789 m 3 Y s 553 792 m 13 X s 559 789 m -4 Y s 553 785 m 13 X s 613 782 m -27 X s 586 775 m
 14 Y s 613 782 m 27 X s 640 775 m 14 Y s 613 782 m 3 Y s 607 785 m 13 X s 613 782 m -3 Y s 607 779 m 13 X s 667 781 m -27 X s 640 774 m 14 Y s 667 781 m 27 X s 694 774 m 14 Y s 667 781 m 3 Y s 661 784 m 13 X s 667 781 m -3 Y s 661 778 m 13 X s 721
 796 m -27 X s 694 790 m 13 Y s 721 796 m 27 X s 748 790 m 13 Y s 721 796 m 4 Y s 714 800 m 13 X s 721 796 m -3 Y s 714 793 m 13 X s 775 835 m -27 X s 748 828 m 13 Y s 775 835 m 26 X s 801 828 m 13 Y s 775 835 m 3 Y s 768 838 m 13 X s 775 835 m -4 Y
 s 768 831 m 13 X s 828 912 m -27 X s 801 905 m 13 Y s 828 912 m 27 X s 855 905 m 13 Y s 828 912 m 3 Y s 822 915 m 13 X s 828 912 m -4 Y s 822 908 m 13 X s 882 1009 m -27 X s 855 1003 m 13 Y s 882 1009 m 27 X s 909 1003 m 13 Y s 882 1009 m 4 Y s 876
 1013 m 13 X s 882 1009 m -4 Y s 876 1005 m 13 X s 936 998 m -27 X s 909 992 m 13 Y s 936 998 m 27 X s 963 992 m 13 Y s 936 998 m 4 Y s 929 1002 m 13 X s 936 998 m -4 Y s 929 994 m 13 X s 990 874 m -27 X s 963 867 m 13 Y s 990 874 m 27 X s 1017 867 m
 13 Y s 990 874 m 3 Y s 983 877 m 13 X s 990 874 m -4 Y s 983 870 m 13 X s 1043 747 m -26 X s 1017 740 m 13 Y s 1043 747 m 27 X s 1070 740 m 13 Y s 1043 747 m 3 Y s 1037 750 m 13 X s 1043 747 m -3 Y s 1037 744 m 13 X s 1097 664 m -27 X s 1070 658 m
 13 Y s 1097 664 m 27 X s 1124 658 m 13 Y s 1097 664 m 3 Y s 1091 667 m 13 X s 1097 664 m -3 Y s 1091 661 m 13 X s 1151 623 m -27 X s 1124 617 m 13 Y s 1151 623 m 27 X s 1178 617 m 13 Y s 1151 623 m 3 Y s 1145 626 m 13 X s 1151 623 m -2 Y s 1145 621
 m 13 X s 1205 599 m -27 X s 1178 592 m 13 Y s 1205 599 m 27 X s 1232 592 m 13 Y s 1205 599 m 3 Y s 1198 602 m 13 X s 1205 599 m -3 Y s 1198 596 m 13 X s 1259 578 m -27 X s 1232 572 m 13 Y s 1259 578 m 26 X s 1285 572 m 13 Y s 1259 578 m 3 Y s 1252
 581 m 13 X s 1259 578 m -3 Y s 1252 575 m 13 X s 1312 557 m -27 X s 1285 551 m 13 Y s 1312 557 m 27 X s 1339 551 m 13 Y s 1312 557 m 3 Y s 1306 560 m 13 X s 1312 557 m -2 Y s 1306 555 m 13 X s 1366 537 m -27 X s 1339 531 m 13 Y s 1366 537 m 27 X s
 1393 531 m 13 Y s 1366 537 m 3 Y s 1360 540 m 13 X s 1366 537 m -2 Y s 1360 535 m 13 X s 1420 517 m -27 X s 1393 510 m 13 Y s 1420 517 m 27 X s 1447 510 m 13 Y s 1420 517 m 2 Y s 1413 519 m 13 X s 1420 517 m -3 Y s 1413 514 m 13 X s 1474 498 m -27 X
 s 1447 491 m 13 Y s 1474 498 m 27 X s 1501 491 m 13 Y s 1474 498 m 2 Y s 1467 500 m 13 X s 1474 498 m -3 Y s 1467 495 m 13 X s 1527 487 m -26 X s 1501 480 m 13 Y s 1527 487 m 27 X s 1554 480 m 13 Y s 1527 487 m 2 Y s 1521 489 m 13 X s 1527 487 m -3
 Y s 1521 484 m 13 X s 1581 474 m -27 X s 1554 468 m 13 Y s 1581 474 m 27 X s 1608 468 m 13 Y s 1581 474 m 3 Y s 1575 477 m 13 X s 1581 474 m -2 Y s 1575 472 m 13 X s 1635 460 m -27 X s 1608 453 m 13 Y s 1635 460 m 27 X s 1662 453 m 13 Y s 1635 460 m
 2 Y s 1629 462 m 13 X s 1635 460 m -3 Y s 1629 457 m 13 X s 1689 456 m -27 X s 1662 450 m 13 Y s 1689 456 m 27 X s 1716 450 m 13 Y s 1689 456 m 2 Y s 1682 458 m 13 X s 1689 456 m -2 Y s 1682 454 m 13 X s 1743 445 m -27 X s 1716 439 m 13 Y s 1743 445
 m 26 X s 1769 439 m 13 Y s 1743 445 m 2 Y s 1736 447 m 13 X s 1743 445 m -2 Y s 1736 443 m 13 X s 1796 440 m -27 X s 1769 434 m 13 Y s 1796 440 m 27 X s 1823 434 m 13 Y s 1796 440 m 2 Y s 1790 442 m 13 X s 1796 440 m -2 Y s 1790 438 m 13 X s 1850
 428 m -27 X s 1823 421 m 13 Y s 1850 428 m 27 X s 1877 421 m 13 Y s 1850 428 m 2 Y s 1844 430 m 13 X s 1850 428 m -2 Y s 1844 426 m 13 X s 1904 423 m -27 X s 1877 416 m 13 Y s 1904 423 m 27 X s 1931 416 m 13 Y s 1904 423 m 2 Y s 1897 425 m 13 X s
 1904 423 m -2 Y s 1897 421 m 13 X s 1958 412 m -27 X s 1931 406 m 13 Y s 1958 412 m 27 X s 1985 406 m 13 Y s 1958 412 m 3 Y s 1951 415 m 13 X s 1958 412 m -2 Y s 1951 410 m 13 X s 2011 409 m -26 X s 1985 403 m 13 Y s 2011 409 m 27 X s 2038 403 m 13
 Y s 2011 409 m 3 Y s 2005 412 m 13 X s 2011 409 m -2 Y s 2005 407 m 13 X s 2065 401 m -27 X s 2038 395 m 13 Y s 2065 401 m 27 X s 2092 395 m 13 Y s 2065 401 m 2 Y s 2059 403 m 13 X s 2065 401 m -2 Y s 2059 399 m 13 X s 2119 398 m -27 X s 2092 391 m
 13 Y s 2119 398 m 27 X s 2146 391 m 13 Y s 2119 398 m 2 Y s 2113 400 m 13 X s 2119 398 m -2 Y s 2113 396 m 13 X s 2173 389 m -27 X s 2146 382 m 13 Y s 2173 389 m 27 X s 2200 382 m 13 Y s 2173 389 m 2 Y s 2166 391 m 13 X s 2173 389 m -2 Y s 2166 387
 m 13 X s /w 13 def /w2 {w 2 div} def /w3 {w 3 div} def 344 826 398 821 452 810 506 796 559 789 613 782 667 781 721 796 775 835 828 912 882 1009 936 998 990 874 1043 747 1097 664 1151 623 1205 599 1259 578 1312 557 1366 537 1420 517 1474 498 1527 487
 1581 474 1635 460 1689 456 1743 445 1796 440 1850 428 1904 423 1958 412 2011 409 2065 401 2119 398 2173 389 35 { m20} R 0 0 1 c 9 lw black 0 0 1 c 317 851 m 19 -6 d 19 -6 d 19 -6 d 19 -7 d 19 -5 d 18 -6 d 19 -6 d 19 -5 d 19 -6 d 19 -5 d 19 -4 d 18
 -4 d 19 -4 d 19 -3 d 19 -1 d 19 -1 d 18 1 d 19 2 d 19 4 d 19 6 d 19 8 d 19 11 d 18 13 d 19 15 d 19 18 d 19 22 d 9 12 d 10 14 d 9 16 d 9 20 d 10 21 d 9 19 d 10 17 d 9 14 d 10 10 d 9 5 d 9 X 10 -5 d 9 -10 d 10 -14 d 9 -19 d 9 -21 d 19 -49 d 19 -50 d
 19 -47 d 9 -21 d 10 -20 d 9 -18 d 10 -16 d 18 -29 d 19 -24 d 19 -21 d 19 -18 d 19 -16 d 18 -15 d 19 -12 d 19 -12 d 19 -10 d 19 -8 d 19 -8 d 18 -7 d 19 -6 d 19 -6 d 19 -5 d 19 -5 d 19 -4 d 18 -5 d 19 -4 d 19 -5 d 19 -4 d 19 -4 d 18 -4 d 19 -4 d 19 -4
 d 19 -4 d 19 -4 d 19 -4 d 18 -3 d 19 -4 d 19 -4 d 19 -3 d 19 -4 d 18 -3 d 19 -4 d 19 -3 d 19 -4 d 19 -3 d 19 -4 d 18 -3 d 19 -3 d 19 -3 d 19 -3 d 19 -3 d 19 -4 d 18 -3 d 19 -3 d 19 -2 d 19 -3 d 19 -3 d 18 -3 d 19 -3 d 19 -2 d 19 -3 d 19 -3 d 19 -2 d
 18 -3 d 19 -2 d 19 -3 d 19 -2 d 19 -2 d s 1 0 0 c black 1 0 0 c 317 838 m 19 -7 d 19 -7 d 19 -7 d 19 -6 d 19 -7 d 18 -6 d 19 -7 d 19 -6 d 19 -7 d 19 -6 d 19 -7 d 18 -6 d 19 -6 d 19 -6 d 19 -6 d 19 -7 d 18 -6 d 19 -6 d 19 -6 d 19 -6 d 19 -5 d 19 -6 d
 18 -6 d 19 -6 d 19 -6 d 19 -5 d 19 -6 d 18 -5 d 19 -6 d 19 -5 d 19 -6 d 19 -5 d 19 -6 d 18 -5 d 19 -5 d 19 -5 d 19 -5 d 19 -6 d 19 -5 d 18 -5 d 19 -5 d 19 -5 d 19 -5 d 19 -4 d 18 -5 d 19 -5 d 19 -5 d 19 -4 d 19 -5 d 19 -5 d 18 -4 d 19 -5 d 19 -4 d
 19 -4 d 19 -5 d 19 -4 d 18 -4 d 19 -5 d 19 -4 d 19 -4 d 19 -4 d 18 -4 d 19 -4 d 19 -4 d 19 -4 d 19 -4 d 19 -4 d 18 -3 d 19 -4 d 19 -4 d 19 -3 d 19 -4 d 18 -3 d 19 -4 d 19 -3 d 19 -4 d 19 -3 d 19 -4 d 18 -3 d 19 -3 d 19 -3 d 19 -3 d 19 -3 d 19 -4 d
 18 -3 d 19 -3 d 19 -2 d 19 -3 d 19 -3 d 18 -3 d 19 -3 d 19 -2 d 19 -3 d 19 -3 d 19 -2 d 18 -3 d 19 -2 d 19 -3 d 19 -2 d 19 -2 d s 0.8 0.4 0 c black 0.8 0.4 0 c 317 198 m 19 1 d 19 X 19 1 d 19 X 19 1 d 18 1 d 19 1 d 19 X 19 2 d 19 1 d 19 2 d 18 2 d
 19 3 d 19 3 d 19 4 d 19 6 d 18 7 d 19 8 d 19 10 d 19 12 d 19 14 d 19 17 d 18 18 d 19 21 d 19 24 d 9 13 d 10 14 d 9 15 d 10 17 d 9 19 d 5 11 d 4 12 d 10 23 d 9 23 d 10 20 d 4 8 d 5 8 d 5 7 d 5 6 d 4 4 d 5 4 d 5 2 d 9 X 5 -2 d 4 -3 d 5 -4 d 5 -6 d 5
 -6 d 4 -8 d 5 -8 d 9 -19 d 10 -21 d 9 -22 d 19 -45 d 9 -21 d 10 -21 d 9 -18 d 10 -17 d 9 -16 d 10 -14 d 9 -12 d 9 -11 d 10 -11 d 9 -9 d 19 -16 d 19 -13 d 19 -11 d 18 -10 d 19 -8 d 19 -6 d 19 -6 d 19 -4 d 19 -3 d 18 -2 d 19 -2 d 19 -1 d 19 -1 d 19 X
 19 -1 d 828 X s black 3 lw 317 185 m 1883 X s 519 223 m -38 Y s 586 204 m -19 Y s 654 204 m -19 Y s 721 204 m -19 Y s 788 204 m -19 Y s 855 223 m -38 Y s 922 204 m -19 Y s 990 204 m -19 Y s 1057 204 m -19 Y s 1124 204 m -19 Y s 1191 223 m -38 Y s
 1259 204 m -19 Y s 1326 204 m -19 Y s 1393 204 m -19 Y s 1460 204 m -19 Y s 1527 223 m -38 Y s 1595 204 m -19 Y s 1662 204 m -19 Y s 1729 204 m -19 Y s 1796 204 m -19 Y s 1864 223 m -38 Y s 1931 204 m -19 Y s 1998 204 m -19 Y s 2065 204 m -19 Y s
 2132 204 m -19 Y s 2200 223 m -38 Y s 519 223 m -38 Y s 452 204 m -19 Y s 385 204 m -19 Y s 317 1507 m 1883 X s 519 1469 m 38 Y s 586 1488 m 19 Y s 654 1488 m 19 Y s 721 1488 m 19 Y s 788 1488 m 19 Y s 855 1469 m 38 Y s 922 1488 m 19 Y s 990 1488 m
 19 Y s 1057 1488 m 19 Y s 1124 1488 m 19 Y s 1191 1469 m 38 Y s 1259 1488 m 19 Y s 1326 1488 m 19 Y s 1393 1488 m 19 Y s 1460 1488 m 19 Y s 1527 1469 m 38 Y s 1595 1488 m 19 Y s 1662 1488 m 19 Y s 1729 1488 m 19 Y s 1796 1488 m 19 Y s 1864 1469 m 38
 Y s 1931 1488 m 19 Y s 1998 1488 m 19 Y s 2065 1488 m 19 Y s 2132 1488 m 19 Y s 2200 1469 m 38 Y s 519 1469 m 38 Y s 452 1488 m 19 Y s 385 1488 m 19 Y s 317 185 m 1322 Y s 376 185 m -59 X s 347 223 m -30 X s 347 261 m -30 X s 347 300 m -30 X s 347
 338 m -30 X s 376 376 m -59 X s 347 415 m -30 X s 347 453 m -30 X s 347 491 m -30 X s 347 530 m -30 X s 376 568 m -59 X s 347 607 m -30 X s 347 645 m -30 X s 347 683 m -30 X s 347 722 m -30 X s 376 760 m -59 X s 347 798 m -30 X s 347 837 m -30 X s
 347 875 m -30 X s 347 914 m -30 X s 376 952 m -59 X s 347 990 m -30 X s 347 1029 m -30 X s 347 1067 m -30 X s 347 1105 m -30 X s 376 1144 m -59 X s 347 1182 m -30 X s 347 1220 m -30 X s 347 1259 m -30 X s 347 1297 m -30 X s 376 1336 m -59 X s 376
 1336 m -59 X s 347 1374 m -30 X s 347 1412 m -30 X s 347 1451 m -30 X s 347 1489 m -30 X s 2200 185 m 1322 Y s 2141 185 m 59 X s 2170 223 m 30 X s 2170 261 m 30 X s 2170 300 m 30 X s 2170 338 m 30 X s 2141 376 m 59 X s 2170 415 m 30 X s 2170 453 m
 30 X s 2170 491 m 30 X s 2170 530 m 30 X s 2141 568 m 59 X s 2170 607 m 30 X s 2170 645 m 30 X s 2170 683 m 30 X s 2170 722 m 30 X s 2141 760 m 59 X s 2170 798 m 30 X s 2170 837 m 30 X s 2170 875 m 30 X s 2170 914 m 30 X s 2141 952 m 59 X s 2170 990
 m 30 X s 2170 1029 m 30 X s 2170 1067 m 30 X s 2170 1105 m 30 X s 2141 1144 m 59 X s 2170 1182 m 30 X s 2170 1220 m 30 X s 2170 1259 m 30 X s 2170 1297 m 30 X s 2141 1336 m 59 X s 2141 1336 m 59 X s 2170 1374 m 30 X s 2170 1412 m 30 X s 2170 1451 m
 30 X s 2170 1489 m 30 X s
 gsave  2268 1538 0 0 C 1700.79 1309.8 t 0 r /Helvetica-Bold findfont 58.6478 sf 0 0 m (data) show NC gr  1604 1333 m 80 X s
 gsave  2268 1538 0 0 C 1792.02 1208.8 t 0 r /Helvetica-Bold findfont 58.6478 sf 0 0 m ( model) show NC gr 
 gsave  2268 1538 0 0 C 1749.66 1208.8 t 0 r /Symbol findfont 58.6478 sf 0 0 m (y) show NC gr 
 gsave  2268 1538 0 0 C 1700.79 1208.8 t 0 r /Helvetica-Bold findfont 58.6478 sf 0 0 m (J/) show NC gr  0.8 0.4 0 c 9 lw 1604 1230 m 80 X s black
 gsave  2268 1538 0 0 C 1700.79 1107.79 t 0 r /Helvetica-Bold findfont 58.6478 sf 0 0 m (polynomial) show NC gr  1 0 0 c 1604 1128 m 80 X s
 gr  gr showpage
end
%%EOF
