%!PS-Adobe-2.0 EPSF-2.0
%%BoundingBox:  0 0 567 384
%%Title: massFitjpsiMassId_10_15_id.eps: c1
%%Creator: ROOT Version 5.34/14
%%CreationDate: Mon Sep 15 09:44:05 2014
%%EndComments
%%BeginProlog
80 dict begin
/s {stroke} def /l {lineto} def /m {moveto} def /t {translate} def
/r {rotate} def /rl {roll}  def /R {repeat} def
/d {rlineto} def /rm {rmoveto} def /gr {grestore} def /f {eofill} def
/c {setrgbcolor} def /black {0 setgray} def /sd {setdash} def
/cl {closepath} def /sf {scalefont setfont} def /lw {setlinewidth} def
/box {m dup 0 exch d exch 0 d 0 exch neg d cl} def
/NC{systemdict begin initclip end}def/C{NC box clip newpath}def
/bl {box s} def /bf {box f} def /Y { 0 exch d} def /X { 0 d} def 
/K {{pop pop 0 moveto} exch kshow} bind def
/ita {/ang 15 def gsave [1 0 ang dup sin exch cos div 1 0 0] concat} def 
/mp {newpath /y exch def /x exch def} def
/side {[w .77 mul w .23 mul] .385 w mul sd w 0 l currentpoint t -144 r} def
/mr {mp x y w2 0 360 arc} def /m24 {mr s} def /m20 {mr f} def
/mb {mp x y w2 add m w2 neg 0 d 0 w neg d w 0 d 0 w d cl} def
/mt {mp x y w2 add m w2 neg w neg d w 0 d cl} def
/m21 {mb f} def /m25 {mb s} def /m22 {mt f} def /m26{mt s} def
/m23 {mp x y w2 sub m w2 w d w neg 0 d cl f} def
/m27 {mp x y w2 add m w3 neg w2 neg d w3 w2 neg d w3 w2 d cl s} def
/m28 {mp x w2 sub y w2 sub w3 add m w3 0 d  0 w3 neg d w3 0 d 0 w3 d w3 0 d  0 w3 d w3 neg 0 d 0 w3 d w3 neg 0 d 0 w3 neg d w3 neg 0 d cl s } def
/m29 {mp gsave x w2 sub y w2 add w3 sub m currentpoint t 4 {side} repeat cl fill gr} def
/m30 {mp gsave x w2 sub y w2 add w3 sub m currentpoint t 4 {side} repeat cl s gr} def
/m31 {mp x y w2 sub m 0 w d x w2 sub y m w 0 d x w2 sub y w2 add m w w neg d x w2 sub y w2 sub m w w d s} def
/m32 {mp x y w2 sub m w2 w d w neg 0 d cl s} def
/m33 {mp x y w2 add m w3 neg w2 neg d w3 w2 neg d w3 w2 d cl f} def
/m34 {mp x w2 sub y w2 sub w3 add m w3 0 d  0 w3 neg d w3 0 d 0 w3 d w3 0 d  0 w3 d w3 neg 0 d 0 w3 d w3 neg 0 d 0 w3 neg d w3 neg 0 d cl f } def
/m2 {mp x y w2 sub m 0 w d x w2 sub y m w 0 d s} def
/m5 {mp x w2 sub y w2 sub m w w d x w2 sub y w2 add m w w neg d s} def
/reEncode {exch findfont dup length dict begin {1 index /FID eq  {pop pop} {def} ifelse } forall /Encoding exch def currentdict end dup /FontName get exch definefont pop } def [/Times-Bold /Times-Italic /Times-BoldItalic /Helvetica /Helvetica-Oblique
 /Helvetica-Bold /Helvetica-BoldOblique /Courier /Courier-Oblique /Courier-Bold /Courier-BoldOblique /Times-Roman /AvantGarde-Book /AvantGarde-BookOblique /AvantGarde-Demi /AvantGarde-DemiOblique /Bookman-Demi /Bookman-DemiItalic /Bookman-Light
 /Bookman-LightItalic /Helvetica-Narrow /Helvetica-Narrow-Bold /Helvetica-Narrow-BoldOblique /Helvetica-Narrow-Oblique /NewCenturySchlbk-Roman /NewCenturySchlbk-Bold /NewCenturySchlbk-BoldItalic /NewCenturySchlbk-Italic /Palatino-Bold
 /Palatino-BoldItalic /Palatino-Italic /Palatino-Roman ] {ISOLatin1Encoding reEncode } forall
%%EndProlog
%%BeginSetup
%%EndSetup
newpath  gsave  .25 .25 scale  gsave  0 0 t black[  ] 0 sd 3 lw 1 1 1 c 2268 1538 0 0 bf black 1 1 1 c 1883 1322 317 185 bf black 1883 1322 317 185 bl 317 185 m 1883 X s
 gsave  2268 1538 0 0 C 1622.59 13.0329 t 0 r /Helvetica findfont 84.7135 sf 0 0 m (jpsiMass \(GeV\)) show NC gr  519 223 m -38 Y s 586 204 m -19 Y s 654 204 m -19 Y s 721 204 m -19 Y s 788 204 m -19 Y s 855 223 m -38 Y s 922 204 m -19 Y s 990 204 m
 -19 Y s 1057 204 m -19 Y s 1124 204 m -19 Y s 1191 223 m -38 Y s 1259 204 m -19 Y s 1326 204 m -19 Y s 1393 204 m -19 Y s 1460 204 m -19 Y s 1527 223 m -38 Y s 1595 204 m -19 Y s 1662 204 m -19 Y s 1729 204 m -19 Y s 1796 204 m -19 Y s 1864 223 m
 -38 Y s 1931 204 m -19 Y s 1998 204 m -19 Y s 2065 204 m -19 Y s 2132 204 m -19 Y s 2200 223 m -38 Y s 519 223 m -38 Y s 452 204 m -19 Y s 385 204 m -19 Y s
 gsave  2268 1538 0 0 C 459.408 104.263 t 0 r /Helvetica findfont 84.7135 sf 0 0 m (2.5) show NC gr 
 gsave  2268 1538 0 0 C 830.844 104.263 t 0 r /Helvetica findfont 84.7135 sf 0 0 m (3) show NC gr 
 gsave  2268 1538 0 0 C 1130.6 104.263 t 0 r /Helvetica findfont 84.7135 sf 0 0 m (3.5) show NC gr 
 gsave  2268 1538 0 0 C 1502.04 104.263 t 0 r /Helvetica findfont 84.7135 sf 0 0 m (4) show NC gr 
 gsave  2268 1538 0 0 C 1801.79 104.263 t 0 r /Helvetica findfont 84.7135 sf 0 0 m (4.5) show NC gr 
 gsave  2268 1538 0 0 C 2176.49 104.263 t 0 r /Helvetica findfont 84.7135 sf 0 0 m (5) show NC gr  317 1507 m 1883 X s 519 1469 m 38 Y s 586 1488 m 19 Y s 654 1488 m 19 Y s 721 1488 m 19 Y s 788 1488 m 19 Y s 855 1469 m 38 Y s 922 1488 m 19 Y s 990
 1488 m 19 Y s 1057 1488 m 19 Y s 1124 1488 m 19 Y s 1191 1469 m 38 Y s 1259 1488 m 19 Y s 1326 1488 m 19 Y s 1393 1488 m 19 Y s 1460 1488 m 19 Y s 1527 1469 m 38 Y s 1595 1488 m 19 Y s 1662 1488 m 19 Y s 1729 1488 m 19 Y s 1796 1488 m 19 Y s 1864
 1469 m 38 Y s 1931 1488 m 19 Y s 1998 1488 m 19 Y s 2065 1488 m 19 Y s 2132 1488 m 19 Y s 2200 1469 m 38 Y s 519 1469 m 38 Y s 452 1488 m 19 Y s 385 1488 m 19 Y s 317 185 m 1322 Y s
 gsave  2268 1538 0 0 C 120.554 723.323 t 90 r /Helvetica findfont 84.7135 sf 0 0 m (Events / \( 0.08 GeV \)) show NC gr  376 185 m -59 X s 347 232 m -30 X s 347 279 m -30 X s 347 327 m -30 X s 347 374 m -30 X s 376 422 m -59 X s 347 469 m -30 X s
 347 517 m -30 X s 347 564 m -30 X s 347 612 m -30 X s 376 659 m -59 X s 347 707 m -30 X s 347 754 m -30 X s 347 802 m -30 X s 347 849 m -30 X s 376 897 m -59 X s 347 944 m -30 X s 347 992 m -30 X s 347 1039 m -30 X s 347 1087 m -30 X s 376 1134 m
 -59 X s 347 1182 m -30 X s 347 1229 m -30 X s 347 1276 m -30 X s 347 1324 m -30 X s 376 1371 m -59 X s 376 1371 m -59 X s 347 1419 m -30 X s 347 1466 m -30 X s
 gsave  2268 1538 0 0 C 257.399 153.136 t 0 r /Helvetica findfont 84.7135 sf 0 0 m (0) show NC gr 
 gsave  2268 1538 0 0 C 117.296 390.986 t 0 r /Helvetica findfont 84.7135 sf 0 0 m (5000) show NC gr 
 gsave  2268 1538 0 0 C 71.6807 628.835 t 0 r /Helvetica findfont 84.7135 sf 0 0 m (10000) show NC gr 
 gsave  2268 1538 0 0 C 71.6807 866.685 t 0 r /Helvetica findfont 84.7135 sf 0 0 m (15000) show NC gr 
 gsave  2268 1538 0 0 C 71.6807 1104.53 t 0 r /Helvetica findfont 84.7135 sf 0 0 m (20000) show NC gr 
 gsave  2268 1538 0 0 C 71.6807 1339.13 t 0 r /Helvetica findfont 84.7135 sf 0 0 m (25000) show NC gr  2200 185 m 1322 Y s 2141 185 m 59 X s 2170 232 m 30 X s 2170 279 m 30 X s 2170 327 m 30 X s 2170 374 m 30 X s 2141 422 m 59 X s 2170 469 m 30 X s
 2170 517 m 30 X s 2170 564 m 30 X s 2170 612 m 30 X s 2141 659 m 59 X s 2170 707 m 30 X s 2170 754 m 30 X s 2170 802 m 30 X s 2170 849 m 30 X s 2141 897 m 59 X s 2170 944 m 30 X s 2170 992 m 30 X s 2170 1039 m 30 X s 2170 1087 m 30 X s 2141 1134 m
 59 X s 2170 1182 m 30 X s 2170 1229 m 30 X s 2170 1276 m 30 X s 2170 1324 m 30 X s 2141 1371 m 59 X s 2141 1371 m 59 X s 2170 1419 m 30 X s 2170 1466 m 30 X s 344 297 m -27 X s 317 290 m 13 Y s 344 297 m 27 X s 371 290 m 13 Y s 344 297 m 2 Y s 338
 299 m 13 X s 344 297 m -3 Y s 338 294 m 13 X s 398 302 m -27 X s 371 295 m 14 Y s 398 302 m 27 X s 425 295 m 14 Y s 398 302 m 2 Y s 392 304 m 13 X s 398 302 m -2 Y s 392 300 m 13 X s 452 308 m -27 X s 425 301 m 13 Y s 452 308 m 27 X s 479 301 m 13 Y
 s 452 308 m 2 Y s 445 310 m 13 X s 452 308 m -3 Y s 445 305 m 13 X s 506 315 m -27 X s 479 309 m 13 Y s 506 315 m 27 X s 533 309 m 13 Y s 506 315 m 3 Y s 499 318 m 13 X s 506 315 m -2 Y s 499 313 m 13 X s 559 320 m -26 X s 533 314 m 13 Y s 559 320 m
 27 X s 586 314 m 13 Y s 559 320 m 3 Y s 553 323 m 13 X s 559 320 m -2 Y s 553 318 m 13 X s 613 337 m -27 X s 586 330 m 13 Y s 613 337 m 27 X s 640 330 m 13 Y s 613 337 m 2 Y s 607 339 m 13 X s 613 337 m -3 Y s 607 334 m 13 X s 667 372 m -27 X s 640
 365 m 13 Y s 667 372 m 27 X s 694 365 m 13 Y s 667 372 m 3 Y s 661 375 m 13 X s 667 372 m -3 Y s 661 369 m 13 X s 721 423 m -27 X s 694 416 m 13 Y s 721 423 m 27 X s 748 416 m 13 Y s 721 423 m 3 Y s 714 426 m 13 X s 721 423 m -3 Y s 714 420 m 13 X s
 775 532 m -27 X s 748 525 m 13 Y s 775 532 m 26 X s 801 525 m 13 Y s 775 532 m 4 Y s 768 536 m 13 X s 775 532 m -4 Y s 768 528 m 13 X s 828 741 m -27 X s 801 734 m 13 Y s 828 741 m 27 X s 855 734 m 13 Y s 828 741 m 5 Y s 822 746 m 13 X s 828 741 m
 -5 Y s 822 736 m 13 X s 882 968 m -27 X s 855 962 m 13 Y s 882 968 m 27 X s 909 962 m 13 Y s 882 968 m 7 Y s 876 975 m 13 X s 882 968 m -6 Y s 876 962 m 13 X s 936 1000 m -27 X s 909 993 m 14 Y s 936 1000 m 27 X s 963 993 m 14 Y s 936 1000 m 6 Y s
 929 1006 m 13 X s 936 1000 m -6 Y s 929 994 m 13 X s 990 775 m -27 X s 963 769 m 13 Y s 990 775 m 27 X s 1017 769 m 13 Y s 990 775 m 6 Y s 983 781 m 13 X s 990 775 m -5 Y s 983 770 m 13 X s 1043 539 m -26 X s 1017 532 m 13 Y s 1043 539 m 27 X s 1070
 532 m 13 Y s 1043 539 m 4 Y s 1037 543 m 13 X s 1043 539 m -4 Y s 1037 535 m 13 X s 1097 421 m -27 X s 1070 415 m 13 Y s 1097 421 m 27 X s 1124 415 m 13 Y s 1097 421 m 4 Y s 1091 425 m 13 X s 1097 421 m -3 Y s 1091 418 m 13 X s 1151 351 m -27 X s
 1124 345 m 13 Y s 1151 351 m 27 X s 1178 345 m 13 Y s 1151 351 m 3 Y s 1145 354 m 13 X s 1151 351 m -3 Y s 1145 348 m 13 X s 1205 327 m -27 X s 1178 320 m 13 Y s 1205 327 m 27 X s 1232 320 m 13 Y s 1205 327 m 2 Y s 1198 329 m 13 X s 1205 327 m -3 Y
 s 1198 324 m 13 X s 1259 318 m -27 X s 1232 312 m 13 Y s 1259 318 m 26 X s 1285 312 m 13 Y s 1259 318 m 3 Y s 1252 321 m 13 X s 1259 318 m -2 Y s 1252 316 m 13 X s 1312 299 m -27 X s 1285 292 m 13 Y s 1312 299 m 27 X s 1339 292 m 13 Y s 1312 299 m 2
 Y s 1306 301 m 13 X s 1312 299 m -2 Y s 1306 297 m 13 X s 1366 278 m -27 X s 1339 271 m 13 Y s 1366 278 m 27 X s 1393 271 m 13 Y s 1366 278 m 2 Y s 1360 280 m 13 X s 1366 278 m -2 Y s 1360 276 m 13 X s 1420 259 m -27 X s 1393 252 m 13 Y s 1420 259 m
 27 X s 1447 252 m 13 Y s 1420 259 m 2 Y s 1413 261 m 13 X s 1420 259 m -2 Y s 1413 257 m 13 X s 1474 244 m -27 X s 1447 237 m 13 Y s 1474 244 m 27 X s 1501 237 m 13 Y s 1474 244 m 1 Y s 1467 245 m 13 X s 1474 244 m -2 Y s 1467 242 m 13 X s 1527 234
 m -26 X s 1501 227 m 13 Y s 1527 234 m 27 X s 1554 227 m 13 Y s 1527 234 m 1 Y s 1521 235 m 13 X s 1527 234 m -2 Y s 1521 232 m 13 X s 1581 229 m -27 X s 1554 223 m 13 Y s 1581 229 m 27 X s 1608 223 m 13 Y s 1581 229 m 2 Y s 1575 231 m 13 X s 1581
 229 m -1 Y s 1575 228 m 13 X s 1635 226 m -27 X s 1608 220 m 13 Y s 1635 226 m 27 X s 1662 220 m 13 Y s 1635 226 m 2 Y s 1629 228 m 13 X s 1635 226 m -1 Y s 1629 225 m 13 X s 1689 227 m -27 X s 1662 220 m 14 Y s 1689 227 m 27 X s 1716 220 m 14 Y s
 1689 227 m 1 Y s 1682 228 m 13 X s 1689 227 m -1 Y s 1682 226 m 13 X s 1743 224 m -27 X s 1716 217 m 14 Y s 1743 224 m 26 X s 1769 217 m 14 Y s 1743 224 m 1 Y s 1736 225 m 13 X s 1743 224 m -1 Y s 1736 223 m 13 X s 1796 223 m -27 X s 1769 217 m 13 Y
 s 1796 223 m 27 X s 1823 217 m 13 Y s 1796 223 m 2 Y s 1790 225 m 13 X s 1796 223 m -1 Y s 1790 222 m 13 X s 1850 221 m -27 X s 1823 215 m 13 Y s 1850 221 m 27 X s 1877 215 m 13 Y s 1850 221 m 2 Y s 1844 223 m 13 X s 1850 221 m -1 Y s 1844 220 m 13
 X s 1904 220 m -27 X s 1877 214 m 13 Y s 1904 220 m 27 X s 1931 214 m 13 Y s 1904 220 m 2 Y s 1897 222 m 13 X s 1904 220 m -1 Y s 1897 219 m 13 X s 1958 221 m -27 X s 1931 214 m 13 Y s 1958 221 m 27 X s 1985 214 m 13 Y s 1958 221 m 1 Y s 1951 222 m
 13 X s 1958 221 m -2 Y s 1951 219 m 13 X s 2011 222 m -26 X s 1985 215 m 13 Y s 2011 222 m 27 X s 2038 215 m 13 Y s 2011 222 m 1 Y s 2005 223 m 13 X s 2011 222 m -2 Y s 2005 220 m 13 X s 2065 220 m -27 X s 2038 213 m 13 Y s 2065 220 m 27 X s 2092
 213 m 13 Y s 2065 220 m 1 Y s 2059 221 m 13 X s 2065 220 m -2 Y s 2059 218 m 13 X s 2119 219 m -27 X s 2092 212 m 13 Y s 2119 219 m 27 X s 2146 212 m 13 Y s 2119 219 m 1 Y s 2113 220 m 13 X s 2119 219 m -2 Y s 2113 217 m 13 X s 2173 220 m -27 X s
 2146 213 m 13 Y s 2173 220 m 27 X s 2200 213 m 13 Y s 2173 220 m 1 Y s 2166 221 m 13 X s 2173 220 m -1 Y s 2166 219 m 13 X s /w 13 def /w2 {w 2 div} def /w3 {w 3 div} def 344 297 398 302 452 308 506 315 559 320 613 337 667 372 721 423 775 532 828
 741 882 968 936 1000 990 775 1043 539 1097 421 1151 351 1205 327 1259 318 1312 299 1366 278 1420 259 1474 244 1527 234 1581 229 1635 226 1689 227 1743 224 1796 223 1850 221 1904 220 1958 221 2011 222 2065 220 2119 219 2173 220 35 { m20} R 0 0 1 c 9
 lw black 0 0 1 c 317 305 m 113 X 19 1 d 19 X 19 1 d 19 2 d 19 1 d 18 3 d 19 3 d 19 4 d 19 6 d 19 8 d 18 10 d 19 14 d 19 17 d 19 21 d 19 27 d 19 32 d 18 39 d 19 44 d 10 24 d 9 26 d 9 29 d 10 30 d 9 32 d 10 36 d 9 40 d 5 22 d 4 23 d 10 49 d 9 45 d 10
 41 d 4 18 d 5 17 d 5 14 d 5 13 d 4 10 d 5 8 d 5 6 d 4 3 d 5 X 5 -2 d 4 -4 d 5 -7 d 5 -9 d 5 -12 d 4 -13 d 5 -15 d 9 -36 d 10 -41 d 9 -44 d 19 -93 d 9 -45 d 10 -44 d 9 -41 d 10 -37 d 9 -35 d 10 -30 d 9 -28 d 9 -24 d 10 -21 d 9 -19 d 10 -16 d 9 -14 d
 9 -12 d 10 -11 d 19 -17 d 18 -12 d 19 -8 d 19 -6 d 19 -5 d 19 -4 d 19 -4 d 18 -4 d 19 -5 d 19 -6 d 19 -7 d 19 -7 d 19 -8 d 18 -7 d 19 -7 d 19 -7 d 19 -6 d 19 -5 d 18 -5 d 19 -3 d 19 -3 d 19 -2 d 19 -2 d 19 -2 d 18 -1 d 19 -1 d 19 X 19 -1 d 19 X 18
 -1 d 19 X 19 -1 d 38 X 19 -1 d 56 X 19 -1 d 38 X 18 -1 d 57 X 19 -1 d 94 X 19 -1 d 94 X s 1 0 0 c black 1 0 0 c 317 277 m 19 -1 d 19 -1 d 19 -1 d 19 -1 d 19 -1 d 18 -1 d 19 -1 d 19 -1 d 19 -1 d 19 -1 d 19 -1 d 18 -1 d 19 -1 d 19 -1 d 19 -1 d 19 -1 d
 18 X 19 -1 d 19 -1 d 19 -1 d 19 -1 d 19 -1 d 18 -1 d 19 -1 d 19 X 19 -1 d 19 -1 d 18 -1 d 19 -1 d 19 X 19 -1 d 19 -1 d 19 -1 d 18 X 19 -1 d 19 -1 d 19 X 19 -1 d 19 -1 d 18 -1 d 19 X 19 -1 d 19 -1 d 19 X 18 -1 d 19 X 19 -1 d 19 -1 d 19 X 19 -1 d 18 X
 19 -1 d 19 -1 d 19 X 19 -1 d 19 X 18 -1 d 19 X 19 -1 d 19 X 19 -1 d 18 X 19 -1 d 19 X 19 -1 d 38 X 18 -1 d 19 X 19 -1 d 38 X 18 -1 d 19 X 19 -1 d 38 X 19 -1 d 56 X 19 -1 d 38 X 18 -1 d 57 X 19 -1 d 94 X 19 -1 d 94 X s 0.8 0.4 0 c black 0.8 0.4 0 c
 317 212 m 19 1 d 19 1 d 19 1 d 19 1 d 19 2 d 18 1 d 19 1 d 19 2 d 19 2 d 19 2 d 19 3 d 18 3 d 19 4 d 19 5 d 19 7 d 19 9 d 18 11 d 19 14 d 19 19 d 19 22 d 19 28 d 19 33 d 18 39 d 10 21 d 9 24 d 10 25 d 9 26 d 9 29 d 10 30 d 9 33 d 10 36 d 9 41 d 5 22
 d 4 24 d 10 48 d 9 46 d 10 41 d 4 19 d 5 16 d 5 15 d 5 13 d 4 10 d 5 8 d 5 6 d 4 3 d 5 X 5 -2 d 4 -4 d 5 -7 d 5 -9 d 5 -11 d 4 -14 d 5 -15 d 9 -36 d 10 -41 d 9 -45 d 19 -93 d 9 -47 d 10 -44 d 9 -42 d 10 -39 d 9 -36 d 10 -32 d 9 -30 d 9 -26 d 10 -23
 d 9 -22 d 10 -18 d 9 -17 d 9 -16 d 10 -13 d 19 -23 d 18 -18 d 19 -15 d 19 -10 d 19 -8 d 19 -6 d 19 -4 d 18 -3 d 19 -2 d 19 -1 d 19 -1 d 19 -1 d 847 X s 0 0.6 0 c black 0 0.6 0 c 317 185 m 584 X 19 1 d 19 X 18 1 d 19 2 d 19 1 d 9 2 d 10 1 d 9 1 d 10
 2 d 9 2 d 10 2 d 9 2 d 9 3 d 10 2 d 9 3 d 10 3 d 9 3 d 19 7 d 19 7 d 18 6 d 10 4 d 9 3 d 10 3 d 9 2 d 10 2 d 9 2 d 9 2 d 10 1 d 9 1 d 19 X 9 -1 d 10 -1 d 9 -2 d 10 -2 d 9 -2 d 9 -2 d 10 -3 d 9 -3 d 10 -4 d 19 -6 d 18 -7 d 19 -7 d 10 -3 d 9 -3 d 9 -3
 d 10 -2 d 9 -3 d 10 -2 d 9 -2 d 9 -2 d 10 -2 d 9 -1 d 10 -1 d 9 -2 d 19 -1 d 19 -2 d 19 -1 d 18 X 19 -1 d 584 X s black 3 lw 317 185 m 1883 X s 519 223 m -38 Y s 586 204 m -19 Y s 654 204 m -19 Y s 721 204 m -19 Y s 788 204 m -19 Y s 855 223 m -38 Y
 s 922 204 m -19 Y s 990 204 m -19 Y s 1057 204 m -19 Y s 1124 204 m -19 Y s 1191 223 m -38 Y s 1259 204 m -19 Y s 1326 204 m -19 Y s 1393 204 m -19 Y s 1460 204 m -19 Y s 1527 223 m -38 Y s 1595 204 m -19 Y s 1662 204 m -19 Y s 1729 204 m -19 Y s
 1796 204 m -19 Y s 1864 223 m -38 Y s 1931 204 m -19 Y s 1998 204 m -19 Y s 2065 204 m -19 Y s 2132 204 m -19 Y s 2200 223 m -38 Y s 519 223 m -38 Y s 452 204 m -19 Y s 385 204 m -19 Y s 317 1507 m 1883 X s 519 1469 m 38 Y s 586 1488 m 19 Y s 654
 1488 m 19 Y s 721 1488 m 19 Y s 788 1488 m 19 Y s 855 1469 m 38 Y s 922 1488 m 19 Y s 990 1488 m 19 Y s 1057 1488 m 19 Y s 1124 1488 m 19 Y s 1191 1469 m 38 Y s 1259 1488 m 19 Y s 1326 1488 m 19 Y s 1393 1488 m 19 Y s 1460 1488 m 19 Y s 1527 1469 m
 38 Y s 1595 1488 m 19 Y s 1662 1488 m 19 Y s 1729 1488 m 19 Y s 1796 1488 m 19 Y s 1864 1469 m 38 Y s 1931 1488 m 19 Y s 1998 1488 m 19 Y s 2065 1488 m 19 Y s 2132 1488 m 19 Y s 2200 1469 m 38 Y s 519 1469 m 38 Y s 452 1488 m 19 Y s 385 1488 m 19 Y
 s 317 185 m 1322 Y s 376 185 m -59 X s 347 232 m -30 X s 347 279 m -30 X s 347 327 m -30 X s 347 374 m -30 X s 376 422 m -59 X s 347 469 m -30 X s 347 517 m -30 X s 347 564 m -30 X s 347 612 m -30 X s 376 659 m -59 X s 347 707 m -30 X s 347 754 m
 -30 X s 347 802 m -30 X s 347 849 m -30 X s 376 897 m -59 X s 347 944 m -30 X s 347 992 m -30 X s 347 1039 m -30 X s 347 1087 m -30 X s 376 1134 m -59 X s 347 1182 m -30 X s 347 1229 m -30 X s 347 1276 m -30 X s 347 1324 m -30 X s 376 1371 m -59 X s
 376 1371 m -59 X s 347 1419 m -30 X s 347 1466 m -30 X s 2200 185 m 1322 Y s 2141 185 m 59 X s 2170 232 m 30 X s 2170 279 m 30 X s 2170 327 m 30 X s 2170 374 m 30 X s 2141 422 m 59 X s 2170 469 m 30 X s 2170 517 m 30 X s 2170 564 m 30 X s 2170 612 m
 30 X s 2141 659 m 59 X s 2170 707 m 30 X s 2170 754 m 30 X s 2170 802 m 30 X s 2170 849 m 30 X s 2141 897 m 59 X s 2170 944 m 30 X s 2170 992 m 30 X s 2170 1039 m 30 X s 2170 1087 m 30 X s 2141 1134 m 59 X s 2170 1182 m 30 X s 2170 1229 m 30 X s
 2170 1276 m 30 X s 2170 1324 m 30 X s 2141 1371 m 59 X s 2141 1371 m 59 X s 2170 1419 m 30 X s 2170 1466 m 30 X s
 gsave  2268 1538 0 0 C 1700.79 1329.35 t 0 r /Helvetica-Bold findfont 65.1643 sf 0 0 m (data) show NC gr  1604 1346 m 80 X s
 gsave  2268 1538 0 0 C 1805.05 1254.41 t 0 r /Helvetica-Bold findfont 65.1643 sf 0 0 m ( model) show NC gr 
 gsave  2268 1538 0 0 C 1756.18 1254.41 t 0 r /Symbol findfont 65.1643 sf 0 0 m (y) show NC gr 
 gsave  2268 1538 0 0 C 1700.79 1254.41 t 0 r /Helvetica-Bold findfont 65.1643 sf 0 0 m (J/) show NC gr  0.8 0.4 0 c 9 lw 1604 1269 m 80 X s black
 gsave  2268 1538 0 0 C 1700.79 1176.21 t 0 r /Helvetica-Bold findfont 65.1643 sf 0 0 m (polynomial) show NC gr  1 0 0 c 1604 1192 m 80 X s black
 gsave  2268 1538 0 0 C 1798.53 1098.02 t 0 r /Helvetica-Bold findfont 65.1643 sf 0 0 m ( model) show NC gr 
 gsave  2268 1538 0 0 C 1749.66 1062.18 t 0 r /Helvetica-Bold findfont 42.3568 sf 0 0 m (2s) show NC gr 
 gsave  2268 1538 0 0 C 1700.79 1098.02 t 0 r /Symbol findfont 65.1643 sf 0 0 m (y) show NC gr  0 0.6 0 c 1604 1115 m 80 X s
 gr  gr showpage
end
%%EOF
