%!PS-Adobe-2.0 EPSF-2.0
%%BoundingBox:  0 0 567 384
%%Title: : c1
%%Creator: ROOT Version 5.34/14
%%CreationDate: Tue Aug 12 19:14:14 2014
%%EndComments
%%BeginProlog
80 dict begin
/s {stroke} def /l {lineto} def /m {moveto} def /t {translate} def
/r {rotate} def /rl {roll}  def /R {repeat} def
/d {rlineto} def /rm {rmoveto} def /gr {grestore} def /f {eofill} def
/c {setrgbcolor} def /black {0 setgray} def /sd {setdash} def
/cl {closepath} def /sf {scalefont setfont} def /lw {setlinewidth} def
/box {m dup 0 exch d exch 0 d 0 exch neg d cl} def
/NC{systemdict begin initclip end}def/C{NC box clip newpath}def
/bl {box s} def /bf {box f} def /Y { 0 exch d} def /X { 0 d} def 
/K {{pop pop 0 moveto} exch kshow} bind def
/ita {/ang 15 def gsave [1 0 ang dup sin exch cos div 1 0 0] concat} def 
/mp {newpath /y exch def /x exch def} def
/side {[w .77 mul w .23 mul] .385 w mul sd w 0 l currentpoint t -144 r} def
/mr {mp x y w2 0 360 arc} def /m24 {mr s} def /m20 {mr f} def
/mb {mp x y w2 add m w2 neg 0 d 0 w neg d w 0 d 0 w d cl} def
/mt {mp x y w2 add m w2 neg w neg d w 0 d cl} def
/m21 {mb f} def /m25 {mb s} def /m22 {mt f} def /m26{mt s} def
/m23 {mp x y w2 sub m w2 w d w neg 0 d cl f} def
/m27 {mp x y w2 add m w3 neg w2 neg d w3 w2 neg d w3 w2 d cl s} def
/m28 {mp x w2 sub y w2 sub w3 add m w3 0 d  0 w3 neg d w3 0 d 0 w3 d w3 0 d  0 w3 d w3 neg 0 d 0 w3 d w3 neg 0 d 0 w3 neg d w3 neg 0 d cl s } def
/m29 {mp gsave x w2 sub y w2 add w3 sub m currentpoint t 4 {side} repeat cl fill gr} def
/m30 {mp gsave x w2 sub y w2 add w3 sub m currentpoint t 4 {side} repeat cl s gr} def
/m31 {mp x y w2 sub m 0 w d x w2 sub y m w 0 d x w2 sub y w2 add m w w neg d x w2 sub y w2 sub m w w d s} def
/m32 {mp x y w2 sub m w2 w d w neg 0 d cl s} def
/m33 {mp x y w2 add m w3 neg w2 neg d w3 w2 neg d w3 w2 d cl f} def
/m34 {mp x w2 sub y w2 sub w3 add m w3 0 d  0 w3 neg d w3 0 d 0 w3 d w3 0 d  0 w3 d w3 neg 0 d 0 w3 d w3 neg 0 d 0 w3 neg d w3 neg 0 d cl f } def
/m2 {mp x y w2 sub m 0 w d x w2 sub y m w 0 d s} def
/m5 {mp x w2 sub y w2 sub m w w d x w2 sub y w2 add m w w neg d s} def
/reEncode {exch findfont dup length dict begin {1 index /FID eq  {pop pop} {def} ifelse } forall /Encoding exch def currentdict end dup /FontName get exch definefont pop } def [/Times-Bold /Times-Italic /Times-BoldItalic /Helvetica /Helvetica-Oblique
 /Helvetica-Bold /Helvetica-BoldOblique /Courier /Courier-Oblique /Courier-Bold /Courier-BoldOblique /Times-Roman /AvantGarde-Book /AvantGarde-BookOblique /AvantGarde-Demi /AvantGarde-DemiOblique /Bookman-Demi /Bookman-DemiItalic /Bookman-Light
 /Bookman-LightItalic /Helvetica-Narrow /Helvetica-Narrow-Bold /Helvetica-Narrow-BoldOblique /Helvetica-Narrow-Oblique /NewCenturySchlbk-Roman /NewCenturySchlbk-Bold /NewCenturySchlbk-BoldItalic /NewCenturySchlbk-Italic /Palatino-Bold
 /Palatino-BoldItalic /Palatino-Italic /Palatino-Roman ] {ISOLatin1Encoding reEncode } forall
%%EndProlog
%%BeginSetup
%%EndSetup
newpath  gsave  .25 .25 scale  gsave  0 0 t black[  ] 0 sd 3 lw 1 1 1 c 2268 1538 0 0 bf black 1 1 1 c 1883 1323 316 186 bf black 1883 1323 316 186 bl 1 1 1 c 1883 1323 316 186 bf black 1883 1323 316 186 bl 6 lw 1 1 1 c black 316 1485 m 31 X -2 Y 62
 X -2 Y 31 X -1 Y 30 X -1 Y 31 X -1 Y 31 X -2 Y 31 X -4 Y 31 X -2 Y 31 X -2 Y 31 X -1 Y 31 X -1 Y 30 X -2 Y 31 X -2 Y 31 X -4 Y 31 X -3 Y 31 X -1 Y 31 X -2 Y 31 X -2 Y 31 X -3 Y 30 X -6 Y 31 X -3 Y 31 X -4 Y 31 X -3 Y 31 X -1 Y 31 X -5 Y 31 X -1 Y 30
 X -6 Y 31 X -4 Y 31 X -8 Y 31 X -3 Y 31 X -7 Y 31 X -6 Y 31 X -6 Y 31 X -8 Y 30 X -9 Y 31 X -7 Y 31 X -11 Y 31 X -8 Y 31 X -9 Y 31 X -12 Y 31 X -13 Y 31 X -6 Y 30 X -13 Y 31 X -9 Y 31 X -16 Y 31 X -12 Y 31 X -19 Y 31 X -23 Y 31 X -17 Y 31 X -23 Y 30
 X -33 Y 31 X -39 Y 31 X -37 Y 31 X -67 Y 31 X -76 Y 31 X -102 Y 31 X -184 Y 31 X -353 Y 30 X -92 Y 31 X s 3 lw 316 186 m 1883 X s
 gsave  2268 1538 0 0 C 1899.54 42.3568 t 0 r /Helvetica findfont 71.6807 sf 0 0 m (Signal eff) show NC gr  316 224 m -38 Y s 378 205 m -19 Y s 440 205 m -19 Y s 501 205 m -19 Y s 563 205 m -19 Y s 625 224 m -38 Y s 687 205 m -19 Y s 748 205 m -19 Y
 s 810 205 m -19 Y s 872 205 m -19 Y s 934 224 m -38 Y s 995 205 m -19 Y s 1057 205 m -19 Y s 1119 205 m -19 Y s 1180 205 m -19 Y s 1242 224 m -38 Y s 1304 205 m -19 Y s 1366 205 m -19 Y s 1427 205 m -19 Y s 1489 205 m -19 Y s 1551 224 m -38 Y s 1613
 205 m -19 Y s 1674 205 m -19 Y s 1736 205 m -19 Y s 1798 205 m -19 Y s 1860 224 m -38 Y s 1921 205 m -19 Y s 1983 205 m -19 Y s 2045 205 m -19 Y s 2107 205 m -19 Y s 2168 224 m -38 Y s 2168 224 m -38 Y s
 gsave  2268 1538 0 0 C 267.173 117.296 t 0 r /Helvetica findfont 71.6807 sf 0 0 m (0.4) show NC gr 
 gsave  2268 1538 0 0 C 573.446 117.296 t 0 r /Helvetica findfont 71.6807 sf 0 0 m (0.5) show NC gr 
 gsave  2268 1538 0 0 C 882.976 117.296 t 0 r /Helvetica findfont 71.6807 sf 0 0 m (0.6) show NC gr 
 gsave  2268 1538 0 0 C 1192.51 117.296 t 0 r /Helvetica findfont 71.6807 sf 0 0 m (0.7) show NC gr 
 gsave  2268 1538 0 0 C 1502.04 117.296 t 0 r /Helvetica findfont 71.6807 sf 0 0 m (0.8) show NC gr 
 gsave  2268 1538 0 0 C 1808.31 117.296 t 0 r /Helvetica findfont 71.6807 sf 0 0 m (0.9) show NC gr 
 gsave  2268 1538 0 0 C 2153.68 117.296 t 0 r /Helvetica findfont 71.6807 sf 0 0 m (1) show NC gr  316 1509 m 1883 X s 316 1470 m 39 Y s 378 1489 m 20 Y s 440 1489 m 20 Y s 501 1489 m 20 Y s 563 1489 m 20 Y s 625 1470 m 39 Y s 687 1489 m 20 Y s 748
 1489 m 20 Y s 810 1489 m 20 Y s 872 1489 m 20 Y s 934 1470 m 39 Y s 995 1489 m 20 Y s 1057 1489 m 20 Y s 1119 1489 m 20 Y s 1180 1489 m 20 Y s 1242 1470 m 39 Y s 1304 1489 m 20 Y s 1366 1489 m 20 Y s 1427 1489 m 20 Y s 1489 1489 m 20 Y s 1551 1470 m
 39 Y s 1613 1489 m 20 Y s 1674 1489 m 20 Y s 1736 1489 m 20 Y s 1798 1489 m 20 Y s 1860 1470 m 39 Y s 1921 1489 m 20 Y s 1983 1489 m 20 Y s 2045 1489 m 20 Y s 2107 1489 m 20 Y s 2168 1470 m 39 Y s 2168 1470 m 39 Y s 316 186 m 1323 Y s
 gsave  2268 1538 0 0 C 153.136 788.488 t 90 r /Helvetica findfont 71.6807 sf 0 0 m (Backgr rejection \(1\255eff\)) show NC gr  375 253 m -59 X s 345 295 m -29 X s 345 337 m -29 X s 345 378 m -29 X s 345 420 m -29 X s 375 462 m -59 X s 345 504 m -29
 X s 345 546 m -29 X s 345 588 m -29 X s 345 630 m -29 X s 375 672 m -59 X s 345 714 m -29 X s 345 756 m -29 X s 345 798 m -29 X s 345 840 m -29 X s 375 881 m -59 X s 345 923 m -29 X s 345 965 m -29 X s 345 1007 m -29 X s 345 1049 m -29 X s 375 1091
 m -59 X s 345 1133 m -29 X s 345 1175 m -29 X s 345 1217 m -29 X s 345 1259 m -29 X s 375 1301 m -59 X s 375 253 m -59 X s 345 211 m -29 X s 375 1301 m -59 X s 345 1342 m -29 X s 345 1384 m -29 X s 345 1426 m -29 X s 345 1468 m -29 X s
 gsave  2268 1538 0 0 C 205.267 228.075 t 0 r /Helvetica findfont 71.6807 sf 0 0 m (0.4) show NC gr 
 gsave  2268 1538 0 0 C 205.267 436.601 t 0 r /Helvetica findfont 71.6807 sf 0 0 m (0.5) show NC gr 
 gsave  2268 1538 0 0 C 205.267 648.384 t 0 r /Helvetica findfont 71.6807 sf 0 0 m (0.6) show NC gr 
 gsave  2268 1538 0 0 C 205.267 856.91 t 0 r /Helvetica findfont 71.6807 sf 0 0 m (0.7) show NC gr 
 gsave  2268 1538 0 0 C 205.267 1065.44 t 0 r /Helvetica findfont 71.6807 sf 0 0 m (0.8) show NC gr 
 gsave  2268 1538 0 0 C 205.267 1277.22 t 0 r /Helvetica findfont 71.6807 sf 0 0 m (0.9) show NC gr  2199 186 m 1323 Y s 2141 253 m 58 X s 2170 295 m 29 X s 2170 337 m 29 X s 2170 378 m 29 X s 2170 420 m 29 X s 2141 462 m 58 X s 2170 504 m 29 X s
 2170 546 m 29 X s 2170 588 m 29 X s 2170 630 m 29 X s 2141 672 m 58 X s 2170 714 m 29 X s 2170 756 m 29 X s 2170 798 m 29 X s 2170 840 m 29 X s 2141 881 m 58 X s 2170 923 m 29 X s 2170 965 m 29 X s 2170 1007 m 29 X s 2170 1049 m 29 X s 2141 1091 m
 58 X s 2170 1133 m 29 X s 2170 1175 m 29 X s 2170 1217 m 29 X s 2170 1259 m 29 X s 2141 1301 m 58 X s 2141 253 m 58 X s 2170 211 m 29 X s 2141 1301 m 58 X s 2170 1342 m 29 X s 2170 1384 m 29 X s 2170 1426 m 29 X s 2170 1468 m 29 X s 1 0 0 c 6 lw 1 1
 1 c black 1 0 0 c 316 1484 m 62 X -4 Y 31 X -2 Y 61 X -2 Y 31 X -1 Y 31 X -1 Y 31 X -1 Y 31 X -2 Y 31 X -2 Y 31 X -2 Y 31 X -1 Y 30 X -1 Y 31 X -1 Y 31 X -5 Y 31 X -1 Y 31 X -5 Y 31 X -2 Y 31 X -3 Y 31 X -4 Y 30 X -3 Y 31 X -4 Y 31 X -4 Y 31 X -2 Y
 31 X -5 Y 31 X -4 Y 31 X -5 Y 30 X -5 Y 31 X -3 Y 31 X -2 Y 31 X -5 Y 31 X -7 Y 31 X -8 Y 31 X -8 Y 31 X -7 Y 30 X -8 Y 31 X -6 Y 31 X -8 Y 31 X -8 Y 31 X -11 Y 31 X -11 Y 31 X -14 Y 31 X -7 Y 30 X -13 Y 31 X -11 Y 31 X -13 Y 31 X -20 Y 31 X -13 Y
 31 X -19 Y 31 X -23 Y 31 X -24 Y 30 X -30 Y 31 X -38 Y 31 X -48 Y 31 X -49 Y 31 X -72 Y 31 X -87 Y 31 X -195 Y 31 X -353 Y 30 X -105 Y 31 X s 0 1 0 c 1 1 1 c black 0 1 0 c 316 1485 m 31 X -1 Y 62 X -2 Y 31 X -2 Y 30 X -3 Y 31 X -2 Y 31 X -2 Y 31 X
 -1 Y 31 X -1 Y 31 X -2 Y 62 X -2 Y 30 X -2 Y 31 X -3 Y 31 X -3 Y 31 X -3 Y 31 X -4 Y 31 X -1 Y 31 X -2 Y 31 X -3 Y 30 X -3 Y 31 X -3 Y 31 X -5 Y 31 X -4 Y 31 X -5 Y 31 X -2 Y 31 X -2 Y 30 X -4 Y 31 X -4 Y 31 X -3 Y 31 X -6 Y 31 X -6 Y 31 X -6 Y 31 X
 -9 Y 31 X -10 Y 30 X -5 Y 31 X -11 Y 31 X -7 Y 31 X -10 Y 31 X -7 Y 31 X -9 Y 31 X -10 Y 31 X -9 Y 30 X -19 Y 31 X -9 Y 31 X -12 Y 31 X -18 Y 31 X -13 Y 31 X -24 Y 31 X -17 Y 31 X -26 Y 30 X -24 Y 31 X -47 Y 31 X -50 Y 31 X -54 Y 31 X -72 Y 31 X
 -109 Y 31 X -172 Y 31 X -360 Y 30 X -94 Y 31 X s 0 0 1 c 1 1 1 c black 0 0 1 c 316 1485 m 31 X -2 Y 62 X -2 Y 31 X -1 Y 30 X -1 Y 31 X -1 Y 31 X -2 Y 31 X -4 Y 31 X -2 Y 31 X -2 Y 31 X -1 Y 31 X -1 Y 30 X -2 Y 31 X -2 Y 31 X -4 Y 31 X -3 Y 31 X -1 Y
 31 X -2 Y 31 X -2 Y 31 X -3 Y 30 X -6 Y 31 X -3 Y 31 X -4 Y 31 X -3 Y 31 X -1 Y 31 X -5 Y 31 X -1 Y 30 X -6 Y 31 X -4 Y 31 X -8 Y 31 X -3 Y 31 X -7 Y 31 X -6 Y 31 X -6 Y 31 X -8 Y 30 X -9 Y 31 X -7 Y 31 X -11 Y 31 X -8 Y 31 X -9 Y 31 X -12 Y 31 X
 -13 Y 31 X -6 Y 30 X -13 Y 31 X -9 Y 31 X -16 Y 31 X -12 Y 31 X -19 Y 31 X -23 Y 31 X -17 Y 31 X -23 Y 30 X -33 Y 31 X -39 Y 31 X -37 Y 31 X -67 Y 31 X -76 Y 31 X -102 Y 31 X -184 Y 31 X -353 Y 30 X -92 Y 31 X s 1 1 0 c 1 1 1 c black 1 1 0 c 316
 1484 m 31 X -2 Y 62 X -2 Y 61 X -2 Y 31 X -2 Y 31 X -1 Y 31 X -2 Y 31 X -3 Y 31 X -1 Y 31 X -1 Y 31 X -2 Y 30 X -2 Y 31 X -3 Y 31 X -3 Y 31 X -3 Y 31 X -2 Y 31 X -1 Y 31 X -2 Y 31 X -3 Y 30 X -6 Y 31 X -4 Y 31 X -2 Y 31 X -2 Y 31 X -4 Y 31 X -2 Y 31
 X -4 Y 30 X -5 Y 31 X -5 Y 31 X -5 Y 31 X -5 Y 31 X -4 Y 31 X -9 Y 31 X -7 Y 31 X -6 Y 30 X -9 Y 31 X -12 Y 31 X -7 Y 31 X -7 Y 31 X -9 Y 31 X -13 Y 31 X -10 Y 31 X -11 Y 30 X -7 Y 31 X -15 Y 31 X -15 Y 31 X -12 Y 31 X -15 Y 31 X -24 Y 31 X -22 Y 31
 X -24 Y 30 X -29 Y 31 X -35 Y 31 X -45 Y 31 X -63 Y 31 X -86 Y 31 X -88 Y 31 X -180 Y 31 X -324 Y 30 X -129 Y 31 X s 1 0 1 c 1 1 1 c black 1 0 1 c 316 1485 m 31 X -1 Y 31 X -1 Y 31 X -3 Y 31 X -1 Y 30 X -2 Y 31 X -1 Y 31 X -2 Y 31 X -1 Y 31 X -3 Y
 31 X -1 Y 31 X -2 Y 31 X -1 Y 30 X -1 Y 31 X -4 Y 31 X -1 Y 31 X -4 Y 31 X -5 Y 31 X -1 Y 31 X -2 Y 31 X -4 Y 30 X -2 Y 31 X -3 Y 31 X -4 Y 31 X -1 Y 31 X -6 Y 31 X -5 Y 31 X -4 Y 30 X -4 Y 31 X -3 Y 31 X -5 Y 31 X -6 Y 31 X -5 Y 31 X -5 Y 31 X -11
 Y 31 X -6 Y 30 X -5 Y 31 X -15 Y 31 X -10 Y 31 X -7 Y 31 X -3 Y 31 X -12 Y 31 X -12 Y 31 X -9 Y 30 X -10 Y 31 X -11 Y 31 X -16 Y 31 X -17 Y 31 X -19 Y 31 X -19 Y 31 X -25 Y 31 X -25 Y 30 X -26 Y 31 X -42 Y 31 X -37 Y 31 X -56 Y 31 X -87 Y 31 X -96 Y
 31 X -187 Y 31 X -350 Y 30 X -92 Y 31 X s 0 1 1 c 1 1 1 c black 0 1 1 c 316 1485 m 31 X -1 Y 31 X -3 Y 31 X -1 Y 31 X -2 Y 30 X -1 Y 31 X -1 Y 31 X -3 Y 31 X -3 Y 31 X -1 Y 31 X -3 Y 62 X -2 Y 30 X -3 Y 31 X -2 Y 31 X -4 Y 31 X -1 Y 62 X -3 Y 31 X
 -4 Y 31 X -5 Y 30 X -1 Y 31 X -3 Y 31 X -2 Y 31 X -3 Y 31 X -3 Y 31 X -2 Y 31 X -3 Y 30 X -6 Y 31 X -5 Y 31 X -3 Y 31 X -4 Y 31 X -6 Y 31 X -10 Y 31 X -12 Y 31 X -7 Y 30 X -8 Y 31 X -6 Y 31 X -10 Y 31 X -10 Y 31 X -6 Y 31 X -7 Y 31 X -8 Y 31 X -9 Y
 30 X -9 Y 31 X -11 Y 31 X -16 Y 31 X -14 Y 31 X -14 Y 31 X -20 Y 31 X -25 Y 31 X -25 Y 30 X -41 Y 31 X -35 Y 31 X -47 Y 31 X -52 Y 31 X -68 Y 31 X -105 Y 31 X -151 Y 31 X -439 Y 30 X -50 Y 31 X s 0.35 0.83 0.33 c 1 1 1 c black 0.35 0.83 0.33 c 316
 1477 m 31 X -1 Y 31 X -2 Y 31 X -1 Y 31 X -2 Y 30 X -1 Y 62 X -1 Y 62 X -3 Y 31 X -1 Y 31 X -1 Y 31 X -4 Y 30 X -3 Y 31 X -3 Y 31 X -3 Y 31 X -3 Y 62 X -1 Y 31 X -4 Y 31 X -2 Y 30 X -9 Y 31 X -4 Y 31 X -4 Y 31 X -4 Y 31 X -4 Y 31 X -3 Y 31 X -6 Y 30
 X -5 Y 31 X -7 Y 31 X -5 Y 31 X -2 Y 31 X -3 Y 31 X -7 Y 31 X -6 Y 31 X -6 Y 30 X -8 Y 31 X -11 Y 31 X -3 Y 31 X -10 Y 31 X -10 Y 31 X -8 Y 31 X -11 Y 31 X -16 Y 30 X -15 Y 31 X -13 Y 31 X -13 Y 31 X -11 Y 31 X -18 Y 31 X -21 Y 31 X -23 Y 31 X -24 Y
 30 X -41 Y 31 X -37 Y 31 X -43 Y 31 X -49 Y 31 X -82 Y 31 X -86 Y 31 X -189 Y 31 X -352 Y 30 X -86 Y 31 X s 0.35 0.33 0.85 c 1 1 1 c black 0.35 0.33 0.85 c 316 1484 m 31 X -1 Y 31 X -1 Y 31 X -2 Y 31 X -1 Y 30 X -1 Y 31 X -2 Y 31 X -1 Y 31 X -2 Y 31
 X -1 Y 31 X -3 Y 31 X -1 Y 31 X -2 Y 30 X -1 Y 31 X -3 Y 31 X -2 Y 31 X -2 Y 31 X -3 Y 31 X -3 Y 31 X -2 Y 31 X -3 Y 30 X -4 Y 31 X -5 Y 31 X -4 Y 31 X -2 Y 31 X -2 Y 31 X -5 Y 31 X -2 Y 30 X -4 Y 31 X -4 Y 31 X -7 Y 31 X -6 Y 31 X -8 Y 31 X -5 Y 31
 X -7 Y 31 X -5 Y 30 X -9 Y 31 X -10 Y 31 X -9 Y 31 X -10 Y 31 X -6 Y 31 X -8 Y 31 X -14 Y 31 X -11 Y 30 X -11 Y 31 X -15 Y 31 X -10 Y 31 X -13 Y 31 X -17 Y 31 X -23 Y 31 X -22 Y 31 X -22 Y 30 X -31 Y 31 X -34 Y 31 X -44 Y 31 X -68 Y 31 X -83 Y 31 X
 -92 Y 31 X -184 Y 31 X -334 Y 30 X -111 Y 31 X s 0.754 0.715 0.676 c 1 1 1 c black 0.754 0.715 0.676 c 316 1484 m 31 X -1 Y 31 X -2 Y 31 X -1 Y 31 X -2 Y 30 X -1 Y 62 X -2 Y 31 X -3 Y 62 X -1 Y 31 X -2 Y 31 X -2 Y 30 X -4 Y 31 X -2 Y 31 X -2 Y 31 X
 -2 Y 31 X -4 Y 31 X -1 Y 31 X -4 Y 31 X -3 Y 30 X -1 Y 31 X -3 Y 31 X -5 Y 31 X -3 Y 31 X -6 Y 31 X -2 Y 31 X -5 Y 30 X -4 Y 31 X -3 Y 31 X -7 Y 31 X -6 Y 31 X -7 Y 31 X -6 Y 31 X -7 Y 31 X -7 Y 30 X -5 Y 31 X -8 Y 31 X -7 Y 31 X -9 Y 31 X -13 Y 31
 X -8 Y 31 X -12 Y 31 X -12 Y 30 X -10 Y 31 X -10 Y 31 X -20 Y 31 X -14 Y 31 X -16 Y 31 X -17 Y 31 X -29 Y 31 X -21 Y 30 X -30 Y 31 X -47 Y 31 X -34 Y 31 X -65 Y 31 X -77 Y 31 X -105 Y 31 X -160 Y 31 X -348 Y 30 X -110 Y 31 X s 0.3 0.3 0.3 c 1 1 1 c
 black 0.3 0.3 0.3 c 316 1479 m 31 X -2 Y 31 X -1 Y 31 X -2 Y 31 X -1 Y 30 X -1 Y 93 X -2 Y 62 X -2 Y 31 X -3 Y 31 X -5 Y 61 X -2 Y 31 X -3 Y 31 X -5 Y 31 X -3 Y 31 X -1 Y 31 X -5 Y 31 X -3 Y 30 X -2 Y 31 X -1 Y 31 X -3 Y 31 X -6 Y 31 X -5 Y 31 X -4
 Y 31 X -2 Y 30 X -6 Y 31 X -6 Y 31 X -3 Y 31 X -5 Y 31 X -5 Y 31 X -5 Y 31 X -8 Y 31 X -10 Y 30 X -8 Y 31 X -4 Y 31 X -5 Y 31 X -12 Y 31 X -14 Y 31 X -16 Y 31 X -12 Y 31 X -12 Y 30 X -15 Y 31 X -16 Y 31 X -15 Y 31 X -11 Y 31 X -14 Y 31 X -23 Y 31 X
 -23 Y 31 X -24 Y 30 X -41 Y 31 X -29 Y 31 X -37 Y 31 X -64 Y 31 X -75 Y 31 X -121 Y 31 X -205 Y 31 X -269 Y 30 X -116 Y 31 X s 0.4 0.4 0.4 c 1 1 1 c black 0.4 0.4 0.4 c 316 1485 m 31 X -2 Y 31 X -2 Y 31 X -2 Y 31 X -2 Y 30 X -1 Y 31 X -3 Y 31 X -2 Y
 31 X -2 Y 31 X -3 Y 31 X -1 Y 31 X -2 Y 31 X -2 Y 30 X -3 Y 31 X -1 Y 31 X -4 Y 31 X -2 Y 31 X -4 Y 31 X -2 Y 31 X -1 Y 31 X -3 Y 30 X -3 Y 31 X -1 Y 31 X -2 Y 31 X -6 Y 31 X -2 Y 31 X -5 Y 31 X -5 Y 30 X -7 Y 31 X -5 Y 31 X -8 Y 31 X -7 Y 31 X -6 Y
 31 X -8 Y 31 X -6 Y 31 X -8 Y 30 X -13 Y 31 X -6 Y 31 X -6 Y 31 X -8 Y 31 X -9 Y 31 X -12 Y 31 X -16 Y 31 X -13 Y 30 X -9 Y 31 X -18 Y 31 X -22 Y 31 X -21 Y 31 X -15 Y 31 X -21 Y 31 X -16 Y 31 X -33 Y 30 X -18 Y 31 X -55 Y 31 X -38 Y 31 X -57 Y 31 X
 -82 Y 31 X -106 Y 31 X -169 Y 31 X -413 Y 61 X s 0.5 0.5 0.5 c 1 1 1 c black 0.5 0.5 0.5 c 316 1485 m 31 X -2 Y 31 X -2 Y 31 X -2 Y 61 X -2 Y 31 X -2 Y 31 X -3 Y 31 X -2 Y 31 X -1 Y 62 X -2 Y 31 X -2 Y 30 X -1 Y 31 X -3 Y 31 X -1 Y 31 X -5 Y 31 X -2
 Y 31 X -3 Y 31 X -3 Y 31 X -1 Y 30 X -2 Y 31 X -2 Y 31 X -3 Y 31 X -4 Y 31 X -6 Y 31 X -3 Y 31 X -5 Y 30 X -1 Y 31 X -6 Y 31 X -8 Y 31 X -5 Y 31 X -6 Y 31 X -5 Y 31 X -7 Y 31 X -10 Y 30 X -6 Y 31 X -10 Y 31 X -9 Y 31 X -4 Y 31 X -13 Y 31 X -9 Y 31 X
 -12 Y 31 X -10 Y 30 X -10 Y 31 X -14 Y 31 X -10 Y 31 X -23 Y 31 X -11 Y 31 X -21 Y 31 X -21 Y 31 X -25 Y 30 X -34 Y 31 X -28 Y 31 X -51 Y 31 X -65 Y 31 X -86 Y 31 X -86 Y 31 X -175 Y 31 X -324 Y 30 X -130 Y 31 X s 0.6 0.6 0.6 c 1 1 1 c black 0.6 0.6
 0.6 c 316 1486 m 31 X -2 Y 31 X -2 Y 31 X -2 Y 31 X -1 Y 30 X -2 Y 31 X -2 Y 31 X -1 Y 31 X -1 Y 31 X -1 Y 31 X -3 Y 31 X -1 Y 31 X -3 Y 30 X -2 Y 31 X -3 Y 31 X -3 Y 31 X -1 Y 31 X -2 Y 31 X -3 Y 31 X -2 Y 31 X -2 Y 30 X -5 Y 31 X -3 Y 31 X -6 Y 31
 X -4 Y 31 X -6 Y 31 X -4 Y 31 X -1 Y 30 X -4 Y 31 X -4 Y 31 X -6 Y 31 X -2 Y 31 X -5 Y 31 X -7 Y 31 X -7 Y 31 X -12 Y 30 X -13 Y 31 X -12 Y 31 X -7 Y 31 X -6 Y 31 X -5 Y 31 X -12 Y 31 X -12 Y 31 X -6 Y 30 X -12 Y 31 X -12 Y 31 X -11 Y 31 X -15 Y 31
 X -15 Y 31 X -22 Y 31 X -16 Y 31 X -18 Y 30 X -39 Y 31 X -34 Y 31 X -55 Y 31 X -58 Y 31 X -89 Y 31 X -97 Y 31 X -183 Y 31 X -327 Y 30 X -109 Y 31 X s black
 gsave  2268 1538 0 0 C 677.708 1182.73 t 0 r /Helvetica-Bold findfont 55.3896 sf 0 0 m (18 Variable BDTG) show NC gr  488 1197 m 158 X s
 gsave  2268 1538 0 0 C 795.004 1101.28 t 0 r /Helvetica-Bold findfont 35.8403 sf 0 0 m (HT) show NC gr 
 gsave  2268 1538 0 0 C 677.708 1117.57 t 0 r /Helvetica-Bold findfont 55.3896 sf 0 0 m (n \255 F) show NC gr  1 0 0 c 488 1131 m 158 X s black
 gsave  2268 1538 0 0 C 677.708 1052.4 t 0 r /Helvetica-Bold findfont 55.3896 sf 0 0 m (n \255 nTRTHits) show NC gr  0 1 0 c 488 1066 m 158 X s black
 gsave  2268 1538 0 0 C 804.779 974.206 t 0 r /Helvetica-Bold findfont 35.8403 sf 0 0 m (s,tot) show NC gr 
 gsave  2268 1538 0 0 C 677.708 987.239 t 0 r /Helvetica-Bold findfont 55.3896 sf 0 0 m (n \255 w) show NC gr  0 0 1 c 488 1000 m 158 X s black
 gsave  2268 1538 0 0 C 804.779 905.783 t 0 r /Helvetica-Bold findfont 35.8403 sf 0 0 m (s3) show NC gr 
 gsave  2268 1538 0 0 C 677.708 922.074 t 0 r /Helvetica-Bold findfont 55.3896 sf 0 0 m (n \255 w) show NC gr  1 1 0 c 488 934 m 158 X s black
 gsave  2268 1538 0 0 C 824.328 837.361 t 0 r /Helvetica-Bold findfont 35.8403 sf 0 0 m ( 2) show NC gr 
 gsave  2268 1538 0 0 C 804.779 837.361 t 0 r /Symbol findfont 35.8403 sf 0 0 m (h) show NC gr 
 gsave  2268 1538 0 0 C 677.708 853.652 t 0 r /Helvetica-Bold findfont 55.3896 sf 0 0 m (n \255 w) show NC gr  1 0 1 c 488 868 m 158 X s black
 gsave  2268 1538 0 0 C 781.971 775.455 t 0 r /Symbol findfont 35.8403 sf 0 0 m (f) show NC gr 
 gsave  2268 1538 0 0 C 677.708 788.488 t 0 r /Helvetica-Bold findfont 55.3896 sf 0 0 m (n \255 r) show NC gr  0 1 1 c 488 802 m 158 X s black
 gsave  2268 1538 0 0 C 781.971 713.549 t 0 r /Symbol findfont 35.8403 sf 0 0 m (h) show NC gr 
 gsave  2268 1538 0 0 C 677.708 723.323 t 0 r /Helvetica-Bold findfont 55.3896 sf 0 0 m (n \255 r) show NC gr  0.35 0.83 0.33 c 488 736 m 158 X s black
 gsave  2268 1538 0 0 C 808.037 641.868 t 0 r /Helvetica-Bold findfont 35.8403 sf 0 0 m (core) show NC gr 
 gsave  2268 1538 0 0 C 677.708 658.159 t 0 r /Helvetica-Bold findfont 55.3896 sf 0 0 m (n \255 f3) show NC gr  0.35 0.33 0.85 c 488 670 m 158 X s black
 gsave  2268 1538 0 0 C 801.521 576.704 t 0 r /Helvetica-Bold findfont 35.8403 sf 0 0 m (core) show NC gr 
 gsave  2268 1538 0 0 C 677.708 589.737 t 0 r /Helvetica-Bold findfont 55.3896 sf 0 0 m (n \255 f1) show NC gr  0.754 0.715 0.676 c 488 604 m 158 X s black
 gsave  2268 1538 0 0 C 876.459 505.023 t 0 r /Helvetica-Bold findfont 35.8403 sf 0 0 m (d0) show NC gr 
 gsave  2268 1538 0 0 C 843.877 524.572 t 0 r /Symbol findfont 55.3896 sf 0 0 m (s) show NC gr 
 gsave  2268 1538 0 0 C 677.708 524.572 t 0 r /Helvetica-Bold findfont 55.3896 sf 0 0 m (n \255 d0/) show NC gr  0.3 0.3 0.3 c 488 538 m 158 X s black
 gsave  2268 1538 0 0 C 677.708 459.408 t 0 r /Helvetica-Bold findfont 55.3896 sf 0 0 m (n \255 Eratio) show NC gr  0.4 0.4 0.4 c 488 472 m 158 X s black
 gsave  2268 1538 0 0 C 804.779 374.695 t 0 r /Helvetica-Bold findfont 35.8403 sf 0 0 m (E) show NC gr 
 gsave  2268 1538 0 0 C 677.708 394.244 t 0 r /Helvetica-Bold findfont 55.3896 sf 0 0 m (n \255 cl) show NC gr  0.5 0.5 0.5 c 488 406 m 158 X s black
 gsave  2268 1538 0 0 C 834.103 312.788 t 0 r /Symbol findfont 35.8403 sf 0 0 m (h) show NC gr 
 gsave  2268 1538 0 0 C 677.708 325.821 t 0 r /Helvetica-Bold findfont 55.3896 sf 0 0 m (n \255 trk) show NC gr  0.6 0.6 0.6 c 488 341 m 158 X s
 gr  gr showpage
end
%%EOF
