%!PS-Adobe-2.0 EPSF-2.0
%%BoundingBox:  0 0 567 384
%%Title: OSMass_jpsi_z_tagAndProbe_mass_Et_15_20_Eta_0_247.root.eps: c1
%%Creator: ROOT Version 5.34/14
%%CreationDate: Tue Aug 26 19:19:07 2014
%%EndComments
%%BeginProlog
80 dict begin
/s {stroke} def /l {lineto} def /m {moveto} def /t {translate} def
/r {rotate} def /rl {roll}  def /R {repeat} def
/d {rlineto} def /rm {rmoveto} def /gr {grestore} def /f {eofill} def
/c {setrgbcolor} def /black {0 setgray} def /sd {setdash} def
/cl {closepath} def /sf {scalefont setfont} def /lw {setlinewidth} def
/box {m dup 0 exch d exch 0 d 0 exch neg d cl} def
/NC{systemdict begin initclip end}def/C{NC box clip newpath}def
/bl {box s} def /bf {box f} def /Y { 0 exch d} def /X { 0 d} def 
/K {{pop pop 0 moveto} exch kshow} bind def
/ita {/ang 15 def gsave [1 0 ang dup sin exch cos div 1 0 0] concat} def 
/mp {newpath /y exch def /x exch def} def
/side {[w .77 mul w .23 mul] .385 w mul sd w 0 l currentpoint t -144 r} def
/mr {mp x y w2 0 360 arc} def /m24 {mr s} def /m20 {mr f} def
/mb {mp x y w2 add m w2 neg 0 d 0 w neg d w 0 d 0 w d cl} def
/mt {mp x y w2 add m w2 neg w neg d w 0 d cl} def
/m21 {mb f} def /m25 {mb s} def /m22 {mt f} def /m26{mt s} def
/m23 {mp x y w2 sub m w2 w d w neg 0 d cl f} def
/m27 {mp x y w2 add m w3 neg w2 neg d w3 w2 neg d w3 w2 d cl s} def
/m28 {mp x w2 sub y w2 sub w3 add m w3 0 d  0 w3 neg d w3 0 d 0 w3 d w3 0 d  0 w3 d w3 neg 0 d 0 w3 d w3 neg 0 d 0 w3 neg d w3 neg 0 d cl s } def
/m29 {mp gsave x w2 sub y w2 add w3 sub m currentpoint t 4 {side} repeat cl fill gr} def
/m30 {mp gsave x w2 sub y w2 add w3 sub m currentpoint t 4 {side} repeat cl s gr} def
/m31 {mp x y w2 sub m 0 w d x w2 sub y m w 0 d x w2 sub y w2 add m w w neg d x w2 sub y w2 sub m w w d s} def
/m32 {mp x y w2 sub m w2 w d w neg 0 d cl s} def
/m33 {mp x y w2 add m w3 neg w2 neg d w3 w2 neg d w3 w2 d cl f} def
/m34 {mp x w2 sub y w2 sub w3 add m w3 0 d  0 w3 neg d w3 0 d 0 w3 d w3 0 d  0 w3 d w3 neg 0 d 0 w3 d w3 neg 0 d 0 w3 neg d w3 neg 0 d cl f } def
/m2 {mp x y w2 sub m 0 w d x w2 sub y m w 0 d s} def
/m5 {mp x w2 sub y w2 sub m w w d x w2 sub y w2 add m w w neg d s} def
/reEncode {exch findfont dup length dict begin {1 index /FID eq  {pop pop} {def} ifelse } forall /Encoding exch def currentdict end dup /FontName get exch definefont pop } def [/Times-Bold /Times-Italic /Times-BoldItalic /Helvetica /Helvetica-Oblique
 /Helvetica-Bold /Helvetica-BoldOblique /Courier /Courier-Oblique /Courier-Bold /Courier-BoldOblique /Times-Roman /AvantGarde-Book /AvantGarde-BookOblique /AvantGarde-Demi /AvantGarde-DemiOblique /Bookman-Demi /Bookman-DemiItalic /Bookman-Light
 /Bookman-LightItalic /Helvetica-Narrow /Helvetica-Narrow-Bold /Helvetica-Narrow-BoldOblique /Helvetica-Narrow-Oblique /NewCenturySchlbk-Roman /NewCenturySchlbk-Bold /NewCenturySchlbk-BoldItalic /NewCenturySchlbk-Italic /Palatino-Bold
 /Palatino-BoldItalic /Palatino-Italic /Palatino-Roman ] {ISOLatin1Encoding reEncode } forall
%%EndProlog
%%BeginSetup
%%EndSetup
newpath  gsave  .25 .25 scale  gsave  0 0 t black[  ] 0 sd 3 lw 1 1 1 c 2268 1538 0 0 bf black 1 1 1 c 1883 1322 317 185 bf black 1883 1322 317 185 bl 317 185 m 1883 X s
 gsave  2268 1538 0 0 C 1782.24 39.0986 t 0 r /Helvetica findfont 71.6807 sf 0 0 m (Mass \([GeV]\)) show NC gr  317 223 m -38 Y s 365 204 m -19 Y s 412 204 m -19 Y s 459 204 m -19 Y s 506 204 m -19 Y s 553 223 m -38 Y s 600 204 m -19 Y s 647 204 m
 -19 Y s 694 204 m -19 Y s 741 204 m -19 Y s 788 223 m -38 Y s 835 204 m -19 Y s 882 204 m -19 Y s 929 204 m -19 Y s 976 204 m -19 Y s 1023 223 m -38 Y s 1070 204 m -19 Y s 1117 204 m -19 Y s 1164 204 m -19 Y s 1212 204 m -19 Y s 1259 223 m -38 Y s
 1306 204 m -19 Y s 1353 204 m -19 Y s 1400 204 m -19 Y s 1447 204 m -19 Y s 1494 223 m -38 Y s 1541 204 m -19 Y s 1588 204 m -19 Y s 1635 204 m -19 Y s 1682 204 m -19 Y s 1729 223 m -38 Y s 1776 204 m -19 Y s 1823 204 m -19 Y s 1870 204 m -19 Y s
 1917 204 m -19 Y s 1964 223 m -38 Y s 2011 204 m -19 Y s 2059 204 m -19 Y s 2106 204 m -19 Y s 2153 204 m -19 Y s 2200 223 m -38 Y s
 gsave  2268 1538 0 0 C 303.014 117.296 t 0 r /Helvetica findfont 71.6807 sf 0 0 m (1) show NC gr 
 gsave  2268 1538 0 0 C 501.765 117.296 t 0 r /Helvetica findfont 71.6807 sf 0 0 m (1.5) show NC gr 
 gsave  2268 1538 0 0 C 765.68 117.296 t 0 r /Helvetica findfont 71.6807 sf 0 0 m (2) show NC gr 
 gsave  2268 1538 0 0 C 974.206 117.296 t 0 r /Helvetica findfont 71.6807 sf 0 0 m (2.5) show NC gr 
 gsave  2268 1538 0 0 C 1238.12 117.296 t 0 r /Helvetica findfont 71.6807 sf 0 0 m (3) show NC gr 
 gsave  2268 1538 0 0 C 1443.39 117.296 t 0 r /Helvetica findfont 71.6807 sf 0 0 m (3.5) show NC gr 
 gsave  2268 1538 0 0 C 1707.3 117.296 t 0 r /Helvetica findfont 71.6807 sf 0 0 m (4) show NC gr 
 gsave  2268 1538 0 0 C 1912.57 117.296 t 0 r /Helvetica findfont 71.6807 sf 0 0 m (4.5) show NC gr 
 gsave  2268 1538 0 0 C 2179.74 117.296 t 0 r /Helvetica findfont 71.6807 sf 0 0 m (5) show NC gr  317 1507 m 1883 X s 317 1469 m 38 Y s 365 1488 m 19 Y s 412 1488 m 19 Y s 459 1488 m 19 Y s 506 1488 m 19 Y s 553 1469 m 38 Y s 600 1488 m 19 Y s 647
 1488 m 19 Y s 694 1488 m 19 Y s 741 1488 m 19 Y s 788 1469 m 38 Y s 835 1488 m 19 Y s 882 1488 m 19 Y s 929 1488 m 19 Y s 976 1488 m 19 Y s 1023 1469 m 38 Y s 1070 1488 m 19 Y s 1117 1488 m 19 Y s 1164 1488 m 19 Y s 1212 1488 m 19 Y s 1259 1469 m 38
 Y s 1306 1488 m 19 Y s 1353 1488 m 19 Y s 1400 1488 m 19 Y s 1447 1488 m 19 Y s 1494 1469 m 38 Y s 1541 1488 m 19 Y s 1588 1488 m 19 Y s 1635 1488 m 19 Y s 1682 1488 m 19 Y s 1729 1469 m 38 Y s 1776 1488 m 19 Y s 1823 1488 m 19 Y s 1870 1488 m 19 Y
 s 1917 1488 m 19 Y s 1964 1469 m 38 Y s 2011 1488 m 19 Y s 2059 1488 m 19 Y s 2106 1488 m 19 Y s 2153 1488 m 19 Y s 2200 1469 m 38 Y s 317 185 m 1322 Y s
 gsave  2268 1538 0 0 C 153.136 645.126 t 90 r /Helvetica findfont 71.6807 sf 0 0 m (Events / \( 0.142857 [GeV] \)) show NC gr  376 185 m -59 X s 347 227 m -30 X s 347 269 m -30 X s 347 312 m -30 X s 347 354 m -30 X s 376 397 m -59 X s 347 439 m -30
 X s 347 481 m -30 X s 347 524 m -30 X s 347 566 m -30 X s 376 609 m -59 X s 347 651 m -30 X s 347 694 m -30 X s 347 736 m -30 X s 347 778 m -30 X s 376 821 m -59 X s 347 863 m -30 X s 347 906 m -30 X s 347 948 m -30 X s 347 991 m -30 X s 376 1033 m
 -59 X s 347 1075 m -30 X s 347 1118 m -30 X s 347 1160 m -30 X s 347 1203 m -30 X s 376 1245 m -59 X s 347 1287 m -30 X s 347 1330 m -30 X s 347 1372 m -30 X s 347 1415 m -30 X s 376 1457 m -59 X s 376 1457 m -59 X s 347 1500 m -30 X s
 gsave  2268 1538 0 0 C 263.915 159.652 t 0 r /Helvetica findfont 71.6807 sf 0 0 m (0) show NC gr 
 gsave  2268 1538 0 0 C 185.718 371.436 t 0 r /Helvetica findfont 71.6807 sf 0 0 m (500) show NC gr 
 gsave  2268 1538 0 0 C 146.62 583.22 t 0 r /Helvetica findfont 71.6807 sf 0 0 m (1000) show NC gr 
 gsave  2268 1538 0 0 C 146.62 795.004 t 0 r /Helvetica findfont 71.6807 sf 0 0 m (1500) show NC gr 
 gsave  2268 1538 0 0 C 146.62 1010.05 t 0 r /Helvetica findfont 71.6807 sf 0 0 m (2000) show NC gr 
 gsave  2268 1538 0 0 C 146.62 1221.83 t 0 r /Helvetica findfont 71.6807 sf 0 0 m (2500) show NC gr 
 gsave  2268 1538 0 0 C 146.62 1433.61 t 0 r /Helvetica findfont 71.6807 sf 0 0 m (3000) show NC gr  2200 185 m 1322 Y s 2141 185 m 59 X s 2170 227 m 30 X s 2170 269 m 30 X s 2170 312 m 30 X s 2170 354 m 30 X s 2141 397 m 59 X s 2170 439 m 30 X s
 2170 481 m 30 X s 2170 524 m 30 X s 2170 566 m 30 X s 2141 609 m 59 X s 2170 651 m 30 X s 2170 694 m 30 X s 2170 736 m 30 X s 2170 778 m 30 X s 2141 821 m 59 X s 2170 863 m 30 X s 2170 906 m 30 X s 2170 948 m 30 X s 2170 991 m 30 X s 2141 1033 m 59
 X s 2170 1075 m 30 X s 2170 1118 m 30 X s 2170 1160 m 30 X s 2170 1203 m 30 X s 2141 1245 m 59 X s 2170 1287 m 30 X s 2170 1330 m 30 X s 2170 1372 m 30 X s 2170 1415 m 30 X s 2141 1457 m 59 X s 2141 1457 m 59 X s 2170 1500 m 30 X s 351 185 m -34 X s
 317 185 m 6 Y s 351 185 m 34 X s 385 185 m 6 Y s 351 185 m s 345 185 m 13 X s 418 185 m -33 X s 385 185 m 6 Y s 418 185 m 34 X s 452 185 m 6 Y s 418 185 m s 412 185 m 13 X s 486 185 m -34 X s 452 185 m 6 Y s 486 185 m 33 X s 519 185 m 6 Y s 486 185
 m s 479 185 m 13 X s 553 185 m -34 X s 519 185 m 6 Y s 553 185 m 33 X s 586 185 m 6 Y s 553 185 m s 546 185 m 13 X s 620 185 m -34 X s 586 185 m 6 Y s 620 185 m 34 X s 654 185 m 6 Y s 620 185 m s 613 185 m 13 X s 687 185 m -33 X s 654 185 m 6 Y s
 687 185 m 34 X s 721 185 m 6 Y s 687 185 m s 681 185 m 13 X s 754 187 m -33 X s 721 185 m 8 Y s 754 187 m 34 X s 788 185 m 8 Y s 754 187 m 1 Y s 748 188 m 13 X s 754 187 m -1 Y s 748 186 m 13 X s 822 190 m -34 X s 788 185 m 12 Y s 822 190 m 33 X s
 855 185 m 12 Y s 822 190 m 3 Y s 815 193 m 13 X s 822 190 m -1 Y s 815 189 m 13 X s 889 210 m -34 X s 855 203 m 13 Y s 889 210 m 33 X s 922 203 m 13 Y s 889 210 m 3 Y s 882 213 m 13 X s 889 210 m -4 Y s 882 206 m 13 X s 956 252 m -34 X s 922 246 m
 13 Y s 956 252 m 34 X s 990 246 m 13 Y s 956 252 m 6 Y s 950 258 m 13 X s 956 252 m -5 Y s 950 247 m 13 X s 1023 284 m -33 X s 990 277 m 13 Y s 1023 284 m 34 X s 1057 277 m 13 Y s 1023 284 m 7 Y s 1017 291 m 13 X s 1023 284 m -6 Y s 1017 278 m 13 X
 s 1091 326 m -34 X s 1057 320 m 13 Y s 1091 326 m 33 X s 1124 320 m 13 Y s 1091 326 m 8 Y s 1084 334 m 13 X s 1091 326 m -7 Y s 1084 319 m 13 X s 1158 439 m -34 X s 1124 433 m 13 Y s 1158 439 m 33 X s 1191 433 m 13 Y s 1158 439 m 11 Y s 1151 450 m
 13 X s 1158 439 m -10 Y s 1151 429 m 13 X s 1225 771 m -34 X s 1191 765 m 13 Y s 1225 771 m 34 X s 1259 765 m 13 Y s 1225 771 m 16 Y s 1218 787 m 13 X s 1225 771 m -15 Y s 1218 756 m 13 X s 1292 1359 m -33 X s 1259 1353 m 13 Y s 1292 1359 m 34 X s
 1326 1353 m 13 Y s 1292 1359 m 23 Y s 1286 1382 m 13 X s 1292 1359 m -22 Y s 1286 1337 m 13 X s 1359 1312 m -33 X s 1326 1305 m 13 Y s 1359 1312 m 34 X s 1393 1305 m 13 Y s 1359 1312 m 22 Y s 1353 1334 m 13 X s 1359 1312 m -22 Y s 1353 1290 m 13 X s
 1427 927 m -34 X s 1393 920 m 13 Y s 1427 927 m 33 X s 1460 920 m 13 Y s 1427 927 m 18 Y s 1420 945 m 13 X s 1427 927 m -18 Y s 1420 909 m 13 X s 1494 700 m -34 X s 1460 693 m 13 Y s 1494 700 m 33 X s 1527 693 m 13 Y s 1494 700 m 15 Y s 1487 715 m
 13 X s 1494 700 m -15 Y s 1487 685 m 13 X s 1561 591 m -34 X s 1527 584 m 13 Y s 1561 591 m 34 X s 1595 584 m 13 Y s 1561 591 m 13 Y s 1555 604 m 13 X s 1561 591 m -13 Y s 1555 578 m 13 X s 1628 488 m -33 X s 1595 481 m 13 Y s 1628 488 m 34 X s 1662
 481 m 13 Y s 1628 488 m 11 Y s 1622 499 m 13 X s 1628 488 m -11 Y s 1622 477 m 13 X s 1696 397 m -34 X s 1662 391 m 13 Y s 1696 397 m 33 X s 1729 391 m 13 Y s 1696 397 m 10 Y s 1689 407 m 13 X s 1696 397 m -9 Y s 1689 388 m 13 X s 1763 357 m -34 X s
 1729 350 m 13 Y s 1763 357 m 33 X s 1796 350 m 13 Y s 1763 357 m 9 Y s 1756 366 m 13 X s 1763 357 m -9 Y s 1756 348 m 13 X s 1830 339 m -34 X s 1796 332 m 13 Y s 1830 339 m 34 X s 1864 332 m 13 Y s 1830 339 m 8 Y s 1823 347 m 13 X s 1830 339 m -8 Y
 s 1823 331 m 13 X s 1897 310 m -33 X s 1864 303 m 13 Y s 1897 310 m 34 X s 1931 303 m 13 Y s 1897 310 m 7 Y s 1891 317 m 13 X s 1897 310 m -7 Y s 1891 303 m 13 X s 1964 345 m -33 X s 1931 338 m 13 Y s 1964 345 m 34 X s 1998 338 m 13 Y s 1964 345 m 8
 Y s 1958 353 m 13 X s 1964 345 m -8 Y s 1958 337 m 13 X s 2032 330 m -34 X s 1998 323 m 13 Y s 2032 330 m 33 X s 2065 323 m 13 Y s 2032 330 m 8 Y s 2025 338 m 13 X s 2032 330 m -8 Y s 2025 322 m 13 X s 2099 330 m -34 X s 2065 324 m 13 Y s 2099 330 m
 33 X s 2132 324 m 13 Y s 2099 330 m 8 Y s 2092 338 m 13 X s 2099 330 m -8 Y s 2092 322 m 13 X s 2166 314 m -34 X s 2132 307 m 13 Y s 2166 314 m 34 X s 2200 307 m 13 Y s 2166 314 m 8 Y s 2160 322 m 13 X s 2166 314 m -7 Y s 2160 307 m 13 X s /w 13 def
 /w2 {w 2 div} def /w3 {w 3 div} def 351 185 418 185 486 185 553 185 620 185 687 185 754 187 822 190 889 210 956 252 1023 284 1091 326 1158 439 1225 771 1292 1359 1359 1312 1427 927 1494 700 1561 591 1628 488 1696 397 1763 357 1830 339 1897 310 1964
 345 2032 330 2099 330 2166 314 28 { m20} R 0 0 1 c 9 lw black 0 0 1 c 317 185 m 189 X 19 1 d 56 X 19 1 d 37 X 19 1 d 19 1 d 19 1 d 19 1 d 19 1 d 18 1 d 19 2 d 19 2 d 19 2 d 19 3 d 18 3 d 19 3 d 19 4 d 19 4 d 19 5 d 19 6 d 18 7 d 19 8 d 19 9 d 19 11
 d 19 12 d 19 15 d 18 17 d 19 21 d 19 26 d 19 31 d 19 38 d 9 22 d 9 26 d 10 29 d 9 34 d 10 39 d 9 45 d 10 55 d 4 31 d 5 33 d 9 76 d 10 83 d 9 88 d 10 91 d 9 89 d 9 84 d 5 39 d 5 35 d 5 32 d 4 27 d 5 23 d 5 18 d 4 13 d 5 8 d 5 2 d 4 -2 d 5 -7 d 5 -12
 d 5 -15 d 4 -18 d 10 -46 d 9 -52 d 10 -57 d 18 -115 d 10 -55 d 9 -52 d 10 -49 d 9 -46 d 9 -42 d 10 -38 d 9 -35 d 10 -32 d 9 -27 d 9 -25 d 10 -21 d 9 -19 d 19 -32 d 19 -28 d 19 -26 d 19 -28 d 18 -29 d 19 -31 d 19 -30 d 19 -29 d 19 -26 d 18 -21 d 19
 -17 d 19 -12 d 19 -10 d 19 -6 d 19 -4 d 18 -3 d 19 -2 d 19 -1 d 19 -2 d 19 -1 d 19 -1 d 18 -2 d 19 -1 d 19 -2 d 19 -2 d 19 -2 d 18 -2 d 19 -2 d 19 -2 d 19 -2 d 19 -2 d 19 -3 d 18 -2 d 19 -3 d 19 -2 d 19 -3 d 19 -2 d s[  12 12 ] 0 sd black 0 0 1 c
 317 185 m 302 X 18 1 d 38 X 19 1 d 19 X 19 1 d 18 1 d 19 1 d 19 1 d 19 1 d 19 2 d 18 1 d 19 2 d 19 2 d 19 3 d 19 2 d 19 3 d 18 3 d 19 3 d 19 3 d 19 3 d 19 4 d 19 4 d 18 4 d 19 4 d 19 4 d 19 4 d 19 5 d 18 4 d 19 5 d 19 4 d 19 5 d 19 5 d 19 4 d 18 5 d
 19 5 d 19 4 d 19 4 d 19 5 d 19 4 d 18 4 d 19 4 d 19 3 d 19 4 d 19 3 d 18 3 d 19 3 d 19 3 d 19 3 d 19 2 d 19 2 d 18 2 d 19 2 d 19 1 d 19 1 d 19 1 d 18 1 d 19 1 d 76 X 18 -1 d 19 X 19 -1 d 19 -1 d 19 -1 d 19 -1 d 18 -2 d 19 -1 d 19 -2 d 19 -2 d 19 -2
 d 18 -2 d 19 -2 d 19 -2 d 19 -2 d 19 -2 d 19 -3 d 18 -2 d 19 -3 d 19 -2 d 19 -3 d 19 -2 d s 0 1 0 c[  ] 0 sd black 0 1 0 c 317 185 m 735 X 18 1 d 94 X 19 1 d 19 X 19 1 d 19 X 19 2 d 18 1 d 19 3 d 19 4 d 9 3 d 10 4 d 9 4 d 10 5 d 9 5 d 10 7 d 9 8 d 9
 8 d 10 10 d 9 11 d 10 12 d 9 12 d 9 14 d 10 14 d 19 29 d 9 14 d 9 13 d 10 11 d 9 11 d 5 4 d 5 4 d 4 3 d 5 3 d 5 2 d 5 2 d 4 1 d 10 X 4 -1 d 5 -2 d 5 -2 d 4 -3 d 5 -3 d 5 -4 d 5 -4 d 9 -11 d 9 -11 d 10 -13 d 9 -14 d 19 -29 d 19 -28 d 9 -14 d 10 -12 d
 9 -11 d 9 -11 d 10 -9 d 9 -8 d 10 -7 d 9 -6 d 10 -5 d 9 -4 d 9 -3 d 10 -3 d 9 -2 d 10 -2 d 18 -3 d 19 -1 d 19 -1 d 358 X s 1 0 0 c[  12 12 ] 0 sd black 1 0 0 c 317 185 m 226 X 19 1 d 94 X 19 1 d 19 X 19 1 d 19 X 18 1 d 19 X 19 1 d 19 1 d 19 1 d 18 1
 d 19 2 d 19 2 d 19 2 d 19 2 d 19 4 d 18 4 d 19 4 d 19 6 d 19 7 d 19 9 d 19 11 d 18 13 d 19 17 d 19 21 d 19 26 d 19 34 d 9 20 d 9 23 d 10 27 d 9 31 d 10 37 d 9 43 d 5 25 d 5 27 d 4 29 d 5 33 d 5 35 d 4 38 d 10 80 d 9 85 d 10 88 d 9 86 d 9 81 d 5 37 d
 5 34 d 5 29 d 4 26 d 5 21 d 5 15 d 4 11 d 5 5 d 5 X 4 -4 d 5 -10 d 5 -14 d 5 -19 d 4 -21 d 5 -25 d 5 -28 d 9 -60 d 10 -66 d 18 -135 d 19 -131 d 10 -63 d 9 -60 d 9 -58 d 10 -54 d 9 -51 d 10 -48 d 9 -43 d 9 -39 d 10 -35 d 9 -30 d 10 -27 d 9 -22 d 10
 -19 d 9 -16 d 9 -13 d 10 -11 d 19 -15 d 18 -10 d 19 -5 d 19 -3 d 19 -2 d 19 -1 d 527 X s black[  ] 0 sd 3 lw 317 185 m 1883 X s 317 223 m -38 Y s 365 204 m -19 Y s 412 204 m -19 Y s 459 204 m -19 Y s 506 204 m -19 Y s 553 223 m -38 Y s 600 204 m -19
 Y s 647 204 m -19 Y s 694 204 m -19 Y s 741 204 m -19 Y s 788 223 m -38 Y s 835 204 m -19 Y s 882 204 m -19 Y s 929 204 m -19 Y s 976 204 m -19 Y s 1023 223 m -38 Y s 1070 204 m -19 Y s 1117 204 m -19 Y s 1164 204 m -19 Y s 1212 204 m -19 Y s 1259
 223 m -38 Y s 1306 204 m -19 Y s 1353 204 m -19 Y s 1400 204 m -19 Y s 1447 204 m -19 Y s 1494 223 m -38 Y s 1541 204 m -19 Y s 1588 204 m -19 Y s 1635 204 m -19 Y s 1682 204 m -19 Y s 1729 223 m -38 Y s 1776 204 m -19 Y s 1823 204 m -19 Y s 1870
 204 m -19 Y s 1917 204 m -19 Y s 1964 223 m -38 Y s 2011 204 m -19 Y s 2059 204 m -19 Y s 2106 204 m -19 Y s 2153 204 m -19 Y s 2200 223 m -38 Y s 317 1507 m 1883 X s 317 1469 m 38 Y s 365 1488 m 19 Y s 412 1488 m 19 Y s 459 1488 m 19 Y s 506 1488 m
 19 Y s 553 1469 m 38 Y s 600 1488 m 19 Y s 647 1488 m 19 Y s 694 1488 m 19 Y s 741 1488 m 19 Y s 788 1469 m 38 Y s 835 1488 m 19 Y s 882 1488 m 19 Y s 929 1488 m 19 Y s 976 1488 m 19 Y s 1023 1469 m 38 Y s 1070 1488 m 19 Y s 1117 1488 m 19 Y s 1164
 1488 m 19 Y s 1212 1488 m 19 Y s 1259 1469 m 38 Y s 1306 1488 m 19 Y s 1353 1488 m 19 Y s 1400 1488 m 19 Y s 1447 1488 m 19 Y s 1494 1469 m 38 Y s 1541 1488 m 19 Y s 1588 1488 m 19 Y s 1635 1488 m 19 Y s 1682 1488 m 19 Y s 1729 1469 m 38 Y s 1776
 1488 m 19 Y s 1823 1488 m 19 Y s 1870 1488 m 19 Y s 1917 1488 m 19 Y s 1964 1469 m 38 Y s 2011 1488 m 19 Y s 2059 1488 m 19 Y s 2106 1488 m 19 Y s 2153 1488 m 19 Y s 2200 1469 m 38 Y s 317 185 m 1322 Y s 376 185 m -59 X s 347 227 m -30 X s 347 269 m
 -30 X s 347 312 m -30 X s 347 354 m -30 X s 376 397 m -59 X s 347 439 m -30 X s 347 481 m -30 X s 347 524 m -30 X s 347 566 m -30 X s 376 609 m -59 X s 347 651 m -30 X s 347 694 m -30 X s 347 736 m -30 X s 347 778 m -30 X s 376 821 m -59 X s 347 863
 m -30 X s 347 906 m -30 X s 347 948 m -30 X s 347 991 m -30 X s 376 1033 m -59 X s 347 1075 m -30 X s 347 1118 m -30 X s 347 1160 m -30 X s 347 1203 m -30 X s 376 1245 m -59 X s 347 1287 m -30 X s 347 1330 m -30 X s 347 1372 m -30 X s 347 1415 m -30
 X s 376 1457 m -59 X s 376 1457 m -59 X s 347 1500 m -30 X s 2200 185 m 1322 Y s 2141 185 m 59 X s 2170 227 m 30 X s 2170 269 m 30 X s 2170 312 m 30 X s 2170 354 m 30 X s 2141 397 m 59 X s 2170 439 m 30 X s 2170 481 m 30 X s 2170 524 m 30 X s 2170
 566 m 30 X s 2141 609 m 59 X s 2170 651 m 30 X s 2170 694 m 30 X s 2170 736 m 30 X s 2170 778 m 30 X s 2141 821 m 59 X s 2170 863 m 30 X s 2170 906 m 30 X s 2170 948 m 30 X s 2170 991 m 30 X s 2141 1033 m 59 X s 2170 1075 m 30 X s 2170 1118 m 30 X s
 2170 1160 m 30 X s 2170 1203 m 30 X s 2141 1245 m 59 X s 2170 1287 m 30 X s 2170 1330 m 30 X s 2170 1372 m 30 X s 2170 1415 m 30 X s 2141 1457 m 59 X s 2141 1457 m 59 X s 2170 1500 m 30 X s
 gsave  2268 1538 0 0 C 1700.79 1303.29 t 0 r /Helvetica-Bold findfont 58.6478 sf 0 0 m (data) show NC gr  1604 1326 m 80 X s
 gsave  2268 1538 0 0 C 1749.66 1185.99 t 0 r /Symbol findfont 58.6478 sf 0 0 m (Y) show NC gr 
 gsave  2268 1538 0 0 C 1700.79 1185.99 t 0 r /Helvetica-Bold findfont 58.6478 sf 0 0 m (J/) show NC gr  1 0 0 c[  12 12 ] 0 sd 9 lw 1604 1211 m 80 X s black
 gsave  2268 1538 0 0 C 1743.14 1042.63 t 0 r /Helvetica-Bold findfont 39.0986 sf 0 0 m (2s) show NC gr 
 gsave  2268 1538 0 0 C 1700.79 1071.95 t 0 r /Symbol findfont 58.6478 sf 0 0 m (y) show NC gr  0 1 0 c[  ] 0 sd 1604 1096 m 80 X s black
 gsave  2268 1538 0 0 C 1700.79 954.656 t 0 r /Helvetica-Bold findfont 58.6478 sf 0 0 m (background) show NC gr  0 0 1 c[  12 12 ] 0 sd 1604 980 m 80 X s
 gr  gr showpage
end
%%EOF
