%!PS-Adobe-2.0 EPSF-2.0
%%BoundingBox:  0 0 567 384
%%Title: OSMass_jpsi_z_tagAndProbe_mass_Et_10_15_Eta_0_247.root.eps: c1
%%Creator: ROOT Version 5.34/14
%%CreationDate: Tue Aug 26 19:19:06 2014
%%EndComments
%%BeginProlog
80 dict begin
/s {stroke} def /l {lineto} def /m {moveto} def /t {translate} def
/r {rotate} def /rl {roll}  def /R {repeat} def
/d {rlineto} def /rm {rmoveto} def /gr {grestore} def /f {eofill} def
/c {setrgbcolor} def /black {0 setgray} def /sd {setdash} def
/cl {closepath} def /sf {scalefont setfont} def /lw {setlinewidth} def
/box {m dup 0 exch d exch 0 d 0 exch neg d cl} def
/NC{systemdict begin initclip end}def/C{NC box clip newpath}def
/bl {box s} def /bf {box f} def /Y { 0 exch d} def /X { 0 d} def 
/K {{pop pop 0 moveto} exch kshow} bind def
/ita {/ang 15 def gsave [1 0 ang dup sin exch cos div 1 0 0] concat} def 
/mp {newpath /y exch def /x exch def} def
/side {[w .77 mul w .23 mul] .385 w mul sd w 0 l currentpoint t -144 r} def
/mr {mp x y w2 0 360 arc} def /m24 {mr s} def /m20 {mr f} def
/mb {mp x y w2 add m w2 neg 0 d 0 w neg d w 0 d 0 w d cl} def
/mt {mp x y w2 add m w2 neg w neg d w 0 d cl} def
/m21 {mb f} def /m25 {mb s} def /m22 {mt f} def /m26{mt s} def
/m23 {mp x y w2 sub m w2 w d w neg 0 d cl f} def
/m27 {mp x y w2 add m w3 neg w2 neg d w3 w2 neg d w3 w2 d cl s} def
/m28 {mp x w2 sub y w2 sub w3 add m w3 0 d  0 w3 neg d w3 0 d 0 w3 d w3 0 d  0 w3 d w3 neg 0 d 0 w3 d w3 neg 0 d 0 w3 neg d w3 neg 0 d cl s } def
/m29 {mp gsave x w2 sub y w2 add w3 sub m currentpoint t 4 {side} repeat cl fill gr} def
/m30 {mp gsave x w2 sub y w2 add w3 sub m currentpoint t 4 {side} repeat cl s gr} def
/m31 {mp x y w2 sub m 0 w d x w2 sub y m w 0 d x w2 sub y w2 add m w w neg d x w2 sub y w2 sub m w w d s} def
/m32 {mp x y w2 sub m w2 w d w neg 0 d cl s} def
/m33 {mp x y w2 add m w3 neg w2 neg d w3 w2 neg d w3 w2 d cl f} def
/m34 {mp x w2 sub y w2 sub w3 add m w3 0 d  0 w3 neg d w3 0 d 0 w3 d w3 0 d  0 w3 d w3 neg 0 d 0 w3 d w3 neg 0 d 0 w3 neg d w3 neg 0 d cl f } def
/m2 {mp x y w2 sub m 0 w d x w2 sub y m w 0 d s} def
/m5 {mp x w2 sub y w2 sub m w w d x w2 sub y w2 add m w w neg d s} def
/reEncode {exch findfont dup length dict begin {1 index /FID eq  {pop pop} {def} ifelse } forall /Encoding exch def currentdict end dup /FontName get exch definefont pop } def [/Times-Bold /Times-Italic /Times-BoldItalic /Helvetica /Helvetica-Oblique
 /Helvetica-Bold /Helvetica-BoldOblique /Courier /Courier-Oblique /Courier-Bold /Courier-BoldOblique /Times-Roman /AvantGarde-Book /AvantGarde-BookOblique /AvantGarde-Demi /AvantGarde-DemiOblique /Bookman-Demi /Bookman-DemiItalic /Bookman-Light
 /Bookman-LightItalic /Helvetica-Narrow /Helvetica-Narrow-Bold /Helvetica-Narrow-BoldOblique /Helvetica-Narrow-Oblique /NewCenturySchlbk-Roman /NewCenturySchlbk-Bold /NewCenturySchlbk-BoldItalic /NewCenturySchlbk-Italic /Palatino-Bold
 /Palatino-BoldItalic /Palatino-Italic /Palatino-Roman ] {ISOLatin1Encoding reEncode } forall
%%EndProlog
%%BeginSetup
%%EndSetup
newpath  gsave  .25 .25 scale  gsave  0 0 t black[  ] 0 sd 3 lw 1 1 1 c 2268 1538 0 0 bf black 1 1 1 c 1883 1322 317 185 bf black 1883 1322 317 185 bl 317 185 m 1883 X s
 gsave  2268 1538 0 0 C 1782.24 39.0986 t 0 r /Helvetica findfont 71.6807 sf 0 0 m (Mass \([GeV]\)) show NC gr  317 223 m -38 Y s 365 204 m -19 Y s 412 204 m -19 Y s 459 204 m -19 Y s 506 204 m -19 Y s 553 223 m -38 Y s 600 204 m -19 Y s 647 204 m
 -19 Y s 694 204 m -19 Y s 741 204 m -19 Y s 788 223 m -38 Y s 835 204 m -19 Y s 882 204 m -19 Y s 929 204 m -19 Y s 976 204 m -19 Y s 1023 223 m -38 Y s 1070 204 m -19 Y s 1117 204 m -19 Y s 1164 204 m -19 Y s 1212 204 m -19 Y s 1259 223 m -38 Y s
 1306 204 m -19 Y s 1353 204 m -19 Y s 1400 204 m -19 Y s 1447 204 m -19 Y s 1494 223 m -38 Y s 1541 204 m -19 Y s 1588 204 m -19 Y s 1635 204 m -19 Y s 1682 204 m -19 Y s 1729 223 m -38 Y s 1776 204 m -19 Y s 1823 204 m -19 Y s 1870 204 m -19 Y s
 1917 204 m -19 Y s 1964 223 m -38 Y s 2011 204 m -19 Y s 2059 204 m -19 Y s 2106 204 m -19 Y s 2153 204 m -19 Y s 2200 223 m -38 Y s
 gsave  2268 1538 0 0 C 303.014 117.296 t 0 r /Helvetica findfont 71.6807 sf 0 0 m (1) show NC gr 
 gsave  2268 1538 0 0 C 501.765 117.296 t 0 r /Helvetica findfont 71.6807 sf 0 0 m (1.5) show NC gr 
 gsave  2268 1538 0 0 C 765.68 117.296 t 0 r /Helvetica findfont 71.6807 sf 0 0 m (2) show NC gr 
 gsave  2268 1538 0 0 C 974.206 117.296 t 0 r /Helvetica findfont 71.6807 sf 0 0 m (2.5) show NC gr 
 gsave  2268 1538 0 0 C 1238.12 117.296 t 0 r /Helvetica findfont 71.6807 sf 0 0 m (3) show NC gr 
 gsave  2268 1538 0 0 C 1443.39 117.296 t 0 r /Helvetica findfont 71.6807 sf 0 0 m (3.5) show NC gr 
 gsave  2268 1538 0 0 C 1707.3 117.296 t 0 r /Helvetica findfont 71.6807 sf 0 0 m (4) show NC gr 
 gsave  2268 1538 0 0 C 1912.57 117.296 t 0 r /Helvetica findfont 71.6807 sf 0 0 m (4.5) show NC gr 
 gsave  2268 1538 0 0 C 2179.74 117.296 t 0 r /Helvetica findfont 71.6807 sf 0 0 m (5) show NC gr  317 1507 m 1883 X s 317 1469 m 38 Y s 365 1488 m 19 Y s 412 1488 m 19 Y s 459 1488 m 19 Y s 506 1488 m 19 Y s 553 1469 m 38 Y s 600 1488 m 19 Y s 647
 1488 m 19 Y s 694 1488 m 19 Y s 741 1488 m 19 Y s 788 1469 m 38 Y s 835 1488 m 19 Y s 882 1488 m 19 Y s 929 1488 m 19 Y s 976 1488 m 19 Y s 1023 1469 m 38 Y s 1070 1488 m 19 Y s 1117 1488 m 19 Y s 1164 1488 m 19 Y s 1212 1488 m 19 Y s 1259 1469 m 38
 Y s 1306 1488 m 19 Y s 1353 1488 m 19 Y s 1400 1488 m 19 Y s 1447 1488 m 19 Y s 1494 1469 m 38 Y s 1541 1488 m 19 Y s 1588 1488 m 19 Y s 1635 1488 m 19 Y s 1682 1488 m 19 Y s 1729 1469 m 38 Y s 1776 1488 m 19 Y s 1823 1488 m 19 Y s 1870 1488 m 19 Y
 s 1917 1488 m 19 Y s 1964 1469 m 38 Y s 2011 1488 m 19 Y s 2059 1488 m 19 Y s 2106 1488 m 19 Y s 2153 1488 m 19 Y s 2200 1469 m 38 Y s 317 185 m 1322 Y s
 gsave  2268 1538 0 0 C 153.136 645.126 t 90 r /Helvetica findfont 71.6807 sf 0 0 m (Events / \( 0.142857 [GeV] \)) show NC gr  376 185 m -59 X s 347 236 m -30 X s 347 287 m -30 X s 347 339 m -30 X s 347 390 m -30 X s 376 442 m -59 X s 347 493 m -30
 X s 347 545 m -30 X s 347 596 m -30 X s 347 648 m -30 X s 376 699 m -59 X s 347 751 m -30 X s 347 802 m -30 X s 347 854 m -30 X s 347 905 m -30 X s 376 957 m -59 X s 347 1008 m -30 X s 347 1060 m -30 X s 347 1111 m -30 X s 347 1163 m -30 X s 376
 1214 m -59 X s 347 1266 m -30 X s 347 1317 m -30 X s 347 1368 m -30 X s 347 1420 m -30 X s 376 1471 m -59 X s 376 1471 m -59 X s
 gsave  2268 1538 0 0 C 263.915 159.652 t 0 r /Helvetica findfont 71.6807 sf 0 0 m (0) show NC gr 
 gsave  2268 1538 0 0 C 146.62 417.051 t 0 r /Helvetica findfont 71.6807 sf 0 0 m (1000) show NC gr 
 gsave  2268 1538 0 0 C 146.62 674.45 t 0 r /Helvetica findfont 71.6807 sf 0 0 m (2000) show NC gr 
 gsave  2268 1538 0 0 C 146.62 931.849 t 0 r /Helvetica findfont 71.6807 sf 0 0 m (3000) show NC gr 
 gsave  2268 1538 0 0 C 146.62 1189.25 t 0 r /Helvetica findfont 71.6807 sf 0 0 m (4000) show NC gr 
 gsave  2268 1538 0 0 C 146.62 1446.65 t 0 r /Helvetica findfont 71.6807 sf 0 0 m (5000) show NC gr  2200 185 m 1322 Y s 2141 185 m 59 X s 2170 236 m 30 X s 2170 287 m 30 X s 2170 339 m 30 X s 2170 390 m 30 X s 2141 442 m 59 X s 2170 493 m 30 X s
 2170 545 m 30 X s 2170 596 m 30 X s 2170 648 m 30 X s 2141 699 m 59 X s 2170 751 m 30 X s 2170 802 m 30 X s 2170 854 m 30 X s 2170 905 m 30 X s 2141 957 m 59 X s 2170 1008 m 30 X s 2170 1060 m 30 X s 2170 1111 m 30 X s 2170 1163 m 30 X s 2141 1214 m
 59 X s 2170 1266 m 30 X s 2170 1317 m 30 X s 2170 1368 m 30 X s 2170 1420 m 30 X s 2141 1471 m 59 X s 2141 1471 m 59 X s 351 185 m -34 X s 317 185 m 6 Y s 351 185 m 34 X s 385 185 m 6 Y s 351 185 m s 345 185 m 13 X s 418 185 m -33 X s 385 185 m 6 Y
 s 418 185 m 34 X s 452 185 m 6 Y s 418 185 m s 412 185 m 13 X s 486 185 m -34 X s 452 185 m 6 Y s 486 185 m 33 X s 519 185 m 6 Y s 486 185 m s 479 185 m 13 X s 553 185 m -34 X s 519 185 m 6 Y s 553 185 m 33 X s 586 185 m 6 Y s 553 185 m s 546 185 m
 13 X s 620 186 m -34 X s 586 185 m 8 Y s 620 186 m 34 X s 654 185 m 8 Y s 620 186 m 1 Y s 613 187 m 13 X s 620 186 m -1 Y s 613 185 m 13 X s 687 190 m -33 X s 654 185 m 12 Y s 687 190 m 34 X s 721 185 m 12 Y s 687 190 m 2 Y s 681 192 m 13 X s 687
 190 m -1 Y s 681 189 m 13 X s 754 211 m -33 X s 721 204 m 13 Y s 754 211 m 34 X s 788 204 m 13 Y s 754 211 m 3 Y s 748 214 m 13 X s 754 211 m -3 Y s 748 208 m 13 X s 822 236 m -34 X s 788 229 m 13 Y s 822 236 m 33 X s 855 229 m 13 Y s 822 236 m 3 Y
 s 815 239 m 13 X s 822 236 m -4 Y s 815 232 m 13 X s 889 257 m -34 X s 855 251 m 13 Y s 889 257 m 33 X s 922 251 m 13 Y s 889 257 m 5 Y s 882 262 m 13 X s 889 257 m -4 Y s 882 253 m 13 X s 956 281 m -34 X s 922 274 m 13 Y s 956 281 m 34 X s 990 274
 m 13 Y s 956 281 m 5 Y s 950 286 m 13 X s 956 281 m -5 Y s 950 276 m 13 X s 1023 324 m -33 X s 990 317 m 13 Y s 1023 324 m 34 X s 1057 317 m 13 Y s 1023 324 m 6 Y s 1017 330 m 13 X s 1023 324 m -6 Y s 1017 318 m 13 X s 1091 362 m -34 X s 1057 356 m
 13 Y s 1091 362 m 33 X s 1124 356 m 13 Y s 1091 362 m 7 Y s 1084 369 m 13 X s 1091 362 m -6 Y s 1084 356 m 13 X s 1158 530 m -34 X s 1124 523 m 13 Y s 1158 530 m 33 X s 1191 523 m 13 Y s 1158 530 m 9 Y s 1151 539 m 13 X s 1158 530 m -10 Y s 1151 520
 m 13 X s 1225 913 m -34 X s 1191 907 m 13 Y s 1225 913 m 34 X s 1259 907 m 13 Y s 1225 913 m 14 Y s 1218 927 m 13 X s 1225 913 m -13 Y s 1218 900 m 13 X s 1292 1426 m -33 X s 1259 1420 m 13 Y s 1292 1426 m 34 X s 1326 1420 m 13 Y s 1292 1426 m 18 Y
 s 1286 1444 m 13 X s 1292 1426 m -18 Y s 1286 1408 m 13 X s 1359 1269 m -33 X s 1326 1262 m 13 Y s 1359 1269 m 34 X s 1393 1262 m 13 Y s 1359 1269 m 16 Y s 1353 1285 m 13 X s 1359 1269 m -17 Y s 1353 1252 m 13 X s 1427 840 m -34 X s 1393 833 m 13 Y
 s 1427 840 m 33 X s 1460 833 m 13 Y s 1427 840 m 13 Y s 1420 853 m 13 X s 1427 840 m -13 Y s 1420 827 m 13 X s 1494 608 m -34 X s 1460 602 m 13 Y s 1494 608 m 33 X s 1527 602 m 13 Y s 1494 608 m 11 Y s 1487 619 m 13 X s 1494 608 m -10 Y s 1487 598 m
 13 X s 1561 539 m -34 X s 1527 533 m 13 Y s 1561 539 m 34 X s 1595 533 m 13 Y s 1561 539 m 10 Y s 1555 549 m 13 X s 1561 539 m -9 Y s 1555 530 m 13 X s 1628 453 m -33 X s 1595 447 m 13 Y s 1628 453 m 34 X s 1662 447 m 13 Y s 1628 453 m 9 Y s 1622
 462 m 13 X s 1628 453 m -8 Y s 1622 445 m 13 X s 1696 360 m -34 X s 1662 353 m 13 Y s 1696 360 m 33 X s 1729 353 m 13 Y s 1696 360 m 6 Y s 1689 366 m 13 X s 1696 360 m -7 Y s 1689 353 m 13 X s 1763 330 m -34 X s 1729 323 m 13 Y s 1763 330 m 33 X s
 1796 323 m 13 Y s 1763 330 m 6 Y s 1756 336 m 13 X s 1763 330 m -6 Y s 1756 324 m 13 X s 1830 305 m -34 X s 1796 298 m 13 Y s 1830 305 m 34 X s 1864 298 m 13 Y s 1830 305 m 5 Y s 1823 310 m 13 X s 1830 305 m -6 Y s 1823 299 m 13 X s 1897 293 m -33 X
 s 1864 286 m 13 Y s 1897 293 m 34 X s 1931 286 m 13 Y s 1897 293 m 5 Y s 1891 298 m 13 X s 1897 293 m -5 Y s 1891 288 m 13 X s 1964 282 m -33 X s 1931 275 m 13 Y s 1964 282 m 34 X s 1998 275 m 13 Y s 1964 282 m 5 Y s 1958 287 m 13 X s 1964 282 m -5
 Y s 1958 277 m 13 X s 2032 287 m -34 X s 1998 281 m 13 Y s 2032 287 m 33 X s 2065 281 m 13 Y s 2032 287 m 6 Y s 2025 293 m 13 X s 2032 287 m -5 Y s 2025 282 m 13 X s 2099 278 m -34 X s 2065 271 m 13 Y s 2099 278 m 33 X s 2132 271 m 13 Y s 2099 278 m
 5 Y s 2092 283 m 13 X s 2099 278 m -5 Y s 2092 273 m 13 X s 2166 304 m -34 X s 2132 297 m 13 Y s 2166 304 m 34 X s 2200 297 m 13 Y s 2166 304 m 6 Y s 2160 310 m 13 X s 2166 304 m -5 Y s 2160 299 m 13 X s /w 13 def /w2 {w 2 div} def /w3 {w 3 div} def
 351 185 418 185 486 185 553 185 620 186 687 190 754 211 822 236 889 257 956 281 1023 324 1091 362 1158 530 1225 913 1292 1426 1359 1269 1427 840 1494 608 1561 539 1628 453 1696 360 1763 330 1830 305 1897 293 1964 282 2032 287 2099 278 2166 304 28 {
 m20} R 0 0 1 c 9 lw black 0 0 1 c 317 185 m 132 X 19 1 d 19 X 19 1 d 19 X 18 1 d 19 1 d 19 1 d 19 1 d 19 2 d 18 1 d 19 2 d 19 3 d 19 2 d 19 3 d 19 3 d 18 3 d 19 4 d 19 4 d 19 5 d 19 4 d 18 6 d 19 5 d 19 6 d 19 7 d 19 7 d 19 8 d 18 8 d 19 10 d 19 10
 d 19 13 d 19 14 d 19 16 d 18 20 d 19 23 d 19 29 d 19 36 d 9 21 d 10 24 d 9 28 d 9 30 d 10 36 d 9 40 d 10 48 d 9 55 d 5 32 d 5 35 d 4 37 d 5 41 d 9 87 d 10 91 d 9 91 d 10 86 d 4 40 d 5 36 d 5 33 d 4 29 d 5 24 d 5 19 d 5 14 d 4 10 d 5 5 d 5 2 d 4 -2 d
 5 -6 d 5 -8 d 4 -11 d 10 -30 d 9 -37 d 10 -45 d 9 -51 d 10 -56 d 18 -124 d 19 -126 d 10 -59 d 9 -55 d 9 -49 d 10 -43 d 9 -37 d 10 -31 d 9 -25 d 9 -20 d 10 -16 d 9 -13 d 19 -19 d 19 -16 d 19 -17 d 19 -22 d 18 -26 d 19 -29 d 19 -30 d 19 -27 d 19 -23 d
 18 -20 d 19 -15 d 19 -10 d 19 -8 d 19 -6 d 19 -4 d 18 -3 d 19 -3 d 19 -3 d 19 -2 d 19 -2 d 19 -3 d 18 -2 d 19 -3 d 19 -2 d 19 -2 d 19 -3 d 18 -2 d 19 -3 d 19 -2 d 19 -3 d 19 -2 d 19 -3 d 18 -2 d 19 -3 d 19 -2 d 19 -2 d 19 -3 d s[  12 12 ] 0 sd black
 0 0 1 c 317 185 m 151 X 19 1 d 19 X 19 1 d 18 X 19 1 d 19 1 d 19 1 d 19 2 d 18 1 d 19 2 d 19 2 d 19 2 d 19 3 d 19 2 d 18 3 d 19 3 d 19 4 d 19 3 d 19 4 d 18 4 d 19 4 d 19 5 d 19 4 d 19 4 d 19 5 d 18 5 d 19 5 d 19 4 d 19 5 d 19 5 d 19 5 d 18 4 d 19 5
 d 19 4 d 19 5 d 19 4 d 18 4 d 19 4 d 19 3 d 19 4 d 19 3 d 19 3 d 18 3 d 19 2 d 19 3 d 19 2 d 19 2 d 19 2 d 18 1 d 19 1 d 19 1 d 19 1 d 19 1 d 75 X 19 -1 d 19 X 18 -1 d 19 -1 d 19 -1 d 19 -1 d 19 -2 d 18 -1 d 19 -2 d 19 -2 d 19 -1 d 19 -2 d 19 -2 d
 18 -2 d 19 -3 d 19 -2 d 19 -2 d 19 -2 d 19 -3 d 18 -2 d 19 -3 d 19 -2 d 19 -2 d 19 -3 d 18 -2 d 19 -3 d 19 -2 d 19 -3 d 19 -2 d 19 -3 d 18 -2 d 19 -3 d 19 -2 d 19 -2 d 19 -3 d s 0 1 0 c[  ] 0 sd black 0 1 0 c 317 185 m 810 X 19 1 d 75 X 19 1 d 19 X
 18 1 d 19 2 d 19 2 d 9 2 d 10 2 d 9 3 d 10 3 d 9 4 d 10 5 d 9 6 d 9 7 d 10 8 d 9 9 d 10 10 d 9 11 d 9 12 d 10 13 d 19 27 d 9 13 d 9 13 d 10 12 d 5 5 d 4 5 d 5 4 d 5 4 d 4 4 d 5 3 d 5 2 d 5 1 d 4 1 d 5 1 d 5 -1 d 4 -1 d 5 -1 d 5 -2 d 4 -3 d 5 -4 d 5
 -4 d 5 -4 d 4 -5 d 5 -5 d 9 -12 d 10 -13 d 9 -13 d 19 -27 d 9 -14 d 10 -12 d 9 -12 d 10 -10 d 9 -10 d 9 -8 d 10 -7 d 9 -6 d 10 -5 d 9 -4 d 10 -4 d 9 -2 d 9 -2 d 10 -2 d 19 -2 d 18 -1 d 19 -1 d 377 X s 1 0 0 c[  12 12 ] 0 sd black 1 0 0 c 317 185 m
 264 X 19 1 d 75 X 19 1 d 38 X 18 1 d 19 X 19 1 d 19 1 d 19 1 d 18 1 d 19 1 d 19 2 d 19 2 d 19 3 d 19 3 d 18 3 d 19 5 d 19 6 d 19 8 d 19 9 d 19 12 d 18 14 d 19 19 d 19 25 d 19 31 d 9 19 d 10 22 d 9 25 d 9 29 d 10 33 d 9 39 d 10 45 d 4 26 d 5 28 d 5
 31 d 5 33 d 4 37 d 5 40 d 9 85 d 10 89 d 9 89 d 10 85 d 4 39 d 5 35 d 5 32 d 4 27 d 5 23 d 5 19 d 5 13 d 4 9 d 5 4 d 5 X 4 -3 d 5 -7 d 5 -10 d 4 -12 d 5 -15 d 5 -18 d 9 -41 d 10 -49 d 9 -56 d 10 -62 d 9 -67 d 9 -71 d 19 -143 d 10 -70 d 9 -67 d 9 -61
 d 10 -57 d 9 -51 d 10 -45 d 9 -38 d 9 -33 d 10 -28 d 9 -23 d 10 -18 d 9 -15 d 10 -12 d 9 -9 d 19 -12 d 19 -7 d 18 -3 d 19 -2 d 19 -1 d 565 X s black[  ] 0 sd 3 lw 317 185 m 1883 X s 317 223 m -38 Y s 365 204 m -19 Y s 412 204 m -19 Y s 459 204 m -19
 Y s 506 204 m -19 Y s 553 223 m -38 Y s 600 204 m -19 Y s 647 204 m -19 Y s 694 204 m -19 Y s 741 204 m -19 Y s 788 223 m -38 Y s 835 204 m -19 Y s 882 204 m -19 Y s 929 204 m -19 Y s 976 204 m -19 Y s 1023 223 m -38 Y s 1070 204 m -19 Y s 1117 204
 m -19 Y s 1164 204 m -19 Y s 1212 204 m -19 Y s 1259 223 m -38 Y s 1306 204 m -19 Y s 1353 204 m -19 Y s 1400 204 m -19 Y s 1447 204 m -19 Y s 1494 223 m -38 Y s 1541 204 m -19 Y s 1588 204 m -19 Y s 1635 204 m -19 Y s 1682 204 m -19 Y s 1729 223 m
 -38 Y s 1776 204 m -19 Y s 1823 204 m -19 Y s 1870 204 m -19 Y s 1917 204 m -19 Y s 1964 223 m -38 Y s 2011 204 m -19 Y s 2059 204 m -19 Y s 2106 204 m -19 Y s 2153 204 m -19 Y s 2200 223 m -38 Y s 317 1507 m 1883 X s 317 1469 m 38 Y s 365 1488 m 19
 Y s 412 1488 m 19 Y s 459 1488 m 19 Y s 506 1488 m 19 Y s 553 1469 m 38 Y s 600 1488 m 19 Y s 647 1488 m 19 Y s 694 1488 m 19 Y s 741 1488 m 19 Y s 788 1469 m 38 Y s 835 1488 m 19 Y s 882 1488 m 19 Y s 929 1488 m 19 Y s 976 1488 m 19 Y s 1023 1469 m
 38 Y s 1070 1488 m 19 Y s 1117 1488 m 19 Y s 1164 1488 m 19 Y s 1212 1488 m 19 Y s 1259 1469 m 38 Y s 1306 1488 m 19 Y s 1353 1488 m 19 Y s 1400 1488 m 19 Y s 1447 1488 m 19 Y s 1494 1469 m 38 Y s 1541 1488 m 19 Y s 1588 1488 m 19 Y s 1635 1488 m 19
 Y s 1682 1488 m 19 Y s 1729 1469 m 38 Y s 1776 1488 m 19 Y s 1823 1488 m 19 Y s 1870 1488 m 19 Y s 1917 1488 m 19 Y s 1964 1469 m 38 Y s 2011 1488 m 19 Y s 2059 1488 m 19 Y s 2106 1488 m 19 Y s 2153 1488 m 19 Y s 2200 1469 m 38 Y s 317 185 m 1322 Y
 s 376 185 m -59 X s 347 236 m -30 X s 347 287 m -30 X s 347 339 m -30 X s 347 390 m -30 X s 376 442 m -59 X s 347 493 m -30 X s 347 545 m -30 X s 347 596 m -30 X s 347 648 m -30 X s 376 699 m -59 X s 347 751 m -30 X s 347 802 m -30 X s 347 854 m -30
 X s 347 905 m -30 X s 376 957 m -59 X s 347 1008 m -30 X s 347 1060 m -30 X s 347 1111 m -30 X s 347 1163 m -30 X s 376 1214 m -59 X s 347 1266 m -30 X s 347 1317 m -30 X s 347 1368 m -30 X s 347 1420 m -30 X s 376 1471 m -59 X s 376 1471 m -59 X s
 2200 185 m 1322 Y s 2141 185 m 59 X s 2170 236 m 30 X s 2170 287 m 30 X s 2170 339 m 30 X s 2170 390 m 30 X s 2141 442 m 59 X s 2170 493 m 30 X s 2170 545 m 30 X s 2170 596 m 30 X s 2170 648 m 30 X s 2141 699 m 59 X s 2170 751 m 30 X s 2170 802 m 30
 X s 2170 854 m 30 X s 2170 905 m 30 X s 2141 957 m 59 X s 2170 1008 m 30 X s 2170 1060 m 30 X s 2170 1111 m 30 X s 2170 1163 m 30 X s 2141 1214 m 59 X s 2170 1266 m 30 X s 2170 1317 m 30 X s 2170 1368 m 30 X s 2170 1420 m 30 X s 2141 1471 m 59 X s
 2141 1471 m 59 X s
 gsave  2268 1538 0 0 C 1700.79 1303.29 t 0 r /Helvetica-Bold findfont 58.6478 sf 0 0 m (data) show NC gr  1604 1326 m 80 X s
 gsave  2268 1538 0 0 C 1749.66 1185.99 t 0 r /Symbol findfont 58.6478 sf 0 0 m (Y) show NC gr 
 gsave  2268 1538 0 0 C 1700.79 1185.99 t 0 r /Helvetica-Bold findfont 58.6478 sf 0 0 m (J/) show NC gr  1 0 0 c[  12 12 ] 0 sd 9 lw 1604 1211 m 80 X s black
 gsave  2268 1538 0 0 C 1743.14 1042.63 t 0 r /Helvetica-Bold findfont 39.0986 sf 0 0 m (2s) show NC gr 
 gsave  2268 1538 0 0 C 1700.79 1071.95 t 0 r /Symbol findfont 58.6478 sf 0 0 m (y) show NC gr  0 1 0 c[  ] 0 sd 1604 1096 m 80 X s black
 gsave  2268 1538 0 0 C 1700.79 954.656 t 0 r /Helvetica-Bold findfont 58.6478 sf 0 0 m (background) show NC gr  0 0 1 c[  12 12 ] 0 sd 1604 980 m 80 X s
 gr  gr showpage
end
%%EOF
