%!PS-Adobe-2.0 EPSF-2.0
%%BoundingBox:  0 0 567 384
%%Title: OSMass_jpsi_z_tagAndProbe_mass_Et_5_10_Eta_0_247.root.eps: c1
%%Creator: ROOT Version 5.34/14
%%CreationDate: Tue Aug 26 19:19:04 2014
%%EndComments
%%BeginProlog
80 dict begin
/s {stroke} def /l {lineto} def /m {moveto} def /t {translate} def
/r {rotate} def /rl {roll}  def /R {repeat} def
/d {rlineto} def /rm {rmoveto} def /gr {grestore} def /f {eofill} def
/c {setrgbcolor} def /black {0 setgray} def /sd {setdash} def
/cl {closepath} def /sf {scalefont setfont} def /lw {setlinewidth} def
/box {m dup 0 exch d exch 0 d 0 exch neg d cl} def
/NC{systemdict begin initclip end}def/C{NC box clip newpath}def
/bl {box s} def /bf {box f} def /Y { 0 exch d} def /X { 0 d} def 
/K {{pop pop 0 moveto} exch kshow} bind def
/ita {/ang 15 def gsave [1 0 ang dup sin exch cos div 1 0 0] concat} def 
/mp {newpath /y exch def /x exch def} def
/side {[w .77 mul w .23 mul] .385 w mul sd w 0 l currentpoint t -144 r} def
/mr {mp x y w2 0 360 arc} def /m24 {mr s} def /m20 {mr f} def
/mb {mp x y w2 add m w2 neg 0 d 0 w neg d w 0 d 0 w d cl} def
/mt {mp x y w2 add m w2 neg w neg d w 0 d cl} def
/m21 {mb f} def /m25 {mb s} def /m22 {mt f} def /m26{mt s} def
/m23 {mp x y w2 sub m w2 w d w neg 0 d cl f} def
/m27 {mp x y w2 add m w3 neg w2 neg d w3 w2 neg d w3 w2 d cl s} def
/m28 {mp x w2 sub y w2 sub w3 add m w3 0 d  0 w3 neg d w3 0 d 0 w3 d w3 0 d  0 w3 d w3 neg 0 d 0 w3 d w3 neg 0 d 0 w3 neg d w3 neg 0 d cl s } def
/m29 {mp gsave x w2 sub y w2 add w3 sub m currentpoint t 4 {side} repeat cl fill gr} def
/m30 {mp gsave x w2 sub y w2 add w3 sub m currentpoint t 4 {side} repeat cl s gr} def
/m31 {mp x y w2 sub m 0 w d x w2 sub y m w 0 d x w2 sub y w2 add m w w neg d x w2 sub y w2 sub m w w d s} def
/m32 {mp x y w2 sub m w2 w d w neg 0 d cl s} def
/m33 {mp x y w2 add m w3 neg w2 neg d w3 w2 neg d w3 w2 d cl f} def
/m34 {mp x w2 sub y w2 sub w3 add m w3 0 d  0 w3 neg d w3 0 d 0 w3 d w3 0 d  0 w3 d w3 neg 0 d 0 w3 d w3 neg 0 d 0 w3 neg d w3 neg 0 d cl f } def
/m2 {mp x y w2 sub m 0 w d x w2 sub y m w 0 d s} def
/m5 {mp x w2 sub y w2 sub m w w d x w2 sub y w2 add m w w neg d s} def
/reEncode {exch findfont dup length dict begin {1 index /FID eq  {pop pop} {def} ifelse } forall /Encoding exch def currentdict end dup /FontName get exch definefont pop } def [/Times-Bold /Times-Italic /Times-BoldItalic /Helvetica /Helvetica-Oblique
 /Helvetica-Bold /Helvetica-BoldOblique /Courier /Courier-Oblique /Courier-Bold /Courier-BoldOblique /Times-Roman /AvantGarde-Book /AvantGarde-BookOblique /AvantGarde-Demi /AvantGarde-DemiOblique /Bookman-Demi /Bookman-DemiItalic /Bookman-Light
 /Bookman-LightItalic /Helvetica-Narrow /Helvetica-Narrow-Bold /Helvetica-Narrow-BoldOblique /Helvetica-Narrow-Oblique /NewCenturySchlbk-Roman /NewCenturySchlbk-Bold /NewCenturySchlbk-BoldItalic /NewCenturySchlbk-Italic /Palatino-Bold
 /Palatino-BoldItalic /Palatino-Italic /Palatino-Roman ] {ISOLatin1Encoding reEncode } forall
%%EndProlog
%%BeginSetup
%%EndSetup
newpath  gsave  .25 .25 scale  gsave  0 0 t black[  ] 0 sd 3 lw 1 1 1 c 2268 1538 0 0 bf black 1 1 1 c 1883 1322 317 185 bf black 1883 1322 317 185 bl 317 185 m 1883 X s
 gsave  2268 1538 0 0 C 1782.24 39.0986 t 0 r /Helvetica findfont 71.6807 sf 0 0 m (Mass \([GeV]\)) show NC gr  317 223 m -38 Y s 365 204 m -19 Y s 412 204 m -19 Y s 459 204 m -19 Y s 506 204 m -19 Y s 553 223 m -38 Y s 600 204 m -19 Y s 647 204 m
 -19 Y s 694 204 m -19 Y s 741 204 m -19 Y s 788 223 m -38 Y s 835 204 m -19 Y s 882 204 m -19 Y s 929 204 m -19 Y s 976 204 m -19 Y s 1023 223 m -38 Y s 1070 204 m -19 Y s 1117 204 m -19 Y s 1164 204 m -19 Y s 1212 204 m -19 Y s 1259 223 m -38 Y s
 1306 204 m -19 Y s 1353 204 m -19 Y s 1400 204 m -19 Y s 1447 204 m -19 Y s 1494 223 m -38 Y s 1541 204 m -19 Y s 1588 204 m -19 Y s 1635 204 m -19 Y s 1682 204 m -19 Y s 1729 223 m -38 Y s 1776 204 m -19 Y s 1823 204 m -19 Y s 1870 204 m -19 Y s
 1917 204 m -19 Y s 1964 223 m -38 Y s 2011 204 m -19 Y s 2059 204 m -19 Y s 2106 204 m -19 Y s 2153 204 m -19 Y s 2200 223 m -38 Y s
 gsave  2268 1538 0 0 C 303.014 117.296 t 0 r /Helvetica findfont 71.6807 sf 0 0 m (1) show NC gr 
 gsave  2268 1538 0 0 C 501.765 117.296 t 0 r /Helvetica findfont 71.6807 sf 0 0 m (1.5) show NC gr 
 gsave  2268 1538 0 0 C 765.68 117.296 t 0 r /Helvetica findfont 71.6807 sf 0 0 m (2) show NC gr 
 gsave  2268 1538 0 0 C 974.206 117.296 t 0 r /Helvetica findfont 71.6807 sf 0 0 m (2.5) show NC gr 
 gsave  2268 1538 0 0 C 1238.12 117.296 t 0 r /Helvetica findfont 71.6807 sf 0 0 m (3) show NC gr 
 gsave  2268 1538 0 0 C 1443.39 117.296 t 0 r /Helvetica findfont 71.6807 sf 0 0 m (3.5) show NC gr 
 gsave  2268 1538 0 0 C 1707.3 117.296 t 0 r /Helvetica findfont 71.6807 sf 0 0 m (4) show NC gr 
 gsave  2268 1538 0 0 C 1912.57 117.296 t 0 r /Helvetica findfont 71.6807 sf 0 0 m (4.5) show NC gr 
 gsave  2268 1538 0 0 C 2179.74 117.296 t 0 r /Helvetica findfont 71.6807 sf 0 0 m (5) show NC gr  317 1507 m 1883 X s 317 1469 m 38 Y s 365 1488 m 19 Y s 412 1488 m 19 Y s 459 1488 m 19 Y s 506 1488 m 19 Y s 553 1469 m 38 Y s 600 1488 m 19 Y s 647
 1488 m 19 Y s 694 1488 m 19 Y s 741 1488 m 19 Y s 788 1469 m 38 Y s 835 1488 m 19 Y s 882 1488 m 19 Y s 929 1488 m 19 Y s 976 1488 m 19 Y s 1023 1469 m 38 Y s 1070 1488 m 19 Y s 1117 1488 m 19 Y s 1164 1488 m 19 Y s 1212 1488 m 19 Y s 1259 1469 m 38
 Y s 1306 1488 m 19 Y s 1353 1488 m 19 Y s 1400 1488 m 19 Y s 1447 1488 m 19 Y s 1494 1469 m 38 Y s 1541 1488 m 19 Y s 1588 1488 m 19 Y s 1635 1488 m 19 Y s 1682 1488 m 19 Y s 1729 1469 m 38 Y s 1776 1488 m 19 Y s 1823 1488 m 19 Y s 1870 1488 m 19 Y
 s 1917 1488 m 19 Y s 1964 1469 m 38 Y s 2011 1488 m 19 Y s 2059 1488 m 19 Y s 2106 1488 m 19 Y s 2153 1488 m 19 Y s 2200 1469 m 38 Y s 317 185 m 1322 Y s
 gsave  2268 1538 0 0 C 153.136 645.126 t 90 r /Helvetica findfont 71.6807 sf 0 0 m (Events / \( 0.142857 [GeV] \)) show NC gr  376 185 m -59 X s 347 229 m -30 X s 347 273 m -30 X s 347 317 m -30 X s 347 361 m -30 X s 376 405 m -59 X s 347 449 m -30
 X s 347 493 m -30 X s 347 538 m -30 X s 347 582 m -30 X s 376 626 m -59 X s 347 670 m -30 X s 347 714 m -30 X s 347 758 m -30 X s 347 802 m -30 X s 376 846 m -59 X s 347 891 m -30 X s 347 935 m -30 X s 347 979 m -30 X s 347 1023 m -30 X s 376 1067 m
 -59 X s 347 1111 m -30 X s 347 1155 m -30 X s 347 1199 m -30 X s 347 1244 m -30 X s 376 1288 m -59 X s 376 1288 m -59 X s 347 1332 m -30 X s 347 1376 m -30 X s 347 1420 m -30 X s 347 1464 m -30 X s
 gsave  2268 1538 0 0 C 263.915 159.652 t 0 r /Helvetica findfont 71.6807 sf 0 0 m (0) show NC gr 
 gsave  2268 1538 0 0 C 185.718 381.211 t 0 r /Helvetica findfont 71.6807 sf 0 0 m (500) show NC gr 
 gsave  2268 1538 0 0 C 146.62 602.769 t 0 r /Helvetica findfont 71.6807 sf 0 0 m (1000) show NC gr 
 gsave  2268 1538 0 0 C 146.62 821.07 t 0 r /Helvetica findfont 71.6807 sf 0 0 m (1500) show NC gr 
 gsave  2268 1538 0 0 C 146.62 1042.63 t 0 r /Helvetica findfont 71.6807 sf 0 0 m (2000) show NC gr 
 gsave  2268 1538 0 0 C 146.62 1264.19 t 0 r /Helvetica findfont 71.6807 sf 0 0 m (2500) show NC gr  2200 185 m 1322 Y s 2141 185 m 59 X s 2170 229 m 30 X s 2170 273 m 30 X s 2170 317 m 30 X s 2170 361 m 30 X s 2141 405 m 59 X s 2170 449 m 30 X s
 2170 493 m 30 X s 2170 538 m 30 X s 2170 582 m 30 X s 2141 626 m 59 X s 2170 670 m 30 X s 2170 714 m 30 X s 2170 758 m 30 X s 2170 802 m 30 X s 2141 846 m 59 X s 2170 891 m 30 X s 2170 935 m 30 X s 2170 979 m 30 X s 2170 1023 m 30 X s 2141 1067 m 59
 X s 2170 1111 m 30 X s 2170 1155 m 30 X s 2170 1199 m 30 X s 2170 1244 m 30 X s 2141 1288 m 59 X s 2141 1288 m 59 X s 2170 1332 m 30 X s 2170 1376 m 30 X s 2170 1420 m 30 X s 2170 1464 m 30 X s 351 185 m -34 X s 317 185 m 6 Y s 351 185 m 34 X s 385
 185 m 6 Y s 351 185 m s 345 185 m 13 X s 486 191 m -34 X s 452 185 m 13 Y s 486 191 m 33 X s 519 185 m 13 Y s 486 191 m 2 Y s 479 193 m 13 X s 486 191 m -2 Y s 479 189 m 13 X s 553 194 m -34 X s 519 188 m 13 Y s 553 194 m 33 X s 586 188 m 13 Y s 553
 194 m 3 Y s 546 197 m 13 X s 553 194 m -2 Y s 546 192 m 13 X s 620 213 m -34 X s 586 206 m 13 Y s 620 213 m 34 X s 654 206 m 13 Y s 620 213 m 4 Y s 613 217 m 13 X s 620 213 m -4 Y s 613 209 m 13 X s 687 266 m -33 X s 654 259 m 13 Y s 687 266 m 34 X
 s 721 259 m 13 Y s 687 266 m 6 Y s 681 272 m 13 X s 687 266 m -6 Y s 681 260 m 13 X s 754 279 m -33 X s 721 272 m 13 Y s 754 279 m 34 X s 788 272 m 13 Y s 754 279 m 7 Y s 748 286 m 13 X s 754 279 m -6 Y s 748 273 m 13 X s 822 328 m -34 X s 788 322 m
 13 Y s 822 328 m 33 X s 855 322 m 13 Y s 822 328 m 9 Y s 815 337 m 13 X s 822 328 m -7 Y s 815 321 m 13 X s 889 327 m -34 X s 855 321 m 13 Y s 889 327 m 33 X s 922 321 m 13 Y s 889 327 m 8 Y s 882 335 m 13 X s 889 327 m -8 Y s 882 319 m 13 X s 956
 459 m -34 X s 922 453 m 13 Y s 956 459 m 34 X s 990 453 m 13 Y s 956 459 m 12 Y s 950 471 m 13 X s 956 459 m -10 Y s 950 449 m 13 X s 1023 652 m -33 X s 990 645 m 13 Y s 1023 652 m 34 X s 1057 645 m 13 Y s 1023 652 m 14 Y s 1017 666 m 13 X s 1023
 652 m -14 Y s 1017 638 m 13 X s 1091 966 m -34 X s 1057 960 m 13 Y s 1091 966 m 33 X s 1124 960 m 13 Y s 1091 966 m 19 Y s 1084 985 m 13 X s 1091 966 m -18 Y s 1084 948 m 13 X s 1158 1289 m -34 X s 1124 1283 m 13 Y s 1158 1289 m 33 X s 1191 1283 m
 13 Y s 1158 1289 m 22 Y s 1151 1311 m 13 X s 1158 1289 m -22 Y s 1151 1267 m 13 X s 1225 1367 m -34 X s 1191 1361 m 13 Y s 1225 1367 m 34 X s 1259 1361 m 13 Y s 1225 1367 m 23 Y s 1218 1390 m 13 X s 1225 1367 m -22 Y s 1218 1345 m 13 X s 1292 1413 m
 -33 X s 1259 1406 m 13 Y s 1292 1413 m 34 X s 1326 1406 m 13 Y s 1292 1413 m 23 Y s 1286 1436 m 13 X s 1292 1413 m -23 Y s 1286 1390 m 13 X s 1359 1136 m -33 X s 1326 1129 m 13 Y s 1359 1136 m 34 X s 1393 1129 m 13 Y s 1359 1136 m 21 Y s 1353 1157 m
 13 X s 1359 1136 m -20 Y s 1353 1116 m 13 X s 1427 779 m -34 X s 1393 772 m 13 Y s 1427 779 m 33 X s 1460 772 m 13 Y s 1427 779 m 16 Y s 1420 795 m 13 X s 1427 779 m -16 Y s 1420 763 m 13 X s 1494 564 m -34 X s 1460 557 m 13 Y s 1494 564 m 33 X s
 1527 557 m 13 Y s 1494 564 m 13 Y s 1487 577 m 13 X s 1494 564 m -13 Y s 1487 551 m 13 X s 1561 485 m -34 X s 1527 479 m 13 Y s 1561 485 m 34 X s 1595 479 m 13 Y s 1561 485 m 12 Y s 1555 497 m 13 X s 1561 485 m -11 Y s 1555 474 m 13 X s 1628 392 m
 -33 X s 1595 385 m 13 Y s 1628 392 m 34 X s 1662 385 m 13 Y s 1628 392 m 10 Y s 1622 402 m 13 X s 1628 392 m -9 Y s 1622 383 m 13 X s 1696 358 m -34 X s 1662 351 m 13 Y s 1696 358 m 33 X s 1729 351 m 13 Y s 1696 358 m 9 Y s 1689 367 m 13 X s 1696
 358 m -9 Y s 1689 349 m 13 X s 1763 325 m -34 X s 1729 319 m 13 Y s 1763 325 m 33 X s 1796 319 m 13 Y s 1763 325 m 8 Y s 1756 333 m 13 X s 1763 325 m -7 Y s 1756 318 m 13 X s 1830 345 m -34 X s 1796 339 m 13 Y s 1830 345 m 34 X s 1864 339 m 13 Y s
 1830 345 m 9 Y s 1823 354 m 13 X s 1830 345 m -8 Y s 1823 337 m 13 X s 1897 335 m -33 X s 1864 328 m 13 Y s 1897 335 m 34 X s 1931 328 m 13 Y s 1897 335 m 8 Y s 1891 343 m 13 X s 1897 335 m -8 Y s 1891 327 m 13 X s 1964 304 m -33 X s 1931 297 m 13 Y
 s 1964 304 m 34 X s 1998 297 m 13 Y s 1964 304 m 7 Y s 1958 311 m 13 X s 1964 304 m -7 Y s 1958 297 m 13 X s 2032 297 m -34 X s 1998 291 m 13 Y s 2032 297 m 33 X s 2065 291 m 13 Y s 2032 297 m 7 Y s 2025 304 m 13 X s 2032 297 m -7 Y s 2025 290 m 13
 X s 2099 283 m -34 X s 2065 277 m 13 Y s 2099 283 m 33 X s 2132 277 m 13 Y s 2099 283 m 7 Y s 2092 290 m 13 X s 2099 283 m -6 Y s 2092 277 m 13 X s 2166 293 m -34 X s 2132 287 m 13 Y s 2166 293 m 34 X s 2200 287 m 13 Y s 2166 293 m 7 Y s 2160 300 m
 13 X s 2166 293 m -7 Y s 2160 286 m 13 X s /w 13 def /w2 {w 2 div} def /w3 {w 3 div} def 351 185 m20 486 191 553 194 620 213 687 266 754 279 822 328 889 327 956 459 1023 652 1091 966 1158 1289 1225 1367 1292 1413 1359 1136 1427 779 1494 564 1561 485
 1628 392 1696 358 1763 325 1830 345 1897 335 1964 304 2032 297 2099 283 2166 293 26 { m20} R 0 0 1 c 9 lw black 0 0 1 c 317 185 m 38 X 19 1 d 19 1 d 19 1 d 18 1 d 19 2 d 19 2 d 19 2 d 19 3 d 19 3 d 18 4 d 19 4 d 19 4 d 19 5 d 19 6 d 18 5 d 19 6 d 19
 7 d 19 7 d 19 7 d 19 8 d 18 8 d 19 9 d 19 9 d 19 9 d 19 11 d 18 12 d 19 14 d 19 15 d 19 19 d 19 23 d 19 28 d 18 35 d 19 43 d 19 53 d 19 62 d 19 71 d 19 79 d 18 87 d 19 92 d 19 95 d 19 93 d 19 87 d 9 41 d 9 37 d 10 34 d 9 31 d 10 26 d 9 21 d 10 17 d
 9 11 d 9 7 d 10 1 d 9 -4 d 10 -9 d 9 -14 d 9 -18 d 10 -23 d 9 -27 d 10 -30 d 9 -33 d 19 -75 d 19 -81 d 19 -85 d 18 -84 d 19 -82 d 19 -77 d 19 -71 d 19 -63 d 18 -56 d 19 -48 d 19 -41 d 19 -34 d 19 -28 d 19 -23 d 18 -19 d 19 -15 d 19 -13 d 19 -10 d 19
 -8 d 18 -7 d 19 -5 d 19 -5 d 19 -5 d 19 -4 d 19 -4 d 18 -3 d 19 -4 d 19 -3 d 19 -4 d 19 -3 d 19 -3 d 18 -4 d 19 -3 d 19 -3 d 19 -3 d 19 -3 d 18 -3 d 19 -3 d 19 -3 d 19 -3 d 19 -3 d 19 -3 d 18 -3 d 19 -3 d 19 -3 d 19 -2 d 19 -3 d s[  12 12 ] 0 sd
 black 0 0 1 c 317 185 m 38 X 19 1 d 19 1 d 19 1 d 18 1 d 19 2 d 19 1 d 19 3 d 19 2 d 19 4 d 18 3 d 19 4 d 19 4 d 19 5 d 19 5 d 18 5 d 19 6 d 19 6 d 19 6 d 19 7 d 19 6 d 18 7 d 19 7 d 19 7 d 19 7 d 19 7 d 18 7 d 19 7 d 19 7 d 19 7 d 19 6 d 19 7 d 18
 6 d 19 6 d 19 5 d 19 6 d 19 5 d 19 4 d 18 5 d 19 4 d 19 3 d 19 4 d 19 3 d 18 3 d 19 2 d 19 2 d 19 2 d 19 1 d 19 1 d 18 1 d 76 X 19 -1 d 18 -1 d 19 -1 d 19 -1 d 19 -2 d 19 -1 d 18 -2 d 19 -2 d 19 -2 d 19 -3 d 19 -2 d 19 -3 d 18 -3 d 19 -2 d 19 -3 d
 19 -3 d 19 -3 d 18 -3 d 19 -4 d 19 -3 d 19 -3 d 19 -3 d 19 -4 d 18 -3 d 19 -3 d 19 -3 d 19 -4 d 19 -3 d 19 -3 d 18 -4 d 19 -3 d 19 -3 d 19 -3 d 19 -3 d 18 -3 d 19 -3 d 19 -3 d 19 -3 d 19 -3 d 19 -3 d 18 -3 d 19 -3 d 19 -3 d 19 -2 d 19 -3 d s 1 0 0 c
 black 1 0 0 c 317 185 m 226 X 19 1 d 57 X 18 1 d 19 X 19 1 d 19 X 19 1 d 19 1 d 18 1 d 19 2 d 19 2 d 19 3 d 19 3 d 18 5 d 19 7 d 19 9 d 19 12 d 19 16 d 19 21 d 18 29 d 10 18 d 9 20 d 10 23 d 9 24 d 9 27 d 10 30 d 9 31 d 10 35 d 9 36 d 10 38 d 18 83
 d 19 88 d 19 91 d 19 89 d 19 85 d 9 39 d 9 36 d 10 33 d 9 29 d 10 25 d 9 21 d 10 16 d 9 10 d 9 6 d 10 1 d 9 -5 d 10 -9 d 9 -14 d 9 -19 d 10 -23 d 9 -27 d 10 -31 d 9 -33 d 9 -36 d 10 -38 d 19 -81 d 19 -84 d 18 -84 d 19 -81 d 19 -75 d 19 -69 d 19 -62
 d 18 -54 d 19 -46 d 19 -39 d 19 -32 d 19 -25 d 19 -21 d 18 -16 d 19 -12 d 19 -10 d 19 -7 d 19 -5 d 18 -4 d 19 -2 d 19 -2 d 19 -1 d 19 -1 d 19 -1 d 414 X s black[  ] 0 sd 3 lw 317 185 m 1883 X s 317 223 m -38 Y s 365 204 m -19 Y s 412 204 m -19 Y s
 459 204 m -19 Y s 506 204 m -19 Y s 553 223 m -38 Y s 600 204 m -19 Y s 647 204 m -19 Y s 694 204 m -19 Y s 741 204 m -19 Y s 788 223 m -38 Y s 835 204 m -19 Y s 882 204 m -19 Y s 929 204 m -19 Y s 976 204 m -19 Y s 1023 223 m -38 Y s 1070 204 m -19
 Y s 1117 204 m -19 Y s 1164 204 m -19 Y s 1212 204 m -19 Y s 1259 223 m -38 Y s 1306 204 m -19 Y s 1353 204 m -19 Y s 1400 204 m -19 Y s 1447 204 m -19 Y s 1494 223 m -38 Y s 1541 204 m -19 Y s 1588 204 m -19 Y s 1635 204 m -19 Y s 1682 204 m -19 Y
 s 1729 223 m -38 Y s 1776 204 m -19 Y s 1823 204 m -19 Y s 1870 204 m -19 Y s 1917 204 m -19 Y s 1964 223 m -38 Y s 2011 204 m -19 Y s 2059 204 m -19 Y s 2106 204 m -19 Y s 2153 204 m -19 Y s 2200 223 m -38 Y s 317 1507 m 1883 X s 317 1469 m 38 Y s
 365 1488 m 19 Y s 412 1488 m 19 Y s 459 1488 m 19 Y s 506 1488 m 19 Y s 553 1469 m 38 Y s 600 1488 m 19 Y s 647 1488 m 19 Y s 694 1488 m 19 Y s 741 1488 m 19 Y s 788 1469 m 38 Y s 835 1488 m 19 Y s 882 1488 m 19 Y s 929 1488 m 19 Y s 976 1488 m 19 Y
 s 1023 1469 m 38 Y s 1070 1488 m 19 Y s 1117 1488 m 19 Y s 1164 1488 m 19 Y s 1212 1488 m 19 Y s 1259 1469 m 38 Y s 1306 1488 m 19 Y s 1353 1488 m 19 Y s 1400 1488 m 19 Y s 1447 1488 m 19 Y s 1494 1469 m 38 Y s 1541 1488 m 19 Y s 1588 1488 m 19 Y s
 1635 1488 m 19 Y s 1682 1488 m 19 Y s 1729 1469 m 38 Y s 1776 1488 m 19 Y s 1823 1488 m 19 Y s 1870 1488 m 19 Y s 1917 1488 m 19 Y s 1964 1469 m 38 Y s 2011 1488 m 19 Y s 2059 1488 m 19 Y s 2106 1488 m 19 Y s 2153 1488 m 19 Y s 2200 1469 m 38 Y s
 317 185 m 1322 Y s 376 185 m -59 X s 347 229 m -30 X s 347 273 m -30 X s 347 317 m -30 X s 347 361 m -30 X s 376 405 m -59 X s 347 449 m -30 X s 347 493 m -30 X s 347 538 m -30 X s 347 582 m -30 X s 376 626 m -59 X s 347 670 m -30 X s 347 714 m -30
 X s 347 758 m -30 X s 347 802 m -30 X s 376 846 m -59 X s 347 891 m -30 X s 347 935 m -30 X s 347 979 m -30 X s 347 1023 m -30 X s 376 1067 m -59 X s 347 1111 m -30 X s 347 1155 m -30 X s 347 1199 m -30 X s 347 1244 m -30 X s 376 1288 m -59 X s 376
 1288 m -59 X s 347 1332 m -30 X s 347 1376 m -30 X s 347 1420 m -30 X s 347 1464 m -30 X s 2200 185 m 1322 Y s 2141 185 m 59 X s 2170 229 m 30 X s 2170 273 m 30 X s 2170 317 m 30 X s 2170 361 m 30 X s 2141 405 m 59 X s 2170 449 m 30 X s 2170 493 m
 30 X s 2170 538 m 30 X s 2170 582 m 30 X s 2141 626 m 59 X s 2170 670 m 30 X s 2170 714 m 30 X s 2170 758 m 30 X s 2170 802 m 30 X s 2141 846 m 59 X s 2170 891 m 30 X s 2170 935 m 30 X s 2170 979 m 30 X s 2170 1023 m 30 X s 2141 1067 m 59 X s 2170
 1111 m 30 X s 2170 1155 m 30 X s 2170 1199 m 30 X s 2170 1244 m 30 X s 2141 1288 m 59 X s 2141 1288 m 59 X s 2170 1332 m 30 X s 2170 1376 m 30 X s 2170 1420 m 30 X s 2170 1464 m 30 X s
 gsave  2268 1538 0 0 C 1700.79 1303.29 t 0 r /Helvetica-Bold findfont 58.6478 sf 0 0 m (data) show NC gr  1604 1326 m 80 X s
 gsave  2268 1538 0 0 C 1749.66 1185.99 t 0 r /Symbol findfont 58.6478 sf 0 0 m (Y) show NC gr 
 gsave  2268 1538 0 0 C 1700.79 1185.99 t 0 r /Helvetica-Bold findfont 58.6478 sf 0 0 m (J/) show NC gr  1 0 0 c[  12 12 ] 0 sd 9 lw 1604 1211 m 80 X s black
 gsave  2268 1538 0 0 C 1743.14 1042.63 t 0 r /Helvetica-Bold findfont 39.0986 sf 0 0 m (2s) show NC gr 
 gsave  2268 1538 0 0 C 1700.79 1071.95 t 0 r /Symbol findfont 58.6478 sf 0 0 m (y) show NC gr [  ] 0 sd 3 lw 1604 1096 m 80 X s
 gsave  2268 1538 0 0 C 1700.79 954.656 t 0 r /Helvetica-Bold findfont 58.6478 sf 0 0 m (background) show NC gr  0 0 1 c[  12 12 ] 0 sd 9 lw 1604 980 m 80 X s
 gr  gr showpage
end
%%EOF
