%!PS-Adobe-2.0
%%Title: : c1
%%Creator: ROOT Version 5.34/14
%%CreationDate: Wed Jul 23 17:05:00 2014
%%Orientation: Landscape
%%EndComments
%%BeginProlog
/s {stroke} def /l {lineto} def /m {moveto} def /t {translate} def
/r {rotate} def /rl {roll}  def /R {repeat} def
/d {rlineto} def /rm {rmoveto} def /gr {grestore} def /f {eofill} def
/c {setrgbcolor} def /black {0 setgray} def /sd {setdash} def
/cl {closepath} def /sf {scalefont setfont} def /lw {setlinewidth} def
/box {m dup 0 exch d exch 0 d 0 exch neg d cl} def
/NC{systemdict begin initclip end}def/C{NC box clip newpath}def
/bl {box s} def /bf {box f} def /Y { 0 exch d} def /X { 0 d} def 
/K {{pop pop 0 moveto} exch kshow} bind def
/ita {/ang 15 def gsave [1 0 ang dup sin exch cos div 1 0 0] concat} def 
/mp {newpath /y exch def /x exch def} def
/side {[w .77 mul w .23 mul] .385 w mul sd w 0 l currentpoint t -144 r} def
/mr {mp x y w2 0 360 arc} def /m24 {mr s} def /m20 {mr f} def
/mb {mp x y w2 add m w2 neg 0 d 0 w neg d w 0 d 0 w d cl} def
/mt {mp x y w2 add m w2 neg w neg d w 0 d cl} def
/m21 {mb f} def /m25 {mb s} def /m22 {mt f} def /m26{mt s} def
/m23 {mp x y w2 sub m w2 w d w neg 0 d cl f} def
/m27 {mp x y w2 add m w3 neg w2 neg d w3 w2 neg d w3 w2 d cl s} def
/m28 {mp x w2 sub y w2 sub w3 add m w3 0 d  0 w3 neg d w3 0 d 0 w3 d w3 0 d  0 w3 d w3 neg 0 d 0 w3 d w3 neg 0 d 0 w3 neg d w3 neg 0 d cl s } def
/m29 {mp gsave x w2 sub y w2 add w3 sub m currentpoint t 4 {side} repeat cl fill gr} def
/m30 {mp gsave x w2 sub y w2 add w3 sub m currentpoint t 4 {side} repeat cl s gr} def
/m31 {mp x y w2 sub m 0 w d x w2 sub y m w 0 d x w2 sub y w2 add m w w neg d x w2 sub y w2 sub m w w d s} def
/m32 {mp x y w2 sub m w2 w d w neg 0 d cl s} def
/m33 {mp x y w2 add m w3 neg w2 neg d w3 w2 neg d w3 w2 d cl f} def
/m34 {mp x w2 sub y w2 sub w3 add m w3 0 d  0 w3 neg d w3 0 d 0 w3 d w3 0 d  0 w3 d w3 neg 0 d 0 w3 d w3 neg 0 d 0 w3 neg d w3 neg 0 d cl f } def
/m2 {mp x y w2 sub m 0 w d x w2 sub y m w 0 d s} def
/m5 {mp x w2 sub y w2 sub m w w d x w2 sub y w2 add m w w neg d s} def
/reEncode {exch findfont dup length dict begin {1 index /FID eq  {pop pop} {def} ifelse } forall /Encoding exch def currentdict end dup /FontName get exch definefont pop } def [/Times-Bold /Times-Italic /Times-BoldItalic /Helvetica /Helvetica-Oblique
 /Helvetica-Bold /Helvetica-BoldOblique /Courier /Courier-Oblique /Courier-Bold /Courier-BoldOblique /Times-Roman /AvantGarde-Book /AvantGarde-BookOblique /AvantGarde-Demi /AvantGarde-DemiOblique /Bookman-Demi /Bookman-DemiItalic /Bookman-Light
 /Bookman-LightItalic /Helvetica-Narrow /Helvetica-Narrow-Bold /Helvetica-Narrow-BoldOblique /Helvetica-Narrow-Oblique /NewCenturySchlbk-Roman /NewCenturySchlbk-Bold /NewCenturySchlbk-BoldItalic /NewCenturySchlbk-Italic /Palatino-Bold
 /Palatino-BoldItalic /Palatino-Italic /Palatino-Roman ] {ISOLatin1Encoding reEncode } forall/Zone {/iy exch def /ix exch def  ix 1 sub  3144 mul  1 iy sub  2224 mul t} def
%%EndProlog
%%BeginSetup
%%EndSetup
newpath  gsave  90 r 0 -594 t  28 20 t .25 .25 scale  gsave 
%%Page: 1 1
 gsave  gsave 
 1 1 Zone
 gsave  0 0 t black[  ] 0 sd 3 lw 1 1 1 c 2948 1999 0 0 bf black 1 1 1 c 2447 1719 413 240 bf black 2447 1719 413 240 bl 1 1 1 c 2447 1719 413 240 bf black 2447 1719 413 240 bl 0 0 0.6 c 6 lw 1 1 1 c black 0 0 0.6 c 444 1959 m 126 X 57 1 d 5 -1 d 39
 -6 d 24 -6 d 51 -13 d 12 -4 d 41 -17 d 22 -10 d 40 -22 d 18 -14 d 4 -3 d 31 -30 d 11 -14 d 10 -16 d 9 -19 d 2 -4 d 20 -49 d 10 -29 d 8 -29 d 8 -32 d 7 -30 d 5 -33 d 5 -28 d 4 -32 d 4 -37 d 5 -47 d 4 -56 d 6 -71 d 11 -171 d 7 -98 d 5 -67 d 5 -60 d 4
 -42 d 4 -34 d 3 -31 d 7 -40 d 6 -37 d 8 -37 d 8 -33 d 9 -34 d 13 -40 d 12 -31 d 10 -22 d 9 -16 d 12 -16 d 32 -29 d 20 -17 d 31 -20 d 12 -6 d 28 -12 d 34 -12 d 55 -14 d 8 -1 d 63 -12 d 63 -10 d 62 -7 d 63 -6 d 63 -5 d 63 -3 d 62 -5 d 63 -3 d 63 -3 d
 63 -2 d 62 -2 d 63 -2 d 63 -2 d 63 -2 d 62 -2 d 63 -1 d 63 -1 d 63 -1 d 62 -1 d 63 -2 d 63 -1 d 62 -1 d 63 -1 d s black 3 lw 413 240 m 2447 X s
 gsave  2948 1999 0 0 C 1342.71 50.8281 t 0 r /Helvetica findfont 93.1849 sf 0 0 m (pseudo\255proper time rejection cut \(ps\)) show NC gr  413 290 m -50 Y s 532 265 m -25 Y s 652 265 m -25 Y s 771 265 m -25 Y s 891 265 m -25 Y s 1010 290 m -50 Y s
 1130 265 m -25 Y s 1249 265 m -25 Y s 1369 265 m -25 Y s 1488 265 m -25 Y s 1608 290 m -50 Y s 1727 265 m -25 Y s 1847 265 m -25 Y s 1966 265 m -25 Y s 2086 265 m -25 Y s 2205 290 m -50 Y s 2325 265 m -25 Y s 2444 265 m -25 Y s 2564 265 m -25 Y s
 2683 265 m -25 Y s 2803 290 m -50 Y s 2803 290 m -50 Y s
 gsave  2948 1999 0 0 C 330.383 152.484 t 0 r /Helvetica findfont 93.1849 sf 0 0 m (\2550.5) show NC gr 
 gsave  2948 1999 0 0 C 982.677 152.484 t 0 r /Helvetica findfont 93.1849 sf 0 0 m (0) show NC gr 
 gsave  2948 1999 0 0 C 1541.79 152.484 t 0 r /Helvetica findfont 93.1849 sf 0 0 m (0.5) show NC gr 
 gsave  2948 1999 0 0 C 2185.61 152.484 t 0 r /Helvetica findfont 93.1849 sf 0 0 m (1) show NC gr 
 gsave  2948 1999 0 0 C 2736.25 152.484 t 0 r /Helvetica findfont 93.1849 sf 0 0 m (1.5) show NC gr  413 1959 m 2447 X s 413 1909 m 50 Y s 532 1934 m 25 Y s 652 1934 m 25 Y s 771 1934 m 25 Y s 891 1934 m 25 Y s 1010 1909 m 50 Y s 1130 1934 m 25 Y s
 1249 1934 m 25 Y s 1369 1934 m 25 Y s 1488 1934 m 25 Y s 1608 1909 m 50 Y s 1727 1934 m 25 Y s 1847 1934 m 25 Y s 1966 1934 m 25 Y s 2086 1934 m 25 Y s 2205 1909 m 50 Y s 2325 1934 m 25 Y s 2444 1934 m 25 Y s 2564 1934 m 25 Y s 2683 1934 m 25 Y s
 2803 1909 m 50 Y s 2803 1909 m 50 Y s 413 240 m 1719 Y s
 gsave  2948 1999 0 0 C 199.077 1562.96 t 90 r /Helvetica findfont 93.1849 sf 0 0 m (Efficiency) show NC gr  489 240 m -76 X s 451 274 m -38 X s 451 309 m -38 X s 451 343 m -38 X s 451 377 m -38 X s 489 412 m -76 X s 451 446 m -38 X s 451 481 m -38 X
 s 451 515 m -38 X s 451 549 m -38 X s 489 584 m -76 X s 451 618 m -38 X s 451 653 m -38 X s 451 687 m -38 X s 451 721 m -38 X s 489 756 m -76 X s 451 790 m -38 X s 451 824 m -38 X s 451 859 m -38 X s 451 893 m -38 X s 489 928 m -76 X s 451 962 m -38
 X s 451 996 m -38 X s 451 1031 m -38 X s 451 1065 m -38 X s 489 1100 m -76 X s 451 1134 m -38 X s 451 1168 m -38 X s 451 1203 m -38 X s 451 1237 m -38 X s 489 1272 m -76 X s 451 1306 m -38 X s 451 1340 m -38 X s 451 1375 m -38 X s 451 1409 m -38 X s
 489 1443 m -76 X s 451 1478 m -38 X s 451 1512 m -38 X s 451 1547 m -38 X s 451 1581 m -38 X s 489 1615 m -76 X s 451 1650 m -38 X s 451 1684 m -38 X s 451 1719 m -38 X s 451 1753 m -38 X s 489 1787 m -76 X s 451 1822 m -38 X s 451 1856 m -38 X s
 451 1890 m -38 X s 451 1925 m -38 X s 489 1959 m -76 X s
 gsave  2948 1999 0 0 C 343.09 207.548 t 0 r /Helvetica findfont 93.1849 sf 0 0 m (0) show NC gr 
 gsave  2948 1999 0 0 C 279.555 381.211 t 0 r /Helvetica findfont 93.1849 sf 0 0 m (0.1) show NC gr 
 gsave  2948 1999 0 0 C 266.848 550.638 t 0 r /Helvetica findfont 93.1849 sf 0 0 m (0.2) show NC gr 
 gsave  2948 1999 0 0 C 266.848 724.301 t 0 r /Helvetica findfont 93.1849 sf 0 0 m (0.3) show NC gr 
 gsave  2948 1999 0 0 C 266.848 897.964 t 0 r /Helvetica findfont 93.1849 sf 0 0 m (0.4) show NC gr 
 gsave  2948 1999 0 0 C 266.848 1067.39 t 0 r /Helvetica findfont 93.1849 sf 0 0 m (0.5) show NC gr 
 gsave  2948 1999 0 0 C 266.848 1241.05 t 0 r /Helvetica findfont 93.1849 sf 0 0 m (0.6) show NC gr 
 gsave  2948 1999 0 0 C 266.848 1410.48 t 0 r /Helvetica findfont 93.1849 sf 0 0 m (0.7) show NC gr 
 gsave  2948 1999 0 0 C 266.848 1584.14 t 0 r /Helvetica findfont 93.1849 sf 0 0 m (0.8) show NC gr 
 gsave  2948 1999 0 0 C 266.848 1753.57 t 0 r /Helvetica findfont 93.1849 sf 0 0 m (0.9) show NC gr 
 gsave  2948 1999 0 0 C 360.033 1923 t 0 r /Helvetica findfont 93.1849 sf 0 0 m (1) show NC gr  2860 240 m 1719 Y s 2784 240 m 76 X s 2822 274 m 38 X s 2822 309 m 38 X s 2822 343 m 38 X s 2822 377 m 38 X s 2784 412 m 76 X s 2822 446 m 38 X s 2822 481
 m 38 X s 2822 515 m 38 X s 2822 549 m 38 X s 2784 584 m 76 X s 2822 618 m 38 X s 2822 653 m 38 X s 2822 687 m 38 X s 2822 721 m 38 X s 2784 756 m 76 X s 2822 790 m 38 X s 2822 824 m 38 X s 2822 859 m 38 X s 2822 893 m 38 X s 2784 928 m 76 X s 2822
 962 m 38 X s 2822 996 m 38 X s 2822 1031 m 38 X s 2822 1065 m 38 X s 2784 1100 m 76 X s 2822 1134 m 38 X s 2822 1168 m 38 X s 2822 1203 m 38 X s 2822 1237 m 38 X s 2784 1272 m 76 X s 2822 1306 m 38 X s 2822 1340 m 38 X s 2822 1375 m 38 X s 2822 1409
 m 38 X s 2784 1443 m 76 X s 2822 1478 m 38 X s 2822 1512 m 38 X s 2822 1547 m 38 X s 2822 1581 m 38 X s 2784 1615 m 76 X s 2822 1650 m 38 X s 2822 1684 m 38 X s 2822 1719 m 38 X s 2822 1753 m 38 X s 2784 1787 m 76 X s 2822 1822 m 38 X s 2822 1856 m
 38 X s 2822 1890 m 38 X s 2822 1925 m 38 X s 2784 1959 m 76 X s 0.8 0 0 c 6 lw 1 1 1 c black 0.8 0 0 c 444 1959 m 188 X 63 -5 d 63 -7 d 63 -9 d 51 -11 d 11 -3 d 44 -15 d 19 -9 d 34 -18 d 16 -13 d 13 -15 d 14 -22 d 16 -30 d 24 -53 d 8 -21 d 63 -172 d
 31 -79 d 32 -75 d 31 -69 d 32 -66 d 33 -64 d 29 -53 d 37 -61 d 26 -40 d 41 -60 d 22 -29 d 45 -58 d 18 -21 d 46 -53 d 16 -17 d 51 -50 d 12 -11 d 55 -47 d 8 -7 d 63 -48 d 62 -42 d 63 -37 d 63 -34 d 63 -30 d 62 -27 d 63 -24 d 63 -21 d 63 -19 d 62 -18 d
 63 -15 d 63 -13 d 63 -11 d 62 -11 d 63 -9 d 63 -8 d 62 -8 d 63 -6 d s black
 gsave  2948 1999 0 0 C 1804.4 1418.95 t 0 r /Helvetica-Bold findfont 84.7135 sf 0 0 m (prompt) show NC gr  0 0 0.6 c 1649 1474 m 129 X s black
 gsave  2948 1999 0 0 C 1804.4 1169.05 t 0 r /Helvetica-Bold findfont 84.7135 sf 0 0 m (non\255prompt) show NC gr  0.8 0 0 c 1649 1225 m 129 X s gr showpage
 gr 
%%Trailer
%%Pages:  1
 gr  gr  gr 
%%EOF
