%!PS-Adobe-2.0 EPSF-2.0
%%BoundingBox:  0 0 567 384
%%Title: : c1
%%Creator: ROOT Version 5.34/14
%%CreationDate: Wed Jul 23 17:53:19 2014
%%EndComments
%%BeginProlog
80 dict begin
/s {stroke} def /l {lineto} def /m {moveto} def /t {translate} def
/r {rotate} def /rl {roll}  def /R {repeat} def
/d {rlineto} def /rm {rmoveto} def /gr {grestore} def /f {eofill} def
/c {setrgbcolor} def /black {0 setgray} def /sd {setdash} def
/cl {closepath} def /sf {scalefont setfont} def /lw {setlinewidth} def
/box {m dup 0 exch d exch 0 d 0 exch neg d cl} def
/NC{systemdict begin initclip end}def/C{NC box clip newpath}def
/bl {box s} def /bf {box f} def /Y { 0 exch d} def /X { 0 d} def 
/K {{pop pop 0 moveto} exch kshow} bind def
/ita {/ang 15 def gsave [1 0 ang dup sin exch cos div 1 0 0] concat} def 
/mp {newpath /y exch def /x exch def} def
/side {[w .77 mul w .23 mul] .385 w mul sd w 0 l currentpoint t -144 r} def
/mr {mp x y w2 0 360 arc} def /m24 {mr s} def /m20 {mr f} def
/mb {mp x y w2 add m w2 neg 0 d 0 w neg d w 0 d 0 w d cl} def
/mt {mp x y w2 add m w2 neg w neg d w 0 d cl} def
/m21 {mb f} def /m25 {mb s} def /m22 {mt f} def /m26{mt s} def
/m23 {mp x y w2 sub m w2 w d w neg 0 d cl f} def
/m27 {mp x y w2 add m w3 neg w2 neg d w3 w2 neg d w3 w2 d cl s} def
/m28 {mp x w2 sub y w2 sub w3 add m w3 0 d  0 w3 neg d w3 0 d 0 w3 d w3 0 d  0 w3 d w3 neg 0 d 0 w3 d w3 neg 0 d 0 w3 neg d w3 neg 0 d cl s } def
/m29 {mp gsave x w2 sub y w2 add w3 sub m currentpoint t 4 {side} repeat cl fill gr} def
/m30 {mp gsave x w2 sub y w2 add w3 sub m currentpoint t 4 {side} repeat cl s gr} def
/m31 {mp x y w2 sub m 0 w d x w2 sub y m w 0 d x w2 sub y w2 add m w w neg d x w2 sub y w2 sub m w w d s} def
/m32 {mp x y w2 sub m w2 w d w neg 0 d cl s} def
/m33 {mp x y w2 add m w3 neg w2 neg d w3 w2 neg d w3 w2 d cl f} def
/m34 {mp x w2 sub y w2 sub w3 add m w3 0 d  0 w3 neg d w3 0 d 0 w3 d w3 0 d  0 w3 d w3 neg 0 d 0 w3 d w3 neg 0 d 0 w3 neg d w3 neg 0 d cl f } def
/m2 {mp x y w2 sub m 0 w d x w2 sub y m w 0 d s} def
/m5 {mp x w2 sub y w2 sub m w w d x w2 sub y w2 add m w w neg d s} def
/reEncode {exch findfont dup length dict begin {1 index /FID eq  {pop pop} {def} ifelse } forall /Encoding exch def currentdict end dup /FontName get exch definefont pop } def [/Times-Bold /Times-Italic /Times-BoldItalic /Helvetica /Helvetica-Oblique
 /Helvetica-Bold /Helvetica-BoldOblique /Courier /Courier-Oblique /Courier-Bold /Courier-BoldOblique /Times-Roman /AvantGarde-Book /AvantGarde-BookOblique /AvantGarde-Demi /AvantGarde-DemiOblique /Bookman-Demi /Bookman-DemiItalic /Bookman-Light
 /Bookman-LightItalic /Helvetica-Narrow /Helvetica-Narrow-Bold /Helvetica-Narrow-BoldOblique /Helvetica-Narrow-Oblique /NewCenturySchlbk-Roman /NewCenturySchlbk-Bold /NewCenturySchlbk-BoldItalic /NewCenturySchlbk-Italic /Palatino-Bold
 /Palatino-BoldItalic /Palatino-Italic /Palatino-Roman ] {ISOLatin1Encoding reEncode } forall
%%EndProlog
%%BeginSetup
%%EndSetup
newpath  gsave  .25 .25 scale  gsave  0 0 t black[  ] 0 sd 3 lw 1 1 1 c 2268 1538 0 0 bf black 1 1 1 c 1883 1322 317 185 bf black 1883 1322 317 185 bl 1 1 1 c 1883 1322 317 185 bf black 1883 1322 317 185 bl 0 0 0.6 c 6 lw 1 1 1 c black 0 0 0.6 c 342
 1507 m 144 X 30 -5 d 19 -4 d 39 -10 d 9 -3 d 32 -13 d 16 -8 d 31 -17 d 14 -11 d 3 -2 d 24 -23 d 9 -11 d 7 -12 d 8 -15 d 1 -3 d 15 -38 d 8 -22 d 6 -22 d 6 -25 d 5 -23 d 5 -25 d 3 -22 d 3 -24 d 3 -29 d 4 -36 d 3 -43 d 5 -55 d 8 -131 d 5 -75 d 4 -52 d
 4 -46 d 3 -32 d 3 -27 d 3 -24 d 5 -30 d 5 -29 d 6 -28 d 6 -26 d 7 -26 d 10 -30 d 9 -25 d 8 -17 d 7 -12 d 9 -12 d 25 -23 d 15 -13 d 24 -15 d 9 -4 d 22 -10 d 26 -9 d 42 -11 d 7 -1 d 48 -8 d 48 -8 d 48 -6 d 49 -4 d 48 -4 d 48 -3 d 48 -4 d 49 -2 d 48 -2
 d 48 -2 d 48 -1 d 49 -2 d 48 -1 d 48 -2 d 48 -1 d 49 -1 d 48 -1 d 48 -1 d 49 X 48 -2 d 48 -1 d 48 X 49 -1 d s black 3 lw 317 185 m 1883 X s
 gsave  2268 1538 0 0 C 1032.85 39.0986 t 0 r /Helvetica findfont 71.6807 sf 0 0 m (pseudo\255proper time rejection cut \(ps\)) show NC gr  317 223 m -38 Y s 409 204 m -19 Y s 501 204 m -19 Y s 593 204 m -19 Y s 685 204 m -19 Y s 777 223 m -38 Y s
 869 204 m -19 Y s 961 204 m -19 Y s 1053 204 m -19 Y s 1145 204 m -19 Y s 1237 223 m -38 Y s 1329 204 m -19 Y s 1421 204 m -19 Y s 1513 204 m -19 Y s 1604 204 m -19 Y s 1696 223 m -38 Y s 1788 204 m -19 Y s 1880 204 m -19 Y s 1972 204 m -19 Y s 2064
 204 m -19 Y s 2156 223 m -38 Y s 2156 223 m -38 Y s
 gsave  2268 1538 0 0 C 254.141 117.296 t 0 r /Helvetica findfont 71.6807 sf 0 0 m (\2550.5) show NC gr 
 gsave  2268 1538 0 0 C 755.906 117.296 t 0 r /Helvetica findfont 71.6807 sf 0 0 m (0) show NC gr 
 gsave  2268 1538 0 0 C 1185.99 117.296 t 0 r /Helvetica findfont 71.6807 sf 0 0 m (0.5) show NC gr 
 gsave  2268 1538 0 0 C 1681.24 117.296 t 0 r /Helvetica findfont 71.6807 sf 0 0 m (1) show NC gr 
 gsave  2268 1538 0 0 C 2104.81 117.296 t 0 r /Helvetica findfont 71.6807 sf 0 0 m (1.5) show NC gr  317 1507 m 1883 X s 317 1469 m 38 Y s 409 1488 m 19 Y s 501 1488 m 19 Y s 593 1488 m 19 Y s 685 1488 m 19 Y s 777 1469 m 38 Y s 869 1488 m 19 Y s 961
 1488 m 19 Y s 1053 1488 m 19 Y s 1145 1488 m 19 Y s 1237 1469 m 38 Y s 1329 1488 m 19 Y s 1421 1488 m 19 Y s 1513 1488 m 19 Y s 1604 1488 m 19 Y s 1696 1469 m 38 Y s 1788 1488 m 19 Y s 1880 1488 m 19 Y s 1972 1488 m 19 Y s 2064 1488 m 19 Y s 2156
 1469 m 38 Y s 2156 1469 m 38 Y s 317 185 m 1322 Y s
 gsave  2268 1538 0 0 C 153.136 997.013 t 90 r /Helvetica findfont 71.6807 sf 0 0 m (Efficiency/Purity) show NC gr  376 185 m -59 X s 347 211 m -30 X s 347 237 m -30 X s 347 264 m -30 X s 347 290 m -30 X s 376 317 m -59 X s 347 343 m -30 X s 347 370
 m -30 X s 347 396 m -30 X s 347 423 m -30 X s 376 449 m -59 X s 347 476 m -30 X s 347 502 m -30 X s 347 528 m -30 X s 347 555 m -30 X s 376 581 m -59 X s 347 608 m -30 X s 347 634 m -30 X s 347 661 m -30 X s 347 687 m -30 X s 376 714 m -59 X s 347
 740 m -30 X s 347 766 m -30 X s 347 793 m -30 X s 347 819 m -30 X s 376 846 m -59 X s 347 872 m -30 X s 347 899 m -30 X s 347 925 m -30 X s 347 952 m -30 X s 376 978 m -59 X s 347 1005 m -30 X s 347 1031 m -30 X s 347 1057 m -30 X s 347 1084 m -30 X
 s 376 1110 m -59 X s 347 1137 m -30 X s 347 1163 m -30 X s 347 1190 m -30 X s 347 1216 m -30 X s 376 1243 m -59 X s 347 1269 m -30 X s 347 1296 m -30 X s 347 1322 m -30 X s 347 1348 m -30 X s 376 1375 m -59 X s 347 1401 m -30 X s 347 1428 m -30 X s
 347 1454 m -30 X s 347 1481 m -30 X s 376 1507 m -59 X s
 gsave  2268 1538 0 0 C 263.915 159.652 t 0 r /Helvetica findfont 71.6807 sf 0 0 m (0) show NC gr 
 gsave  2268 1538 0 0 C 215.042 293.239 t 0 r /Helvetica findfont 71.6807 sf 0 0 m (0.1) show NC gr 
 gsave  2268 1538 0 0 C 205.267 423.568 t 0 r /Helvetica findfont 71.6807 sf 0 0 m (0.2) show NC gr 
 gsave  2268 1538 0 0 C 205.267 557.154 t 0 r /Helvetica findfont 71.6807 sf 0 0 m (0.3) show NC gr 
 gsave  2268 1538 0 0 C 205.267 690.741 t 0 r /Helvetica findfont 71.6807 sf 0 0 m (0.4) show NC gr 
 gsave  2268 1538 0 0 C 205.267 821.07 t 0 r /Helvetica findfont 71.6807 sf 0 0 m (0.5) show NC gr 
 gsave  2268 1538 0 0 C 205.267 954.656 t 0 r /Helvetica findfont 71.6807 sf 0 0 m (0.6) show NC gr 
 gsave  2268 1538 0 0 C 205.267 1084.98 t 0 r /Helvetica findfont 71.6807 sf 0 0 m (0.7) show NC gr 
 gsave  2268 1538 0 0 C 205.267 1218.57 t 0 r /Helvetica findfont 71.6807 sf 0 0 m (0.8) show NC gr 
 gsave  2268 1538 0 0 C 205.267 1348.9 t 0 r /Helvetica findfont 71.6807 sf 0 0 m (0.9) show NC gr 
 gsave  2268 1538 0 0 C 276.948 1479.23 t 0 r /Helvetica findfont 71.6807 sf 0 0 m (1) show NC gr  2200 185 m 1322 Y s 2141 185 m 59 X s 2170 211 m 30 X s 2170 237 m 30 X s 2170 264 m 30 X s 2170 290 m 30 X s 2141 317 m 59 X s 2170 343 m 30 X s 2170
 370 m 30 X s 2170 396 m 30 X s 2170 423 m 30 X s 2141 449 m 59 X s 2170 476 m 30 X s 2170 502 m 30 X s 2170 528 m 30 X s 2170 555 m 30 X s 2141 581 m 59 X s 2170 608 m 30 X s 2170 634 m 30 X s 2170 661 m 30 X s 2170 687 m 30 X s 2141 714 m 59 X s
 2170 740 m 30 X s 2170 766 m 30 X s 2170 793 m 30 X s 2170 819 m 30 X s 2141 846 m 59 X s 2170 872 m 30 X s 2170 899 m 30 X s 2170 925 m 30 X s 2170 952 m 30 X s 2141 978 m 59 X s 2170 1005 m 30 X s 2170 1031 m 30 X s 2170 1057 m 30 X s 2170 1084 m
 30 X s 2141 1110 m 59 X s 2170 1137 m 30 X s 2170 1163 m 30 X s 2170 1190 m 30 X s 2170 1216 m 30 X s 2141 1243 m 59 X s 2170 1269 m 30 X s 2170 1296 m 30 X s 2170 1322 m 30 X s 2170 1348 m 30 X s 2141 1375 m 59 X s 2170 1401 m 30 X s 2170 1428 m 30
 X s 2170 1454 m 30 X s 2170 1481 m 30 X s 2141 1507 m 59 X s 0.8 0 0 c 6 lw 1 1 1 c black 0.8 0 0 c 342 1507 m 144 X 49 -4 d 48 -5 d 48 -7 d 40 -9 d 8 -2 d 34 -11 d 15 -7 d 26 -14 d 12 -10 d 10 -12 d 11 -17 d 12 -23 d 18 -41 d 7 -16 d 48 -132 d 24
 -61 d 25 -58 d 24 -53 d 24 -50 d 26 -50 d 22 -40 d 29 -47 d 20 -31 d 31 -46 d 17 -23 d 34 -44 d 14 -17 d 36 -40 d 12 -13 d 40 -39 d 9 -8 d 41 -37 d 7 -5 d 48 -36 d 48 -33 d 49 -29 d 48 -26 d 48 -23 d 48 -20 d 49 -18 d 48 -17 d 48 -15 d 48 -13 d 49
 -12 d 48 -10 d 48 -9 d 49 -8 d 48 -7 d 48 -6 d 48 -6 d 49 -5 d s 0 0.8 0 c 1 1 1 c black 0 0.8 0 c 342 843 m 48 1 d 48 1 d 48 1 d 49 1 d 48 2 d 48 4 d 39 3 d 9 2 d 31 5 d 9 3 d 9 5 d 26 14 d 6 5 d 5 6 d 4 6 d 4 7 d 3 6 d 3 8 d 3 9 d 3 11 d 3 14 d 4
 16 d 4 20 d 4 27 d 8 49 d 4 22 d 4 18 d 3 14 d 3 11 d 2 9 d 6 19 d 6 17 d 7 17 d 6 15 d 8 15 d 6 12 d 7 11 d 2 4 d 6 7 d 7 7 d 6 6 d 8 5 d 22 11 d 11 5 d 13 4 d 20 4 d 4 1 d 16 2 d 18 1 d 14 X 26 -1 d 23 -2 d 48 -7 d 45 -6 d 3 -1 d 39 -8 d 9 -2 d 42
 -10 d 7 -2 d 39 -11 d 9 -3 d 48 -16 d 37 -10 d 11 -3 d 49 -19 d 48 -19 d 48 -19 d 48 -21 d 42 -20 d 7 -4 d 48 -24 d 48 -22 d 48 -25 d 49 -25 d 48 -27 d 48 -25 d 49 -27 d 19 -9 d 29 -13 d 48 -25 d 48 -23 d 49 -22 d s black
 gsave  2268 1538 0 0 C 1322.83 1039.37 t 0 r /Helvetica-Bold findfont 52.1314 sf 0 0 m (prompt eff) show NC gr  0 0 0.6 c 1204 1067 m 99 X s black
 gsave  2268 1538 0 0 C 1322.83 912.3 t 0 r /Helvetica-Bold findfont 52.1314 sf 0 0 m (non\255prompt eff) show NC gr  0.8 0 0 c 1204 938 m 99 X s black
 gsave  2268 1538 0 0 C 1322.83 781.971 t 0 r /Helvetica-Bold findfont 52.1314 sf 0 0 m (non\255prompt pur) show NC gr  0 0.8 0 c 1204 810 m 99 X s black[ 4 8] 0 sd 1017 189 m 1114 Y -1114 Y cl s
 gr  gr showpage
end
%%EOF
