%!PS-Adobe-2.0 EPSF-2.0
%%BoundingBox:  0 0 567 384
%%Title: : c1
%%Creator: ROOT Version 5.34/14
%%CreationDate: Wed Jul 23 15:58:40 2014
%%EndComments
%%BeginProlog
80 dict begin
/s {stroke} def /l {lineto} def /m {moveto} def /t {translate} def
/r {rotate} def /rl {roll}  def /R {repeat} def
/d {rlineto} def /rm {rmoveto} def /gr {grestore} def /f {eofill} def
/c {setrgbcolor} def /black {0 setgray} def /sd {setdash} def
/cl {closepath} def /sf {scalefont setfont} def /lw {setlinewidth} def
/box {m dup 0 exch d exch 0 d 0 exch neg d cl} def
/NC{systemdict begin initclip end}def/C{NC box clip newpath}def
/bl {box s} def /bf {box f} def /Y { 0 exch d} def /X { 0 d} def 
/K {{pop pop 0 moveto} exch kshow} bind def
/ita {/ang 15 def gsave [1 0 ang dup sin exch cos div 1 0 0] concat} def 
/mp {newpath /y exch def /x exch def} def
/side {[w .77 mul w .23 mul] .385 w mul sd w 0 l currentpoint t -144 r} def
/mr {mp x y w2 0 360 arc} def /m24 {mr s} def /m20 {mr f} def
/mb {mp x y w2 add m w2 neg 0 d 0 w neg d w 0 d 0 w d cl} def
/mt {mp x y w2 add m w2 neg w neg d w 0 d cl} def
/m21 {mb f} def /m25 {mb s} def /m22 {mt f} def /m26{mt s} def
/m23 {mp x y w2 sub m w2 w d w neg 0 d cl f} def
/m27 {mp x y w2 add m w3 neg w2 neg d w3 w2 neg d w3 w2 d cl s} def
/m28 {mp x w2 sub y w2 sub w3 add m w3 0 d  0 w3 neg d w3 0 d 0 w3 d w3 0 d  0 w3 d w3 neg 0 d 0 w3 d w3 neg 0 d 0 w3 neg d w3 neg 0 d cl s } def
/m29 {mp gsave x w2 sub y w2 add w3 sub m currentpoint t 4 {side} repeat cl fill gr} def
/m30 {mp gsave x w2 sub y w2 add w3 sub m currentpoint t 4 {side} repeat cl s gr} def
/m31 {mp x y w2 sub m 0 w d x w2 sub y m w 0 d x w2 sub y w2 add m w w neg d x w2 sub y w2 sub m w w d s} def
/m32 {mp x y w2 sub m w2 w d w neg 0 d cl s} def
/m33 {mp x y w2 add m w3 neg w2 neg d w3 w2 neg d w3 w2 d cl f} def
/m34 {mp x w2 sub y w2 sub w3 add m w3 0 d  0 w3 neg d w3 0 d 0 w3 d w3 0 d  0 w3 d w3 neg 0 d 0 w3 d w3 neg 0 d 0 w3 neg d w3 neg 0 d cl f } def
/m2 {mp x y w2 sub m 0 w d x w2 sub y m w 0 d s} def
/m5 {mp x w2 sub y w2 sub m w w d x w2 sub y w2 add m w w neg d s} def
/reEncode {exch findfont dup length dict begin {1 index /FID eq  {pop pop} {def} ifelse } forall /Encoding exch def currentdict end dup /FontName get exch definefont pop } def [/Times-Bold /Times-Italic /Times-BoldItalic /Helvetica /Helvetica-Oblique
 /Helvetica-Bold /Helvetica-BoldOblique /Courier /Courier-Oblique /Courier-Bold /Courier-BoldOblique /Times-Roman /AvantGarde-Book /AvantGarde-BookOblique /AvantGarde-Demi /AvantGarde-DemiOblique /Bookman-Demi /Bookman-DemiItalic /Bookman-Light
 /Bookman-LightItalic /Helvetica-Narrow /Helvetica-Narrow-Bold /Helvetica-Narrow-BoldOblique /Helvetica-Narrow-Oblique /NewCenturySchlbk-Roman /NewCenturySchlbk-Bold /NewCenturySchlbk-BoldItalic /NewCenturySchlbk-Italic /Palatino-Bold
 /Palatino-BoldItalic /Palatino-Italic /Palatino-Roman ] {ISOLatin1Encoding reEncode } forall
%%EndProlog
%%BeginSetup
%%EndSetup
newpath  gsave  .25 .25 scale  gsave  0 0 t black[  ] 0 sd 3 lw 1 1 1 c 2268 1538 0 0 bf black 1 1 1 c 1883 1322 317 185 bf black 1883 1322 317 185 bl 1 1 1 c 1883 1322 317 185 bf black 1883 1322 317 185 bl 317 185 m 1883 X s
 gsave  2268 1538 0 0 C 1436.87 39.0986 t 0 r /Helvetica findfont 71.6807 sf 0 0 m (pseudo\255proper time \(ps\)) show NC gr  317 223 m -38 Y s 409 204 m -19 Y s 501 204 m -19 Y s 593 204 m -19 Y s 685 204 m -19 Y s 777 223 m -38 Y s 869 204 m -19 Y
 s 961 204 m -19 Y s 1053 204 m -19 Y s 1145 204 m -19 Y s 1237 223 m -38 Y s 1329 204 m -19 Y s 1421 204 m -19 Y s 1513 204 m -19 Y s 1604 204 m -19 Y s 1696 223 m -38 Y s 1788 204 m -19 Y s 1880 204 m -19 Y s 1972 204 m -19 Y s 2064 204 m -19 Y s
 2156 223 m -38 Y s 2156 223 m -38 Y s
 gsave  2268 1538 0 0 C 254.141 117.296 t 0 r /Helvetica findfont 71.6807 sf 0 0 m (\2550.5) show NC gr 
 gsave  2268 1538 0 0 C 755.906 117.296 t 0 r /Helvetica findfont 71.6807 sf 0 0 m (0) show NC gr 
 gsave  2268 1538 0 0 C 1185.99 117.296 t 0 r /Helvetica findfont 71.6807 sf 0 0 m (0.5) show NC gr 
 gsave  2268 1538 0 0 C 1681.24 117.296 t 0 r /Helvetica findfont 71.6807 sf 0 0 m (1) show NC gr 
 gsave  2268 1538 0 0 C 2104.81 117.296 t 0 r /Helvetica findfont 71.6807 sf 0 0 m (1.5) show NC gr  317 1507 m 1883 X s 317 1469 m 38 Y s 409 1488 m 19 Y s 501 1488 m 19 Y s 593 1488 m 19 Y s 685 1488 m 19 Y s 777 1469 m 38 Y s 869 1488 m 19 Y s 961
 1488 m 19 Y s 1053 1488 m 19 Y s 1145 1488 m 19 Y s 1237 1469 m 38 Y s 1329 1488 m 19 Y s 1421 1488 m 19 Y s 1513 1488 m 19 Y s 1604 1488 m 19 Y s 1696 1469 m 38 Y s 1788 1488 m 19 Y s 1880 1488 m 19 Y s 1972 1488 m 19 Y s 2064 1488 m 19 Y s 2156
 1469 m 38 Y s 2156 1469 m 38 Y s 317 185 m 1322 Y s
 gsave  2268 1538 0 0 C 153.136 830.844 t 90 r /Helvetica findfont 71.6807 sf 0 0 m (Events / \( 0.0525 ps \)) show NC gr  376 185 m -59 X s 347 213 m -30 X s 347 242 m -30 X s 347 271 m -30 X s 347 300 m -30 X s 376 329 m -59 X s 347 357 m -30 X s
 347 386 m -30 X s 347 415 m -30 X s 347 444 m -30 X s 376 473 m -59 X s 347 501 m -30 X s 347 530 m -30 X s 347 559 m -30 X s 347 588 m -30 X s 376 617 m -59 X s 347 645 m -30 X s 347 674 m -30 X s 347 703 m -30 X s 347 732 m -30 X s 376 761 m -59 X
 s 347 789 m -30 X s 347 818 m -30 X s 347 847 m -30 X s 347 876 m -30 X s 376 905 m -59 X s 347 933 m -30 X s 347 962 m -30 X s 347 991 m -30 X s 347 1020 m -30 X s 376 1049 m -59 X s 347 1077 m -30 X s 347 1106 m -30 X s 347 1135 m -30 X s 347 1164
 m -30 X s 376 1193 m -59 X s 347 1221 m -30 X s 347 1250 m -30 X s 347 1279 m -30 X s 347 1308 m -30 X s 376 1337 m -59 X s 347 1365 m -30 X s 347 1394 m -30 X s 347 1423 m -30 X s 347 1452 m -30 X s 376 1481 m -59 X s 376 1481 m -59 X s
 gsave  2268 1538 0 0 C 263.915 159.652 t 0 r /Helvetica findfont 71.6807 sf 0 0 m (0) show NC gr 
 gsave  2268 1538 0 0 C 166.169 303.014 t 0 r /Helvetica findfont 71.6807 sf 0 0 m (0.05) show NC gr 
 gsave  2268 1538 0 0 C 215.042 449.633 t 0 r /Helvetica findfont 71.6807 sf 0 0 m (0.1) show NC gr 
 gsave  2268 1538 0 0 C 166.169 592.995 t 0 r /Helvetica findfont 71.6807 sf 0 0 m (0.15) show NC gr 
 gsave  2268 1538 0 0 C 205.267 736.356 t 0 r /Helvetica findfont 71.6807 sf 0 0 m (0.2) show NC gr 
 gsave  2268 1538 0 0 C 166.169 879.718 t 0 r /Helvetica findfont 71.6807 sf 0 0 m (0.25) show NC gr 
 gsave  2268 1538 0 0 C 205.267 1023.08 t 0 r /Helvetica findfont 71.6807 sf 0 0 m (0.3) show NC gr 
 gsave  2268 1538 0 0 C 166.169 1169.7 t 0 r /Helvetica findfont 71.6807 sf 0 0 m (0.35) show NC gr 
 gsave  2268 1538 0 0 C 205.267 1313.06 t 0 r /Helvetica findfont 71.6807 sf 0 0 m (0.4) show NC gr 
 gsave  2268 1538 0 0 C 166.169 1456.42 t 0 r /Helvetica findfont 71.6807 sf 0 0 m (0.45) show NC gr  2200 185 m 1322 Y s 2141 185 m 59 X s 2170 213 m 30 X s 2170 242 m 30 X s 2170 271 m 30 X s 2170 300 m 30 X s 2141 329 m 59 X s 2170 357 m 30 X s
 2170 386 m 30 X s 2170 415 m 30 X s 2170 444 m 30 X s 2141 473 m 59 X s 2170 501 m 30 X s 2170 530 m 30 X s 2170 559 m 30 X s 2170 588 m 30 X s 2141 617 m 59 X s 2170 645 m 30 X s 2170 674 m 30 X s 2170 703 m 30 X s 2170 732 m 30 X s 2141 761 m 59 X
 s 2170 789 m 30 X s 2170 818 m 30 X s 2170 847 m 30 X s 2170 876 m 30 X s 2141 905 m 59 X s 2170 933 m 30 X s 2170 962 m 30 X s 2170 991 m 30 X s 2170 1020 m 30 X s 2141 1049 m 59 X s 2170 1077 m 30 X s 2170 1106 m 30 X s 2170 1135 m 30 X s 2170
 1164 m 30 X s 2141 1193 m 59 X s 2170 1221 m 30 X s 2170 1250 m 30 X s 2170 1279 m 30 X s 2170 1308 m 30 X s 2141 1337 m 59 X s 2170 1365 m 30 X s 2170 1394 m 30 X s 2170 1423 m 30 X s 2170 1452 m 30 X s 2141 1481 m 59 X s 2141 1481 m 59 X s 0.8 0 0
 c 6 lw 342 190 m -25 X s 317 185 m 11 Y s 342 190 m 24 X s 366 185 m 11 Y s 342 190 m s 335 190 m 13 X s 342 190 m -1 Y s 335 189 m 13 X s 390 191 m -24 X s 366 185 m 12 Y s 390 191 m 24 X s 414 185 m 12 Y s 390 191 m s 383 191 m 13 X s 390 191 m s
 383 191 m 13 X s 438 192 m -24 X s 414 185 m 13 Y s 438 192 m 24 X s 462 185 m 13 Y s 438 192 m s 432 192 m 13 X s 438 192 m s 432 192 m 13 X s 486 194 m -24 X s 462 188 m 13 Y s 486 194 m 25 X s 511 188 m 13 Y s 486 194 m s 480 194 m 13 X s 486 194
 m s 480 194 m 13 X s 535 196 m -24 X s 511 189 m 13 Y s 535 196 m 24 X s 559 189 m 13 Y s 535 196 m s 528 196 m 13 X s 535 196 m s 528 196 m 13 X s 583 200 m -24 X s 559 194 m 13 Y s 583 200 m 24 X s 607 194 m 13 Y s 583 200 m 1 Y s 576 201 m 13 X s
 583 200 m s 576 200 m 13 X s 631 208 m -24 X s 607 202 m 13 Y s 631 208 m 24 X s 655 202 m 13 Y s 631 208 m s 625 208 m 13 X s 631 208 m s 625 208 m 13 X s 679 224 m -24 X s 655 217 m 14 Y s 679 224 m 25 X s 704 217 m 14 Y s 679 224 m s 673 224 m 13
 X s 679 224 m s 673 224 m 13 X s 728 261 m -24 X s 704 255 m 13 Y s 728 261 m 24 X s 752 255 m 13 Y s 728 261 m 1 Y s 721 262 m 13 X s 728 261 m s 721 261 m 13 X s 776 396 m -24 X s 752 390 m 13 Y s 776 396 m 24 X s 800 390 m 13 Y s 776 396 m 1 Y s
 769 397 m 13 X s 776 396 m -1 Y s 769 395 m 13 X s 824 473 m -24 X s 800 467 m 13 Y s 824 473 m 24 X s 848 467 m 13 Y s 824 473 m 1 Y s 818 474 m 13 X s 824 473 m -1 Y s 818 472 m 13 X s 872 442 m -24 X s 848 436 m 13 Y s 872 442 m 25 X s 897 436 m
 13 Y s 872 442 m 2 Y s 866 444 m 13 X s 872 442 m -1 Y s 866 441 m 13 X s 921 410 m -24 X s 897 404 m 13 Y s 921 410 m 24 X s 945 404 m 13 Y s 921 410 m 1 Y s 914 411 m 13 X s 921 410 m -1 Y s 914 409 m 13 X s 969 380 m -24 X s 945 374 m 13 Y s 969
 380 m 24 X s 993 374 m 13 Y s 969 380 m 1 Y s 962 381 m 14 X s 969 380 m -1 Y s 962 379 m 14 X s 1017 355 m -24 X s 993 348 m 13 Y s 1017 355 m 24 X s 1041 348 m 13 Y s 1017 355 m 1 Y s 1011 356 m 13 X s 1017 355 m -1 Y s 1011 354 m 13 X s 1066 334
 m -25 X s 1041 327 m 13 Y s 1066 334 m 24 X s 1090 327 m 13 Y s 1066 334 m 1 Y s 1059 335 m 13 X s 1066 334 m -1 Y s 1059 333 m 13 X s 1114 317 m -24 X s 1090 310 m 13 Y s 1114 317 m 24 X s 1138 310 m 13 Y s 1114 317 m 1 Y s 1107 318 m 13 X s 1114
 317 m -1 Y s 1107 316 m 13 X s 1162 301 m -24 X s 1138 295 m 13 Y s 1162 301 m 24 X s 1186 295 m 13 Y s 1162 301 m 1 Y s 1156 302 m 13 X s 1162 301 m -1 Y s 1156 300 m 13 X s 1210 286 m -24 X s 1186 280 m 13 Y s 1210 286 m 24 X s 1234 280 m 13 Y s
 1210 286 m 1 Y s 1204 287 m 13 X s 1210 286 m s 1204 286 m 13 X s 1259 276 m -25 X s 1234 270 m 13 Y s 1259 276 m 24 X s 1283 270 m 13 Y s 1259 276 m 1 Y s 1252 277 m 13 X s 1259 276 m -1 Y s 1252 275 m 13 X s 1307 264 m -24 X s 1283 257 m 13 Y s
 1307 264 m 24 X s 1331 257 m 13 Y s 1307 264 m 1 Y s 1300 265 m 13 X s 1307 264 m -1 Y s 1300 263 m 13 X s 1355 256 m -24 X s 1331 249 m 13 Y s 1355 256 m 24 X s 1379 249 m 13 Y s 1355 256 m s 1349 256 m 13 X s 1355 256 m -1 Y s 1349 255 m 13 X s
 1403 247 m -24 X s 1379 241 m 13 Y s 1403 247 m 24 X s 1427 241 m 13 Y s 1403 247 m 1 Y s 1397 248 m 13 X s 1403 247 m -1 Y s 1397 246 m 13 X s 1452 241 m -25 X s 1427 234 m 13 Y s 1452 241 m 24 X s 1476 234 m 13 Y s 1452 241 m s 1445 241 m 13 X s
 1452 241 m -1 Y s 1445 240 m 13 X s 1500 235 m -24 X s 1476 229 m 13 Y s 1500 235 m 24 X s 1524 229 m 13 Y s 1500 235 m 1 Y s 1493 236 m 13 X s 1500 235 m s 1493 235 m 13 X s 1548 229 m -24 X s 1524 222 m 13 Y s 1548 229 m 24 X s 1572 222 m 13 Y s
 1548 229 m s 1542 229 m 13 X s 1548 229 m -1 Y s 1542 228 m 13 X s 1596 224 m -24 X s 1572 218 m 13 Y s 1596 224 m 25 X s 1621 218 m 13 Y s 1596 224 m 1 Y s 1590 225 m 13 X s 1596 224 m s 1590 224 m 13 X s 1645 220 m -24 X s 1621 214 m 13 Y s 1645
 220 m 24 X s 1669 214 m 13 Y s 1645 220 m 1 Y s 1638 221 m 13 X s 1645 220 m s 1638 220 m 13 X s 1693 217 m -24 X s 1669 210 m 13 Y s 1693 217 m 24 X s 1717 210 m 13 Y s 1693 217 m s 1686 217 m 13 X s 1693 217 m s 1686 217 m 13 X s 1741 213 m -24 X
 s 1717 207 m 13 Y s 1741 213 m 24 X s 1765 207 m 13 Y s 1741 213 m 1 Y s 1735 214 m 13 X s 1741 213 m s 1735 213 m 13 X s 1789 209 m -24 X s 1765 203 m 13 Y s 1789 209 m 25 X s 1814 203 m 13 Y s 1789 209 m 1 Y s 1783 210 m 13 X s 1789 209 m s 1783
 209 m 13 X s 1838 206 m -24 X s 1814 200 m 13 Y s 1838 206 m 24 X s 1862 200 m 13 Y s 1838 206 m 1 Y s 1831 207 m 13 X s 1838 206 m s 1831 206 m 13 X s 1886 204 m -24 X s 1862 198 m 13 Y s 1886 204 m 24 X s 1910 198 m 13 Y s 1886 204 m 1 Y s 1879
 205 m 14 X s 1886 204 m s 1879 204 m 14 X s 1934 202 m -24 X s 1910 196 m 13 Y s 1934 202 m 24 X s 1958 196 m 13 Y s 1934 202 m s 1928 202 m 13 X s 1934 202 m s 1928 202 m 13 X s 1983 200 m -25 X s 1958 194 m 13 Y s 1983 200 m 24 X s 2007 194 m 13 Y
 s 1983 200 m s 1976 200 m 13 X s 1983 200 m s 1976 200 m 13 X s 2031 198 m -24 X s 2007 192 m 13 Y s 2031 198 m 24 X s 2055 192 m 13 Y s 2031 198 m s 2024 198 m 13 X s 2031 198 m s 2024 198 m 13 X s 2079 197 m -24 X s 2055 190 m 13 Y s 2079 197 m 24
 X s 2103 190 m 13 Y s 2079 197 m s 2073 197 m 13 X s 2079 197 m s 2073 197 m 13 X s 2127 195 m -24 X s 2103 188 m 13 Y s 2127 195 m 24 X s 2151 188 m 13 Y s 2127 195 m s 2121 195 m 13 X s 2127 195 m s 2121 195 m 13 X s 2176 194 m -25 X s 2151 187 m
 13 Y s 2176 194 m 24 X s 2200 187 m 13 Y s 2176 194 m s 2169 194 m 13 X s 2176 194 m s 2169 194 m 13 X s black 0.8 0 0 c 342 190 m 48 1 d 48 1 d 48 2 d 49 2 d 25 2 d 23 2 d 30 4 d 14 3 d 4 1 d 24 6 d 9 3 d 8 3 d 7 4 d 23 12 d 7 5 d 6 5 d 5 5 d 4 5 d
 4 5 d 3 6 d 3 6 d 4 8 d 3 9 d 4 12 d 5 15 d 11 37 d 4 14 d 4 10 d 3 9 d 3 8 d 1 1 d 15 33 d 6 11 d 5 9 d 5 8 d 4 5 d 4 5 d 4 3 d 3 2 d 2 1 d 4 1 d 3 X 4 -1 d 37 -31 d 49 -32 d 32 -20 d 16 -10 d 20 -11 d 22 -11 d 6 -3 d 21 -10 d 22 -9 d 6 -2 d 17 -7
 d 31 -10 d 48 -16 d 40 -13 d 8 -2 d 15 -3 d 34 -7 d 48 -12 d 22 -4 d 26 -4 d 48 -9 d 27 -4 d 22 -2 d 48 -6 d 48 -6 d 42 -4 d 6 -1 d 49 -4 d 48 -3 d 48 -4 d 48 -4 d 49 -3 d 48 -2 d 48 -2 d 49 -2 d 48 -2 d 48 -1 d 48 -2 d 49 -1 d s black 342 197 m -25
 X s 317 191 m 13 Y s 342 197 m 24 X s 366 191 m 13 Y s 342 197 m 1 Y s 335 198 m 13 X s 342 197 m -1 Y s 335 196 m 13 X s 390 200 m -24 X s 366 194 m 13 Y s 390 200 m 24 X s 414 194 m 13 Y s 390 200 m 2 Y s 383 202 m 13 X s 390 200 m -1 Y s 383 199
 m 13 X s 438 202 m -24 X s 414 196 m 13 Y s 438 202 m 24 X s 462 196 m 13 Y s 438 202 m 2 Y s 432 204 m 13 X s 438 202 m -1 Y s 432 201 m 13 X s 486 207 m -24 X s 462 200 m 13 Y s 486 207 m 25 X s 511 200 m 13 Y s 486 207 m 1 Y s 480 208 m 13 X s
 486 207 m -2 Y s 480 205 m 13 X s 535 213 m -24 X s 511 207 m 13 Y s 535 213 m 24 X s 559 207 m 13 Y s 535 213 m 2 Y s 528 215 m 13 X s 535 213 m -1 Y s 528 212 m 13 X s 583 230 m -24 X s 559 223 m 13 Y s 583 230 m 24 X s 607 223 m 13 Y s 583 230 m
 2 Y s 576 232 m 13 X s 583 230 m -2 Y s 576 228 m 13 X s 631 251 m -24 X s 607 244 m 13 Y s 631 251 m 24 X s 655 244 m 13 Y s 631 251 m 2 Y s 625 253 m 13 X s 631 251 m -3 Y s 625 248 m 13 X s 679 323 m -24 X s 655 317 m 13 Y s 679 323 m 25 X s 704
 317 m 13 Y s 679 323 m 4 Y s 673 327 m 13 X s 679 323 m -3 Y s 673 320 m 13 X s 728 570 m -24 X s 704 563 m 13 Y s 728 570 m 24 X s 752 563 m 13 Y s 728 570 m 6 Y s 721 576 m 13 X s 728 570 m -6 Y s 721 564 m 13 X s 776 1434 m -24 X s 752 1427 m 13
 Y s 776 1434 m 24 X s 800 1427 m 13 Y s 776 1434 m 10 Y s 769 1444 m 13 X s 776 1434 m -10 Y s 769 1424 m 13 X s 824 607 m -24 X s 800 600 m 13 Y s 824 607 m 24 X s 848 600 m 13 Y s 824 607 m 6 Y s 818 613 m 13 X s 824 607 m -6 Y s 818 601 m 13 X s
 872 324 m -24 X s 848 317 m 13 Y s 872 324 m 25 X s 897 317 m 13 Y s 872 324 m 3 Y s 866 327 m 13 X s 872 324 m -4 Y s 866 320 m 13 X s 921 255 m -24 X s 897 249 m 13 Y s 921 255 m 24 X s 945 249 m 13 Y s 921 255 m 3 Y s 914 258 m 13 X s 921 255 m
 -2 Y s 914 253 m 13 X s 969 225 m -24 X s 945 218 m 13 Y s 969 225 m 24 X s 993 218 m 13 Y s 969 225 m 2 Y s 962 227 m 14 X s 969 225 m -2 Y s 962 223 m 14 X s 1017 211 m -24 X s 993 205 m 13 Y s 1017 211 m 24 X s 1041 205 m 13 Y s 1017 211 m 2 Y s
 1011 213 m 13 X s 1017 211 m -1 Y s 1011 210 m 13 X s 1066 203 m -25 X s 1041 197 m 13 Y s 1066 203 m 24 X s 1090 197 m 13 Y s 1066 203 m 1 Y s 1059 204 m 13 X s 1066 203 m -1 Y s 1059 202 m 13 X s 1114 201 m -24 X s 1090 195 m 13 Y s 1114 201 m 24
 X s 1138 195 m 13 Y s 1114 201 m 2 Y s 1107 203 m 13 X s 1114 201 m -1 Y s 1107 200 m 13 X s 1162 197 m -24 X s 1138 190 m 13 Y s 1162 197 m 24 X s 1186 190 m 13 Y s 1162 197 m 1 Y s 1156 198 m 13 X s 1162 197 m -1 Y s 1156 196 m 13 X s 1210 194 m
 -24 X s 1186 188 m 13 Y s 1210 194 m 24 X s 1234 188 m 13 Y s 1210 194 m 1 Y s 1204 195 m 13 X s 1210 194 m s 1204 194 m 13 X s 1259 193 m -25 X s 1234 186 m 13 Y s 1259 193 m 24 X s 1283 186 m 13 Y s 1259 193 m 1 Y s 1252 194 m 13 X s 1259 193 m -1
 Y s 1252 192 m 13 X s 1307 191 m -24 X s 1283 185 m 12 Y s 1307 191 m 24 X s 1331 185 m 12 Y s 1307 191 m s 1300 191 m 13 X s 1307 191 m -1 Y s 1300 190 m 13 X s 1355 193 m -24 X s 1331 186 m 13 Y s 1355 193 m 24 X s 1379 186 m 13 Y s 1355 193 m 1 Y
 s 1349 194 m 13 X s 1355 193 m -1 Y s 1349 192 m 13 X s 1403 189 m -24 X s 1379 185 m 10 Y s 1403 189 m 24 X s 1427 185 m 10 Y s 1403 189 m s 1397 189 m 13 X s 1403 189 m -1 Y s 1397 188 m 13 X s 1452 189 m -25 X s 1427 185 m 11 Y s 1452 189 m 24 X
 s 1476 185 m 11 Y s 1452 189 m 1 Y s 1445 190 m 13 X s 1452 189 m s 1445 189 m 13 X s 1500 189 m -24 X s 1476 185 m 10 Y s 1500 189 m 24 X s 1524 185 m 10 Y s 1500 189 m 1 Y s 1493 190 m 13 X s 1500 189 m -1 Y s 1493 188 m 13 X s 1548 188 m -24 X s
 1524 185 m 10 Y s 1548 188 m 24 X s 1572 185 m 10 Y s 1548 188 m 1 Y s 1542 189 m 13 X s 1548 188 m s 1542 188 m 13 X s 1596 187 m -24 X s 1572 185 m 9 Y s 1596 187 m 25 X s 1621 185 m 9 Y s 1596 187 m 1 Y s 1590 188 m 13 X s 1596 187 m s 1590 187 m
 13 X s 1645 187 m -24 X s 1621 185 m 8 Y s 1645 187 m 24 X s 1669 185 m 8 Y s 1645 187 m s 1638 187 m 13 X s 1645 187 m -1 Y s 1638 186 m 13 X s 1693 189 m -24 X s 1669 185 m 10 Y s 1693 189 m 24 X s 1717 185 m 10 Y s 1693 189 m s 1686 189 m 13 X s
 1693 189 m -1 Y s 1686 188 m 13 X s 1741 188 m -24 X s 1717 185 m 9 Y s 1741 188 m 24 X s 1765 185 m 9 Y s 1741 188 m s 1735 188 m 13 X s 1741 188 m -1 Y s 1735 187 m 13 X s 1789 187 m -24 X s 1765 185 m 8 Y s 1789 187 m 25 X s 1814 185 m 8 Y s 1789
 187 m s 1783 187 m 13 X s 1789 187 m -1 Y s 1783 186 m 13 X s 1838 186 m -24 X s 1814 185 m 7 Y s 1838 186 m 24 X s 1862 185 m 7 Y s 1838 186 m s 1831 186 m 13 X s 1838 186 m s 1831 186 m 13 X s 1886 187 m -24 X s 1862 185 m 8 Y s 1886 187 m 24 X s
 1910 185 m 8 Y s 1886 187 m s 1879 187 m 14 X s 1886 187 m -1 Y s 1879 186 m 14 X s 1934 186 m -24 X s 1910 185 m 7 Y s 1934 186 m 24 X s 1958 185 m 7 Y s 1934 186 m s 1928 186 m 13 X s 1934 186 m s 1928 186 m 13 X s 1983 187 m -25 X s 1958 185 m 9
 Y s 1983 187 m 24 X s 2007 185 m 9 Y s 1983 187 m 1 Y s 1976 188 m 13 X s 1983 187 m s 1976 187 m 13 X s 2031 186 m -24 X s 2007 185 m 8 Y s 2031 186 m 24 X s 2055 185 m 8 Y s 2031 186 m 1 Y s 2024 187 m 13 X s 2031 186 m s 2024 186 m 13 X s 2079
 187 m -24 X s 2055 185 m 8 Y s 2079 187 m 24 X s 2103 185 m 8 Y s 2079 187 m s 2073 187 m 13 X s 2079 187 m -1 Y s 2073 186 m 13 X s 2127 186 m -24 X s 2103 185 m 8 Y s 2127 186 m 24 X s 2151 185 m 8 Y s 2127 186 m 1 Y s 2121 187 m 13 X s 2127 186 m
 s 2121 186 m 13 X s 2176 186 m -25 X s 2151 185 m 8 Y s 2176 186 m 24 X s 2200 185 m 8 Y s 2176 186 m 1 Y s 2169 187 m 13 X s 2176 186 m s 2169 186 m 13 X s 342 197 m 48 3 d 48 2 d 48 5 d 49 6 d 26 8 d 22 9 d 38 13 d 10 8 d 25 23 d 8 12 d 6 12 d 6
 14 d 3 11 d 11 35 d 7 29 d 8 33 d 5 29 d 6 34 d 5 30 d 4 33 d 3 24 d 2 23 d 2 28 d 3 31 d 2 36 d 2 46 d 2 52 d 2 62 d 3 83 d 5 189 d 2 77 d 2 50 d 2 40 d 2 33 d 2 31 d 2 22 d 1 17 d 2 16 d 2 12 d 3 9 d 2 5 d 3 2 d 3 -2 d 2 -6 d 2 -8 d 3 -13 d 2 -16
 d 2 -19 d 2 -28 d 2 -30 d 2 -37 d 2 -46 d 2 -60 d 2 -68 d 7 -211 d 2 -64 d 2 -59 d 2 -42 d 3 -37 d 2 -31 d 2 -27 d 2 -23 d 5 -42 d 5 -40 d 6 -40 d 4 -32 d 6 -34 d 7 -31 d 6 -30 d 8 -28 d 1 -6 d 6 -16 d 5 -14 d 7 -10 d 6 -8 d 25 -21 d 13 -11 d 17 -10
 d 18 -9 d 18 -7 d 30 -7 d 39 -7 d 10 -1 d 48 -2 d 48 -4 d 48 -3 d 49 -1 d 48 -2 d 48 2 d 48 -4 d 97 X 48 -1 d 48 -1 d 49 X 48 2 d 48 -1 d 48 -1 d 49 -1 d 48 1 d 48 -1 d 49 1 d 48 -1 d 48 1 d 48 -1 d 49 X s 3 lw 317 185 m 1883 X s 317 223 m -38 Y s
 409 204 m -19 Y s 501 204 m -19 Y s 593 204 m -19 Y s 685 204 m -19 Y s 777 223 m -38 Y s 869 204 m -19 Y s 961 204 m -19 Y s 1053 204 m -19 Y s 1145 204 m -19 Y s 1237 223 m -38 Y s 1329 204 m -19 Y s 1421 204 m -19 Y s 1513 204 m -19 Y s 1604 204
 m -19 Y s 1696 223 m -38 Y s 1788 204 m -19 Y s 1880 204 m -19 Y s 1972 204 m -19 Y s 2064 204 m -19 Y s 2156 223 m -38 Y s 2156 223 m -38 Y s 317 1507 m 1883 X s 317 1469 m 38 Y s 409 1488 m 19 Y s 501 1488 m 19 Y s 593 1488 m 19 Y s 685 1488 m 19
 Y s 777 1469 m 38 Y s 869 1488 m 19 Y s 961 1488 m 19 Y s 1053 1488 m 19 Y s 1145 1488 m 19 Y s 1237 1469 m 38 Y s 1329 1488 m 19 Y s 1421 1488 m 19 Y s 1513 1488 m 19 Y s 1604 1488 m 19 Y s 1696 1469 m 38 Y s 1788 1488 m 19 Y s 1880 1488 m 19 Y s
 1972 1488 m 19 Y s 2064 1488 m 19 Y s 2156 1469 m 38 Y s 2156 1469 m 38 Y s 317 185 m 1322 Y s 376 185 m -59 X s 347 213 m -30 X s 347 242 m -30 X s 347 271 m -30 X s 347 300 m -30 X s 376 329 m -59 X s 347 357 m -30 X s 347 386 m -30 X s 347 415 m
 -30 X s 347 444 m -30 X s 376 473 m -59 X s 347 501 m -30 X s 347 530 m -30 X s 347 559 m -30 X s 347 588 m -30 X s 376 617 m -59 X s 347 645 m -30 X s 347 674 m -30 X s 347 703 m -30 X s 347 732 m -30 X s 376 761 m -59 X s 347 789 m -30 X s 347 818
 m -30 X s 347 847 m -30 X s 347 876 m -30 X s 376 905 m -59 X s 347 933 m -30 X s 347 962 m -30 X s 347 991 m -30 X s 347 1020 m -30 X s 376 1049 m -59 X s 347 1077 m -30 X s 347 1106 m -30 X s 347 1135 m -30 X s 347 1164 m -30 X s 376 1193 m -59 X
 s 347 1221 m -30 X s 347 1250 m -30 X s 347 1279 m -30 X s 347 1308 m -30 X s 376 1337 m -59 X s 347 1365 m -30 X s 347 1394 m -30 X s 347 1423 m -30 X s 347 1452 m -30 X s 376 1481 m -59 X s 376 1481 m -59 X s 2200 185 m 1322 Y s 2141 185 m 59 X s
 2170 213 m 30 X s 2170 242 m 30 X s 2170 271 m 30 X s 2170 300 m 30 X s 2141 329 m 59 X s 2170 357 m 30 X s 2170 386 m 30 X s 2170 415 m 30 X s 2170 444 m 30 X s 2141 473 m 59 X s 2170 501 m 30 X s 2170 530 m 30 X s 2170 559 m 30 X s 2170 588 m 30 X
 s 2141 617 m 59 X s 2170 645 m 30 X s 2170 674 m 30 X s 2170 703 m 30 X s 2170 732 m 30 X s 2141 761 m 59 X s 2170 789 m 30 X s 2170 818 m 30 X s 2170 847 m 30 X s 2170 876 m 30 X s 2141 905 m 59 X s 2170 933 m 30 X s 2170 962 m 30 X s 2170 991 m 30
 X s 2170 1020 m 30 X s 2141 1049 m 59 X s 2170 1077 m 30 X s 2170 1106 m 30 X s 2170 1135 m 30 X s 2170 1164 m 30 X s 2141 1193 m 59 X s 2170 1221 m 30 X s 2170 1250 m 30 X s 2170 1279 m 30 X s 2170 1308 m 30 X s 2141 1337 m 59 X s 2170 1365 m 30 X
 s 2170 1394 m 30 X s 2170 1423 m 30 X s 2170 1452 m 30 X s 2141 1481 m 59 X s 2141 1481 m 59 X s
 gsave  2268 1538 0 0 C 1625.85 1091.5 t 0 r /Symbol findfont 55.3896 sf 0 0 m (y) show NC gr 
 gsave  2268 1538 0 0 C 1388 1091.5 t 0 r /Helvetica-Bold findfont 55.3896 sf 0 0 m (prompt j/) show NC gr  6 lw 1269 1134 m 99 X s
 gsave  2268 1538 0 0 C 1746.4 899.267 t 0 r /Symbol findfont 55.3896 sf 0 0 m (y) show NC gr 
 gsave  2268 1538 0 0 C 1388 899.267 t 0 r /Helvetica-Bold findfont 55.3896 sf 0 0 m (non\255prompt j/) show NC gr  0.8 0 0 c 1269 942 m 99 X s
 gr  gr showpage
end
%%EOF
