%!PS-Adobe-2.0 EPSF-2.0
%%BoundingBox:  0 0 567 384
%%Title: /home/rohin/Analysis/dataAna/2014/July/soft_electron_vars/pt_presel_cut.eps: c1
%%Creator: ROOT Version 5.34/14
%%CreationDate: Tue Aug 19 00:48:42 2014
%%EndComments
%%BeginProlog
80 dict begin
/s {stroke} def /l {lineto} def /m {moveto} def /t {translate} def
/r {rotate} def /rl {roll}  def /R {repeat} def
/d {rlineto} def /rm {rmoveto} def /gr {grestore} def /f {eofill} def
/c {setrgbcolor} def /black {0 setgray} def /sd {setdash} def
/cl {closepath} def /sf {scalefont setfont} def /lw {setlinewidth} def
/box {m dup 0 exch d exch 0 d 0 exch neg d cl} def
/NC{systemdict begin initclip end}def/C{NC box clip newpath}def
/bl {box s} def /bf {box f} def /Y { 0 exch d} def /X { 0 d} def 
/K {{pop pop 0 moveto} exch kshow} bind def
/ita {/ang 15 def gsave [1 0 ang dup sin exch cos div 1 0 0] concat} def 
/mp {newpath /y exch def /x exch def} def
/side {[w .77 mul w .23 mul] .385 w mul sd w 0 l currentpoint t -144 r} def
/mr {mp x y w2 0 360 arc} def /m24 {mr s} def /m20 {mr f} def
/mb {mp x y w2 add m w2 neg 0 d 0 w neg d w 0 d 0 w d cl} def
/mt {mp x y w2 add m w2 neg w neg d w 0 d cl} def
/m21 {mb f} def /m25 {mb s} def /m22 {mt f} def /m26{mt s} def
/m23 {mp x y w2 sub m w2 w d w neg 0 d cl f} def
/m27 {mp x y w2 add m w3 neg w2 neg d w3 w2 neg d w3 w2 d cl s} def
/m28 {mp x w2 sub y w2 sub w3 add m w3 0 d  0 w3 neg d w3 0 d 0 w3 d w3 0 d  0 w3 d w3 neg 0 d 0 w3 d w3 neg 0 d 0 w3 neg d w3 neg 0 d cl s } def
/m29 {mp gsave x w2 sub y w2 add w3 sub m currentpoint t 4 {side} repeat cl fill gr} def
/m30 {mp gsave x w2 sub y w2 add w3 sub m currentpoint t 4 {side} repeat cl s gr} def
/m31 {mp x y w2 sub m 0 w d x w2 sub y m w 0 d x w2 sub y w2 add m w w neg d x w2 sub y w2 sub m w w d s} def
/m32 {mp x y w2 sub m w2 w d w neg 0 d cl s} def
/m33 {mp x y w2 add m w3 neg w2 neg d w3 w2 neg d w3 w2 d cl f} def
/m34 {mp x w2 sub y w2 sub w3 add m w3 0 d  0 w3 neg d w3 0 d 0 w3 d w3 0 d  0 w3 d w3 neg 0 d 0 w3 d w3 neg 0 d 0 w3 neg d w3 neg 0 d cl f } def
/m2 {mp x y w2 sub m 0 w d x w2 sub y m w 0 d s} def
/m5 {mp x w2 sub y w2 sub m w w d x w2 sub y w2 add m w w neg d s} def
/reEncode {exch findfont dup length dict begin {1 index /FID eq  {pop pop} {def} ifelse } forall /Encoding exch def currentdict end dup /FontName get exch definefont pop } def [/Times-Bold /Times-Italic /Times-BoldItalic /Helvetica /Helvetica-Oblique
 /Helvetica-Bold /Helvetica-BoldOblique /Courier /Courier-Oblique /Courier-Bold /Courier-BoldOblique /Times-Roman /AvantGarde-Book /AvantGarde-BookOblique /AvantGarde-Demi /AvantGarde-DemiOblique /Bookman-Demi /Bookman-DemiItalic /Bookman-Light
 /Bookman-LightItalic /Helvetica-Narrow /Helvetica-Narrow-Bold /Helvetica-Narrow-BoldOblique /Helvetica-Narrow-Oblique /NewCenturySchlbk-Roman /NewCenturySchlbk-Bold /NewCenturySchlbk-BoldItalic /NewCenturySchlbk-Italic /Palatino-Bold
 /Palatino-BoldItalic /Palatino-Italic /Palatino-Roman ] {ISOLatin1Encoding reEncode } forall
%%EndProlog
%%BeginSetup
%%EndSetup
newpath  gsave  .25 .25 scale  gsave  0 0 t black[  ] 0 sd 3 lw 1 1 1 c 2268 1538 0 0 bf black 1 1 1 c 2268 1077 0 461 bf black 1 1 1 c 1883 1055 317 461 bf black 1883 1055 317 461 bl 1 1 1 c 1883 1055 317 461 bf black 1883 1055 317 461 bl 0 0.6 0.6
 c 9 lw 1 1 1 c black 0 0.6 0.6 c 317 461 m 132 X 969 Y 19 X -23 Y 19 X -20 Y 19 X -20 Y 19 X -20 Y 18 X -19 Y 19 X -19 Y 19 X -17 Y 19 X -17 Y 19 X -17 Y 18 X -14 Y 19 X -16 Y 19 X -15 Y 19 X -14 Y 19 X -13 Y 19 X -14 Y 18 X -12 Y 19 X -15 Y 19 X -9
 Y 19 X -13 Y 19 X -14 Y 18 X -11 Y 19 X -12 Y 19 X -13 Y 19 X -7 Y 19 X -12 Y 19 X -9 Y 18 X -13 Y 19 X -10 Y 19 X -10 Y 19 X -7 Y 19 X -15 Y 19 X -6 Y 18 X -7 Y 19 X -15 Y 19 X -4 Y 19 X -10 Y 19 X -12 Y 18 X -10 Y 19 X -3 Y 19 X -15 Y 19 X -2 Y 19
 X -14 Y 19 X -5 Y 18 X -10 Y 19 X -12 Y 19 X -9 Y 19 X -1 Y 19 X -7 Y 19 X -5 Y 18 X -10 Y 19 X -8 Y 19 X -3 Y 19 X -12 Y 19 X -10 Y 18 X -6 Y 19 X -2 Y 19 X -17 Y 19 X -7 Y 19 X -1 Y 19 X -10 Y 18 X -6 Y 19 X -1 Y 19 X -18 Y 19 X 5 Y 19 X -10 Y 18
 X -9 Y 19 X -7 Y 19 X -4 Y 19 X -6 Y 19 X -12 Y 19 X 11 Y 18 X -4 Y 19 X -38 Y 19 X -2 Y 19 X 4 Y 19 X 9 Y 19 X -14 Y 18 X -17 Y 19 X -2 Y 19 X -14 Y 19 X -4 Y 19 X -30 Y 18 X 10 Y 19 X 3 Y 19 X -4 Y 19 X -2 Y 19 X -6 Y 19 X -24 Y 18 X 16 Y 19 X -25
 Y 19 X 8 Y 19 X -9 Y 19 X s black 3 lw 317 461 m 1883 X s
 gsave  2268 1077 0 461 C 2088.51 364.92 t 0 r /Helvetica findfont 48.9324 sf 0 0 m ( GeV) show NC gr 
 gsave  2268 1077 0 461 C 2065.71 348.629 t 0 r /Helvetica findfont 32.6216 sf 0 0 m (T) show NC gr 
 gsave  2268 1077 0 461 C 2033.13 364.92 t 0 r /Helvetica findfont 48.9324 sf 0 0 m (P) show NC gr  317 488 m -27 Y s 355 475 m -14 Y s 393 475 m -14 Y s 430 475 m -14 Y s 468 475 m -14 Y s 506 488 m -27 Y s 543 475 m -14 Y s 581 475 m -14 Y s 619
 475 m -14 Y s 656 475 m -14 Y s 694 488 m -27 Y s 732 475 m -14 Y s 769 475 m -14 Y s 807 475 m -14 Y s 844 475 m -14 Y s 882 488 m -27 Y s 920 475 m -14 Y s 957 475 m -14 Y s 995 475 m -14 Y s 1033 475 m -14 Y s 1070 488 m -27 Y s 1108 475 m -14 Y
 s 1146 475 m -14 Y s 1183 475 m -14 Y s 1221 475 m -14 Y s 1259 488 m -27 Y s 1296 475 m -14 Y s 1334 475 m -14 Y s 1372 475 m -14 Y s 1409 475 m -14 Y s 1447 488 m -27 Y s 1484 475 m -14 Y s 1522 475 m -14 Y s 1560 475 m -14 Y s 1597 475 m -14 Y s
 1635 488 m -27 Y s 1673 475 m -14 Y s 1710 475 m -14 Y s 1748 475 m -14 Y s 1786 475 m -14 Y s 1823 488 m -27 Y s 1861 475 m -14 Y s 1899 475 m -14 Y s 1936 475 m -14 Y s 1974 475 m -14 Y s 2011 488 m -27 Y s 2049 475 m -14 Y s 2087 475 m -14 Y s
 2124 475 m -14 Y s 2162 475 m -14 Y s 2200 488 m -27 Y s
 gsave  2268 1077 0 461 C 303.014 413.793 t 0 r /Helvetica findfont 48.9324 sf 0 0 m (0) show NC gr 
 gsave  2268 1077 0 461 C 475.699 413.793 t 0 r /Helvetica findfont 48.9324 sf 0 0 m (10) show NC gr 
 gsave  2268 1077 0 461 C 661.417 413.793 t 0 r /Helvetica findfont 48.9324 sf 0 0 m (20) show NC gr 
 gsave  2268 1077 0 461 C 850.394 413.793 t 0 r /Helvetica findfont 48.9324 sf 0 0 m (30) show NC gr 
 gsave  2268 1077 0 461 C 1039.37 413.793 t 0 r /Helvetica findfont 48.9324 sf 0 0 m (40) show NC gr 
 gsave  2268 1077 0 461 C 1228.35 413.793 t 0 r /Helvetica findfont 48.9324 sf 0 0 m (50) show NC gr 
 gsave  2268 1077 0 461 C 1417.32 413.793 t 0 r /Helvetica findfont 48.9324 sf 0 0 m (60) show NC gr 
 gsave  2268 1077 0 461 C 1603.04 413.793 t 0 r /Helvetica findfont 48.9324 sf 0 0 m (70) show NC gr 
 gsave  2268 1077 0 461 C 1792.02 413.793 t 0 r /Helvetica findfont 48.9324 sf 0 0 m (80) show NC gr 
 gsave  2268 1077 0 461 C 1980.99 413.793 t 0 r /Helvetica findfont 48.9324 sf 0 0 m (90) show NC gr 
 gsave  2268 1077 0 461 C 2156.94 413.793 t 0 r /Helvetica findfont 48.9324 sf 0 0 m (100) show NC gr  317 1516 m 1883 X s 317 1490 m 26 Y s 355 1503 m 13 Y s 393 1503 m 13 Y s 430 1503 m 13 Y s 468 1503 m 13 Y s 506 1490 m 26 Y s 543 1503 m 13 Y s
 581 1503 m 13 Y s 619 1503 m 13 Y s 656 1503 m 13 Y s 694 1490 m 26 Y s 732 1503 m 13 Y s 769 1503 m 13 Y s 807 1503 m 13 Y s 844 1503 m 13 Y s 882 1490 m 26 Y s 920 1503 m 13 Y s 957 1503 m 13 Y s 995 1503 m 13 Y s 1033 1503 m 13 Y s 1070 1490 m 26
 Y s 1108 1503 m 13 Y s 1146 1503 m 13 Y s 1183 1503 m 13 Y s 1221 1503 m 13 Y s 1259 1490 m 26 Y s 1296 1503 m 13 Y s 1334 1503 m 13 Y s 1372 1503 m 13 Y s 1409 1503 m 13 Y s 1447 1490 m 26 Y s 1484 1503 m 13 Y s 1522 1503 m 13 Y s 1560 1503 m 13 Y
 s 1597 1503 m 13 Y s 1635 1490 m 26 Y s 1673 1503 m 13 Y s 1710 1503 m 13 Y s 1748 1503 m 13 Y s 1786 1503 m 13 Y s 1823 1490 m 26 Y s 1861 1503 m 13 Y s 1899 1503 m 13 Y s 1936 1503 m 13 Y s 1974 1503 m 13 Y s 2011 1490 m 26 Y s 2049 1503 m 13 Y s
 2087 1503 m 13 Y s 2124 1503 m 13 Y s 2162 1503 m 13 Y s 2200 1490 m 26 Y s 317 461 m 1055 Y s
 gsave  2268 1077 0 461 C 153.136 1283.74 t 90 r /Helvetica findfont 48.9324 sf 0 0 m (Entries/1.0) show NC gr  351 466 m -34 X s 351 482 m -34 X s 384 496 m -67 X s
 gsave  2268 1077 0 461 C 276.948 495.248 t 0 r /Helvetica findfont 32.6216 sf 0 0 m (2) show NC gr 
 gsave  2268 1077 0 461 C 221.559 475.699 t 0 r /Helvetica findfont 48.9324 sf 0 0 m (10) show NC gr  351 590 m -34 X s 351 645 m -34 X s 351 684 m -34 X s 351 714 m -34 X s 351 739 m -34 X s 351 760 m -34 X s 351 778 m -34 X s 351 794 m -34 X s 384
 808 m -67 X s
 gsave  2268 1077 0 461 C 276.948 811.295 t 0 r /Helvetica findfont 32.6216 sf 0 0 m (3) show NC gr 
 gsave  2268 1077 0 461 C 221.559 788.488 t 0 r /Helvetica findfont 48.9324 sf 0 0 m (10) show NC gr  351 902 m -34 X s 351 957 m -34 X s 351 996 m -34 X s 351 1026 m -34 X s 351 1051 m -34 X s 351 1072 m -34 X s 351 1090 m -34 X s 351 1106 m -34 X s
 384 1120 m -67 X s
 gsave  2268 1077 0 461 C 276.948 1117.57 t 0 r /Helvetica findfont 32.6216 sf 0 0 m (4) show NC gr 
 gsave  2268 1077 0 461 C 221.559 1098.02 t 0 r /Helvetica findfont 48.9324 sf 0 0 m (10) show NC gr  351 1214 m -34 X s 351 1269 m -34 X s 351 1308 m -34 X s 351 1338 m -34 X s 351 1363 m -34 X s 351 1384 m -34 X s 351 1402 m -34 X s 351 1418 m -34
 X s 384 1432 m -67 X s
 gsave  2268 1077 0 461 C 276.948 1433.61 t 0 r /Helvetica findfont 32.6216 sf 0 0 m (5) show NC gr 
 gsave  2268 1077 0 461 C 221.559 1410.81 t 0 r /Helvetica findfont 48.9324 sf 0 0 m (10) show NC gr  2200 461 m 1055 Y s 2166 466 m 34 X s 2166 482 m 34 X s 2133 496 m 67 X s 2166 590 m 34 X s 2166 645 m 34 X s 2166 684 m 34 X s 2166 714 m 34 X s
 2166 739 m 34 X s 2166 760 m 34 X s 2166 778 m 34 X s 2166 794 m 34 X s 2133 808 m 67 X s 2166 902 m 34 X s 2166 957 m 34 X s 2166 996 m 34 X s 2166 1026 m 34 X s 2166 1051 m 34 X s 2166 1072 m 34 X s 2166 1090 m 34 X s 2166 1106 m 34 X s 2133 1120
 m 67 X s 2166 1214 m 34 X s 2166 1269 m 34 X s 2166 1308 m 34 X s 2166 1338 m 34 X s 2166 1363 m 34 X s 2166 1384 m 34 X s 2166 1402 m 34 X s 2166 1418 m 34 X s 2133 1432 m 67 X s 0.8 0 0 c 9 lw 1 1 1 c black 0.8 0 0 c 317 461 m 132 X 946 Y 19 X -21
 Y 19 X -21 Y 19 X -20 Y 19 X -19 Y 18 X -19 Y 19 X -19 Y 19 X -17 Y 19 X -17 Y 19 X -17 Y 18 X -15 Y 19 X -15 Y 19 X -15 Y 19 X -14 Y 19 X -13 Y 19 X -14 Y 18 X -13 Y 19 X -15 Y 19 X -10 Y 19 X -12 Y 19 X -14 Y 18 X -11 Y 19 X -14 Y 19 X -10 Y 19 X
 -9 Y 19 X -12 Y 19 X -11 Y 18 X -11 Y 19 X -11 Y 19 X -9 Y 19 X -7 Y 19 X -14 Y 19 X -7 Y 18 X -7 Y 19 X -17 Y 19 X -4 Y 19 X -10 Y 19 X -11 Y 18 X -12 Y 19 X -2 Y 19 X -17 Y 19 X -2 Y 19 X -11 Y 19 X -8 Y 18 X -7 Y 19 X -11 Y 19 X -11 Y 19 X 1 Y 19
 X -11 Y 19 X -5 Y 18 X -10 Y 19 X -7 Y 19 X -5 Y 19 X -17 Y 19 X -5 Y 18 X -5 Y 38 X -20 Y 19 X -8 Y 19 X 2 Y 19 X -10 Y 18 X -5 Y 19 X -4 Y 19 X -19 Y 19 X 1 Y 19 X -5 Y 18 X -16 Y 19 X -2 Y 19 X -6 Y 19 X -2 Y 19 X -13 Y 19 X 10 Y 18 X -5 Y 19 X
 -37 Y 19 X -5 Y 19 X 2 Y 19 X 12 Y 19 X -20 Y 18 X -11 Y 19 X 2 Y 19 X -26 Y 19 X -1 Y 19 X -27 Y 18 X 7 Y 19 X 4 Y 19 X 4 Y 19 X -4 Y 19 X -22 Y 19 X -10 Y 18 X 16 Y 19 X -20 Y 19 X -2 Y 19 X -15 Y 19 X s black
 gsave  2268 1077 0 461 C 1440.13 1273.96 t 0 r /Helvetica-Bold findfont 52.1946 sf 0 0 m (Baseline Cuts) show NC gr  0 0.6 0.6 c 1274 1312 m 138 X s black
 gsave  2268 1077 0 461 C 1440.13 1104.53 t 0 r /Helvetica-Bold findfont 52.1946 sf 0 0 m (Preselection Cuts) show NC gr  0.8 0 0 c 1274 1141 m 138 X s black 3 lw 1 1 1 c 2268 461 0 0 bf black 1 1 1 c 1883 347 316 114 bf black 1883 347 316 114 bl 1 1
 1 c 1883 347 316 114 bf black 1883 347 316 114 bl 9 lw 1 1 1 c black 448 225 m 3 X s 464 225 m 3 X s 3 lw /w 13 def /w2 {w 2 div} def /w3 {w 3 div} def 457 225 m20 9 lw 467 221 m 3 X s 483 221 m 3 X s 3 lw 476 221 m20 9 lw 486 220 m 2 X s 501 220 m
 3 X s 3 lw 495 220 m20 9 lw 504 219 m 3 X s 520 219 m 3 X s 3 lw 514 219 m20 9 lw 523 216 m 3 X s 539 216 m 3 X s 3 lw 533 216 m20 9 lw 542 217 m 3 X s 558 217 m 3 X s 3 lw 551 217 m20 9 lw 561 216 m 3 X s 577 216 m 3 X s 3 lw 570 216 m20 9 lw 580
 217 m 3 X s 596 217 m 3 X s 3 lw 589 217 m20 9 lw 599 218 m 2 X s 614 218 m 3 X s 3 lw 608 218 m20 9 lw 617 217 m 3 X s 633 217 m 3 X s 3 lw 627 217 m20 9 lw 636 221 m 3 X s 652 221 m 3 X s 3 lw 646 221 m20 9 lw 664 212 m s 664 225 m s 655 219 m 3 X
 s 671 219 m 3 X s 3 lw 664 219 m20 9 lw 683 210 m 1 Y s 683 224 m s 674 217 m 3 X s 690 217 m 3 X s 3 lw 683 217 m20 9 lw 702 213 m 1 Y s 702 227 m s 693 220 m 3 X s 709 220 m 3 X s 3 lw 702 220 m20 9 lw 721 211 m 1 Y s 721 225 m 1 Y s 712 219 m 2 X
 s 727 219 m 3 X s 3 lw 721 219 m20 9 lw 740 211 m 2 Y s 740 226 m 2 Y s 730 219 m 3 X s 746 219 m 3 X s 3 lw 740 219 m20 9 lw 759 213 m 2 Y s 759 228 m 2 Y s 749 221 m 3 X s 765 221 m 3 X s 3 lw 759 221 m20 9 lw 777 211 m 3 Y s 777 227 m 2 Y s 768
 220 m 3 X s 784 220 m 3 X s 3 lw 777 220 m20 9 lw 796 217 m 3 Y s 796 233 m 3 Y s 787 226 m 3 X s 803 226 m 3 X s 3 lw 796 226 m20 9 lw 815 209 m 3 Y s 815 225 m 3 Y s 806 219 m 3 X s 822 219 m 3 X s 3 lw 815 219 m20 9 lw 834 213 m 4 Y s 834 230 m 3
 Y s 825 223 m 2 X s 840 223 m 3 X s 3 lw 834 223 m20 9 lw 853 215 m 4 Y s 853 232 m 4 Y s 843 226 m 3 X s 859 226 m 3 X s 3 lw 853 226 m20 9 lw 872 219 m 5 Y s 872 237 m 5 Y s 862 231 m 3 X s 878 231 m 3 X s 3 lw 872 231 m20 9 lw 890 209 m 5 Y s 890
 227 m 6 Y s 881 221 m 3 X s 897 221 m 3 X s 3 lw 890 221 m20 9 lw 909 217 m 5 Y s 909 235 m 6 Y s 900 229 m 3 X s 916 229 m 3 X s 3 lw 909 229 m20 9 lw 928 218 m 6 Y s 928 237 m 6 Y s 919 230 m 3 X s 935 230 m 3 X s 3 lw 928 230 m20 9 lw 947 225 m 7
 Y s 947 245 m 7 Y s 938 238 m 2 X s 953 238 m 3 X s 3 lw 947 238 m20 9 lw 966 214 m 7 Y s 966 234 m 8 Y s 956 228 m 3 X s 972 228 m 3 X s 3 lw 966 228 m20 9 lw 985 223 m 8 Y s 985 244 m 8 Y s 975 237 m 3 X s 991 237 m 3 X s 3 lw 985 237 m20 9 lw
 1003 214 m 8 Y s 1003 235 m 9 Y s 994 229 m 3 X s 1010 229 m 3 X s 3 lw 1003 229 m20 9 lw 1022 215 m 9 Y s 1022 237 m 9 Y s 1013 230 m 3 X s 1029 230 m 3 X s 3 lw 1022 230 m20 9 lw 1041 207 m 10 Y s 1041 230 m 9 Y s 1032 223 m 3 X s 1048 223 m 3 X s
 3 lw 1041 223 m20 9 lw 1060 215 m 10 Y s 1060 238 m 10 Y s 1051 231 m 2 X s 1066 231 m 3 X s 3 lw 1060 231 m20 9 lw 1079 207 m 11 Y s 1079 231 m 10 Y s 1069 224 m 3 X s 1085 224 m 3 X s 3 lw 1079 224 m20 9 lw 1098 218 m 12 Y s 1098 243 m 11 Y s 1088
 236 m 3 X s 1104 236 m 3 X s 3 lw 1098 236 m20 9 lw 1116 217 m 12 Y s 1116 242 m 12 Y s 1107 235 m 3 X s 1123 235 m 3 X s 3 lw 1116 235 m20 9 lw 1135 218 m 12 Y s 1135 243 m 13 Y s 1126 237 m 3 X s 1142 237 m 3 X s 3 lw 1135 237 m20 9 lw 1154 217 m
 13 Y s 1154 243 m 13 Y s 1145 237 m 3 X s 1161 237 m 3 X s 3 lw 1154 237 m20 9 lw 1173 225 m 14 Y s 1173 252 m 15 Y s 1164 246 m 2 X s 1179 246 m 3 X s 3 lw 1173 246 m20 9 lw 1192 213 m 15 Y s 1192 241 m 14 Y s 1182 234 m 3 X s 1198 234 m 3 X s 3 lw
 1192 234 m20 9 lw 1211 229 m 16 Y s 1211 258 m 16 Y s 1201 251 m 3 X s 1217 251 m 3 X s 3 lw 1211 251 m20 9 lw 1229 227 m 16 Y s 1229 256 m 16 Y s 1220 249 m 3 X s 1236 249 m 3 X s 3 lw 1229 249 m20 9 lw 1248 213 m 16 Y s 1248 243 m 16 Y s 1239 236
 m 3 X s 1255 236 m 3 X s 3 lw 1248 236 m20 9 lw 1267 228 m 18 Y s 1267 259 m 17 Y s 1258 252 m 3 X s 1274 252 m 3 X s 3 lw 1267 252 m20 9 lw 1286 208 m 18 Y s 1286 239 m 18 Y s 1277 233 m 2 X s 1292 233 m 3 X s 3 lw 1286 233 m20 9 lw 1305 203 m 19 Y
 s 1305 235 m 20 Y s 1295 229 m 3 X s 1311 229 m 3 X s 3 lw 1305 229 m20 9 lw 1324 209 m 21 Y s 1324 243 m 20 Y s 1314 236 m 3 X s 1330 236 m 3 X s 3 lw 1324 236 m20 9 lw 1342 200 m 20 Y s 1342 233 m 21 Y s 1333 227 m 3 X s 1349 227 m 3 X s 3 lw 1342
 227 m20 9 lw 1361 219 m 21 Y s 1361 253 m 22 Y s 1352 247 m 3 X s 1368 247 m 3 X s 3 lw 1361 247 m20 9 lw 1380 219 m 22 Y s 1380 254 m 22 Y s 1371 247 m 3 X s 1387 247 m 2 X s 3 lw 1380 247 m20 9 lw 1399 222 m 23 Y s 1399 258 m 23 Y s 1389 252 m 3 X
 s 1405 252 m 3 X s 3 lw 1399 252 m20 9 lw 1418 214 m 24 Y s 1418 251 m 23 Y s 1408 244 m 3 X s 1424 244 m 3 X s 3 lw 1418 244 m20 9 lw 1437 227 m 25 Y s 1437 265 m 25 Y s 1427 258 m 3 X s 1443 258 m 3 X s 3 lw 1437 258 m20 9 lw 1455 247 m 27 Y s
 1455 287 m 27 Y s 1446 281 m 3 X s 1462 281 m 3 X s 3 lw 1455 281 m20 9 lw 1474 224 m 27 Y s 1474 264 m 27 Y s 1465 257 m 3 X s 1481 257 m 3 X s 3 lw 1474 257 m20 9 lw 1493 216 m 27 Y s 1493 256 m 28 Y s 1484 250 m 3 X s 1500 250 m 2 X s 3 lw 1493
 250 m20 9 lw 1512 209 m 28 Y s 1512 250 m 27 Y s 1502 243 m 3 X s 1518 243 m 3 X s 3 lw 1512 243 m20 9 lw 1531 214 m 31 Y s 1531 258 m 30 Y s 1521 251 m 3 X s 1537 251 m 3 X s 3 lw 1531 251 m20 9 lw 1550 222 m 31 Y s 1550 266 m 32 Y s 1540 260 m 3 X
 s 1556 260 m 3 X s 3 lw 1550 260 m20 9 lw 1568 206 m 31 Y s 1568 250 m 31 Y s 1559 244 m 3 X s 1575 244 m 3 X s 3 lw 1568 244 m20 9 lw 1587 206 m 32 Y s 1587 251 m 33 Y s 1578 245 m 3 X s 1594 245 m 3 X s 3 lw 1587 245 m20 9 lw 1606 204 m 33 Y s
 1606 250 m 33 Y s 1597 243 m 3 X s 1613 243 m 2 X s 3 lw 1606 243 m20 9 lw 1625 220 m 34 Y s 1625 267 m 34 Y s 1615 260 m 3 X s 1631 260 m 3 X s 3 lw 1625 260 m20 9 lw 1644 216 m 37 Y s 1644 266 m 37 Y s 1634 260 m 3 X s 1650 260 m 3 X s 3 lw 1644
 260 m20 9 lw 1663 236 m 37 Y s 1663 287 m 37 Y s 1653 280 m 3 X s 1669 280 m 3 X s 3 lw 1663 280 m20 9 lw 1681 212 m 38 Y s 1681 263 m 38 Y s 1672 257 m 3 X s 1688 257 m 3 X s 3 lw 1681 257 m20 9 lw 1700 250 m 41 Y s 1700 304 m 41 Y s 1691 298 m 3 X
 s 1707 298 m 3 X s 3 lw 1700 298 m20 9 lw 1719 218 m 41 Y s 1719 272 m 41 Y s 1710 266 m 3 X s 1726 266 m 2 X s 3 lw 1719 266 m20 9 lw 1738 232 m 42 Y s 1738 287 m 43 Y s 1728 281 m 3 X s 1744 281 m 3 X s 3 lw 1738 281 m20 9 lw 1757 206 m 42 Y s
 1757 261 m 42 Y s 1747 255 m 3 X s 1763 255 m 3 X s 3 lw 1757 255 m20 9 lw 1776 208 m 45 Y s 1776 266 m 44 Y s 1766 259 m 3 X s 1782 259 m 3 X s 3 lw 1776 259 m20 9 lw 1794 217 m 43 Y s 1794 273 m 43 Y s 1785 267 m 3 X s 1801 267 m 3 X s 3 lw 1794
 267 m20 9 lw 1813 221 m 44 Y s 1813 278 m 44 Y s 1804 271 m 3 X s 1820 271 m 3 X s 3 lw 1813 271 m20 9 lw 1832 213 m 51 Y s 1832 277 m 52 Y s 1823 271 m 3 X s 1839 271 m 2 X s 3 lw 1832 271 m20 9 lw 1851 224 m 53 Y s 1851 290 m 53 Y s 1841 284 m 3 X
 s 1857 284 m 3 X s 3 lw 1851 284 m20 9 lw 1870 236 m 53 Y s 1870 302 m 52 Y s 1860 295 m 3 X s 1876 295 m 3 X s 3 lw 1870 295 m20 9 lw 1889 222 m 49 Y s 1889 284 m 50 Y s 1879 278 m 3 X s 1895 278 m 3 X s 3 lw 1889 278 m20 9 lw 1907 249 m 55 Y s
 1907 317 m 55 Y s 1898 311 m 3 X s 1914 311 m 3 X s 3 lw 1907 311 m20 9 lw 1926 213 m 56 Y s 1926 282 m 56 Y s 1917 275 m 3 X s 1933 275 m 3 X s 3 lw 1926 275 m20 9 lw 1945 196 m 55 Y s 1945 264 m 55 Y s 1936 258 m 3 X s 1952 258 m 2 X s 3 lw 1945
 258 m20 9 lw 1964 256 m 64 Y s 1964 333 m 64 Y s 1954 326 m 3 X s 1970 326 m 3 X s 3 lw 1964 326 m20 9 lw 1983 239 m 63 Y s 1983 315 m 64 Y s 1973 309 m 3 X s 1989 309 m 3 X s 3 lw 1983 309 m20 9 lw 2002 210 m 70 Y s 2002 293 m 70 Y s 1992 286 m 3 X
 s 2008 286 m 3 X s 3 lw 2002 286 m20 9 lw 2020 233 m 69 Y s 2020 315 m 69 Y s 2011 308 m 3 X s 2027 308 m 3 X s 3 lw 2020 308 m20 9 lw 2039 225 m 67 Y s 2039 305 m 68 Y s 2030 299 m 3 X s 2046 299 m 3 X s 3 lw 2039 299 m20 9 lw 2058 180 m 64 Y s
 2058 257 m 64 Y s 2049 250 m 3 X s 2065 250 m 2 X s 3 lw 2058 250 m20 9 lw 2077 194 m 66 Y s 2077 273 m 66 Y s 2067 267 m 3 X s 2083 267 m 3 X s 3 lw 2077 267 m20 9 lw 2096 279 m 76 Y s 2096 368 m 77 Y s 2086 362 m 3 X s 2102 362 m 3 X s 3 lw 2096
 362 m20 9 lw 2115 201 m 76 Y s 2115 290 m 76 Y s 2105 284 m 3 X s 2121 284 m 3 X s 3 lw 2115 284 m20 9 lw 2133 199 m 71 Y s 2133 283 m 71 Y s 2124 277 m 3 X s 2140 277 m 3 X s 3 lw 2133 277 m20 9 lw 2152 167 m 76 Y s 2152 256 m 75 Y s 2143 249 m 3 X
 s 2159 249 m 3 X s 3 lw 2152 249 m20 9 lw 2171 220 m 79 Y s 2171 312 m 78 Y s 2162 305 m 3 X s 2178 305 m 2 X s 3 lw 2171 305 m20 9 lw 2190 252 m 85 Y s 2190 350 m 86 Y s 2180 344 m 3 X s 2196 344 m 3 X s 3 lw 2190 344 m20 9 lw 3 lw 316 114 m 1883 X
 s
 gsave  2268 461 0 0 C 2101.55 32.5821 t 0 r /Helvetica findfont 42.537 sf 0 0 m ( GeV) show NC gr 
 gsave  2268 461 0 0 C 2082 16.2911 t 0 r /Helvetica findfont 29.4487 sf 0 0 m (T) show NC gr 
 gsave  2268 461 0 0 C 2052.67 32.5821 t 0 r /Helvetica findfont 42.537 sf 0 0 m (P) show NC gr  316 126 m -12 Y s 354 120 m -6 Y s 391 120 m -6 Y s 429 120 m -6 Y s 467 120 m -6 Y s 504 126 m -12 Y s 542 120 m -6 Y s 580 120 m -6 Y s 617 120 m -6 Y
 s 655 120 m -6 Y s 693 126 m -12 Y s 730 120 m -6 Y s 768 120 m -6 Y s 806 120 m -6 Y s 843 120 m -6 Y s 881 126 m -12 Y s 919 120 m -6 Y s 956 120 m -6 Y s 994 120 m -6 Y s 1032 120 m -6 Y s 1069 126 m -12 Y s 1107 120 m -6 Y s 1145 120 m -6 Y s
 1182 120 m -6 Y s 1220 120 m -6 Y s 1258 126 m -12 Y s 1295 120 m -6 Y s 1333 120 m -6 Y s 1371 120 m -6 Y s 1408 120 m -6 Y s 1446 126 m -12 Y s 1484 120 m -6 Y s 1521 120 m -6 Y s 1559 120 m -6 Y s 1597 120 m -6 Y s 1634 126 m -12 Y s 1672 120 m
 -6 Y s 1710 120 m -6 Y s 1747 120 m -6 Y s 1785 120 m -6 Y s 1823 126 m -12 Y s 1860 120 m -6 Y s 1898 120 m -6 Y s 1936 120 m -6 Y s 1973 120 m -6 Y s 2011 126 m -12 Y s 2049 120 m -6 Y s 2086 120 m -6 Y s 2124 120 m -6 Y s 2162 120 m -6 Y s 2199
 126 m -12 Y s
 gsave  2268 461 0 0 C 303.014 71.6807 t 0 r /Helvetica-Bold findfont 49.0812 sf 0 0 m (0) show NC gr 
 gsave  2268 461 0 0 C 472.441 71.6807 t 0 r /Helvetica-Bold findfont 49.0812 sf 0 0 m (10) show NC gr 
 gsave  2268 461 0 0 C 661.417 71.6807 t 0 r /Helvetica-Bold findfont 49.0812 sf 0 0 m (20) show NC gr 
 gsave  2268 461 0 0 C 850.394 71.6807 t 0 r /Helvetica-Bold findfont 49.0812 sf 0 0 m (30) show NC gr 
 gsave  2268 461 0 0 C 1039.37 71.6807 t 0 r /Helvetica-Bold findfont 49.0812 sf 0 0 m (40) show NC gr 
 gsave  2268 461 0 0 C 1228.35 71.6807 t 0 r /Helvetica-Bold findfont 49.0812 sf 0 0 m (50) show NC gr 
 gsave  2268 461 0 0 C 1414.06 71.6807 t 0 r /Helvetica-Bold findfont 49.0812 sf 0 0 m (60) show NC gr 
 gsave  2268 461 0 0 C 1603.04 71.6807 t 0 r /Helvetica-Bold findfont 49.0812 sf 0 0 m (70) show NC gr 
 gsave  2268 461 0 0 C 1792.02 71.6807 t 0 r /Helvetica-Bold findfont 49.0812 sf 0 0 m (80) show NC gr 
 gsave  2268 461 0 0 C 1980.99 71.6807 t 0 r /Helvetica-Bold findfont 49.0812 sf 0 0 m (90) show NC gr 
 gsave  2268 461 0 0 C 2156.94 71.6807 t 0 r /Helvetica-Bold findfont 49.0812 sf 0 0 m (100) show NC gr  316 461 m 1883 X s 316 450 m 11 Y s 354 456 m 5 Y s 391 456 m 5 Y s 429 456 m 5 Y s 467 456 m 5 Y s 504 450 m 11 Y s 542 456 m 5 Y s 580 456 m 5
 Y s 617 456 m 5 Y s 655 456 m 5 Y s 693 450 m 11 Y s 730 456 m 5 Y s 768 456 m 5 Y s 806 456 m 5 Y s 843 456 m 5 Y s 881 450 m 11 Y s 919 456 m 5 Y s 956 456 m 5 Y s 994 456 m 5 Y s 1032 456 m 5 Y s 1069 450 m 11 Y s 1107 456 m 5 Y s 1145 456 m 5 Y
 s 1182 456 m 5 Y s 1220 456 m 5 Y s 1258 450 m 11 Y s 1295 456 m 5 Y s 1333 456 m 5 Y s 1371 456 m 5 Y s 1408 456 m 5 Y s 1446 450 m 11 Y s 1484 456 m 5 Y s 1521 456 m 5 Y s 1559 456 m 5 Y s 1597 456 m 5 Y s 1634 450 m 11 Y s 1672 456 m 5 Y s 1710
 456 m 5 Y s 1747 456 m 5 Y s 1785 456 m 5 Y s 1823 450 m 11 Y s 1860 456 m 5 Y s 1898 456 m 5 Y s 1936 456 m 5 Y s 1973 456 m 5 Y s 2011 450 m 11 Y s 2049 456 m 5 Y s 2086 456 m 5 Y s 2124 456 m 5 Y s 2162 456 m 5 Y s 2199 450 m 11 Y s 316 114 m 347
 Y s
 gsave  2268 461 0 0 C 185.718 228.075 t 90 r /Helvetica findfont 42.537 sf 0 0 m (% reduction ) show NC gr  367 114 m -51 X s 367 176 m -51 X s 367 238 m -51 X s 367 299 m -51 X s 367 361 m -51 X s 367 423 m -51 X s 367 423 m -51 X s
 gsave  2268 461 0 0 C 280.206 97.7464 t 0 r /Helvetica-Bold findfont 39.2649 sf 0 0 m (0) show NC gr 
 gsave  2268 461 0 0 C 260.657 159.652 t 0 r /Helvetica-Bold findfont 39.2649 sf 0 0 m (10) show NC gr 
 gsave  2268 461 0 0 C 260.657 221.559 t 0 r /Helvetica-Bold findfont 39.2649 sf 0 0 m (20) show NC gr 
 gsave  2268 461 0 0 C 260.657 283.465 t 0 r /Helvetica-Bold findfont 39.2649 sf 0 0 m (30) show NC gr 
 gsave  2268 461 0 0 C 260.657 345.371 t 0 r /Helvetica-Bold findfont 39.2649 sf 0 0 m (40) show NC gr 
 gsave  2268 461 0 0 C 260.657 407.277 t 0 r /Helvetica-Bold findfont 39.2649 sf 0 0 m (50) show NC gr  2199 114 m 347 Y s 2148 114 m 51 X s 2148 176 m 51 X s 2148 238 m 51 X s 2148 299 m 51 X s 2148 361 m 51 X s 2148 423 m 51 X s 2148 423 m 51 X s
 gr  gr showpage
end
%%EOF
