%!PS-Adobe-2.0 EPSF-2.0
%%BoundingBox:  0 0 567 384
%%Title: /home/rohin/Analysis/dataAna/2014/July/soft_electron_vars/signa_background.eps: c1
%%Creator: ROOT Version 5.34/14
%%CreationDate: Tue Aug 19 23:39:40 2014
%%EndComments
%%BeginProlog
80 dict begin
/s {stroke} def /l {lineto} def /m {moveto} def /t {translate} def
/r {rotate} def /rl {roll}  def /R {repeat} def
/d {rlineto} def /rm {rmoveto} def /gr {grestore} def /f {eofill} def
/c {setrgbcolor} def /black {0 setgray} def /sd {setdash} def
/cl {closepath} def /sf {scalefont setfont} def /lw {setlinewidth} def
/box {m dup 0 exch d exch 0 d 0 exch neg d cl} def
/NC{systemdict begin initclip end}def/C{NC box clip newpath}def
/bl {box s} def /bf {box f} def /Y { 0 exch d} def /X { 0 d} def 
/K {{pop pop 0 moveto} exch kshow} bind def
/ita {/ang 15 def gsave [1 0 ang dup sin exch cos div 1 0 0] concat} def 
/mp {newpath /y exch def /x exch def} def
/side {[w .77 mul w .23 mul] .385 w mul sd w 0 l currentpoint t -144 r} def
/mr {mp x y w2 0 360 arc} def /m24 {mr s} def /m20 {mr f} def
/mb {mp x y w2 add m w2 neg 0 d 0 w neg d w 0 d 0 w d cl} def
/mt {mp x y w2 add m w2 neg w neg d w 0 d cl} def
/m21 {mb f} def /m25 {mb s} def /m22 {mt f} def /m26{mt s} def
/m23 {mp x y w2 sub m w2 w d w neg 0 d cl f} def
/m27 {mp x y w2 add m w3 neg w2 neg d w3 w2 neg d w3 w2 d cl s} def
/m28 {mp x w2 sub y w2 sub w3 add m w3 0 d  0 w3 neg d w3 0 d 0 w3 d w3 0 d  0 w3 d w3 neg 0 d 0 w3 d w3 neg 0 d 0 w3 neg d w3 neg 0 d cl s } def
/m29 {mp gsave x w2 sub y w2 add w3 sub m currentpoint t 4 {side} repeat cl fill gr} def
/m30 {mp gsave x w2 sub y w2 add w3 sub m currentpoint t 4 {side} repeat cl s gr} def
/m31 {mp x y w2 sub m 0 w d x w2 sub y m w 0 d x w2 sub y w2 add m w w neg d x w2 sub y w2 sub m w w d s} def
/m32 {mp x y w2 sub m w2 w d w neg 0 d cl s} def
/m33 {mp x y w2 add m w3 neg w2 neg d w3 w2 neg d w3 w2 d cl f} def
/m34 {mp x w2 sub y w2 sub w3 add m w3 0 d  0 w3 neg d w3 0 d 0 w3 d w3 0 d  0 w3 d w3 neg 0 d 0 w3 d w3 neg 0 d 0 w3 neg d w3 neg 0 d cl f } def
/m2 {mp x y w2 sub m 0 w d x w2 sub y m w 0 d s} def
/m5 {mp x w2 sub y w2 sub m w w d x w2 sub y w2 add m w w neg d s} def
/reEncode {exch findfont dup length dict begin {1 index /FID eq  {pop pop} {def} ifelse } forall /Encoding exch def currentdict end dup /FontName get exch definefont pop } def [/Times-Bold /Times-Italic /Times-BoldItalic /Helvetica /Helvetica-Oblique
 /Helvetica-Bold /Helvetica-BoldOblique /Courier /Courier-Oblique /Courier-Bold /Courier-BoldOblique /Times-Roman /AvantGarde-Book /AvantGarde-BookOblique /AvantGarde-Demi /AvantGarde-DemiOblique /Bookman-Demi /Bookman-DemiItalic /Bookman-Light
 /Bookman-LightItalic /Helvetica-Narrow /Helvetica-Narrow-Bold /Helvetica-Narrow-BoldOblique /Helvetica-Narrow-Oblique /NewCenturySchlbk-Roman /NewCenturySchlbk-Bold /NewCenturySchlbk-BoldItalic /NewCenturySchlbk-Italic /Palatino-Bold
 /Palatino-BoldItalic /Palatino-Italic /Palatino-Roman ] {ISOLatin1Encoding reEncode } forall
%%EndProlog
%%BeginSetup
%%EndSetup
newpath  gsave  .25 .25 scale  gsave  0 0 t black[  ] 0 sd 3 lw 1 1 1 c 2268 1538 0 0 bf black 1 1 1 c 1883 1322 317 185 bf black 1883 1322 317 185 bl 1 1 1 c 1883 1322 317 185 bf black 1883 1322 317 185 bl 0 0 0.6 c 9 lw 1 1 1 c black 0 0 0.6 c 317
 185 m 132 X 1214 Y 19 X -29 Y 19 X -25 Y 19 X -26 Y 19 X -25 Y 18 X -23 Y 19 X -24 Y 19 X -21 Y 19 X -22 Y 19 X -21 Y 18 X -18 Y 19 X -19 Y 19 X -19 Y 19 X -17 Y 19 X -16 Y 19 X -19 Y 18 X -15 Y 19 X -19 Y 19 X -11 Y 19 X -17 Y 19 X -16 Y 18 X -14 Y
 19 X -16 Y 19 X -15 Y 19 X -9 Y 19 X -16 Y 19 X -11 Y 18 X -16 Y 19 X -12 Y 19 X -13 Y 19 X -9 Y 19 X -19 Y 19 X -7 Y 18 X -9 Y 19 X -19 Y 19 X -5 Y 19 X -12 Y 19 X -15 Y 18 X -13 Y 19 X -4 Y 19 X -18 Y 19 X -4 Y 19 X -16 Y 19 X -7 Y 18 X -12 Y 19 X
 -15 Y 19 X -12 Y 19 X -1 Y 19 X -9 Y 19 X -7 Y 18 X -12 Y 19 X -10 Y 19 X -3 Y 19 X -16 Y 19 X -11 Y 18 X -9 Y 19 X -2 Y 19 X -22 Y 19 X -8 Y 19 X -1 Y 19 X -13 Y 18 X -7 Y 19 X -1 Y 19 X -23 Y 19 X 6 Y 19 X -13 Y 18 X -11 Y 19 X -9 Y 19 X -4 Y 19 X
 -8 Y 19 X -15 Y 19 X 13 Y 18 X -4 Y 19 X -48 Y 19 X -3 Y 19 X 5 Y 19 X 12 Y 19 X -18 Y 18 X -21 Y 19 X -3 Y 19 X -17 Y 19 X -5 Y 19 X -38 Y 18 X 13 Y 19 X 4 Y 19 X -6 Y 19 X -2 Y 19 X -7 Y 19 X -30 Y 18 X 19 Y 19 X -31 Y 19 X 10 Y 19 X -11 Y 19 X s
 black 3 lw 317 185 m 1883 X s
 gsave  2268 1538 0 0 C 2036.38 45.615 t 0 r /Helvetica findfont 71.6807 sf 0 0 m ( GeV) show NC gr 
 gsave  2268 1538 0 0 C 2003.8 19.5493 t 0 r /Helvetica findfont 48.8732 sf 0 0 m (T) show NC gr 
 gsave  2268 1538 0 0 C 1958.19 45.615 t 0 r /Helvetica findfont 71.6807 sf 0 0 m (P) show NC gr  317 223 m -38 Y s 355 204 m -19 Y s 393 204 m -19 Y s 430 204 m -19 Y s 468 204 m -19 Y s 506 223 m -38 Y s 543 204 m -19 Y s 581 204 m -19 Y s 619 204
 m -19 Y s 656 204 m -19 Y s 694 223 m -38 Y s 732 204 m -19 Y s 769 204 m -19 Y s 807 204 m -19 Y s 844 204 m -19 Y s 882 223 m -38 Y s 920 204 m -19 Y s 957 204 m -19 Y s 995 204 m -19 Y s 1033 204 m -19 Y s 1070 223 m -38 Y s 1108 204 m -19 Y s
 1146 204 m -19 Y s 1183 204 m -19 Y s 1221 204 m -19 Y s 1259 223 m -38 Y s 1296 204 m -19 Y s 1334 204 m -19 Y s 1372 204 m -19 Y s 1409 204 m -19 Y s 1447 223 m -38 Y s 1484 204 m -19 Y s 1522 204 m -19 Y s 1560 204 m -19 Y s 1597 204 m -19 Y s
 1635 223 m -38 Y s 1673 204 m -19 Y s 1710 204 m -19 Y s 1748 204 m -19 Y s 1786 204 m -19 Y s 1823 223 m -38 Y s 1861 204 m -19 Y s 1899 204 m -19 Y s 1936 204 m -19 Y s 1974 204 m -19 Y s 2011 223 m -38 Y s 2049 204 m -19 Y s 2087 204 m -19 Y s
 2124 204 m -19 Y s 2162 204 m -19 Y s 2200 223 m -38 Y s
 gsave  2268 1538 0 0 C 296.497 117.296 t 0 r /Helvetica findfont 71.6807 sf 0 0 m (0) show NC gr 
 gsave  2268 1538 0 0 C 465.925 117.296 t 0 r /Helvetica findfont 71.6807 sf 0 0 m (10) show NC gr 
 gsave  2268 1538 0 0 C 651.643 117.296 t 0 r /Helvetica findfont 71.6807 sf 0 0 m (20) show NC gr 
 gsave  2268 1538 0 0 C 840.619 117.296 t 0 r /Helvetica findfont 71.6807 sf 0 0 m (30) show NC gr 
 gsave  2268 1538 0 0 C 1029.6 117.296 t 0 r /Helvetica findfont 71.6807 sf 0 0 m (40) show NC gr 
 gsave  2268 1538 0 0 C 1218.57 117.296 t 0 r /Helvetica findfont 71.6807 sf 0 0 m (50) show NC gr 
 gsave  2268 1538 0 0 C 1407.55 117.296 t 0 r /Helvetica findfont 71.6807 sf 0 0 m (60) show NC gr 
 gsave  2268 1538 0 0 C 1593.27 117.296 t 0 r /Helvetica findfont 71.6807 sf 0 0 m (70) show NC gr 
 gsave  2268 1538 0 0 C 1782.24 117.296 t 0 r /Helvetica findfont 71.6807 sf 0 0 m (80) show NC gr 
 gsave  2268 1538 0 0 C 1971.22 117.296 t 0 r /Helvetica findfont 71.6807 sf 0 0 m (90) show NC gr 
 gsave  2268 1538 0 0 C 2140.65 117.296 t 0 r /Helvetica findfont 71.6807 sf 0 0 m (100) show NC gr  317 1507 m 1883 X s 317 1469 m 38 Y s 355 1488 m 19 Y s 393 1488 m 19 Y s 430 1488 m 19 Y s 468 1488 m 19 Y s 506 1469 m 38 Y s 543 1488 m 19 Y s 581
 1488 m 19 Y s 619 1488 m 19 Y s 656 1488 m 19 Y s 694 1469 m 38 Y s 732 1488 m 19 Y s 769 1488 m 19 Y s 807 1488 m 19 Y s 844 1488 m 19 Y s 882 1469 m 38 Y s 920 1488 m 19 Y s 957 1488 m 19 Y s 995 1488 m 19 Y s 1033 1488 m 19 Y s 1070 1469 m 38 Y s
 1108 1488 m 19 Y s 1146 1488 m 19 Y s 1183 1488 m 19 Y s 1221 1488 m 19 Y s 1259 1469 m 38 Y s 1296 1488 m 19 Y s 1334 1488 m 19 Y s 1372 1488 m 19 Y s 1409 1488 m 19 Y s 1447 1469 m 38 Y s 1484 1488 m 19 Y s 1522 1488 m 19 Y s 1560 1488 m 19 Y s
 1597 1488 m 19 Y s 1635 1469 m 38 Y s 1673 1488 m 19 Y s 1710 1488 m 19 Y s 1748 1488 m 19 Y s 1786 1488 m 19 Y s 1823 1469 m 38 Y s 1861 1488 m 19 Y s 1899 1488 m 19 Y s 1936 1488 m 19 Y s 1974 1488 m 19 Y s 2011 1469 m 38 Y s 2049 1488 m 19 Y s
 2087 1488 m 19 Y s 2124 1488 m 19 Y s 2162 1488 m 19 Y s 2200 1469 m 38 Y s 317 185 m 1322 Y s
 gsave  2268 1538 0 0 C 159.652 1026.34 t 90 r /Helvetica findfont 71.6807 sf 0 0 m (Events/1.0GeV) show NC gr  376 199 m -59 X s
 gsave  2268 1538 0 0 C 254.141 198.751 t 0 r /Helvetica findfont 48.8732 sf 0 0 m (\2554) show NC gr 
 gsave  2268 1538 0 0 C 175.944 169.427 t 0 r /Helvetica findfont 71.6807 sf 0 0 m (10) show NC gr  347 317 m -30 X s 347 386 m -30 X s 347 435 m -30 X s 347 473 m -30 X s 347 504 m -30 X s 347 530 m -30 X s 347 553 m -30 X s 347 573 m -30 X s 376
 591 m -59 X s
 gsave  2268 1538 0 0 C 254.141 592.995 t 0 r /Helvetica findfont 48.8732 sf 0 0 m (\2553) show NC gr 
 gsave  2268 1538 0 0 C 175.944 560.413 t 0 r /Helvetica findfont 71.6807 sf 0 0 m (10) show NC gr  347 708 m -30 X s 347 777 m -30 X s 347 826 m -30 X s 347 864 m -30 X s 347 895 m -30 X s 347 921 m -30 X s 347 944 m -30 X s 347 964 m -30 X s 376
 982 m -59 X s
 gsave  2268 1538 0 0 C 254.141 980.722 t 0 r /Helvetica findfont 48.8732 sf 0 0 m (\2552) show NC gr 
 gsave  2268 1538 0 0 C 175.944 951.398 t 0 r /Helvetica findfont 71.6807 sf 0 0 m (10) show NC gr  347 1100 m -30 X s 347 1169 m -30 X s 347 1218 m -30 X s 347 1256 m -30 X s 347 1287 m -30 X s 347 1313 m -30 X s 347 1335 m -30 X s 347 1355 m -30 X
 s 376 1373 m -59 X s
 gsave  2268 1538 0 0 C 260.657 1371.71 t 0 r /Helvetica findfont 48.8732 sf 0 0 m (\2551) show NC gr 
 gsave  2268 1538 0 0 C 182.46 1342.38 t 0 r /Helvetica findfont 71.6807 sf 0 0 m (10) show NC gr  347 1491 m -30 X s 2200 185 m 1322 Y s 2141 199 m 59 X s 2170 317 m 30 X s 2170 386 m 30 X s 2170 435 m 30 X s 2170 473 m 30 X s 2170 504 m 30 X s 2170
 530 m 30 X s 2170 553 m 30 X s 2170 573 m 30 X s 2141 591 m 59 X s 2170 708 m 30 X s 2170 777 m 30 X s 2170 826 m 30 X s 2170 864 m 30 X s 2170 895 m 30 X s 2170 921 m 30 X s 2170 944 m 30 X s 2170 964 m 30 X s 2141 982 m 59 X s 2170 1100 m 30 X s
 2170 1169 m 30 X s 2170 1218 m 30 X s 2170 1256 m 30 X s 2170 1287 m 30 X s 2170 1313 m 30 X s 2170 1335 m 30 X s 2170 1355 m 30 X s 2141 1373 m 59 X s 2170 1491 m 30 X s 0 0.6 0.6 c 9 lw 1 1 1 c black 0 0.6 0.6 c 317 185 m 132 X 1219 Y 19 X -30 Y
 19 X -24 Y 19 X -20 Y 19 X -19 Y 18 X -17 Y 19 X -17 Y 19 X -16 Y 19 X -16 Y 19 X -18 Y 18 X -21 Y 19 X -25 Y 19 X -27 Y 19 X -27 Y 19 X -26 Y 19 X -26 Y 18 X -25 Y 19 X -26 Y 19 X -25 Y 19 X -24 Y 19 X -26 Y 18 X -24 Y 19 X -23 Y 19 X -22 Y 19 X
 -23 Y 19 X -21 Y 19 X -21 Y 18 X -20 Y 19 X -18 Y 19 X -20 Y 19 X -19 Y 19 X -15 Y 19 X -19 Y 18 X -16 Y 19 X -17 Y 19 X -13 Y 19 X -16 Y 19 X -17 Y 18 X -15 Y 19 X -13 Y 19 X -14 Y 19 X -15 Y 19 X -11 Y 19 X -15 Y 18 X -12 Y 19 X -15 Y 19 X -10 Y
 19 X -15 Y 19 X -4 Y 19 X -17 Y 18 X -11 Y 19 X -9 Y 19 X -10 Y 19 X -12 Y 19 X -12 Y 18 X -6 Y 19 X -18 Y 19 X -10 Y 19 X -15 Y 19 X -4 Y 19 X -9 Y 18 X -18 Y 19 X -5 Y 19 X -12 Y 19 X -4 Y 19 X -22 Y 18 X -5 Y 19 X -13 Y 19 X 2 Y 19 X -8 Y 19 X
 -14 Y 19 X -3 Y 18 X -16 Y 19 X -12 Y 19 X -14 Y 19 X -10 Y 19 X -5 Y 19 X -4 Y 18 X -5 Y 283 X s 0.6 0 0 c 1 1 1 c black 0.6 0 0 c 317 185 m 132 X 1212 Y 19 X -35 Y 19 X -30 Y 19 X -26 Y 19 X -24 Y 18 X -22 Y 19 X -21 Y 19 X -18 Y 19 X -20 Y 19 X
 -18 Y 18 X -18 Y 19 X -17 Y 19 X -17 Y 19 X -17 Y 19 X -15 Y 19 X -14 Y 18 X -15 Y 19 X -13 Y 19 X -17 Y 19 X -13 Y 19 X -14 Y 18 X -15 Y 19 X -14 Y 19 X -12 Y 19 X -16 Y 19 X -12 Y 19 X -12 Y 18 X -14 Y 19 X -12 Y 19 X -12 Y 19 X -13 Y 19 X -9 Y 19
 X -11 Y 18 X -11 Y 19 X -12 Y 19 X -13 Y 19 X -10 Y 19 X -9 Y 18 X -9 Y 19 X -14 Y 19 X -13 Y 19 X -11 Y 19 X -5 Y 19 X -11 Y 18 X -9 Y 19 X -13 Y 19 X -8 Y 19 X -8 Y 19 X -10 Y 19 X -10 Y 18 X -7 Y 19 X -9 Y 19 X -8 Y 19 X -11 Y 37 X -17 Y 19 X -7
 Y 19 X -11 Y 19 X -8 Y 19 X -10 Y 19 X -6 Y 18 X -6 Y 19 X -8 Y 19 X -6 Y 19 X -10 Y 19 X -11 Y 18 X -8 Y 19 X -10 Y 19 X -4 Y 19 X -16 Y 19 X 6 Y 19 X -15 Y 18 X -13 Y 19 X -7 Y 19 X -3 Y 19 X -13 Y 19 X -3 Y 19 X -6 Y 18 X -10 Y 19 X -4 Y 19 X -2
 Y 19 X -8 Y 19 X -10 Y 18 X -17 Y 19 X 11 Y 19 X -27 Y 19 X -3 Y 19 X -6 Y 19 X -8 Y 18 X -11 Y 19 X 7 Y 19 X -21 Y 19 X -6 Y 19 X s black
 gsave  2268 1538 0 0 C 1388 1332.61 t 0 r /Helvetica-Bold findfont 55.3896 sf 0 0 m (B electrons) show NC gr  0 0 0.6 c 1172 1371 m 179 X s black
 gsave  2268 1538 0 0 C 1388 1153.41 t 0 r /Helvetica-Bold findfont 55.3896 sf 0 0 m (conversion electrons) show NC gr  0 0.6 0.6 c 1172 1192 m 179 X s black
 gsave  2268 1538 0 0 C 1388 974.206 t 0 r /Helvetica-Bold findfont 55.3896 sf 0 0 m (Hadrons) show NC gr  0.6 0 0 c 1172 1012 m 179 X s
 gr  gr showpage
end
%%EOF
