%!PS-Adobe-2.0 EPSF-2.0
%%BoundingBox:  0 0 567 384
%%Title: : c1
%%Creator: ROOT Version 5.34/14
%%CreationDate: Wed Aug 20 17:44:10 2014
%%EndComments
%%BeginProlog
80 dict begin
/s {stroke} def /l {lineto} def /m {moveto} def /t {translate} def
/r {rotate} def /rl {roll}  def /R {repeat} def
/d {rlineto} def /rm {rmoveto} def /gr {grestore} def /f {eofill} def
/c {setrgbcolor} def /black {0 setgray} def /sd {setdash} def
/cl {closepath} def /sf {scalefont setfont} def /lw {setlinewidth} def
/box {m dup 0 exch d exch 0 d 0 exch neg d cl} def
/NC{systemdict begin initclip end}def/C{NC box clip newpath}def
/bl {box s} def /bf {box f} def /Y { 0 exch d} def /X { 0 d} def 
/K {{pop pop 0 moveto} exch kshow} bind def
/ita {/ang 15 def gsave [1 0 ang dup sin exch cos div 1 0 0] concat} def 
/mp {newpath /y exch def /x exch def} def
/side {[w .77 mul w .23 mul] .385 w mul sd w 0 l currentpoint t -144 r} def
/mr {mp x y w2 0 360 arc} def /m24 {mr s} def /m20 {mr f} def
/mb {mp x y w2 add m w2 neg 0 d 0 w neg d w 0 d 0 w d cl} def
/mt {mp x y w2 add m w2 neg w neg d w 0 d cl} def
/m21 {mb f} def /m25 {mb s} def /m22 {mt f} def /m26{mt s} def
/m23 {mp x y w2 sub m w2 w d w neg 0 d cl f} def
/m27 {mp x y w2 add m w3 neg w2 neg d w3 w2 neg d w3 w2 d cl s} def
/m28 {mp x w2 sub y w2 sub w3 add m w3 0 d  0 w3 neg d w3 0 d 0 w3 d w3 0 d  0 w3 d w3 neg 0 d 0 w3 d w3 neg 0 d 0 w3 neg d w3 neg 0 d cl s } def
/m29 {mp gsave x w2 sub y w2 add w3 sub m currentpoint t 4 {side} repeat cl fill gr} def
/m30 {mp gsave x w2 sub y w2 add w3 sub m currentpoint t 4 {side} repeat cl s gr} def
/m31 {mp x y w2 sub m 0 w d x w2 sub y m w 0 d x w2 sub y w2 add m w w neg d x w2 sub y w2 sub m w w d s} def
/m32 {mp x y w2 sub m w2 w d w neg 0 d cl s} def
/m33 {mp x y w2 add m w3 neg w2 neg d w3 w2 neg d w3 w2 d cl f} def
/m34 {mp x w2 sub y w2 sub w3 add m w3 0 d  0 w3 neg d w3 0 d 0 w3 d w3 0 d  0 w3 d w3 neg 0 d 0 w3 d w3 neg 0 d 0 w3 neg d w3 neg 0 d cl f } def
/m2 {mp x y w2 sub m 0 w d x w2 sub y m w 0 d s} def
/m5 {mp x w2 sub y w2 sub m w w d x w2 sub y w2 add m w w neg d s} def
/reEncode {exch findfont dup length dict begin {1 index /FID eq  {pop pop} {def} ifelse } forall /Encoding exch def currentdict end dup /FontName get exch definefont pop } def [/Times-Bold /Times-Italic /Times-BoldItalic /Helvetica /Helvetica-Oblique
 /Helvetica-Bold /Helvetica-BoldOblique /Courier /Courier-Oblique /Courier-Bold /Courier-BoldOblique /Times-Roman /AvantGarde-Book /AvantGarde-BookOblique /AvantGarde-Demi /AvantGarde-DemiOblique /Bookman-Demi /Bookman-DemiItalic /Bookman-Light
 /Bookman-LightItalic /Helvetica-Narrow /Helvetica-Narrow-Bold /Helvetica-Narrow-BoldOblique /Helvetica-Narrow-Oblique /NewCenturySchlbk-Roman /NewCenturySchlbk-Bold /NewCenturySchlbk-BoldItalic /NewCenturySchlbk-Italic /Palatino-Bold
 /Palatino-BoldItalic /Palatino-Italic /Palatino-Roman ] {ISOLatin1Encoding reEncode } forall
%%EndProlog
%%BeginSetup
%%EndSetup
newpath  gsave  .25 .25 scale  gsave  0 0 t black[  ] 0 sd 3 lw 1 1 1 c 2268 1538 0 0 bf black 1 1 1 c 1883 1322 317 185 bf black 1883 1322 317 185 bl 1 1 1 c 1883 1322 317 185 bf black 1883 1322 317 185 bl 0 0 0.6 c 6 lw 1 1 1 c black 0 0 0.6 c 317
 1444 m 38 X -1 Y 75 X -1 Y 19 X -1 Y 57 X -2 Y 56 X -1 Y 19 X -1 Y 38 X -1 Y 18 X -1 Y 19 X -1 Y 19 X -1 Y 75 X -1 Y 38 X -2 Y 75 X -1 Y 19 X -1 Y 19 X -2 Y 19 X -2 Y 19 X -1 Y 37 X -3 Y 57 X -1 Y 19 X -1 Y 18 X -1 Y 38 X -2 Y 19 X -3 Y 19 X -1 Y 18
 X -2 Y 19 X -1 Y 19 X -1 Y 19 X -3 Y 19 X -4 Y 19 X -1 Y 18 X -3 Y 19 X -3 Y 19 X -1 Y 19 X -3 Y 19 X -3 Y 19 X -2 Y 18 X -2 Y 19 X -4 Y 19 X -3 Y 19 X -4 Y 19 X -5 Y 18 X -2 Y 19 X -3 Y 19 X -4 Y 19 X -5 Y 19 X -2 Y 19 X -5 Y 18 X -4 Y 19 X -4 Y 19
 X -7 Y 19 X -3 Y 19 X -6 Y 18 X -4 Y 19 X -7 Y 19 X -11 Y 19 X -13 Y 19 X -6 Y 19 X -7 Y 18 X -10 Y 19 X -11 Y 19 X -9 Y 19 X -12 Y 19 X -13 Y 19 X -17 Y 18 X -14 Y 19 X -13 Y 19 X -15 Y 19 X -18 Y 19 X -16 Y 18 X -17 Y 19 X -27 Y 19 X -27 Y 19 X
 -39 Y 19 X -60 Y 19 X -60 Y 18 X -65 Y 19 X -99 Y 19 X -204 Y 19 X -282 Y 19 X s black 3 lw 317 185 m 1883 X s
 gsave  2268 1538 0 0 C 1899.54 39.0986 t 0 r /Helvetica findfont 71.6807 sf 0 0 m (Signal eff) show NC gr  317 223 m -38 Y s 355 204 m -19 Y s 393 204 m -19 Y s 430 204 m -19 Y s 468 204 m -19 Y s 506 223 m -38 Y s 543 204 m -19 Y s 581 204 m -19 Y
 s 619 204 m -19 Y s 656 204 m -19 Y s 694 223 m -38 Y s 732 204 m -19 Y s 769 204 m -19 Y s 807 204 m -19 Y s 844 204 m -19 Y s 882 223 m -38 Y s 920 204 m -19 Y s 957 204 m -19 Y s 995 204 m -19 Y s 1033 204 m -19 Y s 1070 223 m -38 Y s 1108 204 m
 -19 Y s 1146 204 m -19 Y s 1183 204 m -19 Y s 1221 204 m -19 Y s 1259 223 m -38 Y s 1296 204 m -19 Y s 1334 204 m -19 Y s 1372 204 m -19 Y s 1409 204 m -19 Y s 1447 223 m -38 Y s 1484 204 m -19 Y s 1522 204 m -19 Y s 1560 204 m -19 Y s 1597 204 m
 -19 Y s 1635 223 m -38 Y s 1673 204 m -19 Y s 1710 204 m -19 Y s 1748 204 m -19 Y s 1786 204 m -19 Y s 1823 223 m -38 Y s 1861 204 m -19 Y s 1899 204 m -19 Y s 1936 204 m -19 Y s 1974 204 m -19 Y s 2011 223 m -38 Y s 2049 204 m -19 Y s 2087 204 m
 -19 Y s 2124 204 m -19 Y s 2162 204 m -19 Y s 2200 223 m -38 Y s
 gsave  2268 1538 0 0 C 296.497 117.296 t 0 r /Helvetica findfont 71.6807 sf 0 0 m (0) show NC gr 
 gsave  2268 1538 0 0 C 459.408 117.296 t 0 r /Helvetica findfont 71.6807 sf 0 0 m (0.1) show NC gr 
 gsave  2268 1538 0 0 C 641.868 117.296 t 0 r /Helvetica findfont 71.6807 sf 0 0 m (0.2) show NC gr 
 gsave  2268 1538 0 0 C 830.844 117.296 t 0 r /Helvetica findfont 71.6807 sf 0 0 m (0.3) show NC gr 
 gsave  2268 1538 0 0 C 1019.82 117.296 t 0 r /Helvetica findfont 71.6807 sf 0 0 m (0.4) show NC gr 
 gsave  2268 1538 0 0 C 1208.8 117.296 t 0 r /Helvetica findfont 71.6807 sf 0 0 m (0.5) show NC gr 
 gsave  2268 1538 0 0 C 1397.77 117.296 t 0 r /Helvetica findfont 71.6807 sf 0 0 m (0.6) show NC gr 
 gsave  2268 1538 0 0 C 1583.49 117.296 t 0 r /Helvetica findfont 71.6807 sf 0 0 m (0.7) show NC gr 
 gsave  2268 1538 0 0 C 1772.47 117.296 t 0 r /Helvetica findfont 71.6807 sf 0 0 m (0.8) show NC gr 
 gsave  2268 1538 0 0 C 1961.44 117.296 t 0 r /Helvetica findfont 71.6807 sf 0 0 m (0.9) show NC gr 
 gsave  2268 1538 0 0 C 2186.26 117.296 t 0 r /Helvetica findfont 71.6807 sf 0 0 m (1) show NC gr  317 1507 m 1883 X s 317 1469 m 38 Y s 355 1488 m 19 Y s 393 1488 m 19 Y s 430 1488 m 19 Y s 468 1488 m 19 Y s 506 1469 m 38 Y s 543 1488 m 19 Y s 581
 1488 m 19 Y s 619 1488 m 19 Y s 656 1488 m 19 Y s 694 1469 m 38 Y s 732 1488 m 19 Y s 769 1488 m 19 Y s 807 1488 m 19 Y s 844 1488 m 19 Y s 882 1469 m 38 Y s 920 1488 m 19 Y s 957 1488 m 19 Y s 995 1488 m 19 Y s 1033 1488 m 19 Y s 1070 1469 m 38 Y s
 1108 1488 m 19 Y s 1146 1488 m 19 Y s 1183 1488 m 19 Y s 1221 1488 m 19 Y s 1259 1469 m 38 Y s 1296 1488 m 19 Y s 1334 1488 m 19 Y s 1372 1488 m 19 Y s 1409 1488 m 19 Y s 1447 1469 m 38 Y s 1484 1488 m 19 Y s 1522 1488 m 19 Y s 1560 1488 m 19 Y s
 1597 1488 m 19 Y s 1635 1469 m 38 Y s 1673 1488 m 19 Y s 1710 1488 m 19 Y s 1748 1488 m 19 Y s 1786 1488 m 19 Y s 1823 1469 m 38 Y s 1861 1488 m 19 Y s 1899 1488 m 19 Y s 1936 1488 m 19 Y s 1974 1488 m 19 Y s 2011 1469 m 38 Y s 2049 1488 m 19 Y s
 2087 1488 m 19 Y s 2124 1488 m 19 Y s 2162 1488 m 19 Y s 2200 1469 m 38 Y s 317 185 m 1322 Y s
 gsave  2268 1538 0 0 C 153.136 788.488 t 90 r /Helvetica findfont 71.6807 sf 0 0 m (Backgr rejection ) show NC gr  376 235 m -59 X s 347 283 m -30 X s 347 332 m -30 X s 347 380 m -30 X s 347 428 m -30 X s 376 477 m -59 X s 347 525 m -30
 X s 347 574 m -30 X s 347 622 m -30 X s 347 670 m -30 X s 376 719 m -59 X s 347 767 m -30 X s 347 815 m -30 X s 347 864 m -30 X s 347 912 m -30 X s 376 960 m -59 X s 347 1009 m -30 X s 347 1057 m -30 X s 347 1106 m -30 X s 347 1154 m -30 X s 376
 1202 m -59 X s 347 1251 m -30 X s 347 1299 m -30 X s 347 1347 m -30 X s 347 1396 m -30 X s 376 1444 m -59 X s 376 235 m -59 X s 347 187 m -30 X s 376 1444 m -59 X s 347 1493 m -30 X s
 gsave  2268 1538 0 0 C 205.267 211.784 t 0 r /Helvetica findfont 71.6807 sf 0 0 m (0.5) show NC gr 
 gsave  2268 1538 0 0 C 205.267 452.892 t 0 r /Helvetica findfont 71.6807 sf 0 0 m (0.6) show NC gr 
 gsave  2268 1538 0 0 C 205.267 693.999 t 0 r /Helvetica findfont 71.6807 sf 0 0 m (0.7) show NC gr 
 gsave  2268 1538 0 0 C 205.267 935.107 t 0 r /Helvetica findfont 71.6807 sf 0 0 m (0.8) show NC gr 
 gsave  2268 1538 0 0 C 205.267 1179.47 t 0 r /Helvetica findfont 71.6807 sf 0 0 m (0.9) show NC gr 
 gsave  2268 1538 0 0 C 276.948 1417.32 t 0 r /Helvetica findfont 71.6807 sf 0 0 m (1) show NC gr  2200 185 m 1322 Y s 2141 235 m 59 X s 2170 283 m 30 X s 2170 332 m 30 X s 2170 380 m 30 X s 2170 428 m 30 X s 2141 477 m 59 X s 2170 525 m 30 X s 2170
 574 m 30 X s 2170 622 m 30 X s 2170 670 m 30 X s 2141 719 m 59 X s 2170 767 m 30 X s 2170 815 m 30 X s 2170 864 m 30 X s 2170 912 m 30 X s 2141 960 m 59 X s 2170 1009 m 30 X s 2170 1057 m 30 X s 2170 1106 m 30 X s 2170 1154 m 30 X s 2141 1202 m 59 X
 s 2170 1251 m 30 X s 2170 1299 m 30 X s 2170 1347 m 30 X s 2170 1396 m 30 X s 2141 1444 m 59 X s 2141 235 m 59 X s 2170 187 m 30 X s 2141 1444 m 59 X s 2170 1493 m 30 X s 1 0 0 c 6 lw 1 1 1 c 1 0 0 c 3 lw /w 31 def /w2 {w 2 div} def /w3 {w 3 div}
 def 1268 1357 m22 6 lw black
 gsave  2268 1538 0 0 C 931.849 589.737 t 0 r /Helvetica findfont 55.3896 sf 0 0 m (BDTG) show NC gr  0 0 0.6 c 788 619 m 120 X s black
 gsave  2268 1538 0 0 C 931.849 452.892 t 0 r /Helvetica findfont 55.3896 sf 0 0 m (Cut Menu \(tight++\)) show NC gr  1 0 0 c 788 482 m 120 X s
 gr  gr showpage
end
%%EOF
