%!PS-Adobe-2.0 EPSF-2.0
%%BoundingBox:  0 0 567 384
%%Title: trtHitRatio.eps: c1_n19
%%Creator: ROOT Version 5.34/14
%%CreationDate: Mon Sep  8 03:16:17 2014
%%EndComments
%%BeginProlog
80 dict begin
/s {stroke} def /l {lineto} def /m {moveto} def /t {translate} def
/r {rotate} def /rl {roll}  def /R {repeat} def
/d {rlineto} def /rm {rmoveto} def /gr {grestore} def /f {eofill} def
/c {setrgbcolor} def /black {0 setgray} def /sd {setdash} def
/cl {closepath} def /sf {scalefont setfont} def /lw {setlinewidth} def
/box {m dup 0 exch d exch 0 d 0 exch neg d cl} def
/NC{systemdict begin initclip end}def/C{NC box clip newpath}def
/bl {box s} def /bf {box f} def /Y { 0 exch d} def /X { 0 d} def 
/K {{pop pop 0 moveto} exch kshow} bind def
/ita {/ang 15 def gsave [1 0 ang dup sin exch cos div 1 0 0] concat} def 
/mp {newpath /y exch def /x exch def} def
/side {[w .77 mul w .23 mul] .385 w mul sd w 0 l currentpoint t -144 r} def
/mr {mp x y w2 0 360 arc} def /m24 {mr s} def /m20 {mr f} def
/mb {mp x y w2 add m w2 neg 0 d 0 w neg d w 0 d 0 w d cl} def
/mt {mp x y w2 add m w2 neg w neg d w 0 d cl} def
/m21 {mb f} def /m25 {mb s} def /m22 {mt f} def /m26{mt s} def
/m23 {mp x y w2 sub m w2 w d w neg 0 d cl f} def
/m27 {mp x y w2 add m w3 neg w2 neg d w3 w2 neg d w3 w2 d cl s} def
/m28 {mp x w2 sub y w2 sub w3 add m w3 0 d  0 w3 neg d w3 0 d 0 w3 d w3 0 d  0 w3 d w3 neg 0 d 0 w3 d w3 neg 0 d 0 w3 neg d w3 neg 0 d cl s } def
/m29 {mp gsave x w2 sub y w2 add w3 sub m currentpoint t 4 {side} repeat cl fill gr} def
/m30 {mp gsave x w2 sub y w2 add w3 sub m currentpoint t 4 {side} repeat cl s gr} def
/m31 {mp x y w2 sub m 0 w d x w2 sub y m w 0 d x w2 sub y w2 add m w w neg d x w2 sub y w2 sub m w w d s} def
/m32 {mp x y w2 sub m w2 w d w neg 0 d cl s} def
/m33 {mp x y w2 add m w3 neg w2 neg d w3 w2 neg d w3 w2 d cl f} def
/m34 {mp x w2 sub y w2 sub w3 add m w3 0 d  0 w3 neg d w3 0 d 0 w3 d w3 0 d  0 w3 d w3 neg 0 d 0 w3 d w3 neg 0 d 0 w3 neg d w3 neg 0 d cl f } def
/m2 {mp x y w2 sub m 0 w d x w2 sub y m w 0 d s} def
/m5 {mp x w2 sub y w2 sub m w w d x w2 sub y w2 add m w w neg d s} def
/reEncode {exch findfont dup length dict begin {1 index /FID eq  {pop pop} {def} ifelse } forall /Encoding exch def currentdict end dup /FontName get exch definefont pop } def [/Times-Bold /Times-Italic /Times-BoldItalic /Helvetica /Helvetica-Oblique
 /Helvetica-Bold /Helvetica-BoldOblique /Courier /Courier-Oblique /Courier-Bold /Courier-BoldOblique /Times-Roman /AvantGarde-Book /AvantGarde-BookOblique /AvantGarde-Demi /AvantGarde-DemiOblique /Bookman-Demi /Bookman-DemiItalic /Bookman-Light
 /Bookman-LightItalic /Helvetica-Narrow /Helvetica-Narrow-Bold /Helvetica-Narrow-BoldOblique /Helvetica-Narrow-Oblique /NewCenturySchlbk-Roman /NewCenturySchlbk-Bold /NewCenturySchlbk-BoldItalic /NewCenturySchlbk-Italic /Palatino-Bold
 /Palatino-BoldItalic /Palatino-Italic /Palatino-Roman ] {ISOLatin1Encoding reEncode } forall
%%EndProlog
%%BeginSetup
%%EndSetup
newpath  gsave  .25 .25 scale  gsave  0 0 t black[  ] 0 sd 3 lw 1 1 1 c 2268 1538 0 0 bf black 1 1 1 c 1883 1322 317 185 bf black 1883 1322 317 185 bl 9 lw 1 1 1 c black 317 1441 m 22 X s 353 1441 m 22 X s 3 lw /w 13 def /w2 {w 2 div} def /w3 {w 3
 div} def 346 1441 m20 9 lw 375 1400 m 22 X s 410 1400 m 22 X s 3 lw 403 1400 m20 9 lw 432 1391 m 22 X s 467 1391 m 22 X s 3 lw 460 1391 m20 9 lw 489 1371 m 22 X s 524 1371 m 22 X s 3 lw 517 1371 m20 9 lw 546 1328 m 22 X s 581 1328 m 22 X s 3 lw 574
 1328 m20 9 lw 603 1320 m 22 X s 638 1320 m 22 X s 3 lw 631 1320 m20 9 lw 660 1313 m 22 X s 695 1313 m 22 X s 3 lw 688 1313 m20 9 lw 717 1314 m 22 X s 752 1314 m 22 X s 3 lw 745 1314 m20 9 lw 774 1294 m 22 X s 809 1294 m 22 X s 3 lw 802 1294 m20 9 lw
 831 1274 m 22 X s 866 1274 m 22 X s 3 lw 859 1274 m20 9 lw 888 1246 m 22 X s 923 1246 m 22 X s 3 lw 916 1246 m20 9 lw 945 1218 m 22 X s 980 1218 m 22 X s 3 lw 973 1218 m20 9 lw 1002 1165 m 22 X s 1037 1165 m 22 X s 3 lw 1030 1165 m20 9 lw 1059 1111
 m 22 X s 1094 1111 m 22 X s 3 lw 1087 1111 m20 9 lw 1116 1055 m 22 X s 1151 1055 m 22 X s 3 lw 1145 1055 m20 9 lw 1173 1001 m 22 X s 1208 1001 m 22 X s 3 lw 1202 1001 m20 9 lw 1230 961 m 22 X s 1265 961 m 22 X s 3 lw 1259 961 m20 9 lw 1316 868 m 3 Y
 s 1316 884 m 2 Y s 1287 877 m 22 X s 1322 877 m 22 X s 3 lw 1316 877 m20 9 lw 1373 829 m 5 Y s 1373 847 m 4 Y s 1344 841 m 22 X s 1379 841 m 22 X s 3 lw 1373 841 m20 9 lw 1430 747 m 10 Y s 1430 770 m 8 Y s 1401 763 m 22 X s 1436 763 m 22 X s 3 lw
 1430 763 m20 9 lw 1487 746 m 11 Y s 1487 770 m 7 Y s 1458 763 m 22 X s 1493 763 m 22 X s 3 lw 1487 763 m20 9 lw 1544 636 m 21 Y s 1544 671 m 15 Y s 1515 664 m 22 X s 1550 664 m 22 X s 3 lw 1544 664 m20 9 lw 1601 727 m 12 Y s 1601 752 m 9 Y s 1572
 745 m 22 X s 1607 745 m 22 X s 3 lw 1601 745 m20 9 lw 1658 404 m 79 Y s 1658 496 m 39 Y s 1629 489 m 22 X s 1664 489 m 22 X s 3 lw 1658 489 m20 9 lw 1715 509 m 45 Y s 1715 567 m 28 Y s 1686 561 m 22 X s 1721 561 m 22 X s 3 lw 1715 561 m20 9 lw 1772
 560 m 34 Y s 1772 607 m 23 Y s 1743 600 m 22 X s 1778 600 m 22 X s 3 lw 1772 600 m20 9 lw 1829 509 m 45 Y s 1829 567 m 28 Y s 1800 561 m 22 X s 1835 561 m 22 X s 3 lw 1829 561 m20 9 lw 1886 185 m 83 Y s 1886 281 m 91 Y s 1857 274 m 22 X s 1893 274 m
 22 X s 3 lw 1886 274 m20 9 lw 1943 185 m 83 Y s 1943 281 m 91 Y s 1915 274 m 22 X s 1950 274 m 22 X s 3 lw 1943 274 m20 9 lw 2000 256 m 155 Y s 2000 424 m 54 Y s 1972 418 m 22 X s 2007 418 m 22 X s 3 lw 2000 418 m20 9 lw 2114 185 m 178 Y s 2114 376
 m 65 Y s 2086 369 m 22 X s 2121 369 m 22 X s 3 lw 2114 369 m20 9 lw 3 lw 317 185 m 1883 X s
 gsave  2268 1538 0 0 C 1599.78 6.51643 t 0 r /Helvetica findfont 84.7135 sf 0 0 m (TRT HT hit ratio) show NC gr  317 223 m -38 Y s 356 204 m -19 Y s 394 204 m -19 Y s 432 204 m -19 Y s 470 204 m -19 Y s 508 223 m -38 Y s 546 204 m -19 Y s 584 204 m
 -19 Y s 622 204 m -19 Y s 660 204 m -19 Y s 698 223 m -38 Y s 736 204 m -19 Y s 774 204 m -19 Y s 812 204 m -19 Y s 850 204 m -19 Y s 888 223 m -38 Y s 926 204 m -19 Y s 964 204 m -19 Y s 1002 204 m -19 Y s 1040 204 m -19 Y s 1078 223 m -38 Y s 1116
 204 m -19 Y s 1154 204 m -19 Y s 1192 204 m -19 Y s 1230 204 m -19 Y s 1268 223 m -38 Y s 1306 204 m -19 Y s 1344 204 m -19 Y s 1382 204 m -19 Y s 1420 204 m -19 Y s 1458 223 m -38 Y s 1496 204 m -19 Y s 1534 204 m -19 Y s 1572 204 m -19 Y s 1610
 204 m -19 Y s 1648 223 m -38 Y s 1686 204 m -19 Y s 1724 204 m -19 Y s 1762 204 m -19 Y s 1800 204 m -19 Y s 1838 223 m -38 Y s 1876 204 m -19 Y s 1915 204 m -19 Y s 1953 204 m -19 Y s 1991 204 m -19 Y s 2029 223 m -38 Y s 2029 223 m -38 Y s 2067
 204 m -19 Y s 2105 204 m -19 Y s 2143 204 m -19 Y s 2181 204 m -19 Y s
 gsave  2268 1538 0 0 C 293.239 104.263 t 0 r /Helvetica findfont 84.7135 sf 0 0 m (0) show NC gr 
 gsave  2268 1538 0 0 C 452.892 104.263 t 0 r /Helvetica findfont 84.7135 sf 0 0 m (0.1) show NC gr 
 gsave  2268 1538 0 0 C 638.61 104.263 t 0 r /Helvetica findfont 84.7135 sf 0 0 m (0.2) show NC gr 
 gsave  2268 1538 0 0 C 827.586 104.263 t 0 r /Helvetica findfont 84.7135 sf 0 0 m (0.3) show NC gr 
 gsave  2268 1538 0 0 C 1016.56 104.263 t 0 r /Helvetica findfont 84.7135 sf 0 0 m (0.4) show NC gr 
 gsave  2268 1538 0 0 C 1208.8 104.263 t 0 r /Helvetica findfont 84.7135 sf 0 0 m (0.5) show NC gr 
 gsave  2268 1538 0 0 C 1397.77 104.263 t 0 r /Helvetica findfont 84.7135 sf 0 0 m (0.6) show NC gr 
 gsave  2268 1538 0 0 C 1586.75 104.263 t 0 r /Helvetica findfont 84.7135 sf 0 0 m (0.7) show NC gr 
 gsave  2268 1538 0 0 C 1778.98 104.263 t 0 r /Helvetica findfont 84.7135 sf 0 0 m (0.8) show NC gr 
 gsave  2268 1538 0 0 C 1967.96 104.263 t 0 r /Helvetica findfont 84.7135 sf 0 0 m (0.9) show NC gr  317 1507 m 1883 X s 317 1469 m 38 Y s 356 1488 m 19 Y s 394 1488 m 19 Y s 432 1488 m 19 Y s 470 1488 m 19 Y s 508 1469 m 38 Y s 546 1488 m 19 Y s 584
 1488 m 19 Y s 622 1488 m 19 Y s 660 1488 m 19 Y s 698 1469 m 38 Y s 736 1488 m 19 Y s 774 1488 m 19 Y s 812 1488 m 19 Y s 850 1488 m 19 Y s 888 1469 m 38 Y s 926 1488 m 19 Y s 964 1488 m 19 Y s 1002 1488 m 19 Y s 1040 1488 m 19 Y s 1078 1469 m 38 Y
 s 1116 1488 m 19 Y s 1154 1488 m 19 Y s 1192 1488 m 19 Y s 1230 1488 m 19 Y s 1268 1469 m 38 Y s 1306 1488 m 19 Y s 1344 1488 m 19 Y s 1382 1488 m 19 Y s 1420 1488 m 19 Y s 1458 1469 m 38 Y s 1496 1488 m 19 Y s 1534 1488 m 19 Y s 1572 1488 m 19 Y s
 1610 1488 m 19 Y s 1648 1469 m 38 Y s 1686 1488 m 19 Y s 1724 1488 m 19 Y s 1762 1488 m 19 Y s 1800 1488 m 19 Y s 1838 1469 m 38 Y s 1876 1488 m 19 Y s 1915 1488 m 19 Y s 1953 1488 m 19 Y s 1991 1488 m 19 Y s 2029 1469 m 38 Y s 2029 1469 m 38 Y s
 2067 1488 m 19 Y s 2105 1488 m 19 Y s 2143 1488 m 19 Y s 2181 1488 m 19 Y s 317 185 m 1322 Y s 347 203 m -30 X s 347 245 m -30 X s 347 274 m -30 X s 347 298 m -30 X s 347 316 m -30 X s 347 332 m -30 X s 347 346 m -30 X s 347 358 m -30 X s 376 369 m
 -59 X s
 gsave  2268 1538 0 0 C 295.257 332.59 t 0 r  -47 0 t /Helvetica findfont 84.7135 sf 0 0 m (1) show NC gr  347 441 m -30 X s 347 483 m -30 X s 347 512 m -30 X s 347 535 m -30 X s 347 554 m -30 X s 347 570 m -30 X s 347 584 m -30 X s 347 596 m -30 X s
 376 607 m -59 X s
 gsave  2268 1538 0 0 C 295.257 570.344 t 0 r  -95 0 t /Helvetica findfont 84.7135 sf 0 0 m (10) show NC gr  347 678 m -30 X s 347 720 m -30 X s 347 750 m -30 X s 347 773 m -30 X s 347 792 m -30 X s 347 808 m -30 X s 347 822 m -30 X s 347 834 m -30 X
 s 376 845 m -59 X s
 gsave  2268 1538 0 0 C 260.657 843.877 t 0 r /Helvetica findfont 58.6478 sf 0 0 m (2) show NC gr 
 gsave  2268 1538 0 0 C 169.427 808.037 t 0 r /Helvetica findfont 84.7135 sf 0 0 m (10) show NC gr  347 916 m -30 X s 347 958 m -30 X s 347 988 m -30 X s 347 1011 m -30 X s 347 1030 m -30 X s 347 1046 m -30 X s 347 1059 m -30 X s 347 1071 m -30 X s
 376 1082 m -59 X s
 gsave  2268 1538 0 0 C 260.657 1084.98 t 0 r /Helvetica findfont 58.6478 sf 0 0 m (3) show NC gr 
 gsave  2268 1538 0 0 C 169.427 1045.89 t 0 r /Helvetica findfont 84.7135 sf 0 0 m (10) show NC gr  347 1154 m -30 X s 347 1196 m -30 X s 347 1225 m -30 X s 347 1249 m -30 X s 347 1267 m -30 X s 347 1283 m -30 X s 347 1297 m -30 X s 347 1309 m -30 X
 s 376 1320 m -59 X s
 gsave  2268 1538 0 0 C 260.657 1319.58 t 0 r /Helvetica findfont 58.6478 sf 0 0 m (4) show NC gr 
 gsave  2268 1538 0 0 C 169.427 1283.74 t 0 r /Helvetica findfont 84.7135 sf 0 0 m (10) show NC gr  347 1392 m -30 X s 347 1434 m -30 X s 347 1463 m -30 X s 347 1486 m -30 X s 347 1505 m -30 X s 2200 185 m 1322 Y s 2170 203 m 30 X s 2170 245 m 30 X s
 2170 274 m 30 X s 2170 298 m 30 X s 2170 316 m 30 X s 2170 332 m 30 X s 2170 346 m 30 X s 2170 358 m 30 X s 2141 369 m 59 X s 2170 441 m 30 X s 2170 483 m 30 X s 2170 512 m 30 X s 2170 535 m 30 X s 2170 554 m 30 X s 2170 570 m 30 X s 2170 584 m 30 X
 s 2170 596 m 30 X s 2141 607 m 59 X s 2170 678 m 30 X s 2170 720 m 30 X s 2170 750 m 30 X s 2170 773 m 30 X s 2170 792 m 30 X s 2170 808 m 30 X s 2170 822 m 30 X s 2170 834 m 30 X s 2141 845 m 59 X s 2170 916 m 30 X s 2170 958 m 30 X s 2170 988 m 30
 X s 2170 1011 m 30 X s 2170 1030 m 30 X s 2170 1046 m 30 X s 2170 1059 m 30 X s 2170 1071 m 30 X s 2141 1082 m 59 X s 2170 1154 m 30 X s 2170 1196 m 30 X s 2170 1225 m 30 X s 2170 1249 m 30 X s 2170 1267 m 30 X s 2170 1283 m 30 X s 2170 1297 m 30 X
 s 2170 1309 m 30 X s 2141 1320 m 59 X s 2170 1392 m 30 X s 2170 1434 m 30 X s 2170 1463 m 30 X s 2170 1486 m 30 X s 2170 1505 m 30 X s 1 0 0 c 9 lw 1 1 1 c 1 0 0 c 317 1363 m 58 X -158 Y 57 X 26 Y 57 X 47 Y 57 X 23 Y 57 X 47 Y 57 X 17 Y 57 X 21 Y 57
 X -8 Y 57 X -11 Y 57 X -24 Y 57 X -22 Y 57 X -43 Y 57 X -53 Y 57 X -49 Y 57 X -54 Y 57 X -45 Y 57 X -66 Y 57 X -50 Y 57 X -43 Y 57 X -42 Y 57 X -18 Y 57 X -19 Y 57 X -79 Y 57 X -15 Y 57 X -26 Y 57 X -107 Y 57 X -52 Y 58 X -114 Y 57 X 114 Y 57 X -375
 Y 171 X s black
 gsave  2268 1538 0 0 C 641.868 707.032 t 0 r /Helvetica-Bold findfont 42.3568 sf 0 0 m ( probe electron \(data\)) show NC gr 
 gsave  2268 1538 0 0 C 606.028 707.032 t 0 r /Symbol findfont 42.3568 sf 0 0 m (Y) show NC gr 
 gsave  2268 1538 0 0 C 570.187 707.032 t 0 r /Helvetica-Bold findfont 42.3568 sf 0 0 m (J/) show NC gr  414 750 m 131 X s
 gsave  2268 1538 0 0 C 570.187 514.798 t 0 r /Helvetica-Bold findfont 42.3568 sf 0 0 m (B electron \(MC\)) show NC gr  1 0 0 c 414 557 m 131 X s
 gr  gr showpage
end
%%EOF
