%!PS-Adobe-2.0 EPSF-2.0
%%BoundingBox:  0 0 567 384
%%Title: /home/rohin/Analysis/dataAna/2014/February/16/plots/trtHitRatio.eps: c1_n18
%%Creator: ROOT Version 5.34/14
%%CreationDate: Wed Aug 20 11:28:42 2014
%%EndComments
%%BeginProlog
80 dict begin
/s {stroke} def /l {lineto} def /m {moveto} def /t {translate} def
/r {rotate} def /rl {roll}  def /R {repeat} def
/d {rlineto} def /rm {rmoveto} def /gr {grestore} def /f {eofill} def
/c {setrgbcolor} def /black {0 setgray} def /sd {setdash} def
/cl {closepath} def /sf {scalefont setfont} def /lw {setlinewidth} def
/box {m dup 0 exch d exch 0 d 0 exch neg d cl} def
/NC{systemdict begin initclip end}def/C{NC box clip newpath}def
/bl {box s} def /bf {box f} def /Y { 0 exch d} def /X { 0 d} def 
/K {{pop pop 0 moveto} exch kshow} bind def
/ita {/ang 15 def gsave [1 0 ang dup sin exch cos div 1 0 0] concat} def 
/mp {newpath /y exch def /x exch def} def
/side {[w .77 mul w .23 mul] .385 w mul sd w 0 l currentpoint t -144 r} def
/mr {mp x y w2 0 360 arc} def /m24 {mr s} def /m20 {mr f} def
/mb {mp x y w2 add m w2 neg 0 d 0 w neg d w 0 d 0 w d cl} def
/mt {mp x y w2 add m w2 neg w neg d w 0 d cl} def
/m21 {mb f} def /m25 {mb s} def /m22 {mt f} def /m26{mt s} def
/m23 {mp x y w2 sub m w2 w d w neg 0 d cl f} def
/m27 {mp x y w2 add m w3 neg w2 neg d w3 w2 neg d w3 w2 d cl s} def
/m28 {mp x w2 sub y w2 sub w3 add m w3 0 d  0 w3 neg d w3 0 d 0 w3 d w3 0 d  0 w3 d w3 neg 0 d 0 w3 d w3 neg 0 d 0 w3 neg d w3 neg 0 d cl s } def
/m29 {mp gsave x w2 sub y w2 add w3 sub m currentpoint t 4 {side} repeat cl fill gr} def
/m30 {mp gsave x w2 sub y w2 add w3 sub m currentpoint t 4 {side} repeat cl s gr} def
/m31 {mp x y w2 sub m 0 w d x w2 sub y m w 0 d x w2 sub y w2 add m w w neg d x w2 sub y w2 sub m w w d s} def
/m32 {mp x y w2 sub m w2 w d w neg 0 d cl s} def
/m33 {mp x y w2 add m w3 neg w2 neg d w3 w2 neg d w3 w2 d cl f} def
/m34 {mp x w2 sub y w2 sub w3 add m w3 0 d  0 w3 neg d w3 0 d 0 w3 d w3 0 d  0 w3 d w3 neg 0 d 0 w3 d w3 neg 0 d 0 w3 neg d w3 neg 0 d cl f } def
/m2 {mp x y w2 sub m 0 w d x w2 sub y m w 0 d s} def
/m5 {mp x w2 sub y w2 sub m w w d x w2 sub y w2 add m w w neg d s} def
/reEncode {exch findfont dup length dict begin {1 index /FID eq  {pop pop} {def} ifelse } forall /Encoding exch def currentdict end dup /FontName get exch definefont pop } def [/Times-Bold /Times-Italic /Times-BoldItalic /Helvetica /Helvetica-Oblique
 /Helvetica-Bold /Helvetica-BoldOblique /Courier /Courier-Oblique /Courier-Bold /Courier-BoldOblique /Times-Roman /AvantGarde-Book /AvantGarde-BookOblique /AvantGarde-Demi /AvantGarde-DemiOblique /Bookman-Demi /Bookman-DemiItalic /Bookman-Light
 /Bookman-LightItalic /Helvetica-Narrow /Helvetica-Narrow-Bold /Helvetica-Narrow-BoldOblique /Helvetica-Narrow-Oblique /NewCenturySchlbk-Roman /NewCenturySchlbk-Bold /NewCenturySchlbk-BoldItalic /NewCenturySchlbk-Italic /Palatino-Bold
 /Palatino-BoldItalic /Palatino-Italic /Palatino-Roman ] {ISOLatin1Encoding reEncode } forall
%%EndProlog
%%BeginSetup
%%EndSetup
newpath  gsave  .25 .25 scale  gsave  0 0 t black[  ] 0 sd 3 lw 1 1 1 c 2268 1538 0 0 bf black 1 1 1 c 1883 1322 317 185 bf black 1883 1322 317 185 bl 1 1 1 c 1883 1322 317 185 bf black 1883 1322 317 185 bl 6 lw 1 1 1 c black 600 1246 m 1 Y s 600
 1260 m 1 Y s 581 1254 m 12 X s 606 1254 m 13 X s 3 lw /w 13 def /w2 {w 2 div} def /w3 {w 3 div} def 600 1254 m20 6 lw 619 1345 m 12 X s 644 1345 m 12 X s 3 lw 637 1345 m20 6 lw 656 1340 m 13 X s 682 1340 m 12 X s 3 lw 675 1340 m20 6 lw 694 1402 m 12
 X s 719 1402 m 13 X s 3 lw 713 1402 m20 6 lw 732 1383 m 12 X s 757 1383 m 12 X s 3 lw 750 1383 m20 6 lw 769 1361 m 13 X s 795 1361 m 12 X s 3 lw 788 1361 m20 6 lw 807 1333 m 12 X s 832 1333 m 12 X s 3 lw 826 1333 m20 6 lw 844 1306 m 13 X s 870 1306
 m 12 X s 3 lw 863 1306 m20 6 lw 882 1300 m 12 X s 907 1300 m 13 X s 3 lw 901 1300 m20 6 lw 939 1250 m 1 Y s 939 1264 m s 920 1257 m 12 X s 945 1257 m 12 X s 3 lw 939 1257 m20 6 lw 976 1187 m 2 Y s 976 1202 m 3 Y s 957 1196 m 13 X s 983 1196 m 12 X s
 3 lw 976 1196 m20 6 lw 1014 1161 m 3 Y s 1014 1177 m 3 Y s 995 1170 m 12 X s 1020 1170 m 13 X s 3 lw 1014 1170 m20 6 lw 1052 1047 m 8 Y s 1052 1068 m 6 Y s 1033 1061 m 12 X s 1058 1061 m 12 X s 3 lw 1052 1061 m20 6 lw 1089 1076 m 7 Y s 1089 1096 m 5
 Y s 1070 1089 m 13 X s 1096 1089 m 12 X s 3 lw 1089 1089 m20 6 lw 1127 1011 m 9 Y s 1127 1033 m 8 Y s 1108 1027 m 12 X s 1133 1027 m 13 X s 3 lw 1127 1027 m20 6 lw 1164 943 m 13 Y s 1164 969 m 11 Y s 1146 963 m 12 X s 1171 963 m 12 X s 3 lw 1164 963
 m20 6 lw 1202 862 m 19 Y s 1202 894 m 15 Y s 1183 887 m 13 X s 1209 887 m 12 X s 3 lw 1202 887 m20 6 lw 1240 428 m 111 Y s 1240 553 m 60 Y s 1221 546 m 12 X s 1246 546 m 13 X s 3 lw 1240 546 m20 6 lw 1277 880 m 18 Y s 1277 911 m 14 Y s 1259 904 m 12
 X s 1284 904 m 12 X s 3 lw 1277 904 m20 6 lw 1315 607 m 56 Y s 1315 676 m 38 Y s 1296 670 m 13 X s 1322 670 m 12 X s 3 lw 1315 670 m20 6 lw 1353 575 m 57 Y s 1353 645 m 38 Y s 1334 638 m 12 X s 1359 638 m 13 X s 3 lw 1353 638 m20 6 lw 1390 331 m 128
 Y s 1390 472 m 65 Y s 1372 466 m 12 X s 1397 466 m 12 X s 3 lw 1390 466 m20 6 lw 1428 524 m 68 Y s 1428 605 m 44 Y s 1409 599 m 12 X s 1434 599 m 13 X s 3 lw 1428 599 m20 6 lw 1466 524 m 68 Y s 1466 605 m 44 Y s 1447 599 m 12 X s 1472 599 m 12 X s 3
 lw 1466 599 m20 6 lw 1541 185 m 102 Y s 1541 300 m 102 Y s 1522 293 m 12 X s 1547 293 m 13 X s 3 lw 1541 293 m20 6 lw 1579 492 m 76 Y s 1579 581 m 47 Y s 1560 575 m 12 X s 1585 575 m 12 X s 3 lw 1579 575 m20 6 lw 1616 185 m 102 Y s 1616 300 m 102 Y
 s 1597 293 m 13 X s 1623 293 m 12 X s 3 lw 1616 293 m20 6 lw 1729 185 m 102 Y s 1729 300 m 102 Y s 1710 293 m 13 X s 1736 293 m 12 X s 3 lw 1729 293 m20 6 lw 1804 185 m 102 Y s 1804 300 m 102 Y s 1786 293 m 12 X s 1811 293 m 12 X s 3 lw 1804 293 m20
 6 lw 1842 185 m 102 Y s 1842 300 m 102 Y s 1823 293 m 13 X s 1849 293 m 12 X s 3 lw 1842 293 m20 6 lw 2068 185 m 102 Y s 2068 300 m 102 Y s 2049 293 m 12 X s 2074 293 m 13 X s 3 lw 2068 293 m20 6 lw 3 lw 317 185 m 1883 X s
 gsave  2268 1538 0 0 C 1691.01 32.5821 t 0 r /Helvetica findfont 71.6807 sf 0 0 m (TRT HT hit ratio) show NC gr  317 223 m -38 Y s 355 204 m -19 Y s 393 204 m -19 Y s 430 204 m -19 Y s 468 204 m -19 Y s 506 223 m -38 Y s 543 204 m -19 Y s 581 204 m
 -19 Y s 619 204 m -19 Y s 656 204 m -19 Y s 694 223 m -38 Y s 732 204 m -19 Y s 769 204 m -19 Y s 807 204 m -19 Y s 844 204 m -19 Y s 882 223 m -38 Y s 920 204 m -19 Y s 957 204 m -19 Y s 995 204 m -19 Y s 1033 204 m -19 Y s 1070 223 m -38 Y s 1108
 204 m -19 Y s 1146 204 m -19 Y s 1183 204 m -19 Y s 1221 204 m -19 Y s 1259 223 m -38 Y s 1296 204 m -19 Y s 1334 204 m -19 Y s 1372 204 m -19 Y s 1409 204 m -19 Y s 1447 223 m -38 Y s 1484 204 m -19 Y s 1522 204 m -19 Y s 1560 204 m -19 Y s 1597
 204 m -19 Y s 1635 223 m -38 Y s 1673 204 m -19 Y s 1710 204 m -19 Y s 1748 204 m -19 Y s 1786 204 m -19 Y s 1823 223 m -38 Y s 1861 204 m -19 Y s 1899 204 m -19 Y s 1936 204 m -19 Y s 1974 204 m -19 Y s 2011 223 m -38 Y s 2049 204 m -19 Y s 2087
 204 m -19 Y s 2124 204 m -19 Y s 2162 204 m -19 Y s 2200 223 m -38 Y s
 gsave  2268 1538 0 0 C 296.497 117.296 t 0 r /Helvetica findfont 71.6807 sf 0 0 m (0) show NC gr 
 gsave  2268 1538 0 0 C 459.408 117.296 t 0 r /Helvetica findfont 71.6807 sf 0 0 m (0.1) show NC gr 
 gsave  2268 1538 0 0 C 641.868 117.296 t 0 r /Helvetica findfont 71.6807 sf 0 0 m (0.2) show NC gr 
 gsave  2268 1538 0 0 C 830.844 117.296 t 0 r /Helvetica findfont 71.6807 sf 0 0 m (0.3) show NC gr 
 gsave  2268 1538 0 0 C 1019.82 117.296 t 0 r /Helvetica findfont 71.6807 sf 0 0 m (0.4) show NC gr 
 gsave  2268 1538 0 0 C 1208.8 117.296 t 0 r /Helvetica findfont 71.6807 sf 0 0 m (0.5) show NC gr 
 gsave  2268 1538 0 0 C 1397.77 117.296 t 0 r /Helvetica findfont 71.6807 sf 0 0 m (0.6) show NC gr 
 gsave  2268 1538 0 0 C 1583.49 117.296 t 0 r /Helvetica findfont 71.6807 sf 0 0 m (0.7) show NC gr 
 gsave  2268 1538 0 0 C 1772.47 117.296 t 0 r /Helvetica findfont 71.6807 sf 0 0 m (0.8) show NC gr 
 gsave  2268 1538 0 0 C 1961.44 117.296 t 0 r /Helvetica findfont 71.6807 sf 0 0 m (0.9) show NC gr 
 gsave  2268 1538 0 0 C 2186.26 117.296 t 0 r /Helvetica findfont 71.6807 sf 0 0 m (1) show NC gr  317 1507 m 1883 X s 317 1469 m 38 Y s 355 1488 m 19 Y s 393 1488 m 19 Y s 430 1488 m 19 Y s 468 1488 m 19 Y s 506 1469 m 38 Y s 543 1488 m 19 Y s 581
 1488 m 19 Y s 619 1488 m 19 Y s 656 1488 m 19 Y s 694 1469 m 38 Y s 732 1488 m 19 Y s 769 1488 m 19 Y s 807 1488 m 19 Y s 844 1488 m 19 Y s 882 1469 m 38 Y s 920 1488 m 19 Y s 957 1488 m 19 Y s 995 1488 m 19 Y s 1033 1488 m 19 Y s 1070 1469 m 38 Y s
 1108 1488 m 19 Y s 1146 1488 m 19 Y s 1183 1488 m 19 Y s 1221 1488 m 19 Y s 1259 1469 m 38 Y s 1296 1488 m 19 Y s 1334 1488 m 19 Y s 1372 1488 m 19 Y s 1409 1488 m 19 Y s 1447 1469 m 38 Y s 1484 1488 m 19 Y s 1522 1488 m 19 Y s 1560 1488 m 19 Y s
 1597 1488 m 19 Y s 1635 1469 m 38 Y s 1673 1488 m 19 Y s 1710 1488 m 19 Y s 1748 1488 m 19 Y s 1786 1488 m 19 Y s 1823 1469 m 38 Y s 1861 1488 m 19 Y s 1899 1488 m 19 Y s 1936 1488 m 19 Y s 1974 1488 m 19 Y s 2011 1469 m 38 Y s 2049 1488 m 19 Y s
 2087 1488 m 19 Y s 2124 1488 m 19 Y s 2162 1488 m 19 Y s 2200 1469 m 38 Y s 317 185 m 1322 Y s 347 185 m -30 X s 347 213 m -30 X s 347 237 m -30 X s 347 258 m -30 X s 347 277 m -30 X s 376 293 m -59 X s
 gsave  2268 1538 0 0 C 297.071 263.382 t 0 r  -39 0 t /Helvetica findfont 71.6807 sf 0 0 m (1) show NC gr  347 402 m -30 X s 347 466 m -30 X s 347 511 m -30 X s 347 546 m -30 X s 347 575 m -30 X s 347 599 m -30 X s 347 620 m -30 X s 347 638 m -30 X
 s 376 655 m -59 X s
 gsave  2268 1538 0 0 C 297.071 624.848 t 0 r  -79 0 t /Helvetica findfont 71.6807 sf 0 0 m (10) show NC gr  347 764 m -30 X s 347 827 m -30 X s 347 872 m -30 X s 347 907 m -30 X s 347 936 m -30 X s 347 960 m -30 X s 347 981 m -30 X s 347 1000 m -30
 X s 376 1016 m -59 X s
 gsave  2268 1538 0 0 C 270.432 1013.3 t 0 r /Helvetica findfont 48.8732 sf 0 0 m (2) show NC gr 
 gsave  2268 1538 0 0 C 192.235 983.98 t 0 r /Helvetica findfont 71.6807 sf 0 0 m (10) show NC gr  347 1125 m -30 X s 347 1189 m -30 X s 347 1234 m -30 X s 347 1269 m -30 X s 347 1298 m -30 X s 347 1322 m -30 X s 347 1343 m -30 X s 347 1361 m -30 X s
 376 1378 m -59 X s
 gsave  2268 1538 0 0 C 270.432 1378.22 t 0 r /Helvetica findfont 48.8732 sf 0 0 m (3) show NC gr 
 gsave  2268 1538 0 0 C 192.235 1345.64 t 0 r /Helvetica findfont 71.6807 sf 0 0 m (10) show NC gr  347 1487 m -30 X s 2200 185 m 1322 Y s 2170 185 m 30 X s 2170 213 m 30 X s 2170 237 m 30 X s 2170 258 m 30 X s 2170 277 m 30 X s 2141 293 m 59 X s
 2170 402 m 30 X s 2170 466 m 30 X s 2170 511 m 30 X s 2170 546 m 30 X s 2170 575 m 30 X s 2170 599 m 30 X s 2170 620 m 30 X s 2170 638 m 30 X s 2141 655 m 59 X s 2170 764 m 30 X s 2170 827 m 30 X s 2170 872 m 30 X s 2170 907 m 30 X s 2170 936 m 30 X
 s 2170 960 m 30 X s 2170 981 m 30 X s 2170 1000 m 30 X s 2141 1016 m 59 X s 2170 1125 m 30 X s 2170 1189 m 30 X s 2170 1234 m 30 X s 2170 1269 m 30 X s 2170 1298 m 30 X s 2170 1322 m 30 X s 2170 1343 m 30 X s 2170 1361 m 30 X s 2141 1378 m 59 X s
 2170 1487 m 30 X s 0.6 0 0 c 9 lw 1 1 1 c black 0.6 0 0 c 317 185 m 264 X 1017 Y 38 X 120 Y 37 X -5 Y 38 X 71 Y 38 X -20 Y 37 X 1 Y 38 X -24 Y 37 X -15 Y 38 X -19 Y 38 X -37 Y 37 X -46 Y 38 X -40 Y 38 X -73 Y 37 X -6 Y 38 X -62 Y 38 X -59 Y 37 X -65
 Y 38 X -249 Y 38 X 201 Y 37 X -85 Y 38 X -132 Y 38 X -5 Y 37 X -204 Y 38 X 106 Y 37 X -117 Y 38 X -4 Y 38 X -85 Y 37 X 28 Y 38 X -23 Y 38 X -103 Y 37 X -66 Y 113 X 108 Y 38 X -108 Y 113 X 92 Y 37 X -92 Y 189 X s black
 gsave  2268 1538 0 0 C 1661.69 1277.22 t 0 r /Helvetica-Bold findfont 58.6478 sf 0 0 m ( probe \(data\)) show NC gr 
 gsave  2268 1538 0 0 C 1612.82 1277.22 t 0 r /Symbol findfont 58.6478 sf 0 0 m (Y) show NC gr 
 gsave  2268 1538 0 0 C 1563.94 1277.22 t 0 r /Helvetica-Bold findfont 58.6478 sf 0 0 m (J/) show NC gr  1 1 1 c 3 lw 1426 1253 m 115 X 133 Y -115 X f 9 lw black 1426 1320 m 115 X s 3 lw 1483 1320 m20 9 lw
 gsave  2268 1538 0 0 C 1563.94 1088.24 t 0 r /Helvetica-Bold findfont 58.6478 sf 0 0 m (B\255el \(MC\)) show NC gr  0.6 0 0 c 6 lw 1426 1131 m 115 X s
 gr  gr showpage
end
%%EOF
