%!PS-Adobe-2.0 EPSF-2.0
%%BoundingBox:  0 0 567 384
%%Title: : c1_n2
%%Creator: ROOT Version 5.34/14
%%CreationDate: Wed Aug 20 00:55:13 2014
%%EndComments
%%BeginProlog
80 dict begin
/s {stroke} def /l {lineto} def /m {moveto} def /t {translate} def
/r {rotate} def /rl {roll}  def /R {repeat} def
/d {rlineto} def /rm {rmoveto} def /gr {grestore} def /f {eofill} def
/c {setrgbcolor} def /black {0 setgray} def /sd {setdash} def
/cl {closepath} def /sf {scalefont setfont} def /lw {setlinewidth} def
/box {m dup 0 exch d exch 0 d 0 exch neg d cl} def
/NC{systemdict begin initclip end}def/C{NC box clip newpath}def
/bl {box s} def /bf {box f} def /Y { 0 exch d} def /X { 0 d} def 
/K {{pop pop 0 moveto} exch kshow} bind def
/ita {/ang 15 def gsave [1 0 ang dup sin exch cos div 1 0 0] concat} def 
/mp {newpath /y exch def /x exch def} def
/side {[w .77 mul w .23 mul] .385 w mul sd w 0 l currentpoint t -144 r} def
/mr {mp x y w2 0 360 arc} def /m24 {mr s} def /m20 {mr f} def
/mb {mp x y w2 add m w2 neg 0 d 0 w neg d w 0 d 0 w d cl} def
/mt {mp x y w2 add m w2 neg w neg d w 0 d cl} def
/m21 {mb f} def /m25 {mb s} def /m22 {mt f} def /m26{mt s} def
/m23 {mp x y w2 sub m w2 w d w neg 0 d cl f} def
/m27 {mp x y w2 add m w3 neg w2 neg d w3 w2 neg d w3 w2 d cl s} def
/m28 {mp x w2 sub y w2 sub w3 add m w3 0 d  0 w3 neg d w3 0 d 0 w3 d w3 0 d  0 w3 d w3 neg 0 d 0 w3 d w3 neg 0 d 0 w3 neg d w3 neg 0 d cl s } def
/m29 {mp gsave x w2 sub y w2 add w3 sub m currentpoint t 4 {side} repeat cl fill gr} def
/m30 {mp gsave x w2 sub y w2 add w3 sub m currentpoint t 4 {side} repeat cl s gr} def
/m31 {mp x y w2 sub m 0 w d x w2 sub y m w 0 d x w2 sub y w2 add m w w neg d x w2 sub y w2 sub m w w d s} def
/m32 {mp x y w2 sub m w2 w d w neg 0 d cl s} def
/m33 {mp x y w2 add m w3 neg w2 neg d w3 w2 neg d w3 w2 d cl f} def
/m34 {mp x w2 sub y w2 sub w3 add m w3 0 d  0 w3 neg d w3 0 d 0 w3 d w3 0 d  0 w3 d w3 neg 0 d 0 w3 d w3 neg 0 d 0 w3 neg d w3 neg 0 d cl f } def
/m2 {mp x y w2 sub m 0 w d x w2 sub y m w 0 d s} def
/m5 {mp x w2 sub y w2 sub m w w d x w2 sub y w2 add m w w neg d s} def
/reEncode {exch findfont dup length dict begin {1 index /FID eq  {pop pop} {def} ifelse } forall /Encoding exch def currentdict end dup /FontName get exch definefont pop } def [/Times-Bold /Times-Italic /Times-BoldItalic /Helvetica /Helvetica-Oblique
 /Helvetica-Bold /Helvetica-BoldOblique /Courier /Courier-Oblique /Courier-Bold /Courier-BoldOblique /Times-Roman /AvantGarde-Book /AvantGarde-BookOblique /AvantGarde-Demi /AvantGarde-DemiOblique /Bookman-Demi /Bookman-DemiItalic /Bookman-Light
 /Bookman-LightItalic /Helvetica-Narrow /Helvetica-Narrow-Bold /Helvetica-Narrow-BoldOblique /Helvetica-Narrow-Oblique /NewCenturySchlbk-Roman /NewCenturySchlbk-Bold /NewCenturySchlbk-BoldItalic /NewCenturySchlbk-Italic /Palatino-Bold
 /Palatino-BoldItalic /Palatino-Italic /Palatino-Roman ] {ISOLatin1Encoding reEncode } forall
%%EndProlog
%%BeginSetup
%%EndSetup
newpath  gsave  .25 .25 scale  gsave  0 0 t black[  ] 0 sd 3 lw 1 1 1 c 2268 1538 0 0 bf black 1 1 1 c 1883 1322 317 185 bf black 1883 1322 317 185 bl 1 1 1 c 1883 1322 317 185 bf black 1883 1322 317 185 bl 0 0 0.6 c 9 lw 1 1 1 c black 0 0 0.6 c 317
 1095 m 63 X 142 Y 63 X 39 Y 63 X 50 Y 62 X 40 Y 63 X 40 Y 63 X 30 Y 63 X -2 Y 62 X -21 Y 63 X -36 Y 63 X -12 Y 63 X -76 Y 62 X -44 Y 63 X -77 Y 63 X -86 Y 63 X -8 Y 62 X -101 Y 63 X -78 Y 63 X -20 Y 63 X -101 Y 62 X 7 Y 63 X -106 Y 63 X -44 Y 63 X
 -85 Y 62 X -23 Y 63 X -67 Y 63 X -99 Y 62 X -95 Y 63 X 78 Y 63 X -155 Y 63 X s black 3 lw 317 185 m 1883 X s
 gsave  2268 1538 0 0 C 1691.01 32.5821 t 0 r /Helvetica findfont 71.6807 sf 0 0 m (TRT HT hit ratio) show NC gr  317 223 m -38 Y s 355 204 m -19 Y s 393 204 m -19 Y s 430 204 m -19 Y s 468 204 m -19 Y s 506 223 m -38 Y s 543 204 m -19 Y s 581 204 m
 -19 Y s 619 204 m -19 Y s 656 204 m -19 Y s 694 223 m -38 Y s 732 204 m -19 Y s 769 204 m -19 Y s 807 204 m -19 Y s 844 204 m -19 Y s 882 223 m -38 Y s 920 204 m -19 Y s 957 204 m -19 Y s 995 204 m -19 Y s 1033 204 m -19 Y s 1070 223 m -38 Y s 1108
 204 m -19 Y s 1146 204 m -19 Y s 1183 204 m -19 Y s 1221 204 m -19 Y s 1259 223 m -38 Y s 1296 204 m -19 Y s 1334 204 m -19 Y s 1372 204 m -19 Y s 1409 204 m -19 Y s 1447 223 m -38 Y s 1484 204 m -19 Y s 1522 204 m -19 Y s 1560 204 m -19 Y s 1597
 204 m -19 Y s 1635 223 m -38 Y s 1673 204 m -19 Y s 1710 204 m -19 Y s 1748 204 m -19 Y s 1786 204 m -19 Y s 1823 223 m -38 Y s 1861 204 m -19 Y s 1899 204 m -19 Y s 1936 204 m -19 Y s 1974 204 m -19 Y s 2011 223 m -38 Y s 2049 204 m -19 Y s 2087
 204 m -19 Y s 2124 204 m -19 Y s 2162 204 m -19 Y s 2200 223 m -38 Y s
 gsave  2268 1538 0 0 C 296.497 117.296 t 0 r /Helvetica findfont 71.6807 sf 0 0 m (0) show NC gr 
 gsave  2268 1538 0 0 C 459.408 117.296 t 0 r /Helvetica findfont 71.6807 sf 0 0 m (0.1) show NC gr 
 gsave  2268 1538 0 0 C 641.868 117.296 t 0 r /Helvetica findfont 71.6807 sf 0 0 m (0.2) show NC gr 
 gsave  2268 1538 0 0 C 830.844 117.296 t 0 r /Helvetica findfont 71.6807 sf 0 0 m (0.3) show NC gr 
 gsave  2268 1538 0 0 C 1019.82 117.296 t 0 r /Helvetica findfont 71.6807 sf 0 0 m (0.4) show NC gr 
 gsave  2268 1538 0 0 C 1208.8 117.296 t 0 r /Helvetica findfont 71.6807 sf 0 0 m (0.5) show NC gr 
 gsave  2268 1538 0 0 C 1397.77 117.296 t 0 r /Helvetica findfont 71.6807 sf 0 0 m (0.6) show NC gr 
 gsave  2268 1538 0 0 C 1583.49 117.296 t 0 r /Helvetica findfont 71.6807 sf 0 0 m (0.7) show NC gr 
 gsave  2268 1538 0 0 C 1772.47 117.296 t 0 r /Helvetica findfont 71.6807 sf 0 0 m (0.8) show NC gr 
 gsave  2268 1538 0 0 C 1961.44 117.296 t 0 r /Helvetica findfont 71.6807 sf 0 0 m (0.9) show NC gr 
 gsave  2268 1538 0 0 C 2186.26 117.296 t 0 r /Helvetica findfont 71.6807 sf 0 0 m (1) show NC gr  317 1507 m 1883 X s 317 1469 m 38 Y s 355 1488 m 19 Y s 393 1488 m 19 Y s 430 1488 m 19 Y s 468 1488 m 19 Y s 506 1469 m 38 Y s 543 1488 m 19 Y s 581
 1488 m 19 Y s 619 1488 m 19 Y s 656 1488 m 19 Y s 694 1469 m 38 Y s 732 1488 m 19 Y s 769 1488 m 19 Y s 807 1488 m 19 Y s 844 1488 m 19 Y s 882 1469 m 38 Y s 920 1488 m 19 Y s 957 1488 m 19 Y s 995 1488 m 19 Y s 1033 1488 m 19 Y s 1070 1469 m 38 Y s
 1108 1488 m 19 Y s 1146 1488 m 19 Y s 1183 1488 m 19 Y s 1221 1488 m 19 Y s 1259 1469 m 38 Y s 1296 1488 m 19 Y s 1334 1488 m 19 Y s 1372 1488 m 19 Y s 1409 1488 m 19 Y s 1447 1469 m 38 Y s 1484 1488 m 19 Y s 1522 1488 m 19 Y s 1560 1488 m 19 Y s
 1597 1488 m 19 Y s 1635 1469 m 38 Y s 1673 1488 m 19 Y s 1710 1488 m 19 Y s 1748 1488 m 19 Y s 1786 1488 m 19 Y s 1823 1469 m 38 Y s 1861 1488 m 19 Y s 1899 1488 m 19 Y s 1936 1488 m 19 Y s 1974 1488 m 19 Y s 2011 1469 m 38 Y s 2049 1488 m 19 Y s
 2087 1488 m 19 Y s 2124 1488 m 19 Y s 2162 1488 m 19 Y s 2200 1469 m 38 Y s 317 185 m 1322 Y s
 gsave  2268 1538 0 0 C 159.652 1130.6 t 90 r /Helvetica findfont 71.6807 sf 0 0 m (Events/0.03) show NC gr  347 226 m -30 X s 347 258 m -30 X s 347 283 m -30 X s 347 303 m -30 X s 347 321 m -30 X s 347 335 m -30 X s 347 349 m -30 X s 376 360 m -59 X
 s
 gsave  2268 1538 0 0 C 254.141 361.662 t 0 r /Helvetica findfont 48.8732 sf 0 0 m (\2555) show NC gr 
 gsave  2268 1538 0 0 C 175.944 329.08 t 0 r /Helvetica findfont 71.6807 sf 0 0 m (10) show NC gr  347 438 m -30 X s 347 483 m -30 X s 347 516 m -30 X s 347 541 m -30 X s 347 561 m -30 X s 347 578 m -30 X s 347 593 m -30 X s 347 606 m -30 X s 376 618
 m -59 X s
 gsave  2268 1538 0 0 C 254.141 615.802 t 0 r /Helvetica findfont 48.8732 sf 0 0 m (\2554) show NC gr 
 gsave  2268 1538 0 0 C 175.944 586.478 t 0 r /Helvetica findfont 71.6807 sf 0 0 m (10) show NC gr  347 696 m -30 X s 347 741 m -30 X s 347 773 m -30 X s 347 798 m -30 X s 347 819 m -30 X s 347 836 m -30 X s 347 851 m -30 X s 347 864 m -30 X s 376
 876 m -59 X s
 gsave  2268 1538 0 0 C 254.141 876.459 t 0 r /Helvetica findfont 48.8732 sf 0 0 m (\2553) show NC gr 
 gsave  2268 1538 0 0 C 175.944 843.877 t 0 r /Helvetica findfont 71.6807 sf 0 0 m (10) show NC gr  347 953 m -30 X s 347 999 m -30 X s 347 1031 m -30 X s 347 1056 m -30 X s 347 1076 m -30 X s 347 1094 m -30 X s 347 1109 m -30 X s 347 1122 m -30 X s
 376 1134 m -59 X s
 gsave  2268 1538 0 0 C 254.141 1130.6 t 0 r /Helvetica findfont 48.8732 sf 0 0 m (\2552) show NC gr 
 gsave  2268 1538 0 0 C 175.944 1101.28 t 0 r /Helvetica findfont 71.6807 sf 0 0 m (10) show NC gr  347 1211 m -30 X s 347 1256 m -30 X s 347 1289 m -30 X s 347 1314 m -30 X s 347 1334 m -30 X s 347 1351 m -30 X s 347 1366 m -30 X s 347 1379 m -30 X
 s 376 1391 m -59 X s
 gsave  2268 1538 0 0 C 260.657 1388 t 0 r /Helvetica findfont 48.8732 sf 0 0 m (\2551) show NC gr 
 gsave  2268 1538 0 0 C 182.46 1358.67 t 0 r /Helvetica findfont 71.6807 sf 0 0 m (10) show NC gr  347 1469 m -30 X s 2200 185 m 1322 Y s 2170 226 m 30 X s 2170 258 m 30 X s 2170 283 m 30 X s 2170 303 m 30 X s 2170 321 m 30 X s 2170 335 m 30 X s 2170
 349 m 30 X s 2141 360 m 59 X s 2170 438 m 30 X s 2170 483 m 30 X s 2170 516 m 30 X s 2170 541 m 30 X s 2170 561 m 30 X s 2170 578 m 30 X s 2170 593 m 30 X s 2170 606 m 30 X s 2141 618 m 59 X s 2170 696 m 30 X s 2170 741 m 30 X s 2170 773 m 30 X s
 2170 798 m 30 X s 2170 819 m 30 X s 2170 836 m 30 X s 2170 851 m 30 X s 2170 864 m 30 X s 2141 876 m 59 X s 2170 953 m 30 X s 2170 999 m 30 X s 2170 1031 m 30 X s 2170 1056 m 30 X s 2170 1076 m 30 X s 2170 1094 m 30 X s 2170 1109 m 30 X s 2170 1122
 m 30 X s 2141 1134 m 59 X s 2170 1211 m 30 X s 2170 1256 m 30 X s 2170 1289 m 30 X s 2170 1314 m 30 X s 2170 1334 m 30 X s 2170 1351 m 30 X s 2170 1366 m 30 X s 2170 1379 m 30 X s 2141 1391 m 59 X s 2170 1469 m 30 X s 0 0.6 0.6 c 9 lw 1 1 1 c black
 0 0.6 0.6 c 317 914 m 63 X 295 Y 63 X 71 Y 63 X 55 Y 62 X 39 Y 63 X 35 Y 63 X 25 Y 63 X -6 Y 62 X -19 Y 63 X -36 Y 63 X -7 Y 63 X -73 Y 62 X -35 Y 63 X -75 Y 63 X -80 Y 63 X -2 Y 62 X -95 Y 63 X -80 Y 63 X -21 Y 63 X -101 Y 62 X 13 Y 63 X -87 Y 63 X
 -45 Y 63 X -77 Y 62 X -10 Y 63 X -101 Y 63 X -34 Y 62 X -103 Y 63 X 11 Y 63 X -186 Y 63 X s 0.6 0 0 c 1 1 1 c black 0.6 0 0 c 317 1399 m 63 X 94 Y 63 X -18 Y 63 X -29 Y 62 X -60 Y 63 X -53 Y 63 X -41 Y 63 X -53 Y 62 X -44 Y 63 X -50 Y 63 X -20 Y 63
 X -87 Y 62 X -37 Y 63 X -85 Y 63 X -83 Y 63 X -4 Y 62 X -116 Y 63 X -67 Y 63 X -35 Y 63 X -85 Y 62 X -19 Y 63 X -98 Y 63 X -32 Y 63 X -192 Y 62 X 109 Y 63 X -109 Y 314 X s black
 gsave  2268 1538 0 0 C 746.131 755.906 t 0 r /Helvetica-Bold findfont 55.3896 sf 0 0 m (B electrons) show NC gr  0 0 0.6 c 530 793 m 179 X s black
 gsave  2268 1538 0 0 C 746.131 576.704 t 0 r /Helvetica-Bold findfont 55.3896 sf 0 0 m (conversion electrons) show NC gr  0 0.6 0.6 c 530 614 m 179 X s black
 gsave  2268 1538 0 0 C 746.131 397.502 t 0 r /Helvetica-Bold findfont 55.3896 sf 0 0 m (Hadrons) show NC gr  0.6 0 0 c 530 435 m 179 X s
 gr  gr showpage
end
%%EOF
