%!PS-Adobe-2.0 EPSF-2.0
%%BoundingBox:  0 0 567 384
%%Title: /home/rohin/Analysis/dataAna/2014/July/electron_vars/ConversionBit.eps: c1
%%Creator: ROOT Version 5.34/14
%%CreationDate: Tue Sep  9 00:38:10 2014
%%EndComments
%%BeginProlog
80 dict begin
/s {stroke} def /l {lineto} def /m {moveto} def /t {translate} def
/r {rotate} def /rl {roll}  def /R {repeat} def
/d {rlineto} def /rm {rmoveto} def /gr {grestore} def /f {eofill} def
/c {setrgbcolor} def /black {0 setgray} def /sd {setdash} def
/cl {closepath} def /sf {scalefont setfont} def /lw {setlinewidth} def
/box {m dup 0 exch d exch 0 d 0 exch neg d cl} def
/NC{systemdict begin initclip end}def/C{NC box clip newpath}def
/bl {box s} def /bf {box f} def /Y { 0 exch d} def /X { 0 d} def 
/K {{pop pop 0 moveto} exch kshow} bind def
/ita {/ang 15 def gsave [1 0 ang dup sin exch cos div 1 0 0] concat} def 
/mp {newpath /y exch def /x exch def} def
/side {[w .77 mul w .23 mul] .385 w mul sd w 0 l currentpoint t -144 r} def
/mr {mp x y w2 0 360 arc} def /m24 {mr s} def /m20 {mr f} def
/mb {mp x y w2 add m w2 neg 0 d 0 w neg d w 0 d 0 w d cl} def
/mt {mp x y w2 add m w2 neg w neg d w 0 d cl} def
/m21 {mb f} def /m25 {mb s} def /m22 {mt f} def /m26{mt s} def
/m23 {mp x y w2 sub m w2 w d w neg 0 d cl f} def
/m27 {mp x y w2 add m w3 neg w2 neg d w3 w2 neg d w3 w2 d cl s} def
/m28 {mp x w2 sub y w2 sub w3 add m w3 0 d  0 w3 neg d w3 0 d 0 w3 d w3 0 d  0 w3 d w3 neg 0 d 0 w3 d w3 neg 0 d 0 w3 neg d w3 neg 0 d cl s } def
/m29 {mp gsave x w2 sub y w2 add w3 sub m currentpoint t 4 {side} repeat cl fill gr} def
/m30 {mp gsave x w2 sub y w2 add w3 sub m currentpoint t 4 {side} repeat cl s gr} def
/m31 {mp x y w2 sub m 0 w d x w2 sub y m w 0 d x w2 sub y w2 add m w w neg d x w2 sub y w2 sub m w w d s} def
/m32 {mp x y w2 sub m w2 w d w neg 0 d cl s} def
/m33 {mp x y w2 add m w3 neg w2 neg d w3 w2 neg d w3 w2 d cl f} def
/m34 {mp x w2 sub y w2 sub w3 add m w3 0 d  0 w3 neg d w3 0 d 0 w3 d w3 0 d  0 w3 d w3 neg 0 d 0 w3 d w3 neg 0 d 0 w3 neg d w3 neg 0 d cl f } def
/m2 {mp x y w2 sub m 0 w d x w2 sub y m w 0 d s} def
/m5 {mp x w2 sub y w2 sub m w w d x w2 sub y w2 add m w w neg d s} def
/reEncode {exch findfont dup length dict begin {1 index /FID eq  {pop pop} {def} ifelse } forall /Encoding exch def currentdict end dup /FontName get exch definefont pop } def [/Times-Bold /Times-Italic /Times-BoldItalic /Helvetica /Helvetica-Oblique
 /Helvetica-Bold /Helvetica-BoldOblique /Courier /Courier-Oblique /Courier-Bold /Courier-BoldOblique /Times-Roman /AvantGarde-Book /AvantGarde-BookOblique /AvantGarde-Demi /AvantGarde-DemiOblique /Bookman-Demi /Bookman-DemiItalic /Bookman-Light
 /Bookman-LightItalic /Helvetica-Narrow /Helvetica-Narrow-Bold /Helvetica-Narrow-BoldOblique /Helvetica-Narrow-Oblique /NewCenturySchlbk-Roman /NewCenturySchlbk-Bold /NewCenturySchlbk-BoldItalic /NewCenturySchlbk-Italic /Palatino-Bold
 /Palatino-BoldItalic /Palatino-Italic /Palatino-Roman ] {ISOLatin1Encoding reEncode } forall
%%EndProlog
%%BeginSetup
%%EndSetup
newpath  gsave  .25 .25 scale  gsave  0 0 t black[  ] 0 sd 3 lw 1 1 1 c 2268 1538 0 0 bf black 1 1 1 c 1884 1281 296 231 bf black 1884 1281 296 231 bl 1 1 1 c 1884 1281 296 231 bf black 1884 1281 296 231 bl 0.6 0 0.2 c 6 lw 1 1 1 c black 0.6 0 0.2 c
 296 1482 m 189 X -1251 Y 565 X 269 Y 188 X -269 Y 942 X s black 3 lw 296 231 m 1884 X s
 gsave  2268 1538 0 0 C 1658.43 52.1314 t 0 r /Helvetica findfont 84.7135 sf 0 0 m (conversion bit) show NC gr  296 270 m -39 Y s 334 250 m -19 Y s 372 250 m -19 Y s 409 250 m -19 Y s 447 250 m -19 Y s 485 270 m -39 Y s 522 250 m -19 Y s 560 250 m
 -19 Y s 598 250 m -19 Y s 635 250 m -19 Y s 673 270 m -39 Y s 711 250 m -19 Y s 748 250 m -19 Y s 786 250 m -19 Y s 824 250 m -19 Y s 861 270 m -39 Y s 899 250 m -19 Y s 937 250 m -19 Y s 974 250 m -19 Y s 1012 250 m -19 Y s 1050 270 m -39 Y s 1087
 250 m -19 Y s 1125 250 m -19 Y s 1163 250 m -19 Y s 1200 250 m -19 Y s 1238 270 m -39 Y s 1276 250 m -19 Y s 1313 250 m -19 Y s 1351 250 m -19 Y s 1389 250 m -19 Y s 1426 270 m -39 Y s 1464 250 m -19 Y s 1502 250 m -19 Y s 1539 250 m -19 Y s 1577
 250 m -19 Y s 1615 270 m -39 Y s 1652 250 m -19 Y s 1690 250 m -19 Y s 1728 250 m -19 Y s 1765 250 m -19 Y s 1803 270 m -39 Y s 1841 250 m -19 Y s 1878 250 m -19 Y s 1916 250 m -19 Y s 1954 250 m -19 Y s 1991 270 m -39 Y s 2029 250 m -19 Y s 2067
 250 m -19 Y s 2104 250 m -19 Y s 2142 250 m -19 Y s 2180 270 m -39 Y s
 gsave  2268 1538 0 0 C 273.69 149.878 t 0 r /Helvetica findfont 84.7135 sf 0 0 m (0) show NC gr 
 gsave  2268 1538 0 0 C 423.568 149.878 t 0 r /Helvetica findfont 84.7135 sf 0 0 m (0.5) show NC gr 
 gsave  2268 1538 0 0 C 654.901 149.878 t 0 r /Helvetica findfont 84.7135 sf 0 0 m (1) show NC gr 
 gsave  2268 1538 0 0 C 801.521 149.878 t 0 r /Helvetica findfont 84.7135 sf 0 0 m (1.5) show NC gr 
 gsave  2268 1538 0 0 C 1026.34 149.878 t 0 r /Helvetica findfont 84.7135 sf 0 0 m (2) show NC gr 
 gsave  2268 1538 0 0 C 1179.47 149.878 t 0 r /Helvetica findfont 84.7135 sf 0 0 m (2.5) show NC gr 
 gsave  2268 1538 0 0 C 1401.03 149.878 t 0 r /Helvetica findfont 84.7135 sf 0 0 m (3) show NC gr 
 gsave  2268 1538 0 0 C 1554.17 149.878 t 0 r /Helvetica findfont 84.7135 sf 0 0 m (3.5) show NC gr 
 gsave  2268 1538 0 0 C 1778.98 149.878 t 0 r /Helvetica findfont 84.7135 sf 0 0 m (4) show NC gr 
 gsave  2268 1538 0 0 C 1932.12 149.878 t 0 r /Helvetica findfont 84.7135 sf 0 0 m (4.5) show NC gr 
 gsave  2268 1538 0 0 C 2156.94 149.878 t 0 r /Helvetica findfont 84.7135 sf 0 0 m (5) show NC gr  296 1512 m 1884 X s 296 1473 m 39 Y s 334 1493 m 19 Y s 372 1493 m 19 Y s 409 1493 m 19 Y s 447 1493 m 19 Y s 485 1473 m 39 Y s 522 1493 m 19 Y s 560
 1493 m 19 Y s 598 1493 m 19 Y s 635 1493 m 19 Y s 673 1473 m 39 Y s 711 1493 m 19 Y s 748 1493 m 19 Y s 786 1493 m 19 Y s 824 1493 m 19 Y s 861 1473 m 39 Y s 899 1493 m 19 Y s 937 1493 m 19 Y s 974 1493 m 19 Y s 1012 1493 m 19 Y s 1050 1473 m 39 Y s
 1087 1493 m 19 Y s 1125 1493 m 19 Y s 1163 1493 m 19 Y s 1200 1493 m 19 Y s 1238 1473 m 39 Y s 1276 1493 m 19 Y s 1313 1493 m 19 Y s 1351 1493 m 19 Y s 1389 1493 m 19 Y s 1426 1473 m 39 Y s 1464 1493 m 19 Y s 1502 1493 m 19 Y s 1539 1493 m 19 Y s
 1577 1493 m 19 Y s 1615 1473 m 39 Y s 1652 1493 m 19 Y s 1690 1493 m 19 Y s 1728 1493 m 19 Y s 1765 1493 m 19 Y s 1803 1473 m 39 Y s 1841 1493 m 19 Y s 1878 1493 m 19 Y s 1916 1493 m 19 Y s 1954 1493 m 19 Y s 1991 1473 m 39 Y s 2029 1493 m 19 Y s
 2067 1493 m 19 Y s 2104 1493 m 19 Y s 2142 1493 m 19 Y s 2180 1473 m 39 Y s 296 231 m 1281 Y s 325 265 m -29 X s 325 352 m -29 X s 325 422 m -29 X s 325 482 m -29 X s 325 534 m -29 X s 325 579 m -29 X s 353 620 m -57 X s
 gsave  2268 1538 0 0 C 231.333 619.061 t 0 r /Helvetica findfont 58.6478 sf 0 0 m (\2551) show NC gr 
 gsave  2268 1538 0 0 C 140.103 583.22 t 0 r /Helvetica findfont 84.7135 sf 0 0 m (10) show NC gr  325 889 m -29 X s 325 1046 m -29 X s 325 1157 m -29 X s 325 1243 m -29 X s 325 1314 m -29 X s 325 1374 m -29 X s 325 1425 m -29 X s 325 1471 m -29 X s
 353 1512 m -57 X s
 gsave  2268 1538 0 0 C 274.274 1475.32 t 0 r  -47 0 t /Helvetica findfont 84.7135 sf 0 0 m (1) show NC gr  2180 231 m 1281 Y s 2151 265 m 29 X s 2151 352 m 29 X s 2151 422 m 29 X s 2151 482 m 29 X s 2151 534 m 29 X s 2151 579 m 29 X s 2123 620 m 57
 X s 2151 889 m 29 X s 2151 1046 m 29 X s 2151 1157 m 29 X s 2151 1243 m 29 X s 2151 1314 m 29 X s 2151 1374 m 29 X s 2151 1425 m 29 X s 2151 1471 m 29 X s 2123 1512 m 57 X s 0 0 0.6 c[  12 12 ] 0 sd 6 lw 1 1 1 c black 0 0 0.6 c 296 1489 m 189 X
 -1258 Y 565 X 169 Y 188 X -169 Y 942 X s 0 0.4 0.6 c[ 4 8] 0 sd 1 1 1 c black 0 0.4 0.6 c 296 1399 m 189 X -1168 Y 565 X 747 Y 188 X -747 Y 942 X s black[  ] 0 sd 1 1 1 c black 296 1493 m 189 X -1262 Y 565 X 92 Y 188 X -92 Y 942 X s
 gsave  2268 1538 0 0 C 1443.39 1371.71 t 0 r /Helvetica-Bold findfont 52.1314 sf 0 0 m (Conversion electrons) show NC gr  0 0.4 0.6 c[ 4 8] 0 sd 1233 1393 m 175 X s black
 gsave  2268 1538 0 0 C 1443.39 1270.7 t 0 r /Helvetica-Bold findfont 52.1314 sf 0 0 m (Isolated electrons ) show NC gr [  ] 0 sd 1233 1293 m 175 X s
 gsave  2268 1538 0 0 C 1443.39 1172.96 t 0 r /Helvetica-Bold findfont 52.1314 sf 0 0 m (Non\255Isolated electrons) show NC gr  0 0 0.6 c[  12 12 ] 0 sd 1233 1193 m 175 X s black
 gsave  2268 1538 0 0 C 1443.39 1071.95 t 0 r /Helvetica-Bold findfont 52.1314 sf 0 0 m (Hadrons) show NC gr  0.6 0 0.2 c[  ] 0 sd 1233 1093 m 175 X s
 gr  gr showpage
end
%%EOF
