%!PS-Adobe-2.0 EPSF-2.0
%%BoundingBox:  0 0 567 384
%%Title: /home/rohin/Analysis/dataAna/2014/July/electron_vars/DeltaPhi2.eps: c1_n4
%%Creator: ROOT Version 5.34/14
%%CreationDate: Tue Sep  9 00:36:39 2014
%%EndComments
%%BeginProlog
80 dict begin
/s {stroke} def /l {lineto} def /m {moveto} def /t {translate} def
/r {rotate} def /rl {roll}  def /R {repeat} def
/d {rlineto} def /rm {rmoveto} def /gr {grestore} def /f {eofill} def
/c {setrgbcolor} def /black {0 setgray} def /sd {setdash} def
/cl {closepath} def /sf {scalefont setfont} def /lw {setlinewidth} def
/box {m dup 0 exch d exch 0 d 0 exch neg d cl} def
/NC{systemdict begin initclip end}def/C{NC box clip newpath}def
/bl {box s} def /bf {box f} def /Y { 0 exch d} def /X { 0 d} def 
/K {{pop pop 0 moveto} exch kshow} bind def
/ita {/ang 15 def gsave [1 0 ang dup sin exch cos div 1 0 0] concat} def 
/mp {newpath /y exch def /x exch def} def
/side {[w .77 mul w .23 mul] .385 w mul sd w 0 l currentpoint t -144 r} def
/mr {mp x y w2 0 360 arc} def /m24 {mr s} def /m20 {mr f} def
/mb {mp x y w2 add m w2 neg 0 d 0 w neg d w 0 d 0 w d cl} def
/mt {mp x y w2 add m w2 neg w neg d w 0 d cl} def
/m21 {mb f} def /m25 {mb s} def /m22 {mt f} def /m26{mt s} def
/m23 {mp x y w2 sub m w2 w d w neg 0 d cl f} def
/m27 {mp x y w2 add m w3 neg w2 neg d w3 w2 neg d w3 w2 d cl s} def
/m28 {mp x w2 sub y w2 sub w3 add m w3 0 d  0 w3 neg d w3 0 d 0 w3 d w3 0 d  0 w3 d w3 neg 0 d 0 w3 d w3 neg 0 d 0 w3 neg d w3 neg 0 d cl s } def
/m29 {mp gsave x w2 sub y w2 add w3 sub m currentpoint t 4 {side} repeat cl fill gr} def
/m30 {mp gsave x w2 sub y w2 add w3 sub m currentpoint t 4 {side} repeat cl s gr} def
/m31 {mp x y w2 sub m 0 w d x w2 sub y m w 0 d x w2 sub y w2 add m w w neg d x w2 sub y w2 sub m w w d s} def
/m32 {mp x y w2 sub m w2 w d w neg 0 d cl s} def
/m33 {mp x y w2 add m w3 neg w2 neg d w3 w2 neg d w3 w2 d cl f} def
/m34 {mp x w2 sub y w2 sub w3 add m w3 0 d  0 w3 neg d w3 0 d 0 w3 d w3 0 d  0 w3 d w3 neg 0 d 0 w3 d w3 neg 0 d 0 w3 neg d w3 neg 0 d cl f } def
/m2 {mp x y w2 sub m 0 w d x w2 sub y m w 0 d s} def
/m5 {mp x w2 sub y w2 sub m w w d x w2 sub y w2 add m w w neg d s} def
/reEncode {exch findfont dup length dict begin {1 index /FID eq  {pop pop} {def} ifelse } forall /Encoding exch def currentdict end dup /FontName get exch definefont pop } def [/Times-Bold /Times-Italic /Times-BoldItalic /Helvetica /Helvetica-Oblique
 /Helvetica-Bold /Helvetica-BoldOblique /Courier /Courier-Oblique /Courier-Bold /Courier-BoldOblique /Times-Roman /AvantGarde-Book /AvantGarde-BookOblique /AvantGarde-Demi /AvantGarde-DemiOblique /Bookman-Demi /Bookman-DemiItalic /Bookman-Light
 /Bookman-LightItalic /Helvetica-Narrow /Helvetica-Narrow-Bold /Helvetica-Narrow-BoldOblique /Helvetica-Narrow-Oblique /NewCenturySchlbk-Roman /NewCenturySchlbk-Bold /NewCenturySchlbk-BoldItalic /NewCenturySchlbk-Italic /Palatino-Bold
 /Palatino-BoldItalic /Palatino-Italic /Palatino-Roman ] {ISOLatin1Encoding reEncode } forall
%%EndProlog
%%BeginSetup
%%EndSetup
newpath  gsave  .25 .25 scale  gsave  0 0 t black[  ] 0 sd 3 lw 1 1 1 c 2268 1538 0 0 bf black 1 1 1 c 1883 1231 326 212 bf black 1883 1231 326 212 bl 1 1 1 c 1883 1231 326 212 bf black 1883 1231 326 212 bl 0.6 0 0.2 c 6 lw 1 1 1 c black 0.6 0 0.2 c
 326 812 m 19 X 16 Y 18 X 10 Y 19 X 8 Y 19 X 15 Y 19 X 4 Y 19 X 13 Y 19 X 7 Y 18 X 10 Y 19 X 10 Y 19 X 7 Y 19 X 10 Y 19 X 8 Y 19 X 8 Y 18 X 9 Y 19 X 9 Y 19 X 7 Y 19 X 7 Y 19 X 9 Y 19 X 7 Y 18 X 8 Y 19 X 6 Y 19 X 9 Y 19 X 5 Y 19 X 9 Y 19 X 7 Y 18 X 7
 Y 19 X 8 Y 19 X 8 Y 19 X 6 Y 19 X 9 Y 19 X 6 Y 18 X 8 Y 19 X 7 Y 19 X 6 Y 19 X 9 Y 19 X 7 Y 19 X 8 Y 18 X 7 Y 19 X 9 Y 19 X 9 Y 19 X 7 Y 19 X 7 Y 19 X 8 Y 18 X 9 Y 19 X 12 Y 19 X 16 Y 19 X 18 Y 19 X 15 Y 19 X 21 Y 18 X -2 Y 19 X -56 Y 19 X -37 Y 19
 X -31 Y 19 X -27 Y 19 X -39 Y 18 X -29 Y 19 X -31 Y 19 X -30 Y 19 X -27 Y 19 X -26 Y 19 X -23 Y 18 X -18 Y 19 X -23 Y 19 X -16 Y 19 X -14 Y 19 X -22 Y 19 X -9 Y 18 X -22 Y 19 X -12 Y 19 X -20 Y 19 X -10 Y 19 X -16 Y 19 X -21 Y 18 X -19 Y 19 X -21 Y
 19 X -10 Y 19 X -21 Y 19 X -17 Y 19 X -10 Y 18 X -74 Y 19 X -3 Y 19 X -12 Y 19 X -61 Y 38 X -90 Y 37 X -33 Y 19 X -113 Y 19 X 56 Y 19 X -56 Y 188 X s black 3 lw 326 212 m 1883 X s
 gsave  2268 1538 0 0 C 2176.49 13.0329 t 0 r /Helvetica findfont 58.6478 sf 0 0 m (2) show NC gr 
 gsave  2268 1538 0 0 C 2134.13 55.3896 t 0 r /Symbol findfont 84.7135 sf 0 0 m (f) show NC gr 
 gsave  2268 1538 0 0 C 2082 55.3896 t 0 r /Symbol findfont 84.7135 sf 0 0 m (D) show NC gr  326 250 m -38 Y s 363 231 m -19 Y s 401 231 m -19 Y s 439 231 m -19 Y s 476 231 m -19 Y s 514 250 m -38 Y s 552 231 m -19 Y s 589 231 m -19 Y s 627 231 m -19
 Y s 665 231 m -19 Y s 702 250 m -38 Y s 740 231 m -19 Y s 778 231 m -19 Y s 815 231 m -19 Y s 853 231 m -19 Y s 891 250 m -38 Y s 928 231 m -19 Y s 966 231 m -19 Y s 1004 231 m -19 Y s 1041 231 m -19 Y s 1079 250 m -38 Y s 1117 231 m -19 Y s 1154
 231 m -19 Y s 1192 231 m -19 Y s 1230 231 m -19 Y s 1267 250 m -38 Y s 1305 231 m -19 Y s 1343 231 m -19 Y s 1380 231 m -19 Y s 1418 231 m -19 Y s 1456 250 m -38 Y s 1493 231 m -19 Y s 1531 231 m -19 Y s 1569 231 m -19 Y s 1606 231 m -19 Y s 1644
 250 m -38 Y s 1682 231 m -19 Y s 1719 231 m -19 Y s 1757 231 m -19 Y s 1795 231 m -19 Y s 1832 250 m -38 Y s 1870 231 m -19 Y s 1908 231 m -19 Y s 1945 231 m -19 Y s 1983 231 m -19 Y s 2021 250 m -38 Y s 2058 231 m -19 Y s 2096 231 m -19 Y s 2134
 231 m -19 Y s 2171 231 m -19 Y s 2209 250 m -38 Y s
 gsave  2268 1538 0 0 C 254.141 130.329 t 0 r /Helvetica findfont 84.7135 sf 0 0 m (\2550.5) show NC gr 
 gsave  2268 1538 0 0 C 439.859 130.329 t 0 r /Helvetica findfont 84.7135 sf 0 0 m (\2550.4) show NC gr 
 gsave  2268 1538 0 0 C 628.835 130.329 t 0 r /Helvetica findfont 84.7135 sf 0 0 m (\2550.3) show NC gr 
 gsave  2268 1538 0 0 C 817.812 130.329 t 0 r /Helvetica findfont 84.7135 sf 0 0 m (\2550.2) show NC gr 
 gsave  2268 1538 0 0 C 1013.3 130.329 t 0 r /Helvetica findfont 84.7135 sf 0 0 m (\2550.1) show NC gr 
 gsave  2268 1538 0 0 C 1244.64 130.329 t 0 r /Helvetica findfont 84.7135 sf 0 0 m (0) show NC gr 
 gsave  2268 1538 0 0 C 1401.03 130.329 t 0 r /Helvetica findfont 84.7135 sf 0 0 m (0.1) show NC gr 
 gsave  2268 1538 0 0 C 1583.49 130.329 t 0 r /Helvetica findfont 84.7135 sf 0 0 m (0.2) show NC gr 
 gsave  2268 1538 0 0 C 1772.47 130.329 t 0 r /Helvetica findfont 84.7135 sf 0 0 m (0.3) show NC gr 
 gsave  2268 1538 0 0 C 1961.44 130.329 t 0 r /Helvetica findfont 84.7135 sf 0 0 m (0.4) show NC gr 
 gsave  2268 1538 0 0 C 2150.42 130.329 t 0 r /Helvetica findfont 84.7135 sf 0 0 m (0.5) show NC gr  326 1443 m 1883 X s 326 1405 m 38 Y s 363 1424 m 19 Y s 401 1424 m 19 Y s 439 1424 m 19 Y s 476 1424 m 19 Y s 514 1405 m 38 Y s 552 1424 m 19 Y s 589
 1424 m 19 Y s 627 1424 m 19 Y s 665 1424 m 19 Y s 702 1405 m 38 Y s 740 1424 m 19 Y s 778 1424 m 19 Y s 815 1424 m 19 Y s 853 1424 m 19 Y s 891 1405 m 38 Y s 928 1424 m 19 Y s 966 1424 m 19 Y s 1004 1424 m 19 Y s 1041 1424 m 19 Y s 1079 1405 m 38 Y
 s 1117 1424 m 19 Y s 1154 1424 m 19 Y s 1192 1424 m 19 Y s 1230 1424 m 19 Y s 1267 1405 m 38 Y s 1305 1424 m 19 Y s 1343 1424 m 19 Y s 1380 1424 m 19 Y s 1418 1424 m 19 Y s 1456 1405 m 38 Y s 1493 1424 m 19 Y s 1531 1424 m 19 Y s 1569 1424 m 19 Y s
 1606 1424 m 19 Y s 1644 1405 m 38 Y s 1682 1424 m 19 Y s 1719 1424 m 19 Y s 1757 1424 m 19 Y s 1795 1424 m 19 Y s 1832 1405 m 38 Y s 1870 1424 m 19 Y s 1908 1424 m 19 Y s 1945 1424 m 19 Y s 1983 1424 m 19 Y s 2021 1405 m 38 Y s 2058 1424 m 19 Y s
 2096 1424 m 19 Y s 2134 1424 m 19 Y s 2171 1424 m 19 Y s 2209 1405 m 38 Y s 326 212 m 1231 Y s 353 218 m -27 X s 353 241 m -27 X s 353 260 m -27 X s 353 274 m -27 X s 353 287 m -27 X s 353 298 m -27 X s 353 308 m -27 X s 380 316 m -54 X s
 gsave  2268 1538 0 0 C 250.882 319.305 t 0 r /Helvetica findfont 58.6478 sf 0 0 m (\2556) show NC gr 
 gsave  2268 1538 0 0 C 159.652 280.206 t 0 r /Helvetica findfont 84.7135 sf 0 0 m (10) show NC gr  353 373 m -27 X s 353 406 m -27 X s 353 429 m -27 X s 353 447 m -27 X s 353 462 m -27 X s 353 475 m -27 X s 353 486 m -27 X s 353 495 m -27 X s 380
 504 m -54 X s
 gsave  2268 1538 0 0 C 250.882 505.023 t 0 r /Helvetica findfont 58.6478 sf 0 0 m (\2555) show NC gr 
 gsave  2268 1538 0 0 C 159.652 465.924 t 0 r /Helvetica findfont 84.7135 sf 0 0 m (10) show NC gr  353 561 m -27 X s 353 594 m -27 X s 353 617 m -27 X s 353 635 m -27 X s 353 650 m -27 X s 353 663 m -27 X s 353 674 m -27 X s 353 683 m -27 X s 380
 692 m -54 X s
 gsave  2268 1538 0 0 C 250.882 690.741 t 0 r /Helvetica findfont 58.6478 sf 0 0 m (\2554) show NC gr 
 gsave  2268 1538 0 0 C 159.652 654.901 t 0 r /Helvetica findfont 84.7135 sf 0 0 m (10) show NC gr  353 748 m -27 X s 353 782 m -27 X s 353 805 m -27 X s 353 823 m -27 X s 353 838 m -27 X s 353 851 m -27 X s 353 862 m -27 X s 353 871 m -27 X s 380
 880 m -54 X s
 gsave  2268 1538 0 0 C 250.882 882.976 t 0 r /Helvetica findfont 58.6478 sf 0 0 m (\2553) show NC gr 
 gsave  2268 1538 0 0 C 159.652 843.877 t 0 r /Helvetica findfont 84.7135 sf 0 0 m (10) show NC gr  353 936 m -27 X s 353 969 m -27 X s 353 993 m -27 X s 353 1011 m -27 X s 353 1026 m -27 X s 353 1039 m -27 X s 353 1049 m -27 X s 353 1059 m -27 X s
 380 1068 m -54 X s
 gsave  2268 1538 0 0 C 250.882 1065.44 t 0 r /Helvetica findfont 58.6478 sf 0 0 m (\2552) show NC gr 
 gsave  2268 1538 0 0 C 159.652 1029.6 t 0 r /Helvetica findfont 84.7135 sf 0 0 m (10) show NC gr  353 1124 m -27 X s 353 1157 m -27 X s 353 1181 m -27 X s 353 1199 m -27 X s 353 1214 m -27 X s 353 1226 m -27 X s 353 1237 m -27 X s 353 1247 m -27 X s
 380 1256 m -54 X s
 gsave  2268 1538 0 0 C 260.657 1254.41 t 0 r /Helvetica findfont 58.6478 sf 0 0 m (\2551) show NC gr 
 gsave  2268 1538 0 0 C 169.427 1218.57 t 0 r /Helvetica findfont 84.7135 sf 0 0 m (10) show NC gr  353 1312 m -27 X s 353 1345 m -27 X s 353 1369 m -27 X s 353 1387 m -27 X s 353 1402 m -27 X s 353 1414 m -27 X s 353 1425 m -27 X s 353 1435 m -27 X
 s 380 1443 m -54 X s
 gsave  2268 1538 0 0 C 303.598 1406.9 t 0 r  -47 0 t /Helvetica findfont 84.7135 sf 0 0 m (1) show NC gr  2209 212 m 1231 Y s 2182 218 m 27 X s 2182 241 m 27 X s 2182 260 m 27 X s 2182 274 m 27 X s 2182 287 m 27 X s 2182 298 m 27 X s 2182 308 m 27 X
 s 2155 316 m 54 X s 2182 373 m 27 X s 2182 406 m 27 X s 2182 429 m 27 X s 2182 447 m 27 X s 2182 462 m 27 X s 2182 475 m 27 X s 2182 486 m 27 X s 2182 495 m 27 X s 2155 504 m 54 X s 2182 561 m 27 X s 2182 594 m 27 X s 2182 617 m 27 X s 2182 635 m 27
 X s 2182 650 m 27 X s 2182 663 m 27 X s 2182 674 m 27 X s 2182 683 m 27 X s 2155 692 m 54 X s 2182 748 m 27 X s 2182 782 m 27 X s 2182 805 m 27 X s 2182 823 m 27 X s 2182 838 m 27 X s 2182 851 m 27 X s 2182 862 m 27 X s 2182 871 m 27 X s 2155 880 m
 54 X s 2182 936 m 27 X s 2182 969 m 27 X s 2182 993 m 27 X s 2182 1011 m 27 X s 2182 1026 m 27 X s 2182 1039 m 27 X s 2182 1049 m 27 X s 2182 1059 m 27 X s 2155 1068 m 54 X s 2182 1124 m 27 X s 2182 1157 m 27 X s 2182 1181 m 27 X s 2182 1199 m 27 X
 s 2182 1214 m 27 X s 2182 1226 m 27 X s 2182 1237 m 27 X s 2182 1247 m 27 X s 2155 1256 m 54 X s 2182 1312 m 27 X s 2182 1345 m 27 X s 2182 1369 m 27 X s 2182 1387 m 27 X s 2182 1402 m 27 X s 2182 1414 m 27 X s 2182 1425 m 27 X s 2182 1435 m 27 X s
 2155 1443 m 54 X s 0 0 0.6 c[  12 12 ] 0 sd 6 lw 1 1 1 c black 0 0 0.6 c 326 669 m 19 X 5 Y 18 X -1 Y 38 X 20 Y 19 X 4 Y 19 X 11 Y 19 X 3 Y 18 X 7 Y 19 X 6 Y 19 X 7 Y 19 X 7 Y 19 X 12 Y 19 X 5 Y 18 X 13 Y 19 X 11 Y 19 X 2 Y 19 X 14 Y 19 X 2 Y 19 X
 10 Y 18 X 9 Y 19 X 7 Y 19 X 5 Y 19 X 4 Y 19 X 13 Y 19 X 4 Y 18 X 13 Y 19 X 9 Y 19 X 6 Y 19 X 8 Y 19 X 9 Y 19 X 8 Y 18 X 8 Y 19 X 9 Y 19 X 13 Y 19 X 14 Y 19 X 14 Y 19 X 15 Y 18 X 17 Y 19 X 15 Y 19 X 17 Y 19 X 14 Y 19 X 15 Y 19 X 17 Y 18 X 23 Y 19 X
 31 Y 19 X 39 Y 19 X 44 Y 19 X 49 Y 19 X 87 Y 18 X 16 Y 19 X -176 Y 19 X -91 Y 19 X -66 Y 19 X -60 Y 19 X -82 Y 18 X -53 Y 19 X -62 Y 19 X -45 Y 19 X -65 Y 19 X -18 Y 19 X -99 Y 18 X 4 Y 19 X -35 Y 19 X -11 Y 19 X -78 Y 19 X 14 Y 19 X -89 Y 37 X -57
 Y 19 X 57 Y 19 X 33 Y 19 X -90 Y 19 X -78 Y 18 X 78 Y 19 X -78 Y 19 X 78 Y 38 X -78 Y 37 X 78 Y 19 X -78 Y 151 X 78 Y 19 X -78 Y 188 X s 0 0.4 0.6 c[ 4 8] 0 sd 1 1 1 c black 0 0.4 0.6 c 326 806 m 19 X 3 Y 18 X 16 Y 19 X 6 Y 19 X 11 Y 19 X 17 Y 19 X
 6 Y 19 X 13 Y 18 X 15 Y 19 X 12 Y 19 X 10 Y 19 X 10 Y 19 X 7 Y 19 X 14 Y 18 X 12 Y 19 X 5 Y 19 X 6 Y 19 X 11 Y 19 X 10 Y 19 X 5 Y 18 X 7 Y 19 X 8 Y 19 X 7 Y 19 X 4 Y 19 X 5 Y 19 X 9 Y 18 X 4 Y 19 X 8 Y 19 X 5 Y 19 X 5 Y 19 X 6 Y 19 X 8 Y 18 X 5 Y 19
 X 9 Y 19 X 7 Y 19 X 11 Y 19 X 6 Y 19 X 9 Y 18 X 12 Y 19 X 9 Y 19 X 11 Y 19 X 9 Y 19 X 8 Y 19 X 8 Y 18 X 9 Y 19 X 14 Y 19 X 16 Y 19 X 25 Y 19 X 21 Y 19 X 31 Y 18 X -51 Y 19 X -115 Y 19 X -76 Y 19 X -43 Y 19 X -32 Y 19 X -43 Y 18 X -24 Y 19 X -34 Y 19
 X -22 Y 19 X -25 Y 19 X -24 Y 19 X -35 Y 18 X -23 Y 19 X -23 Y 19 X -11 Y 19 X -27 Y 19 X -2 Y 19 X -44 Y 18 X -17 Y 19 X 6 Y 19 X -10 Y 19 X -80 Y 19 X 17 Y 19 X -65 Y 18 X 15 Y 19 X -15 Y 19 X -41 Y 19 X 41 Y 19 X -276 Y 414 X s black[  ] 0 sd 1 1
 1 c black 326 574 m 19 X 4 Y 18 X 6 Y 19 X 9 Y 19 X 12 Y 19 X 5 Y 19 X 2 Y 19 X 5 Y 18 X -2 Y 19 X 12 Y 19 X 21 Y 19 X -5 Y 19 X 14 Y 19 X 9 Y 18 X 6 Y 19 X 13 Y 19 X 3 Y 19 X 5 Y 19 X 13 Y 19 X 1 Y 18 X 10 Y 19 X 9 Y 19 X 9 Y 19 X 8 Y 19 X 8 Y 19 X
 9 Y 18 X 9 Y 19 X 14 Y 19 X 6 Y 19 X 10 Y 19 X 12 Y 19 X 3 Y 18 X 15 Y 19 X 12 Y 19 X 12 Y 19 X 10 Y 19 X 13 Y 19 X 16 Y 18 X 14 Y 19 X 16 Y 19 X 19 Y 19 X 16 Y 19 X 18 Y 19 X 19 Y 18 X 24 Y 19 X 26 Y 19 X 38 Y 19 X 47 Y 19 X 72 Y 19 X 180 Y 18 X
 -10 Y 19 X -405 Y 19 X -151 Y 19 X -102 Y 19 X -62 Y 19 X -97 Y 18 X -76 Y 19 X -49 Y 19 X -52 Y 19 X -165 Y 38 X 117 Y 18 X -74 Y 76 X -43 Y 640 X s
 gsave  2268 1538 0 0 C 788.488 625.577 t 0 r /Helvetica-Bold findfont 52.1314 sf 0 0 m (Conversion electrons) show NC gr  0 0.4 0.6 c[ 4 8] 0 sd 578 654 m 175 X s black
 gsave  2268 1538 0 0 C 788.488 501.765 t 0 r /Helvetica-Bold findfont 52.1314 sf 0 0 m (Isolated electrons ) show NC gr [  ] 0 sd 578 527 m 175 X s
 gsave  2268 1538 0 0 C 788.488 374.695 t 0 r /Helvetica-Bold findfont 52.1314 sf 0 0 m (Non\255Isolated electrons) show NC gr  0 0 0.6 c[  12 12 ] 0 sd 578 401 m 175 X s black
 gsave  2268 1538 0 0 C 788.488 247.624 t 0 r /Helvetica-Bold findfont 52.1314 sf 0 0 m (Hadrons) show NC gr  0.6 0 0.2 c[  ] 0 sd 578 275 m 175 X s
 gr  gr showpage
end
%%EOF
