%!PS-Adobe-2.0 EPSF-2.0
%%BoundingBox:  0 0 567 384
%%Title: /home/rohin/Analysis/dataAna/2014/July/electron_vars/DeltaEta2.eps: c1_n3
%%Creator: ROOT Version 5.34/14
%%CreationDate: Tue Sep  9 00:37:11 2014
%%EndComments
%%BeginProlog
80 dict begin
/s {stroke} def /l {lineto} def /m {moveto} def /t {translate} def
/r {rotate} def /rl {roll}  def /R {repeat} def
/d {rlineto} def /rm {rmoveto} def /gr {grestore} def /f {eofill} def
/c {setrgbcolor} def /black {0 setgray} def /sd {setdash} def
/cl {closepath} def /sf {scalefont setfont} def /lw {setlinewidth} def
/box {m dup 0 exch d exch 0 d 0 exch neg d cl} def
/NC{systemdict begin initclip end}def/C{NC box clip newpath}def
/bl {box s} def /bf {box f} def /Y { 0 exch d} def /X { 0 d} def 
/K {{pop pop 0 moveto} exch kshow} bind def
/ita {/ang 15 def gsave [1 0 ang dup sin exch cos div 1 0 0] concat} def 
/mp {newpath /y exch def /x exch def} def
/side {[w .77 mul w .23 mul] .385 w mul sd w 0 l currentpoint t -144 r} def
/mr {mp x y w2 0 360 arc} def /m24 {mr s} def /m20 {mr f} def
/mb {mp x y w2 add m w2 neg 0 d 0 w neg d w 0 d 0 w d cl} def
/mt {mp x y w2 add m w2 neg w neg d w 0 d cl} def
/m21 {mb f} def /m25 {mb s} def /m22 {mt f} def /m26{mt s} def
/m23 {mp x y w2 sub m w2 w d w neg 0 d cl f} def
/m27 {mp x y w2 add m w3 neg w2 neg d w3 w2 neg d w3 w2 d cl s} def
/m28 {mp x w2 sub y w2 sub w3 add m w3 0 d  0 w3 neg d w3 0 d 0 w3 d w3 0 d  0 w3 d w3 neg 0 d 0 w3 d w3 neg 0 d 0 w3 neg d w3 neg 0 d cl s } def
/m29 {mp gsave x w2 sub y w2 add w3 sub m currentpoint t 4 {side} repeat cl fill gr} def
/m30 {mp gsave x w2 sub y w2 add w3 sub m currentpoint t 4 {side} repeat cl s gr} def
/m31 {mp x y w2 sub m 0 w d x w2 sub y m w 0 d x w2 sub y w2 add m w w neg d x w2 sub y w2 sub m w w d s} def
/m32 {mp x y w2 sub m w2 w d w neg 0 d cl s} def
/m33 {mp x y w2 add m w3 neg w2 neg d w3 w2 neg d w3 w2 d cl f} def
/m34 {mp x w2 sub y w2 sub w3 add m w3 0 d  0 w3 neg d w3 0 d 0 w3 d w3 0 d  0 w3 d w3 neg 0 d 0 w3 d w3 neg 0 d 0 w3 neg d w3 neg 0 d cl f } def
/m2 {mp x y w2 sub m 0 w d x w2 sub y m w 0 d s} def
/m5 {mp x w2 sub y w2 sub m w w d x w2 sub y w2 add m w w neg d s} def
/reEncode {exch findfont dup length dict begin {1 index /FID eq  {pop pop} {def} ifelse } forall /Encoding exch def currentdict end dup /FontName get exch definefont pop } def [/Times-Bold /Times-Italic /Times-BoldItalic /Helvetica /Helvetica-Oblique
 /Helvetica-Bold /Helvetica-BoldOblique /Courier /Courier-Oblique /Courier-Bold /Courier-BoldOblique /Times-Roman /AvantGarde-Book /AvantGarde-BookOblique /AvantGarde-Demi /AvantGarde-DemiOblique /Bookman-Demi /Bookman-DemiItalic /Bookman-Light
 /Bookman-LightItalic /Helvetica-Narrow /Helvetica-Narrow-Bold /Helvetica-Narrow-BoldOblique /Helvetica-Narrow-Oblique /NewCenturySchlbk-Roman /NewCenturySchlbk-Bold /NewCenturySchlbk-BoldItalic /NewCenturySchlbk-Italic /Palatino-Bold
 /Palatino-BoldItalic /Palatino-Italic /Palatino-Roman ] {ISOLatin1Encoding reEncode } forall
%%EndProlog
%%BeginSetup
%%EndSetup
newpath  gsave  .25 .25 scale  gsave  0 0 t black[  ] 0 sd 3 lw 1 1 1 c 2268 1538 0 0 bf black 1 1 1 c 1883 1287 316 222 bf black 1883 1287 316 222 bl 1 1 1 c 1883 1287 316 222 bf black 1883 1287 316 222 bl 0.6 0 0.2 c 6 lw 1 1 1 c black 0.6 0 0.2 c
 316 222 m 283 X 225 Y 18 X 89 Y 19 X -59 Y 19 X 34 Y 19 X 44 Y 19 X 18 Y 19 X -33 Y 18 X 4 Y 19 X 27 Y 19 X -35 Y 19 X 4 Y 19 X 41 Y 19 X -16 Y 18 X -13 Y 19 X 27 Y 19 X 12 Y 19 X 23 Y 19 X 3 Y 19 X 19 Y 18 X -12 Y 19 X -10 Y 19 X 11 Y 19 X 15 Y 19
 X -23 Y 19 X 47 Y 18 X 26 Y 19 X 85 Y 19 X 102 Y 19 X 120 Y 19 X 117 Y 19 X 112 Y 18 X 41 Y 19 X 33 Y 19 X 30 Y 19 X 33 Y 38 X -32 Y 18 X -31 Y 19 X -33 Y 19 X -40 Y 19 X -111 Y 19 X -113 Y 18 X -121 Y 19 X -91 Y 19 X -89 Y 19 X -26 Y 19 X -25 Y 19
 X -23 Y 18 X -12 Y 19 X 5 Y 19 X 14 Y 19 X -8 Y 19 X -43 Y 19 X 38 Y 18 X -13 Y 19 X -47 Y 38 X 14 Y 19 X -18 Y 19 X 4 Y 18 X -18 Y 19 X 11 Y 19 X -33 Y 19 X 33 Y 19 X -23 Y 19 X 4 Y 18 X -14 Y 19 X -37 Y 19 X 32 Y 19 X 10 Y 19 X -246 Y 37 X -59 Y
 189 X 59 Y 19 X -59 Y 37 X s black 3 lw 316 222 m 1883 X s
 gsave  2268 1538 0 0 C 2166.71 22.8075 t 0 r /Helvetica findfont 58.6478 sf 0 0 m (2) show NC gr 
 gsave  2268 1538 0 0 C 2121.1 65.1643 t 0 r /Symbol findfont 84.7135 sf 0 0 m (h) show NC gr 
 gsave  2268 1538 0 0 C 2068.97 65.1643 t 0 r /Symbol findfont 84.7135 sf 0 0 m (D) show NC gr  316 260 m -38 Y s 354 241 m -19 Y s 391 241 m -19 Y s 429 241 m -19 Y s 467 241 m -19 Y s 504 260 m -38 Y s 542 241 m -19 Y s 580 241 m -19 Y s 617 241 m
 -19 Y s 655 241 m -19 Y s 693 260 m -38 Y s 730 241 m -19 Y s 768 241 m -19 Y s 806 241 m -19 Y s 843 241 m -19 Y s 881 260 m -38 Y s 919 241 m -19 Y s 956 241 m -19 Y s 994 241 m -19 Y s 1032 241 m -19 Y s 1069 260 m -38 Y s 1107 241 m -19 Y s 1145
 241 m -19 Y s 1182 241 m -19 Y s 1220 241 m -19 Y s 1258 260 m -38 Y s 1295 241 m -19 Y s 1333 241 m -19 Y s 1371 241 m -19 Y s 1408 241 m -19 Y s 1446 260 m -38 Y s 1484 241 m -19 Y s 1521 241 m -19 Y s 1559 241 m -19 Y s 1597 241 m -19 Y s 1634
 260 m -38 Y s 1672 241 m -19 Y s 1710 241 m -19 Y s 1747 241 m -19 Y s 1785 241 m -19 Y s 1823 260 m -38 Y s 1860 241 m -19 Y s 1898 241 m -19 Y s 1936 241 m -19 Y s 1973 241 m -19 Y s 2011 260 m -38 Y s 2049 241 m -19 Y s 2086 241 m -19 Y s 2124
 241 m -19 Y s 2162 241 m -19 Y s 2199 260 m -38 Y s 2199 260 m -38 Y s
 gsave  2268 1538 0 0 C 244.366 140.103 t 0 r /Helvetica findfont 84.7135 sf 0 0 m (\2550.5) show NC gr 
 gsave  2268 1538 0 0 C 430.084 140.103 t 0 r /Helvetica findfont 84.7135 sf 0 0 m (\2550.4) show NC gr 
 gsave  2268 1538 0 0 C 619.061 140.103 t 0 r /Helvetica findfont 84.7135 sf 0 0 m (\2550.3) show NC gr 
 gsave  2268 1538 0 0 C 808.037 140.103 t 0 r /Helvetica findfont 84.7135 sf 0 0 m (\2550.2) show NC gr 
 gsave  2268 1538 0 0 C 1003.53 140.103 t 0 r /Helvetica findfont 84.7135 sf 0 0 m (\2550.1) show NC gr 
 gsave  2268 1538 0 0 C 1234.86 140.103 t 0 r /Helvetica findfont 84.7135 sf 0 0 m (0) show NC gr 
 gsave  2268 1538 0 0 C 1391.26 140.103 t 0 r /Helvetica findfont 84.7135 sf 0 0 m (0.1) show NC gr 
 gsave  2268 1538 0 0 C 1573.72 140.103 t 0 r /Helvetica findfont 84.7135 sf 0 0 m (0.2) show NC gr 
 gsave  2268 1538 0 0 C 1762.69 140.103 t 0 r /Helvetica findfont 84.7135 sf 0 0 m (0.3) show NC gr 
 gsave  2268 1538 0 0 C 1951.67 140.103 t 0 r /Helvetica findfont 84.7135 sf 0 0 m (0.4) show NC gr 
 gsave  2268 1538 0 0 C 2140.65 140.103 t 0 r /Helvetica findfont 84.7135 sf 0 0 m (0.5) show NC gr  316 1509 m 1883 X s 316 1470 m 39 Y s 354 1489 m 20 Y s 391 1489 m 20 Y s 429 1489 m 20 Y s 467 1489 m 20 Y s 504 1470 m 39 Y s 542 1489 m 20 Y s 580
 1489 m 20 Y s 617 1489 m 20 Y s 655 1489 m 20 Y s 693 1470 m 39 Y s 730 1489 m 20 Y s 768 1489 m 20 Y s 806 1489 m 20 Y s 843 1489 m 20 Y s 881 1470 m 39 Y s 919 1489 m 20 Y s 956 1489 m 20 Y s 994 1489 m 20 Y s 1032 1489 m 20 Y s 1069 1470 m 39 Y s
 1107 1489 m 20 Y s 1145 1489 m 20 Y s 1182 1489 m 20 Y s 1220 1489 m 20 Y s 1258 1470 m 39 Y s 1295 1489 m 20 Y s 1333 1489 m 20 Y s 1371 1489 m 20 Y s 1408 1489 m 20 Y s 1446 1470 m 39 Y s 1484 1489 m 20 Y s 1521 1489 m 20 Y s 1559 1489 m 20 Y s
 1597 1489 m 20 Y s 1634 1470 m 39 Y s 1672 1489 m 20 Y s 1710 1489 m 20 Y s 1747 1489 m 20 Y s 1785 1489 m 20 Y s 1823 1470 m 39 Y s 1860 1489 m 20 Y s 1898 1489 m 20 Y s 1936 1489 m 20 Y s 1973 1489 m 20 Y s 2011 1470 m 39 Y s 2049 1489 m 20 Y s
 2086 1489 m 20 Y s 2124 1489 m 20 Y s 2162 1489 m 20 Y s 2199 1470 m 39 Y s 2199 1470 m 39 Y s 316 222 m 1287 Y s 345 228 m -29 X s 345 253 m -29 X s 345 272 m -29 X s 345 287 m -29 X s 345 301 m -29 X s 345 312 m -29 X s 345 322 m -29 X s 373 331 m
 -57 X s
 gsave  2268 1538 0 0 C 241.108 332.338 t 0 r /Helvetica findfont 58.6478 sf 0 0 m (\2556) show NC gr 
 gsave  2268 1538 0 0 C 149.878 293.239 t 0 r /Helvetica findfont 84.7135 sf 0 0 m (10) show NC gr  345 390 m -29 X s 345 425 m -29 X s 345 449 m -29 X s 345 468 m -29 X s 345 484 m -29 X s 345 497 m -29 X s 345 508 m -29 X s 345 518 m -29 X s 373
 527 m -57 X s
 gsave  2268 1538 0 0 C 241.108 527.831 t 0 r /Helvetica findfont 58.6478 sf 0 0 m (\2555) show NC gr 
 gsave  2268 1538 0 0 C 149.878 488.732 t 0 r /Helvetica findfont 84.7135 sf 0 0 m (10) show NC gr  345 586 m -29 X s 345 621 m -29 X s 345 645 m -29 X s 345 664 m -29 X s 345 680 m -29 X s 345 693 m -29 X s 345 704 m -29 X s 345 714 m -29 X s 373
 723 m -57 X s
 gsave  2268 1538 0 0 C 241.108 723.323 t 0 r /Helvetica findfont 58.6478 sf 0 0 m (\2554) show NC gr 
 gsave  2268 1538 0 0 C 149.878 687.483 t 0 r /Helvetica findfont 84.7135 sf 0 0 m (10) show NC gr  345 783 m -29 X s 345 817 m -29 X s 345 842 m -29 X s 345 861 m -29 X s 345 876 m -29 X s 345 889 m -29 X s 345 901 m -29 X s 345 911 m -29 X s 373
 920 m -57 X s
 gsave  2268 1538 0 0 C 241.108 922.074 t 0 r /Helvetica findfont 58.6478 sf 0 0 m (\2553) show NC gr 
 gsave  2268 1538 0 0 C 149.878 882.976 t 0 r /Helvetica findfont 84.7135 sf 0 0 m (10) show NC gr  345 979 m -29 X s 345 1013 m -29 X s 345 1038 m -29 X s 345 1057 m -29 X s 345 1072 m -29 X s 345 1086 m -29 X s 345 1097 m -29 X s 345 1107 m -29 X s
 373 1116 m -57 X s
 gsave  2268 1538 0 0 C 241.108 1114.31 t 0 r /Helvetica findfont 58.6478 sf 0 0 m (\2552) show NC gr 
 gsave  2268 1538 0 0 C 149.878 1078.47 t 0 r /Helvetica findfont 84.7135 sf 0 0 m (10) show NC gr  345 1175 m -29 X s 345 1210 m -29 X s 345 1234 m -29 X s 345 1253 m -29 X s 345 1269 m -29 X s 345 1282 m -29 X s 345 1293 m -29 X s 345 1303 m -29 X
 s 373 1312 m -57 X s
 gsave  2268 1538 0 0 C 250.882 1309.8 t 0 r /Helvetica findfont 58.6478 sf 0 0 m (\2551) show NC gr 
 gsave  2268 1538 0 0 C 159.652 1273.96 t 0 r /Helvetica findfont 84.7135 sf 0 0 m (10) show NC gr  345 1371 m -29 X s 345 1406 m -29 X s 345 1430 m -29 X s 345 1449 m -29 X s 345 1465 m -29 X s 345 1478 m -29 X s 345 1490 m -29 X s 345 1500 m -29 X
 s 373 1509 m -57 X s
 gsave  2268 1538 0 0 C 293.823 1472.06 t 0 r  -47 0 t /Helvetica findfont 84.7135 sf 0 0 m (1) show NC gr  2199 222 m 1287 Y s 2171 228 m 28 X s 2171 253 m 28 X s 2171 272 m 28 X s 2171 287 m 28 X s 2171 301 m 28 X s 2171 312 m 28 X s 2171 322 m 28
 X s 2142 331 m 57 X s 2171 390 m 28 X s 2171 425 m 28 X s 2171 449 m 28 X s 2171 468 m 28 X s 2171 484 m 28 X s 2171 497 m 28 X s 2171 508 m 28 X s 2171 518 m 28 X s 2142 527 m 57 X s 2171 586 m 28 X s 2171 621 m 28 X s 2171 645 m 28 X s 2171 664 m
 28 X s 2171 680 m 28 X s 2171 693 m 28 X s 2171 704 m 28 X s 2171 714 m 28 X s 2142 723 m 57 X s 2171 783 m 28 X s 2171 817 m 28 X s 2171 842 m 28 X s 2171 861 m 28 X s 2171 876 m 28 X s 2171 889 m 28 X s 2171 901 m 28 X s 2171 911 m 28 X s 2142 920
 m 57 X s 2171 979 m 28 X s 2171 1013 m 28 X s 2171 1038 m 28 X s 2171 1057 m 28 X s 2171 1072 m 28 X s 2171 1086 m 28 X s 2171 1097 m 28 X s 2171 1107 m 28 X s 2142 1116 m 57 X s 2171 1175 m 28 X s 2171 1210 m 28 X s 2171 1234 m 28 X s 2171 1253 m
 28 X s 2171 1269 m 28 X s 2171 1282 m 28 X s 2171 1293 m 28 X s 2171 1303 m 28 X s 2142 1312 m 57 X s 2171 1371 m 28 X s 2171 1406 m 28 X s 2171 1430 m 28 X s 2171 1449 m 28 X s 2171 1465 m 28 X s 2171 1478 m 28 X s 2171 1490 m 28 X s 2171 1500 m 28
 X s 2142 1509 m 57 X s 0 0 0.6 c[  12 12 ] 0 sd 6 lw 1 1 1 c black 0 0 0.6 c 316 222 m 283 X 82 Y 18 X -82 Y 19 X 82 Y 38 X 218 Y 19 X 13 Y 19 X -113 Y 37 X -118 Y 19 X -82 Y 19 X 82 Y 19 X 93 Y 37 X -175 Y 19 X 82 Y 19 X 93 Y 38 X -34 Y 19 X 34 Y
 18 X -34 Y 19 X 34 Y 38 X 60 Y 19 X -94 Y 19 X 78 Y 18 X -44 Y 19 X 94 Y 19 X 31 Y 19 X 186 Y 19 X 111 Y 19 X 162 Y 18 X 75 Y 19 X 83 Y 19 X 88 Y 19 X 211 Y 19 X 2 Y 19 X -212 Y 18 X -88 Y 19 X -85 Y 19 X -75 Y 19 X -153 Y 19 X -135 Y 18 X -147 Y 19
 X -182 Y 19 X 78 Y 19 X -44 Y 38 X -93 Y 18 X 59 Y 19 X -59 Y 19 X 137 Y 19 X -137 Y 19 X 137 Y 19 X -44 Y 18 X -93 Y 19 X -82 Y 19 X 82 Y 19 X 118 Y 19 X -25 Y 19 X -34 Y 37 X -59 Y 19 X 59 Y 19 X 94 Y 19 X 83 Y 19 X -70 Y 18 X -73 Y 19 X -93 Y 19
 X 59 Y 19 X -59 Y 19 X -82 Y 282 X s 0 0.4 0.6 c[ 4 8] 0 sd 1 1 1 c black 0 0.4 0.6 c 316 373 m 38 X -151 Y 37 X 151 Y 19 X -151 Y 76 X 210 Y 18 X -210 Y 38 X 151 Y 19 X 94 Y 19 X -94 Y 19 X 293 Y 18 X 30 Y 19 X 26 Y 19 X 13 Y 19 X 48 Y 19 X -2 Y 19
 X 2 Y 18 X 5 Y 19 X -13 Y 19 X 18 Y 19 X 6 Y 19 X -7 Y 19 X -8 Y 18 X 28 Y 19 X -23 Y 19 X 35 Y 19 X 7 Y 19 X -2 Y 19 X 14 Y 18 X -2 Y 19 X 10 Y 19 X 4 Y 19 X -4 Y 19 X 20 Y 19 X 2 Y 18 X 16 Y 19 X 11 Y 19 X 19 Y 19 X 46 Y 19 X 75 Y 19 X 92 Y 18 X
 54 Y 19 X 50 Y 19 X 58 Y 19 X 119 Y 19 X 1 Y 19 X -119 Y 18 X -58 Y 19 X -51 Y 19 X -53 Y 19 X -94 Y 19 X -70 Y 18 X -44 Y 19 X -26 Y 19 X -2 Y 19 X -22 Y 19 X -5 Y 19 X -9 Y 18 X -7 Y 19 X -1 Y 19 X 1 Y 19 X -5 Y 19 X -14 Y 19 X -1 Y 18 X -6 Y 19 X
 -32 Y 38 X -11 Y 19 X 6 Y 19 X 6 Y 18 X -9 Y 19 X 12 Y 19 X 2 Y 19 X -21 Y 19 X -3 Y 19 X -6 Y 18 X -21 Y 19 X -12 Y 19 X -34 Y 19 X -7 Y 19 X -476 Y 75 X 151 Y 38 X -151 Y 37 X 151 Y 19 X 59 Y 19 X -210 Y 57 X 151 Y 18 X -151 Y 19 X s black[  ] 0
 sd 1 1 1 c black 316 222 m 301 X 79 Y 38 X 118 Y 19 X 143 Y 19 X 50 Y 19 X -84 Y 18 X -143 Y 19 X -59 Y 19 X 19 Y 19 X -19 Y 19 X 47 Y 19 X -28 Y 18 X 28 Y 19 X -13 Y 19 X 25 Y 19 X -59 Y 19 X 34 Y 19 X 35 Y 18 X 9 Y 19 X -44 Y 19 X 52 Y 19 X -27 Y
 19 X 41 Y 19 X -7 Y 18 X -59 Y 19 X 103 Y 19 X -9 Y 19 X 66 Y 19 X 46 Y 19 X 182 Y 18 X 57 Y 19 X 69 Y 19 X 106 Y 19 X 466 Y 19 X 6 Y 19 X -469 Y 18 X -109 Y 19 X -76 Y 19 X -56 Y 19 X -171 Y 19 X -96 Y 18 X 3 Y 19 X -40 Y 19 X -12 Y 19 X -14 Y 19 X
 14 Y 19 X -81 Y 18 X 40 Y 19 X 27 Y 19 X 26 Y 19 X -93 Y 19 X 15 Y 19 X -59 Y 18 X 59 Y 38 X 13 Y 57 X -28 Y 18 X 15 Y 19 X -59 Y 19 X 72 Y 19 X 179 Y 19 X 45 Y 19 X -51 Y 18 X -186 Y 19 X -93 Y 38 X -45 Y 301 X s
 gsave  2268 1538 0 0 C 570.187 1417.32 t 0 r /Helvetica-Bold findfont 58.6478 sf 0 0 m (Conversion electrons) show NC gr  0 0.4 0.6 c[ 4 8] 0 sd 329 1439 m 199 X s black
 gsave  2268 1538 0 0 C 570.187 1316.32 t 0 r /Helvetica-Bold findfont 58.6478 sf 0 0 m (Isolated electrons ) show NC gr [  ] 0 sd 329 1339 m 199 X s
 gsave  2268 1538 0 0 C 570.187 1218.57 t 0 r /Helvetica-Bold findfont 58.6478 sf 0 0 m (Non\255Isolated electrons) show NC gr  0 0 0.6 c[  12 12 ] 0 sd 329 1239 m 199 X s black
 gsave  2268 1538 0 0 C 570.187 1117.57 t 0 r /Helvetica-Bold findfont 58.6478 sf 0 0 m (Hadrons) show NC gr  0.6 0 0.2 c[  ] 0 sd 329 1138 m 199 X s
 gr  gr showpage
end
%%EOF
