%!PS-Adobe-2.0 EPSF-2.0
%%BoundingBox:  0 0 567 406
%%Title: /home/rohin/Analysis/dataAna/2014/July/electron_vars/DeltaEta1.eps: c1_n2
%%Creator: ROOT Version 5.34/14
%%CreationDate: Tue Sep  9 00:37:34 2014
%%EndComments
%%BeginProlog
80 dict begin
/s {stroke} def /l {lineto} def /m {moveto} def /t {translate} def
/r {rotate} def /rl {roll}  def /R {repeat} def
/d {rlineto} def /rm {rmoveto} def /gr {grestore} def /f {eofill} def
/c {setrgbcolor} def /black {0 setgray} def /sd {setdash} def
/cl {closepath} def /sf {scalefont setfont} def /lw {setlinewidth} def
/box {m dup 0 exch d exch 0 d 0 exch neg d cl} def
/NC{systemdict begin initclip end}def/C{NC box clip newpath}def
/bl {box s} def /bf {box f} def /Y { 0 exch d} def /X { 0 d} def 
/K {{pop pop 0 moveto} exch kshow} bind def
/ita {/ang 15 def gsave [1 0 ang dup sin exch cos div 1 0 0] concat} def 
/mp {newpath /y exch def /x exch def} def
/side {[w .77 mul w .23 mul] .385 w mul sd w 0 l currentpoint t -144 r} def
/mr {mp x y w2 0 360 arc} def /m24 {mr s} def /m20 {mr f} def
/mb {mp x y w2 add m w2 neg 0 d 0 w neg d w 0 d 0 w d cl} def
/mt {mp x y w2 add m w2 neg w neg d w 0 d cl} def
/m21 {mb f} def /m25 {mb s} def /m22 {mt f} def /m26{mt s} def
/m23 {mp x y w2 sub m w2 w d w neg 0 d cl f} def
/m27 {mp x y w2 add m w3 neg w2 neg d w3 w2 neg d w3 w2 d cl s} def
/m28 {mp x w2 sub y w2 sub w3 add m w3 0 d  0 w3 neg d w3 0 d 0 w3 d w3 0 d  0 w3 d w3 neg 0 d 0 w3 d w3 neg 0 d 0 w3 neg d w3 neg 0 d cl s } def
/m29 {mp gsave x w2 sub y w2 add w3 sub m currentpoint t 4 {side} repeat cl fill gr} def
/m30 {mp gsave x w2 sub y w2 add w3 sub m currentpoint t 4 {side} repeat cl s gr} def
/m31 {mp x y w2 sub m 0 w d x w2 sub y m w 0 d x w2 sub y w2 add m w w neg d x w2 sub y w2 sub m w w d s} def
/m32 {mp x y w2 sub m w2 w d w neg 0 d cl s} def
/m33 {mp x y w2 add m w3 neg w2 neg d w3 w2 neg d w3 w2 d cl f} def
/m34 {mp x w2 sub y w2 sub w3 add m w3 0 d  0 w3 neg d w3 0 d 0 w3 d w3 0 d  0 w3 d w3 neg 0 d 0 w3 d w3 neg 0 d 0 w3 neg d w3 neg 0 d cl f } def
/m2 {mp x y w2 sub m 0 w d x w2 sub y m w 0 d s} def
/m5 {mp x w2 sub y w2 sub m w w d x w2 sub y w2 add m w w neg d s} def
/reEncode {exch findfont dup length dict begin {1 index /FID eq  {pop pop} {def} ifelse } forall /Encoding exch def currentdict end dup /FontName get exch definefont pop } def [/Times-Bold /Times-Italic /Times-BoldItalic /Helvetica /Helvetica-Oblique
 /Helvetica-Bold /Helvetica-BoldOblique /Courier /Courier-Oblique /Courier-Bold /Courier-BoldOblique /Times-Roman /AvantGarde-Book /AvantGarde-BookOblique /AvantGarde-Demi /AvantGarde-DemiOblique /Bookman-Demi /Bookman-DemiItalic /Bookman-Light
 /Bookman-LightItalic /Helvetica-Narrow /Helvetica-Narrow-Bold /Helvetica-Narrow-BoldOblique /Helvetica-Narrow-Oblique /NewCenturySchlbk-Roman /NewCenturySchlbk-Bold /NewCenturySchlbk-BoldItalic /NewCenturySchlbk-Italic /Palatino-Bold
 /Palatino-BoldItalic /Palatino-Italic /Palatino-Roman ] {ISOLatin1Encoding reEncode } forall
%%EndProlog
%%BeginSetup
%%EndSetup
newpath  gsave  .25 .25 scale  gsave  0 0 t black[  ] 0 sd 3 lw 1 1 1 c 2268 1626 0 0 bf black 1 1 1 c 1883 1349 316 248 bf black 1883 1349 316 248 bl 1 1 1 c 1883 1349 316 248 bf black 1883 1349 316 248 bl 0.6 0 0.2 c 6 lw 1 1 1 c black 0.6 0 0.2 c
 316 248 m 226 X 123 Y 19 X -61 Y 19 X 160 Y 37 X 62 Y 38 X 7 Y 19 X 58 Y 19 X 7 Y 19 X -36 Y 18 X 36 Y 19 X -3 Y 19 X -8 Y 19 X -11 Y 19 X 37 Y 37 X 6 Y 19 X -9 Y 19 X 21 Y 19 X 20 Y 19 X 14 Y 19 X -17 Y 18 X 18 Y 19 X 12 Y 19 X 21 Y 19 X 52 Y 19 X
 53 Y 19 X 73 Y 18 X 64 Y 19 X 63 Y 19 X 72 Y 19 X 78 Y 19 X 87 Y 19 X 72 Y 18 X 40 Y 19 X 23 Y 19 X 17 Y 19 X 28 Y 19 X 1 Y 19 X -29 Y 18 X -17 Y 19 X -23 Y 19 X -39 Y 19 X -71 Y 19 X -85 Y 18 X -76 Y 19 X -67 Y 19 X -66 Y 19 X -71 Y 19 X -64 Y 19 X
 -75 Y 18 X -42 Y 19 X -34 Y 19 X -8 Y 19 X 7 Y 19 X -31 Y 19 X 53 Y 18 X -58 Y 19 X -5 Y 19 X -17 Y 19 X 12 Y 19 X -15 Y 19 X -14 Y 18 X 8 Y 19 X -44 Y 19 X 29 Y 19 X -4 Y 19 X 4 Y 19 X -29 Y 37 X 6 Y 19 X -39 Y 19 X -9 Y 19 X -82 Y 19 X -62 Y 37 X
 -123 Y 226 X s black 3 lw 316 248 m 1883 X s
 gsave  2268 1626 0 0 C 2176.49 35.8403 t 0 r /Helvetica findfont 61.9061 sf 0 0 m (1) show NC gr 
 gsave  2268 1626 0 0 C 2127.61 84.7136 t 0 r /Symbol findfont 91.23 sf 0 0 m (h) show NC gr 
 gsave  2268 1626 0 0 C 2068.97 84.7136 t 0 r /Symbol findfont 91.23 sf 0 0 m (D) show NC gr  316 288 m -40 Y s 354 268 m -20 Y s 391 268 m -20 Y s 429 268 m -20 Y s 467 268 m -20 Y s 504 288 m -40 Y s 542 268 m -20 Y s 580 268 m -20 Y s 617 268 m
 -20 Y s 655 268 m -20 Y s 693 288 m -40 Y s 730 268 m -20 Y s 768 268 m -20 Y s 806 268 m -20 Y s 843 268 m -20 Y s 881 288 m -40 Y s 919 268 m -20 Y s 956 268 m -20 Y s 994 268 m -20 Y s 1032 268 m -20 Y s 1069 288 m -40 Y s 1107 268 m -20 Y s 1145
 268 m -20 Y s 1182 268 m -20 Y s 1220 268 m -20 Y s 1258 288 m -40 Y s 1295 268 m -20 Y s 1333 268 m -20 Y s 1371 268 m -20 Y s 1408 268 m -20 Y s 1446 288 m -40 Y s 1484 268 m -20 Y s 1521 268 m -20 Y s 1559 268 m -20 Y s 1597 268 m -20 Y s 1634
 288 m -40 Y s 1672 268 m -20 Y s 1710 268 m -20 Y s 1747 268 m -20 Y s 1785 268 m -20 Y s 1823 288 m -40 Y s 1860 268 m -20 Y s 1898 268 m -20 Y s 1936 268 m -20 Y s 1973 268 m -20 Y s 2011 288 m -40 Y s 2049 268 m -20 Y s 2086 268 m -20 Y s 2124
 268 m -20 Y s 2162 268 m -20 Y s 2199 288 m -40 Y s 2199 288 m -40 Y s
 gsave  2268 1626 0 0 C 237.85 162.911 t 0 r /Helvetica findfont 91.23 sf 0 0 m (\2550.5) show NC gr 
 gsave  2268 1626 0 0 C 423.568 162.911 t 0 r /Helvetica findfont 91.23 sf 0 0 m (\2550.4) show NC gr 
 gsave  2268 1626 0 0 C 612.544 162.911 t 0 r /Helvetica findfont 91.23 sf 0 0 m (\2550.3) show NC gr 
 gsave  2268 1626 0 0 C 801.521 162.911 t 0 r /Helvetica findfont 91.23 sf 0 0 m (\2550.2) show NC gr 
 gsave  2268 1626 0 0 C 997.013 162.911 t 0 r /Helvetica findfont 91.23 sf 0 0 m (\2550.1) show NC gr 
 gsave  2268 1626 0 0 C 1231.6 162.911 t 0 r /Helvetica findfont 91.23 sf 0 0 m (0) show NC gr 
 gsave  2268 1626 0 0 C 1388 162.911 t 0 r /Helvetica findfont 91.23 sf 0 0 m (0.1) show NC gr 
 gsave  2268 1626 0 0 C 1570.46 162.911 t 0 r /Helvetica findfont 91.23 sf 0 0 m (0.2) show NC gr 
 gsave  2268 1626 0 0 C 1759.44 162.911 t 0 r /Helvetica findfont 91.23 sf 0 0 m (0.3) show NC gr 
 gsave  2268 1626 0 0 C 1948.41 162.911 t 0 r /Helvetica findfont 91.23 sf 0 0 m (0.4) show NC gr 
 gsave  2268 1626 0 0 C 2137.39 162.911 t 0 r /Helvetica findfont 91.23 sf 0 0 m (0.5) show NC gr  316 1597 m 1883 X s 316 1556 m 41 Y s 354 1576 m 21 Y s 391 1576 m 21 Y s 429 1576 m 21 Y s 467 1576 m 21 Y s 504 1556 m 41 Y s 542 1576 m 21 Y s 580
 1576 m 21 Y s 617 1576 m 21 Y s 655 1576 m 21 Y s 693 1556 m 41 Y s 730 1576 m 21 Y s 768 1576 m 21 Y s 806 1576 m 21 Y s 843 1576 m 21 Y s 881 1556 m 41 Y s 919 1576 m 21 Y s 956 1576 m 21 Y s 994 1576 m 21 Y s 1032 1576 m 21 Y s 1069 1556 m 41 Y s
 1107 1576 m 21 Y s 1145 1576 m 21 Y s 1182 1576 m 21 Y s 1220 1576 m 21 Y s 1258 1556 m 41 Y s 1295 1576 m 21 Y s 1333 1576 m 21 Y s 1371 1576 m 21 Y s 1408 1576 m 21 Y s 1446 1556 m 41 Y s 1484 1576 m 21 Y s 1521 1576 m 21 Y s 1559 1576 m 21 Y s
 1597 1576 m 21 Y s 1634 1556 m 41 Y s 1672 1576 m 21 Y s 1710 1576 m 21 Y s 1747 1576 m 21 Y s 1785 1576 m 21 Y s 1823 1556 m 41 Y s 1860 1576 m 21 Y s 1898 1576 m 21 Y s 1936 1576 m 21 Y s 1973 1576 m 21 Y s 2011 1556 m 41 Y s 2049 1576 m 21 Y s
 2086 1576 m 21 Y s 2124 1576 m 21 Y s 2162 1576 m 21 Y s 2199 1556 m 41 Y s 2199 1556 m 41 Y s 316 248 m 1349 Y s 344 255 m -28 X s 344 280 m -28 X s 344 300 m -28 X s 344 317 m -28 X s 344 330 m -28 X s 344 342 m -28 X s 344 353 m -28 X s 372 362 m
 -56 X s
 gsave  2268 1626 0 0 C 237.85 364.92 t 0 r /Helvetica findfont 61.9061 sf 0 0 m (\2556) show NC gr 
 gsave  2268 1626 0 0 C 140.103 322.563 t 0 r /Helvetica findfont 91.23 sf 0 0 m (10) show NC gr  344 424 m -28 X s 344 460 m -28 X s 344 486 m -28 X s 344 506 m -28 X s 344 522 m -28 X s 344 536 m -28 X s 344 548 m -28 X s 344 559 m -28 X s 372 568
 m -56 X s
 gsave  2268 1626 0 0 C 237.85 570.187 t 0 r /Helvetica findfont 61.9061 sf 0 0 m (\2555) show NC gr 
 gsave  2268 1626 0 0 C 140.103 527.831 t 0 r /Helvetica findfont 91.23 sf 0 0 m (10) show NC gr  344 630 m -28 X s 344 666 m -28 X s 344 692 m -28 X s 344 712 m -28 X s 344 728 m -28 X s 344 742 m -28 X s 344 754 m -28 X s 344 764 m -28 X s 372 774
 m -56 X s
 gsave  2268 1626 0 0 C 237.85 772.197 t 0 r /Helvetica findfont 61.9061 sf 0 0 m (\2554) show NC gr 
 gsave  2268 1626 0 0 C 140.103 733.098 t 0 r /Helvetica findfont 91.23 sf 0 0 m (10) show NC gr  344 836 m -28 X s 344 872 m -28 X s 344 898 m -28 X s 344 917 m -28 X s 344 934 m -28 X s 344 948 m -28 X s 344 959 m -28 X s 344 970 m -28 X s 372 979
 m -56 X s
 gsave  2268 1626 0 0 C 237.85 980.722 t 0 r /Helvetica findfont 61.9061 sf 0 0 m (\2553) show NC gr 
 gsave  2268 1626 0 0 C 140.103 938.365 t 0 r /Helvetica findfont 91.23 sf 0 0 m (10) show NC gr  344 1041 m -28 X s 344 1078 m -28 X s 344 1103 m -28 X s 344 1123 m -28 X s 344 1139 m -28 X s 344 1153 m -28 X s 344 1165 m -28 X s 344 1176 m -28 X s
 372 1185 m -56 X s
 gsave  2268 1626 0 0 C 237.85 1182.73 t 0 r /Helvetica findfont 61.9061 sf 0 0 m (\2552) show NC gr 
 gsave  2268 1626 0 0 C 140.103 1143.63 t 0 r /Helvetica findfont 91.23 sf 0 0 m (10) show NC gr  344 1247 m -28 X s 344 1283 m -28 X s 344 1309 m -28 X s 344 1329 m -28 X s 344 1345 m -28 X s 344 1359 m -28 X s 344 1371 m -28 X s 344 1381 m -28 X s
 372 1391 m -56 X s
 gsave  2268 1626 0 0 C 247.624 1388 t 0 r /Helvetica findfont 61.9061 sf 0 0 m (\2551) show NC gr 
 gsave  2268 1626 0 0 C 149.878 1348.9 t 0 r /Helvetica findfont 91.23 sf 0 0 m (10) show NC gr  344 1453 m -28 X s 344 1489 m -28 X s 344 1515 m -28 X s 344 1535 m -28 X s 344 1551 m -28 X s 344 1565 m -28 X s 344 1577 m -28 X s 344 1587 m -28 X s
 372 1597 m -56 X s
 gsave  2268 1626 0 0 C 293.823 1558.73 t 0 r  -50 0 t /Helvetica findfont 91.23 sf 0 0 m (1) show NC gr  2199 248 m 1349 Y s 2171 255 m 28 X s 2171 280 m 28 X s 2171 300 m 28 X s 2171 317 m 28 X s 2171 330 m 28 X s 2171 342 m 28 X s 2171 353 m 28 X
 s 2143 362 m 56 X s 2171 424 m 28 X s 2171 460 m 28 X s 2171 486 m 28 X s 2171 506 m 28 X s 2171 522 m 28 X s 2171 536 m 28 X s 2171 548 m 28 X s 2171 559 m 28 X s 2143 568 m 56 X s 2171 630 m 28 X s 2171 666 m 28 X s 2171 692 m 28 X s 2171 712 m 28
 X s 2171 728 m 28 X s 2171 742 m 28 X s 2171 754 m 28 X s 2171 764 m 28 X s 2143 774 m 56 X s 2171 836 m 28 X s 2171 872 m 28 X s 2171 898 m 28 X s 2171 917 m 28 X s 2171 934 m 28 X s 2171 948 m 28 X s 2171 959 m 28 X s 2171 970 m 28 X s 2143 979 m
 56 X s 2171 1041 m 28 X s 2171 1078 m 28 X s 2171 1103 m 28 X s 2171 1123 m 28 X s 2171 1139 m 28 X s 2171 1153 m 28 X s 2171 1165 m 28 X s 2171 1176 m 28 X s 2143 1185 m 56 X s 2171 1247 m 28 X s 2171 1283 m 28 X s 2171 1309 m 28 X s 2171 1329 m 28
 X s 2171 1345 m 28 X s 2171 1359 m 28 X s 2171 1371 m 28 X s 2171 1381 m 28 X s 2143 1391 m 56 X s 2171 1453 m 28 X s 2171 1489 m 28 X s 2171 1515 m 28 X s 2171 1535 m 28 X s 2171 1551 m 28 X s 2171 1565 m 28 X s 2171 1577 m 28 X s 2171 1587 m 28 X
 s 2143 1597 m 56 X s 0 0 0.6 c[  12 12 ] 0 sd 6 lw 1 1 1 c black 0 0 0.6 c 316 248 m 320 X 148 Y 19 X -62 Y 19 X 196 Y 19 X 57 Y 19 X -109 Y 18 X -46 Y 38 X -184 Y 38 X 184 Y 37 X -98 Y 57 X 144 Y 19 X -144 Y 19 X 98 Y 37 X -36 Y 38 X 134 Y 19 X -72
 Y 19 X 129 Y 18 X 45 Y 19 X 127 Y 19 X 98 Y 19 X 97 Y 19 X 76 Y 19 X 55 Y 18 X 31 Y 19 X 36 Y 19 X 44 Y 19 X 330 Y 19 X 7 Y 19 X -338 Y 18 X -44 Y 19 X -34 Y 19 X -28 Y 19 X -53 Y 19 X -85 Y 18 X -89 Y 19 X -111 Y 19 X -90 Y 19 X -113 Y 19 X -70 Y
 19 X -230 Y 18 X 210 Y 19 X -26 Y 19 X 26 Y 19 X -210 Y 19 X 260 Y 19 X -260 Y 18 X 148 Y 19 X -62 Y 38 X 62 Y 19 X 62 Y 19 X -26 Y 18 X -98 Y 19 X 62 Y 19 X -62 Y 19 X 214 Y 19 X 15 Y 19 X -85 Y 18 X -46 Y 19 X -98 Y 19 X 98 Y 19 X -184 Y 301 X s 0
 0.4 0.6 c[ 4 8] 0 sd 1 1 1 c black 0 0.4 0.6 c 316 248 m 226 X 221 Y 38 X 98 Y 19 X 116 Y 18 X 41 Y 19 X 25 Y 19 X 59 Y 19 X 29 Y 19 X 2 Y 19 X -17 Y 18 X 17 Y 19 X -1 Y 19 X 2 Y 19 X 19 Y 19 X -15 Y 19 X 1 Y 18 X 10 Y 19 X 2 Y 19 X 14 Y 19 X 23 Y
 19 X -11 Y 19 X 11 Y 18 X 11 Y 19 X -14 Y 19 X 20 Y 19 X 10 Y 19 X 10 Y 19 X 14 Y 18 X 21 Y 19 X 19 Y 19 X 47 Y 19 X 43 Y 19 X 61 Y 19 X 65 Y 18 X 53 Y 19 X 47 Y 19 X 56 Y 19 X 142 Y 19 X 2 Y 19 X -143 Y 18 X -56 Y 19 X -47 Y 19 X -51 Y 19 X -67 Y
 19 X -60 Y 18 X -47 Y 19 X -37 Y 19 X -17 Y 19 X -32 Y 19 X -13 Y 19 X -10 Y 18 X -10 Y 38 X 1 Y 19 X -14 Y 19 X -6 Y 19 X -9 Y 18 X -4 Y 19 X -16 Y 19 X -17 Y 19 X 1 Y 19 X -6 Y 19 X 8 Y 18 X -4 Y 19 X 3 Y 19 X 12 Y 19 X -21 Y 19 X -6 Y 19 X -7 Y
 18 X -27 Y 19 X -3 Y 19 X -60 Y 19 X -32 Y 19 X -112 Y 19 X -185 Y 37 X -159 Y 226 X s black[  ] 0 sd 1 1 1 c black 316 248 m 320 X 109 Y 19 X 82 Y 19 X 126 Y 19 X 89 Y 19 X -43 Y 18 X -156 Y 19 X -98 Y 19 X 20 Y 19 X -20 Y 19 X 50 Y 19 X -50 Y 18 X
 62 Y 19 X -26 Y 19 X -16 Y 19 X 16 Y 19 X -16 Y 19 X 70 Y 37 X -90 Y 19 X 82 Y 19 X 8 Y 19 X -8 Y 19 X -20 Y 18 X 43 Y 19 X 34 Y 19 X 73 Y 19 X 85 Y 19 X 67 Y 19 X 99 Y 18 X 52 Y 19 X 47 Y 19 X 92 Y 19 X 518 Y 19 X 10 Y 19 X -525 Y 18 X -89 Y 19 X
 -60 Y 19 X -52 Y 19 X -78 Y 19 X -97 Y 18 X -85 Y 19 X -67 Y 19 X -24 Y 38 X -23 Y 19 X -46 Y 18 X 14 Y 19 X 32 Y 19 X 36 Y 19 X -68 Y 19 X -14 Y 19 X -145 Y 18 X 171 Y 19 X -42 Y 19 X 30 Y 19 X 12 Y 19 X -12 Y 19 X -50 Y 18 X 20 Y 19 X -20 Y 19 X
 90 Y 19 X 178 Y 19 X 14 Y 19 X -108 Y 18 X -138 Y 19 X -145 Y 339 X s
 gsave  2268 1626 0 0 C 586.478 1459.68 t 0 r /Helvetica-Bold findfont 52.1314 sf 0 0 m (Conversion electrons) show NC gr  0 0.4 0.6 c[ 4 8] 0 sd 376 1483 m 175 X s black
 gsave  2268 1626 0 0 C 586.478 1348.9 t 0 r /Helvetica-Bold findfont 52.1314 sf 0 0 m (Isolated electrons ) show NC gr [  ] 0 sd 376 1373 m 175 X s
 gsave  2268 1626 0 0 C 586.478 1241.38 t 0 r /Helvetica-Bold findfont 52.1314 sf 0 0 m (Non\255Isolated electrons) show NC gr  0 0 0.6 c[  12 12 ] 0 sd 376 1263 m 175 X s black
 gsave  2268 1626 0 0 C 586.478 1130.6 t 0 r /Helvetica-Bold findfont 52.1314 sf 0 0 m (Hadrons) show NC gr  0.6 0 0.2 c[  ] 0 sd 376 1153 m 175 X s
 gr  gr showpage
end
%%EOF
