%!PS-Adobe-2.0 EPSF-2.0
%%BoundingBox:  0 0 567 384
%%Title: /home/rohin/Analysis/dataAna/2014/July/electron_vars/EOverP.eps: c1_n5
%%Creator: ROOT Version 5.34/14
%%CreationDate: Tue Sep  9 00:35:54 2014
%%EndComments
%%BeginProlog
80 dict begin
/s {stroke} def /l {lineto} def /m {moveto} def /t {translate} def
/r {rotate} def /rl {roll}  def /R {repeat} def
/d {rlineto} def /rm {rmoveto} def /gr {grestore} def /f {eofill} def
/c {setrgbcolor} def /black {0 setgray} def /sd {setdash} def
/cl {closepath} def /sf {scalefont setfont} def /lw {setlinewidth} def
/box {m dup 0 exch d exch 0 d 0 exch neg d cl} def
/NC{systemdict begin initclip end}def/C{NC box clip newpath}def
/bl {box s} def /bf {box f} def /Y { 0 exch d} def /X { 0 d} def 
/K {{pop pop 0 moveto} exch kshow} bind def
/ita {/ang 15 def gsave [1 0 ang dup sin exch cos div 1 0 0] concat} def 
/mp {newpath /y exch def /x exch def} def
/side {[w .77 mul w .23 mul] .385 w mul sd w 0 l currentpoint t -144 r} def
/mr {mp x y w2 0 360 arc} def /m24 {mr s} def /m20 {mr f} def
/mb {mp x y w2 add m w2 neg 0 d 0 w neg d w 0 d 0 w d cl} def
/mt {mp x y w2 add m w2 neg w neg d w 0 d cl} def
/m21 {mb f} def /m25 {mb s} def /m22 {mt f} def /m26{mt s} def
/m23 {mp x y w2 sub m w2 w d w neg 0 d cl f} def
/m27 {mp x y w2 add m w3 neg w2 neg d w3 w2 neg d w3 w2 d cl s} def
/m28 {mp x w2 sub y w2 sub w3 add m w3 0 d  0 w3 neg d w3 0 d 0 w3 d w3 0 d  0 w3 d w3 neg 0 d 0 w3 d w3 neg 0 d 0 w3 neg d w3 neg 0 d cl s } def
/m29 {mp gsave x w2 sub y w2 add w3 sub m currentpoint t 4 {side} repeat cl fill gr} def
/m30 {mp gsave x w2 sub y w2 add w3 sub m currentpoint t 4 {side} repeat cl s gr} def
/m31 {mp x y w2 sub m 0 w d x w2 sub y m w 0 d x w2 sub y w2 add m w w neg d x w2 sub y w2 sub m w w d s} def
/m32 {mp x y w2 sub m w2 w d w neg 0 d cl s} def
/m33 {mp x y w2 add m w3 neg w2 neg d w3 w2 neg d w3 w2 d cl f} def
/m34 {mp x w2 sub y w2 sub w3 add m w3 0 d  0 w3 neg d w3 0 d 0 w3 d w3 0 d  0 w3 d w3 neg 0 d 0 w3 d w3 neg 0 d 0 w3 neg d w3 neg 0 d cl f } def
/m2 {mp x y w2 sub m 0 w d x w2 sub y m w 0 d s} def
/m5 {mp x w2 sub y w2 sub m w w d x w2 sub y w2 add m w w neg d s} def
/reEncode {exch findfont dup length dict begin {1 index /FID eq  {pop pop} {def} ifelse } forall /Encoding exch def currentdict end dup /FontName get exch definefont pop } def [/Times-Bold /Times-Italic /Times-BoldItalic /Helvetica /Helvetica-Oblique
 /Helvetica-Bold /Helvetica-BoldOblique /Courier /Courier-Oblique /Courier-Bold /Courier-BoldOblique /Times-Roman /AvantGarde-Book /AvantGarde-BookOblique /AvantGarde-Demi /AvantGarde-DemiOblique /Bookman-Demi /Bookman-DemiItalic /Bookman-Light
 /Bookman-LightItalic /Helvetica-Narrow /Helvetica-Narrow-Bold /Helvetica-Narrow-BoldOblique /Helvetica-Narrow-Oblique /NewCenturySchlbk-Roman /NewCenturySchlbk-Bold /NewCenturySchlbk-BoldItalic /NewCenturySchlbk-Italic /Palatino-Bold
 /Palatino-BoldItalic /Palatino-Italic /Palatino-Roman ] {ISOLatin1Encoding reEncode } forall
%%EndProlog
%%BeginSetup
%%EndSetup
newpath  gsave  .25 .25 scale  gsave  0 0 t black[  ] 0 sd 3 lw 1 1 1 c 2268 1538 0 0 bf black 1 1 1 c 1883 1281 316 228 bf black 1883 1281 316 228 bl 1 1 1 c 1883 1281 316 228 bf black 1883 1281 316 228 bl 0.6 0 0.2 c 6 lw 1 1 1 c black 0.6 0 0.2 c
 316 334 m 14 X 177 Y 14 X 256 Y 14 X 165 Y 14 X 65 Y 14 X 16 Y 14 X -3 Y 14 X -12 Y 14 X -9 Y 15 X -13 Y 14 X -8 Y 14 X -9 Y 14 X -11 Y 14 X -9 Y 14 X -9 Y 14 X -10 Y 14 X -7 Y 14 X -6 Y 14 X -8 Y 14 X -10 Y 14 X -5 Y 14 X -9 Y 14 X -7 Y 14 X -9 Y
 14 X -1 Y 14 X -6 Y 14 X -7 Y 15 X -8 Y 14 X -2 Y 14 X -7 Y 14 X -5 Y 14 X -5 Y 14 X -6 Y 14 X -4 Y 14 X -4 Y 14 X -3 Y 14 X -8 Y 14 X -3 Y 14 X -3 Y 14 X -4 Y 14 X -5 Y 14 X -4 Y 14 X -4 Y 14 X -5 Y 14 X -4 Y 14 X -7 Y 15 X -3 Y 14 X 1 Y 14 X -6 Y
 14 X -8 Y 14 X -8 Y 14 X -3 Y 14 X -5 Y 14 X -6 Y 14 X -7 Y 14 X -5 Y 14 X -3 Y 14 X -6 Y 14 X -7 Y 14 X -7 Y 14 X -3 Y 14 X -7 Y 14 X -3 Y 14 X -2 Y 15 X -10 Y 14 X -2 Y 14 X -12 Y 14 X 2 Y 14 X -4 Y 14 X -7 Y 14 X -1 Y 14 X -5 Y 14 X -5 Y 14 X -2
 Y 14 X -13 Y 14 X 1 Y 14 X -3 Y 14 X -6 Y 14 X -8 Y 14 X -4 Y 14 X 1 Y 14 X -2 Y 14 X -10 Y 15 X -6 Y 14 X 7 Y 14 X -14 Y 14 X 3 Y 14 X -15 Y 14 X -2 Y 14 X 4 Y 28 X -7 Y 14 X -6 Y 14 X -4 Y 14 X -8 Y 14 X -4 Y 14 X 5 Y 14 X -6 Y 14 X -12 Y 14 X 7 Y
 14 X -5 Y 15 X 1 Y 14 X -4 Y 14 X -11 Y 28 X 3 Y 14 X -10 Y 14 X -4 Y 14 X 1 Y 14 X -16 Y 14 X 17 Y 14 X -12 Y 14 X -1 Y 28 X -5 Y 14 X -7 Y 28 X 1 Y 14 X -6 Y 14 X 2 Y 15 X -1 Y 14 X -11 Y 14 X -1 Y 14 X -7 Y 14 X -3 Y 14 X -3 Y 14 X 2 Y 14 X -6 Y
 14 X 5 Y 14 X -16 Y 14 X 8 Y 14 X -6 Y 14 X -5 Y 14 X 11 Y 14 X s black 3 lw 316 228 m 1883 X s
 gsave  2268 1538 0 0 C 2065.71 48.8732 t 0 r /Helvetica findfont 84.7135 sf 0 0 m (E/P) show NC gr  316 266 m -38 Y s 363 247 m -19 Y s 410 247 m -19 Y s 457 247 m -19 Y s 503 266 m -38 Y s 550 247 m -19 Y s 597 247 m -19 Y s 644 247 m -19 Y s 691
 266 m -38 Y s 738 247 m -19 Y s 785 247 m -19 Y s 831 247 m -19 Y s 878 266 m -38 Y s 925 247 m -19 Y s 972 247 m -19 Y s 1019 247 m -19 Y s 1066 266 m -38 Y s 1112 247 m -19 Y s 1159 247 m -19 Y s 1206 247 m -19 Y s 1253 266 m -38 Y s 1300 247 m
 -19 Y s 1347 247 m -19 Y s 1394 247 m -19 Y s 1440 266 m -38 Y s 1487 247 m -19 Y s 1534 247 m -19 Y s 1581 247 m -19 Y s 1628 266 m -38 Y s 1675 247 m -19 Y s 1721 247 m -19 Y s 1768 247 m -19 Y s 1815 266 m -38 Y s 1862 247 m -19 Y s 1909 247 m
 -19 Y s 1956 247 m -19 Y s 2003 266 m -38 Y s 2049 247 m -19 Y s 2096 247 m -19 Y s 2143 247 m -19 Y s 2190 266 m -38 Y s 2190 266 m -38 Y s
 gsave  2268 1538 0 0 C 293.239 146.62 t 0 r /Helvetica findfont 84.7135 sf 0 0 m (0) show NC gr 
 gsave  2268 1538 0 0 C 478.957 146.62 t 0 r /Helvetica findfont 84.7135 sf 0 0 m (2) show NC gr 
 gsave  2268 1538 0 0 C 667.934 146.62 t 0 r /Helvetica findfont 84.7135 sf 0 0 m (4) show NC gr 
 gsave  2268 1538 0 0 C 853.652 146.62 t 0 r /Helvetica findfont 84.7135 sf 0 0 m (6) show NC gr 
 gsave  2268 1538 0 0 C 1042.63 146.62 t 0 r /Helvetica findfont 84.7135 sf 0 0 m (8) show NC gr 
 gsave  2268 1538 0 0 C 1205.54 146.62 t 0 r /Helvetica findfont 84.7135 sf 0 0 m (10) show NC gr 
 gsave  2268 1538 0 0 C 1394.52 146.62 t 0 r /Helvetica findfont 84.7135 sf 0 0 m (12) show NC gr 
 gsave  2268 1538 0 0 C 1580.23 146.62 t 0 r /Helvetica findfont 84.7135 sf 0 0 m (14) show NC gr 
 gsave  2268 1538 0 0 C 1769.21 146.62 t 0 r /Helvetica findfont 84.7135 sf 0 0 m (16) show NC gr 
 gsave  2268 1538 0 0 C 1954.93 146.62 t 0 r /Helvetica findfont 84.7135 sf 0 0 m (18) show NC gr 
 gsave  2268 1538 0 0 C 2143.9 146.62 t 0 r /Helvetica findfont 84.7135 sf 0 0 m (20) show NC gr  316 1509 m 1883 X s 316 1470 m 39 Y s 363 1489 m 20 Y s 410 1489 m 20 Y s 457 1489 m 20 Y s 503 1470 m 39 Y s 550 1489 m 20 Y s 597 1489 m 20 Y s 644
 1489 m 20 Y s 691 1470 m 39 Y s 738 1489 m 20 Y s 785 1489 m 20 Y s 831 1489 m 20 Y s 878 1470 m 39 Y s 925 1489 m 20 Y s 972 1489 m 20 Y s 1019 1489 m 20 Y s 1066 1470 m 39 Y s 1112 1489 m 20 Y s 1159 1489 m 20 Y s 1206 1489 m 20 Y s 1253 1470 m 39
 Y s 1300 1489 m 20 Y s 1347 1489 m 20 Y s 1394 1489 m 20 Y s 1440 1470 m 39 Y s 1487 1489 m 20 Y s 1534 1489 m 20 Y s 1581 1489 m 20 Y s 1628 1470 m 39 Y s 1675 1489 m 20 Y s 1721 1489 m 20 Y s 1768 1489 m 20 Y s 1815 1470 m 39 Y s 1862 1489 m 20 Y
 s 1909 1489 m 20 Y s 1956 1489 m 20 Y s 2003 1470 m 39 Y s 2049 1489 m 20 Y s 2096 1489 m 20 Y s 2143 1489 m 20 Y s 2190 1470 m 39 Y s 2190 1470 m 39 Y s 316 228 m 1281 Y s 344 268 m -28 X s 344 312 m -28 X s 344 346 m -28 X s 344 374 m -28 X s 344
 398 m -28 X s 344 418 m -28 X s 344 436 m -28 X s 373 452 m -57 X s
 gsave  2268 1538 0 0 C 241.108 452.892 t 0 r /Helvetica findfont 58.6478 sf 0 0 m (\2553) show NC gr 
 gsave  2268 1538 0 0 C 149.878 413.793 t 0 r /Helvetica findfont 84.7135 sf 0 0 m (10) show NC gr  344 558 m -28 X s 344 620 m -28 X s 344 664 m -28 X s 344 698 m -28 X s 344 726 m -28 X s 344 750 m -28 X s 344 770 m -28 X s 344 788 m -28 X s 373
 804 m -57 X s
 gsave  2268 1538 0 0 C 241.108 801.521 t 0 r /Helvetica findfont 58.6478 sf 0 0 m (\2552) show NC gr 
 gsave  2268 1538 0 0 C 149.878 765.68 t 0 r /Helvetica findfont 84.7135 sf 0 0 m (10) show NC gr  344 910 m -28 X s 344 972 m -28 X s 344 1016 m -28 X s 344 1051 m -28 X s 344 1078 m -28 X s 344 1102 m -28 X s 344 1122 m -28 X s 344 1140 m -28 X s
 373 1157 m -57 X s
 gsave  2268 1538 0 0 C 250.882 1153.41 t 0 r /Helvetica findfont 58.6478 sf 0 0 m (\2551) show NC gr 
 gsave  2268 1538 0 0 C 159.652 1117.57 t 0 r /Helvetica findfont 84.7135 sf 0 0 m (10) show NC gr  344 1262 m -28 X s 344 1324 m -28 X s 344 1368 m -28 X s 344 1403 m -28 X s 344 1430 m -28 X s 344 1454 m -28 X s 344 1474 m -28 X s 344 1492 m -28 X
 s 373 1509 m -57 X s
 gsave  2268 1538 0 0 C 293.823 1472.06 t 0 r  -47 0 t /Helvetica findfont 84.7135 sf 0 0 m (1) show NC gr  2199 228 m 1281 Y s 2171 268 m 28 X s 2171 312 m 28 X s 2171 346 m 28 X s 2171 374 m 28 X s 2171 398 m 28 X s 2171 418 m 28 X s 2171 436 m 28
 X s 2143 452 m 56 X s 2171 558 m 28 X s 2171 620 m 28 X s 2171 664 m 28 X s 2171 698 m 28 X s 2171 726 m 28 X s 2171 750 m 28 X s 2171 770 m 28 X s 2171 788 m 28 X s 2143 804 m 56 X s 2171 910 m 28 X s 2171 972 m 28 X s 2171 1016 m 28 X s 2171 1051
 m 28 X s 2171 1078 m 28 X s 2171 1102 m 28 X s 2171 1122 m 28 X s 2171 1140 m 28 X s 2143 1157 m 56 X s 2171 1262 m 28 X s 2171 1324 m 28 X s 2171 1368 m 28 X s 2171 1403 m 28 X s 2171 1430 m 28 X s 2171 1454 m 28 X s 2171 1474 m 28 X s 2171 1492 m
 28 X s 2143 1509 m 56 X s 0 0 0.6 c[  12 12 ] 0 sd 6 lw 1 1 1 c black 0 0 0.6 c 316 241 m 14 X 41 Y 14 X 72 Y 14 X 101 Y 14 X 219 Y 14 X 322 Y 14 X 304 Y 14 X -31 Y 14 X -101 Y 15 X -65 Y 14 X -54 Y 14 X -43 Y 14 X -41 Y 14 X -35 Y 14 X -34 Y 14 X
 -28 Y 14 X -26 Y 14 X -28 Y 14 X -21 Y 14 X -22 Y 14 X -17 Y 14 X -22 Y 14 X -15 Y 14 X -12 Y 14 X -16 Y 14 X -16 Y 14 X -19 Y 15 X -11 Y 14 X -12 Y 14 X -16 Y 14 X -5 Y 14 X -15 Y 14 X -6 Y 14 X -13 Y 14 X -12 Y 14 X -11 Y 14 X -10 Y 14 X -1 Y 14 X
 -4 Y 14 X -21 Y 14 X -7 Y 14 X -1 Y 14 X -12 Y 14 X -4 Y 14 X -6 Y 14 X -9 Y 15 X -12 Y 14 X 6 Y 14 X -28 Y 14 X -3 Y 14 X -3 Y 14 X -17 Y 14 X 1 Y 14 X -7 Y 14 X -1 Y 14 X -20 Y 14 X 7 Y 14 X -1 Y 14 X -14 Y 14 X -9 Y 14 X -1 Y 14 X -18 Y 14 X -10
 Y 14 X -1 Y 15 X -4 Y 14 X -4 Y 14 X -13 Y 14 X 14 Y 14 X -29 Y 14 X -3 Y 14 X 9 Y 14 X -30 Y 14 X 17 Y 14 X -22 Y 14 X 8 Y 14 X -10 Y 14 X -7 Y 14 X -6 Y 14 X -3 Y 14 X -7 Y 14 X -14 Y 14 X -2 Y 14 X -13 Y 43 X 10 Y 14 X 14 Y 14 X -24 Y 42 X 2 Y 14
 X -2 Y 604 X s 0 0.4 0.6 c[ 4 8] 0 sd 1 1 1 c black 0 0.4 0.6 c 316 684 m 14 X 24 Y 14 X 37 Y 14 X 36 Y 14 X 45 Y 14 X 46 Y 14 X 80 Y 14 X 6 Y 14 X -11 Y 15 X -10 Y 14 X -5 Y 14 X -9 Y 14 X -8 Y 14 X -15 Y 14 X -6 Y 14 X -8 Y 14 X -9 Y 14 X -10 Y 14
 X -6 Y 14 X -10 Y 14 X -9 Y 14 X -2 Y 14 X -6 Y 14 X -8 Y 14 X -1 Y 14 X -8 Y 14 X -1 Y 15 X -7 Y 28 X 1 Y 14 X -13 Y 14 X -2 Y 28 X -6 Y 14 X -5 Y 14 X 2 Y 14 X -4 Y 14 X -12 Y 14 X 10 Y 14 X -8 Y 14 X -3 Y 14 X 3 Y 14 X -8 Y 28 X -1 Y 14 X 2 Y 15
 X -9 Y 14 X -5 Y 14 X 2 Y 14 X -8 Y 14 X -6 Y 14 X 5 Y 14 X -9 Y 14 X -2 Y 28 X -8 Y 28 X -4 Y 14 X -3 Y 14 X 2 Y 14 X -3 Y 14 X -10 Y 14 X 3 Y 14 X -6 Y 15 X -2 Y 28 X -2 Y 14 X -9 Y 28 X -1 Y 14 X -4 Y 14 X -1 Y 14 X -3 Y 14 X -4 Y 14 X 3 Y 14 X
 -6 Y 14 X -2 Y 14 X 2 Y 14 X -1 Y 14 X -10 Y 14 X 3 Y 14 X -1 Y 14 X -6 Y 15 X 5 Y 14 X -8 Y 14 X 5 Y 14 X -9 Y 14 X 9 Y 14 X -18 Y 28 X -5 Y 14 X 11 Y 14 X -8 Y 14 X 10 Y 14 X -11 Y 14 X 2 Y 14 X -6 Y 14 X 3 Y 14 X 1 Y 14 X -13 Y 14 X 3 Y 15 X -15
 Y 14 X 3 Y 14 X 1 Y 14 X 5 Y 14 X 1 Y 14 X -3 Y 14 X -2 Y 14 X -7 Y 14 X 7 Y 14 X -12 Y 14 X 10 Y 14 X -12 Y 14 X 6 Y 14 X -5 Y 14 X -2 Y 28 X 2 Y 14 X -6 Y 14 X 2 Y 15 X -4 Y 14 X 2 Y 14 X -4 Y 14 X -3 Y 14 X 10 Y 14 X -3 Y 14 X -7 Y 14 X -1 Y 14 X
 -6 Y 14 X -1 Y 14 X 4 Y 28 X -10 Y 14 X 5 Y 14 X s black[  ] 0 sd 1 1 1 c black 316 367 m 14 X 30 Y 14 X 44 Y 14 X 95 Y 14 X 174 Y 14 X 329 Y 14 X 344 Y 14 X -137 Y 14 X -132 Y 15 X -77 Y 14 X -59 Y 14 X -49 Y 14 X -39 Y 14 X -36 Y 14 X -31 Y 14 X
 -28 Y 14 X -24 Y 14 X -24 Y 14 X -25 Y 14 X -21 Y 14 X -18 Y 14 X -20 Y 14 X -13 Y 14 X -18 Y 14 X -15 Y 14 X -14 Y 14 X -11 Y 15 X -15 Y 14 X -10 Y 14 X -14 Y 14 X -18 Y 14 X -6 Y 14 X -12 Y 14 X -11 Y 14 X -9 Y 14 X -6 Y 14 X -11 Y 14 X -11 Y 14 X
 -5 Y 14 X -14 Y 28 X -11 Y 14 X -9 Y 14 X -10 Y 14 X -4 Y 14 X -8 Y 15 X -6 Y 14 X -14 Y 14 X -3 Y 14 X -6 Y 14 X -1 Y 14 X -9 Y 14 X -10 Y 28 X -6 Y 14 X -9 Y 14 X -5 Y 14 X -3 Y 14 X -1 Y 14 X -20 Y 14 X 5 Y 14 X -8 Y 14 X -12 Y 14 X -2 Y 29 X -18
 Y 14 X 8 Y 28 X 2 Y 14 X -14 Y 14 X -3 Y 14 X -7 Y 14 X -1 Y 14 X -4 Y 14 X 3 Y 14 X -2 Y 14 X -19 Y 14 X 10 Y 14 X -14 Y 14 X -5 Y 28 X -6 Y 14 X 1 Y 15 X -1 Y 716 X s
 gsave  2268 1538 0 0 C 1260.93 1247.9 t 0 r /Helvetica-Bold findfont 58.6478 sf 0 0 m (Conversion electrons) show NC gr  0 0.4 0.6 c[ 4 8] 0 sd 1026 1265 m 193 X s black
 gsave  2268 1538 0 0 C 1260.93 1156.67 t 0 r /Helvetica-Bold findfont 58.6478 sf 0 0 m (Isolated electrons ) show NC gr [  ] 0 sd 1026 1177 m 193 X s
 gsave  2268 1538 0 0 C 1260.93 1068.69 t 0 r /Helvetica-Bold findfont 58.6478 sf 0 0 m (Non\255Isolated electrons) show NC gr  0 0 0.6 c[  12 12 ] 0 sd 1026 1088 m 193 X s black
 gsave  2268 1538 0 0 C 1260.93 980.722 t 0 r /Helvetica-Bold findfont 58.6478 sf 0 0 m (Hadrons) show NC gr  0.6 0 0.2 c[  ] 0 sd 1026 999 m 193 X s
 gr  gr showpage
end
%%EOF
