%!PS-Adobe-2.0 EPSF-2.0
%%BoundingBox:  0 0 567 384
%%Title: /home/rohin/Analysis/dataAna/2014/July/electron_vars/Eratio.eps: c1_n6
%%Creator: ROOT Version 5.34/14
%%CreationDate: Tue Sep  9 00:35:25 2014
%%EndComments
%%BeginProlog
80 dict begin
/s {stroke} def /l {lineto} def /m {moveto} def /t {translate} def
/r {rotate} def /rl {roll}  def /R {repeat} def
/d {rlineto} def /rm {rmoveto} def /gr {grestore} def /f {eofill} def
/c {setrgbcolor} def /black {0 setgray} def /sd {setdash} def
/cl {closepath} def /sf {scalefont setfont} def /lw {setlinewidth} def
/box {m dup 0 exch d exch 0 d 0 exch neg d cl} def
/NC{systemdict begin initclip end}def/C{NC box clip newpath}def
/bl {box s} def /bf {box f} def /Y { 0 exch d} def /X { 0 d} def 
/K {{pop pop 0 moveto} exch kshow} bind def
/ita {/ang 15 def gsave [1 0 ang dup sin exch cos div 1 0 0] concat} def 
/mp {newpath /y exch def /x exch def} def
/side {[w .77 mul w .23 mul] .385 w mul sd w 0 l currentpoint t -144 r} def
/mr {mp x y w2 0 360 arc} def /m24 {mr s} def /m20 {mr f} def
/mb {mp x y w2 add m w2 neg 0 d 0 w neg d w 0 d 0 w d cl} def
/mt {mp x y w2 add m w2 neg w neg d w 0 d cl} def
/m21 {mb f} def /m25 {mb s} def /m22 {mt f} def /m26{mt s} def
/m23 {mp x y w2 sub m w2 w d w neg 0 d cl f} def
/m27 {mp x y w2 add m w3 neg w2 neg d w3 w2 neg d w3 w2 d cl s} def
/m28 {mp x w2 sub y w2 sub w3 add m w3 0 d  0 w3 neg d w3 0 d 0 w3 d w3 0 d  0 w3 d w3 neg 0 d 0 w3 d w3 neg 0 d 0 w3 neg d w3 neg 0 d cl s } def
/m29 {mp gsave x w2 sub y w2 add w3 sub m currentpoint t 4 {side} repeat cl fill gr} def
/m30 {mp gsave x w2 sub y w2 add w3 sub m currentpoint t 4 {side} repeat cl s gr} def
/m31 {mp x y w2 sub m 0 w d x w2 sub y m w 0 d x w2 sub y w2 add m w w neg d x w2 sub y w2 sub m w w d s} def
/m32 {mp x y w2 sub m w2 w d w neg 0 d cl s} def
/m33 {mp x y w2 add m w3 neg w2 neg d w3 w2 neg d w3 w2 d cl f} def
/m34 {mp x w2 sub y w2 sub w3 add m w3 0 d  0 w3 neg d w3 0 d 0 w3 d w3 0 d  0 w3 d w3 neg 0 d 0 w3 d w3 neg 0 d 0 w3 neg d w3 neg 0 d cl f } def
/m2 {mp x y w2 sub m 0 w d x w2 sub y m w 0 d s} def
/m5 {mp x w2 sub y w2 sub m w w d x w2 sub y w2 add m w w neg d s} def
/reEncode {exch findfont dup length dict begin {1 index /FID eq  {pop pop} {def} ifelse } forall /Encoding exch def currentdict end dup /FontName get exch definefont pop } def [/Times-Bold /Times-Italic /Times-BoldItalic /Helvetica /Helvetica-Oblique
 /Helvetica-Bold /Helvetica-BoldOblique /Courier /Courier-Oblique /Courier-Bold /Courier-BoldOblique /Times-Roman /AvantGarde-Book /AvantGarde-BookOblique /AvantGarde-Demi /AvantGarde-DemiOblique /Bookman-Demi /Bookman-DemiItalic /Bookman-Light
 /Bookman-LightItalic /Helvetica-Narrow /Helvetica-Narrow-Bold /Helvetica-Narrow-BoldOblique /Helvetica-Narrow-Oblique /NewCenturySchlbk-Roman /NewCenturySchlbk-Bold /NewCenturySchlbk-BoldItalic /NewCenturySchlbk-Italic /Palatino-Bold
 /Palatino-BoldItalic /Palatino-Italic /Palatino-Roman ] {ISOLatin1Encoding reEncode } forall
%%EndProlog
%%BeginSetup
%%EndSetup
newpath  gsave  .25 .25 scale  gsave  0 0 t black[  ] 0 sd 3 lw 1 1 1 c 2268 1538 0 0 bf black 1 1 1 c 1883 1300 316 209 bf black 1883 1300 316 209 bl 1 1 1 c 1883 1300 316 209 bf black 1883 1300 316 209 bl 0.6 0 0.2 c 6 lw 1 1 1 c black 0.6 0 0.2 c
 316 807 m 19 X -129 Y 19 X -2 Y 19 X -1 Y 18 X -5 Y 19 X -5 Y 38 X -2 Y 19 X -6 Y 19 X -2 Y 18 X -1 Y 19 X -2 Y 19 X -3 Y 19 X -2 Y 19 X -5 Y 19 X 2 Y 18 X -5 Y 38 X -5 Y 19 X -2 Y 19 X -2 Y 19 X -4 Y 37 X -3 Y 19 X -2 Y 19 X -1 Y 19 X -4 Y 19 X -1
 Y 18 X -3 Y 19 X -4 Y 38 X 1 Y 19 X -6 Y 19 X 2 Y 18 X -7 Y 19 X 2 Y 19 X -2 Y 19 X -5 Y 19 X 2 Y 19 X -8 Y 18 X 3 Y 19 X -1 Y 19 X -4 Y 19 X -3 Y 19 X 2 Y 19 X -1 Y 18 X -3 Y 19 X 1 Y 19 X -2 Y 19 X -2 Y 19 X 2 Y 19 X -4 Y 37 X -3 Y 19 X -2 Y 19 X
 -1 Y 19 X 2 Y 18 X -1 Y 19 X -2 Y 19 X 1 Y 19 X 1 Y 19 X -2 Y 37 X 3 Y 38 X 2 Y 19 X -3 Y 19 X 1 Y 37 X 4 Y 19 X 3 Y 38 X 1 Y 19 X 4 Y 37 X 5 Y 19 X 4 Y 19 X 2 Y 19 X 2 Y 19 X 4 Y 19 X 13 Y 37 X 7 Y 19 X 3 Y 19 X 11 Y 19 X 6 Y 19 X 6 Y 18 X 12 Y 19
 X 11 Y 19 X 8 Y 19 X 12 Y 19 X 11 Y 19 X 10 Y 18 X 7 Y 19 X 9 Y 19 X -3 Y 19 X -9 Y 19 X -37 Y 19 X -91 Y 18 X -244 Y 19 X s black 3 lw 316 209 m 1883 X s
 gsave  2268 1538 0 0 C 2085.26 16.2911 t 0 r /Helvetica findfont 58.6478 sf 0 0 m (ratio) show NC gr 
 gsave  2268 1538 0 0 C 2029.87 45.615 t 0 r /Helvetica findfont 84.7135 sf 0 0 m (E) show NC gr  316 247 m -38 Y s 354 228 m -19 Y s 391 228 m -19 Y s 429 228 m -19 Y s 467 228 m -19 Y s 504 247 m -38 Y s 542 228 m -19 Y s 580 228 m -19 Y s 617 228
 m -19 Y s 655 228 m -19 Y s 693 247 m -38 Y s 730 228 m -19 Y s 768 228 m -19 Y s 806 228 m -19 Y s 843 228 m -19 Y s 881 247 m -38 Y s 919 228 m -19 Y s 956 228 m -19 Y s 994 228 m -19 Y s 1032 228 m -19 Y s 1069 247 m -38 Y s 1107 228 m -19 Y s
 1145 228 m -19 Y s 1182 228 m -19 Y s 1220 228 m -19 Y s 1258 247 m -38 Y s 1295 228 m -19 Y s 1333 228 m -19 Y s 1371 228 m -19 Y s 1408 228 m -19 Y s 1446 247 m -38 Y s 1484 228 m -19 Y s 1521 228 m -19 Y s 1559 228 m -19 Y s 1597 228 m -19 Y s
 1634 247 m -38 Y s 1672 228 m -19 Y s 1710 228 m -19 Y s 1747 228 m -19 Y s 1785 228 m -19 Y s 1823 247 m -38 Y s 1860 228 m -19 Y s 1898 228 m -19 Y s 1936 228 m -19 Y s 1973 228 m -19 Y s 2011 247 m -38 Y s 2049 228 m -19 Y s 2086 228 m -19 Y s
 2124 228 m -19 Y s 2162 228 m -19 Y s 2199 247 m -38 Y s
 gsave  2268 1538 0 0 C 293.239 127.07 t 0 r /Helvetica findfont 84.7135 sf 0 0 m (0) show NC gr 
 gsave  2268 1538 0 0 C 449.633 127.07 t 0 r /Helvetica findfont 84.7135 sf 0 0 m (0.1) show NC gr 
 gsave  2268 1538 0 0 C 632.093 127.07 t 0 r /Helvetica findfont 84.7135 sf 0 0 m (0.2) show NC gr 
 gsave  2268 1538 0 0 C 821.07 127.07 t 0 r /Helvetica findfont 84.7135 sf 0 0 m (0.3) show NC gr 
 gsave  2268 1538 0 0 C 1010.05 127.07 t 0 r /Helvetica findfont 84.7135 sf 0 0 m (0.4) show NC gr 
 gsave  2268 1538 0 0 C 1199.02 127.07 t 0 r /Helvetica findfont 84.7135 sf 0 0 m (0.5) show NC gr 
 gsave  2268 1538 0 0 C 1384.74 127.07 t 0 r /Helvetica findfont 84.7135 sf 0 0 m (0.6) show NC gr 
 gsave  2268 1538 0 0 C 1573.72 127.07 t 0 r /Helvetica findfont 84.7135 sf 0 0 m (0.7) show NC gr 
 gsave  2268 1538 0 0 C 1762.69 127.07 t 0 r /Helvetica findfont 84.7135 sf 0 0 m (0.8) show NC gr 
 gsave  2268 1538 0 0 C 1951.67 127.07 t 0 r /Helvetica findfont 84.7135 sf 0 0 m (0.9) show NC gr 
 gsave  2268 1538 0 0 C 2183 127.07 t 0 r /Helvetica findfont 84.7135 sf 0 0 m (1) show NC gr  316 1509 m 1883 X s 316 1470 m 39 Y s 354 1489 m 20 Y s 391 1489 m 20 Y s 429 1489 m 20 Y s 467 1489 m 20 Y s 504 1470 m 39 Y s 542 1489 m 20 Y s 580 1489
 m 20 Y s 617 1489 m 20 Y s 655 1489 m 20 Y s 693 1470 m 39 Y s 730 1489 m 20 Y s 768 1489 m 20 Y s 806 1489 m 20 Y s 843 1489 m 20 Y s 881 1470 m 39 Y s 919 1489 m 20 Y s 956 1489 m 20 Y s 994 1489 m 20 Y s 1032 1489 m 20 Y s 1069 1470 m 39 Y s 1107
 1489 m 20 Y s 1145 1489 m 20 Y s 1182 1489 m 20 Y s 1220 1489 m 20 Y s 1258 1470 m 39 Y s 1295 1489 m 20 Y s 1333 1489 m 20 Y s 1371 1489 m 20 Y s 1408 1489 m 20 Y s 1446 1470 m 39 Y s 1484 1489 m 20 Y s 1521 1489 m 20 Y s 1559 1489 m 20 Y s 1597
 1489 m 20 Y s 1634 1470 m 39 Y s 1672 1489 m 20 Y s 1710 1489 m 20 Y s 1747 1489 m 20 Y s 1785 1489 m 20 Y s 1823 1470 m 39 Y s 1860 1489 m 20 Y s 1898 1489 m 20 Y s 1936 1489 m 20 Y s 1973 1489 m 20 Y s 2011 1470 m 39 Y s 2049 1489 m 20 Y s 2086
 1489 m 20 Y s 2124 1489 m 20 Y s 2162 1489 m 20 Y s 2199 1470 m 39 Y s 316 209 m 1300 Y s 345 313 m -29 X s 345 391 m -29 X s 345 447 m -29 X s 345 489 m -29 X s 345 525 m -29 X s 345 554 m -29 X s 345 580 m -29 X s 345 603 m -29 X s 374 623 m -58 X
 s
 gsave  2268 1538 0 0 C 241.108 622.319 t 0 r /Helvetica findfont 58.6478 sf 0 0 m (\2552) show NC gr 
 gsave  2268 1538 0 0 C 149.878 586.478 t 0 r /Helvetica findfont 84.7135 sf 0 0 m (10) show NC gr  345 756 m -29 X s 345 834 m -29 X s 345 889 m -29 X s 345 932 m -29 X s 345 967 m -29 X s 345 997 m -29 X s 345 1023 m -29 X s 345 1045 m -29 X s 374
 1066 m -58 X s
 gsave  2268 1538 0 0 C 250.882 1065.44 t 0 r /Helvetica findfont 58.6478 sf 0 0 m (\2551) show NC gr 
 gsave  2268 1538 0 0 C 159.652 1029.6 t 0 r /Helvetica findfont 84.7135 sf 0 0 m (10) show NC gr  345 1199 m -29 X s 345 1277 m -29 X s 345 1332 m -29 X s 345 1375 m -29 X s 345 1410 m -29 X s 345 1440 m -29 X s 345 1466 m -29 X s 345 1488 m -29 X s
 374 1509 m -58 X s
 gsave  2268 1538 0 0 C 293.823 1472.06 t 0 r  -47 0 t /Helvetica findfont 84.7135 sf 0 0 m (1) show NC gr  2199 209 m 1300 Y s 2171 313 m 28 X s 2171 391 m 28 X s 2171 447 m 28 X s 2171 489 m 28 X s 2171 525 m 28 X s 2171 554 m 28 X s 2171 580 m 28
 X s 2171 603 m 28 X s 2142 623 m 57 X s 2171 756 m 28 X s 2171 834 m 28 X s 2171 889 m 28 X s 2171 932 m 28 X s 2171 967 m 28 X s 2171 997 m 28 X s 2171 1023 m 28 X s 2171 1045 m 28 X s 2142 1066 m 57 X s 2171 1199 m 28 X s 2171 1277 m 28 X s 2171
 1332 m 28 X s 2171 1375 m 28 X s 2171 1410 m 28 X s 2171 1440 m 28 X s 2171 1466 m 28 X s 2171 1488 m 28 X s 2142 1509 m 57 X s 0 0 0.6 c[  12 12 ] 0 sd 6 lw 1 1 1 c black 0 0 0.6 c 316 685 m 19 X -309 Y 56 X -10 Y 19 X 3 Y 19 X -7 Y 38 X -1 Y 19 X
 1 Y 18 X -2 Y 19 X 1 Y 19 X -3 Y 19 X 7 Y 19 X -6 Y 19 X -4 Y 18 X 5 Y 38 X -4 Y 19 X 6 Y 19 X -1 Y 19 X 2 Y 18 X 6 Y 19 X -1 Y 19 X -2 Y 19 X -3 Y 19 X 4 Y 19 X 5 Y 37 X 3 Y 19 X 1 Y 38 X -2 Y 19 X 13 Y 18 X -2 Y 19 X -1 Y 19 X 6 Y 19 X 5 Y 19 X -3
 Y 19 X 3 Y 18 X 10 Y 19 X -2 Y 19 X 4 Y 19 X -1 Y 19 X 10 Y 56 X 7 Y 19 X 5 Y 19 X -2 Y 19 X 11 Y 19 X 3 Y 18 X 11 Y 19 X -4 Y 19 X 4 Y 19 X 7 Y 19 X 8 Y 18 X 6 Y 19 X 1 Y 19 X 2 Y 19 X 12 Y 19 X 6 Y 19 X 6 Y 18 X 5 Y 19 X 14 Y 19 X 4 Y 19 X 4 Y 19
 X 10 Y 19 X 9 Y 18 X 8 Y 19 X 8 Y 19 X 8 Y 19 X 14 Y 19 X 13 Y 19 X 8 Y 18 X 9 Y 19 X 15 Y 19 X 15 Y 19 X 13 Y 19 X 13 Y 19 X 16 Y 18 X 16 Y 19 X 15 Y 19 X 18 Y 19 X 20 Y 19 X 18 Y 19 X 21 Y 18 X 23 Y 19 X 22 Y 19 X 23 Y 19 X 22 Y 19 X 23 Y 19 X 20
 Y 18 X 20 Y 19 X 11 Y 19 X 1 Y 19 X -14 Y 19 X -40 Y 19 X -90 Y 18 X -250 Y 19 X s 0 0.4 0.6 c[ 4 8] 0 sd 1 1 1 c black 0 0.4 0.6 c 316 957 m 19 X -415 Y 19 X -6 Y 19 X -4 Y 18 X -5 Y 19 X -2 Y 19 X 1 Y 19 X -15 Y 19 X 11 Y 19 X -1 Y 18 X -5 Y 19 X
 5 Y 19 X -10 Y 19 X -4 Y 38 X 5 Y 18 X 1 Y 19 X -3 Y 19 X -8 Y 19 X 2 Y 19 X -2 Y 19 X -11 Y 18 X 3 Y 19 X -4 Y 19 X -2 Y 19 X 3 Y 19 X -9 Y 19 X 6 Y 18 X -5 Y 19 X 1 Y 19 X -2 Y 19 X -3 Y 19 X -5 Y 19 X 7 Y 18 X -2 Y 19 X -5 Y 19 X -1 Y 19 X -3 Y
 19 X 2 Y 19 X -7 Y 37 X 2 Y 38 X -3 Y 19 X 10 Y 19 X -12 Y 18 X 8 Y 19 X -9 Y 19 X 4 Y 19 X -9 Y 19 X 2 Y 19 X 9 Y 18 X -12 Y 19 X 7 Y 38 X 1 Y 19 X -3 Y 18 X -4 Y 19 X 2 Y 19 X 3 Y 19 X 7 Y 19 X -3 Y 19 X 4 Y 37 X 8 Y 19 X -6 Y 19 X 5 Y 19 X -3 Y
 19 X 14 Y 37 X 5 Y 19 X -4 Y 19 X 6 Y 19 X 8 Y 37 X 10 Y 19 X 4 Y 19 X 6 Y 19 X 8 Y 19 X 11 Y 19 X 12 Y 18 X 9 Y 19 X 14 Y 19 X 9 Y 19 X 12 Y 19 X 21 Y 19 X 16 Y 18 X 22 Y 19 X 19 Y 19 X 25 Y 19 X 28 Y 19 X 29 Y 19 X 34 Y 18 X 36 Y 19 X 42 Y 19 X 41
 Y 19 X 53 Y 19 X 51 Y 19 X 42 Y 18 X -136 Y 19 X s black[  ] 0 sd 1 1 1 c black 316 618 m 19 X -409 Y 1412 X 1 Y 19 X 23 Y 19 X 22 Y 19 X 29 Y 19 X 29 Y 18 X 26 Y 19 X 32 Y 19 X 35 Y 19 X 36 Y 19 X 38 Y 19 X 42 Y 18 X 43 Y 19 X 46 Y 19 X 51 Y 19 X
 56 Y 19 X 60 Y 19 X 63 Y 18 X 69 Y 19 X 75 Y 19 X 77 Y 19 X 76 Y 19 X 61 Y 19 X 7 Y 18 X -187 Y 19 X s
 gsave  2268 1538 0 0 C 1062.18 1238.12 t 0 r /Helvetica-Bold findfont 55.3896 sf 0 0 m (Conversion electrons) show NC gr  0 0.4 0.6 c[ 4 8] 0 sd 832 1258 m 190 X s black
 gsave  2268 1538 0 0 C 1062.18 1140.37 t 0 r /Helvetica-Bold findfont 55.3896 sf 0 0 m (Isolated electrons ) show NC gr [  ] 0 sd 832 1160 m 190 X s
 gsave  2268 1538 0 0 C 1062.18 1042.63 t 0 r /Helvetica-Bold findfont 55.3896 sf 0 0 m (Non\255Isolated electrons) show NC gr  0 0 0.6 c[  12 12 ] 0 sd 832 1062 m 190 X s black
 gsave  2268 1538 0 0 C 1062.18 944.882 t 0 r /Helvetica-Bold findfont 55.3896 sf 0 0 m (Hadrons) show NC gr  0.6 0 0.2 c[  ] 0 sd 832 964 m 190 X s
 gr  gr showpage
end
%%EOF
