%!PS-Adobe-2.0 EPSF-2.0
%%BoundingBox:  0 0 567 384
%%Title: /home/rohin/Analysis/dataAna/2014/July/electron_vars/Et.eps: c1_n7
%%Creator: ROOT Version 5.34/14
%%CreationDate: Tue Sep  9 00:34:48 2014
%%EndComments
%%BeginProlog
80 dict begin
/s {stroke} def /l {lineto} def /m {moveto} def /t {translate} def
/r {rotate} def /rl {roll}  def /R {repeat} def
/d {rlineto} def /rm {rmoveto} def /gr {grestore} def /f {eofill} def
/c {setrgbcolor} def /black {0 setgray} def /sd {setdash} def
/cl {closepath} def /sf {scalefont setfont} def /lw {setlinewidth} def
/box {m dup 0 exch d exch 0 d 0 exch neg d cl} def
/NC{systemdict begin initclip end}def/C{NC box clip newpath}def
/bl {box s} def /bf {box f} def /Y { 0 exch d} def /X { 0 d} def 
/K {{pop pop 0 moveto} exch kshow} bind def
/ita {/ang 15 def gsave [1 0 ang dup sin exch cos div 1 0 0] concat} def 
/mp {newpath /y exch def /x exch def} def
/side {[w .77 mul w .23 mul] .385 w mul sd w 0 l currentpoint t -144 r} def
/mr {mp x y w2 0 360 arc} def /m24 {mr s} def /m20 {mr f} def
/mb {mp x y w2 add m w2 neg 0 d 0 w neg d w 0 d 0 w d cl} def
/mt {mp x y w2 add m w2 neg w neg d w 0 d cl} def
/m21 {mb f} def /m25 {mb s} def /m22 {mt f} def /m26{mt s} def
/m23 {mp x y w2 sub m w2 w d w neg 0 d cl f} def
/m27 {mp x y w2 add m w3 neg w2 neg d w3 w2 neg d w3 w2 d cl s} def
/m28 {mp x w2 sub y w2 sub w3 add m w3 0 d  0 w3 neg d w3 0 d 0 w3 d w3 0 d  0 w3 d w3 neg 0 d 0 w3 d w3 neg 0 d 0 w3 neg d w3 neg 0 d cl s } def
/m29 {mp gsave x w2 sub y w2 add w3 sub m currentpoint t 4 {side} repeat cl fill gr} def
/m30 {mp gsave x w2 sub y w2 add w3 sub m currentpoint t 4 {side} repeat cl s gr} def
/m31 {mp x y w2 sub m 0 w d x w2 sub y m w 0 d x w2 sub y w2 add m w w neg d x w2 sub y w2 sub m w w d s} def
/m32 {mp x y w2 sub m w2 w d w neg 0 d cl s} def
/m33 {mp x y w2 add m w3 neg w2 neg d w3 w2 neg d w3 w2 d cl f} def
/m34 {mp x w2 sub y w2 sub w3 add m w3 0 d  0 w3 neg d w3 0 d 0 w3 d w3 0 d  0 w3 d w3 neg 0 d 0 w3 d w3 neg 0 d 0 w3 neg d w3 neg 0 d cl f } def
/m2 {mp x y w2 sub m 0 w d x w2 sub y m w 0 d s} def
/m5 {mp x w2 sub y w2 sub m w w d x w2 sub y w2 add m w w neg d s} def
/reEncode {exch findfont dup length dict begin {1 index /FID eq  {pop pop} {def} ifelse } forall /Encoding exch def currentdict end dup /FontName get exch definefont pop } def [/Times-Bold /Times-Italic /Times-BoldItalic /Helvetica /Helvetica-Oblique
 /Helvetica-Bold /Helvetica-BoldOblique /Courier /Courier-Oblique /Courier-Bold /Courier-BoldOblique /Times-Roman /AvantGarde-Book /AvantGarde-BookOblique /AvantGarde-Demi /AvantGarde-DemiOblique /Bookman-Demi /Bookman-DemiItalic /Bookman-Light
 /Bookman-LightItalic /Helvetica-Narrow /Helvetica-Narrow-Bold /Helvetica-Narrow-BoldOblique /Helvetica-Narrow-Oblique /NewCenturySchlbk-Roman /NewCenturySchlbk-Bold /NewCenturySchlbk-BoldItalic /NewCenturySchlbk-Italic /Palatino-Bold
 /Palatino-BoldItalic /Palatino-Italic /Palatino-Roman ] {ISOLatin1Encoding reEncode } forall
%%EndProlog
%%BeginSetup
%%EndSetup
newpath  gsave  .25 .25 scale  gsave  0 0 t black[  ] 0 sd 3 lw 1 1 1 c 2268 1538 0 0 bf black 1 1 1 c 1883 1268 316 241 bf black 1883 1268 316 241 bl 1 1 1 c 1883 1268 316 241 bf black 1883 1268 316 241 bl 0.6 0 0.2 c 6 lw 1 1 1 c black 0.6 0 0.2 c
 316 241 m 132 X 949 Y 19 X -30 Y 19 X -26 Y 18 X -22 Y 19 X -21 Y 19 X -17 Y 19 X -17 Y 19 X -14 Y 19 X -16 Y 18 X -14 Y 19 X -12 Y 19 X -13 Y 19 X -12 Y 19 X -12 Y 19 X -10 Y 18 X -11 Y 19 X -10 Y 19 X -12 Y 19 X -11 Y 19 X -10 Y 19 X -11 Y 18 X
 -11 Y 19 X -12 Y 19 X -9 Y 19 X -13 Y 19 X -8 Y 19 X -11 Y 18 X -10 Y 19 X -9 Y 19 X -12 Y 19 X -10 Y 19 X -6 Y 19 X -9 Y 18 X -10 Y 19 X -8 Y 19 X -11 Y 19 X -9 Y 19 X -7 Y 19 X -8 Y 18 X -11 Y 19 X -10 Y 19 X -8 Y 19 X -6 Y 19 X -8 Y 19 X -8 Y 18
 X -10 Y 19 X -9 Y 19 X -7 Y 19 X -8 Y 19 X -8 Y 18 X -4 Y 19 X -8 Y 19 X -5 Y 19 X -10 Y 19 X -3 Y 19 X -14 Y 18 X -5 Y 19 X -9 Y 19 X -6 Y 19 X -7 Y 19 X -7 Y 19 X -6 Y 18 X -3 Y 19 X -11 Y 19 X -6 Y 19 X -7 Y 19 X -9 Y 19 X -10 Y 18 X 1 Y 19 X -17
 Y 19 X 10 Y 19 X -12 Y 19 X -14 Y 19 X -2 Y 18 X -8 Y 19 X -10 Y 19 X -5 Y 19 X -1 Y 19 X -11 Y 19 X -5 Y 18 X -2 Y 19 X -4 Y 19 X -10 Y 19 X -9 Y 19 X 2 Y 19 X -14 Y 18 X -5 Y 19 X -13 Y 19 X 4 Y 19 X -15 Y 38 X -4 Y 18 X -9 Y 19 X s black 3 lw 316
 241 m 1883 X s
 gsave  2268 1538 0 0 C 2183 52.1314 t 0 r /Helvetica findfont 58.6478 sf 0 0 m (t) show NC gr 
 gsave  2268 1538 0 0 C 2127.61 74.9389 t 0 r /Helvetica findfont 84.7135 sf 0 0 m (E) show NC gr  316 279 m -38 Y s 354 260 m -19 Y s 391 260 m -19 Y s 429 260 m -19 Y s 467 260 m -19 Y s 504 279 m -38 Y s 542 260 m -19 Y s 580 260 m -19 Y s 617 260
 m -19 Y s 655 260 m -19 Y s 693 279 m -38 Y s 730 260 m -19 Y s 768 260 m -19 Y s 806 260 m -19 Y s 843 260 m -19 Y s 881 279 m -38 Y s 919 260 m -19 Y s 956 260 m -19 Y s 994 260 m -19 Y s 1032 260 m -19 Y s 1069 279 m -38 Y s 1107 260 m -19 Y s
 1145 260 m -19 Y s 1182 260 m -19 Y s 1220 260 m -19 Y s 1258 279 m -38 Y s 1295 260 m -19 Y s 1333 260 m -19 Y s 1371 260 m -19 Y s 1408 260 m -19 Y s 1446 279 m -38 Y s 1484 260 m -19 Y s 1521 260 m -19 Y s 1559 260 m -19 Y s 1597 260 m -19 Y s
 1634 279 m -38 Y s 1672 260 m -19 Y s 1710 260 m -19 Y s 1747 260 m -19 Y s 1785 260 m -19 Y s 1823 279 m -38 Y s 1860 260 m -19 Y s 1898 260 m -19 Y s 1936 260 m -19 Y s 1973 260 m -19 Y s 2011 279 m -38 Y s 2049 260 m -19 Y s 2086 260 m -19 Y s
 2124 260 m -19 Y s 2162 260 m -19 Y s 2199 279 m -38 Y s
 gsave  2268 1538 0 0 C 293.239 159.652 t 0 r /Helvetica findfont 84.7135 sf 0 0 m (0) show NC gr 
 gsave  2268 1538 0 0 C 456.15 159.652 t 0 r /Helvetica findfont 84.7135 sf 0 0 m (10) show NC gr 
 gsave  2268 1538 0 0 C 645.126 159.652 t 0 r /Helvetica findfont 84.7135 sf 0 0 m (20) show NC gr 
 gsave  2268 1538 0 0 C 834.103 159.652 t 0 r /Helvetica findfont 84.7135 sf 0 0 m (30) show NC gr 
 gsave  2268 1538 0 0 C 1023.08 159.652 t 0 r /Helvetica findfont 84.7135 sf 0 0 m (40) show NC gr 
 gsave  2268 1538 0 0 C 1212.06 159.652 t 0 r /Helvetica findfont 84.7135 sf 0 0 m (50) show NC gr 
 gsave  2268 1538 0 0 C 1397.77 159.652 t 0 r /Helvetica findfont 84.7135 sf 0 0 m (60) show NC gr 
 gsave  2268 1538 0 0 C 1586.75 159.652 t 0 r /Helvetica findfont 84.7135 sf 0 0 m (70) show NC gr 
 gsave  2268 1538 0 0 C 1775.73 159.652 t 0 r /Helvetica findfont 84.7135 sf 0 0 m (80) show NC gr 
 gsave  2268 1538 0 0 C 1964.7 159.652 t 0 r /Helvetica findfont 84.7135 sf 0 0 m (90) show NC gr 
 gsave  2268 1538 0 0 C 2127.61 159.652 t 0 r /Helvetica findfont 84.7135 sf 0 0 m (100) show NC gr  316 1509 m 1883 X s 316 1470 m 39 Y s 354 1489 m 20 Y s 391 1489 m 20 Y s 429 1489 m 20 Y s 467 1489 m 20 Y s 504 1470 m 39 Y s 542 1489 m 20 Y s 580
 1489 m 20 Y s 617 1489 m 20 Y s 655 1489 m 20 Y s 693 1470 m 39 Y s 730 1489 m 20 Y s 768 1489 m 20 Y s 806 1489 m 20 Y s 843 1489 m 20 Y s 881 1470 m 39 Y s 919 1489 m 20 Y s 956 1489 m 20 Y s 994 1489 m 20 Y s 1032 1489 m 20 Y s 1069 1470 m 39 Y s
 1107 1489 m 20 Y s 1145 1489 m 20 Y s 1182 1489 m 20 Y s 1220 1489 m 20 Y s 1258 1470 m 39 Y s 1295 1489 m 20 Y s 1333 1489 m 20 Y s 1371 1489 m 20 Y s 1408 1489 m 20 Y s 1446 1470 m 39 Y s 1484 1489 m 20 Y s 1521 1489 m 20 Y s 1559 1489 m 20 Y s
 1597 1489 m 20 Y s 1634 1470 m 39 Y s 1672 1489 m 20 Y s 1710 1489 m 20 Y s 1747 1489 m 20 Y s 1785 1489 m 20 Y s 1823 1470 m 39 Y s 1860 1489 m 20 Y s 1898 1489 m 20 Y s 1936 1489 m 20 Y s 1973 1489 m 20 Y s 2011 1470 m 39 Y s 2049 1489 m 20 Y s
 2086 1489 m 20 Y s 2124 1489 m 20 Y s 2162 1489 m 20 Y s 2199 1470 m 39 Y s 316 241 m 1268 Y s 344 288 m -28 X s 344 346 m -28 X s 344 387 m -28 X s 344 419 m -28 X s 344 445 m -28 X s 344 468 m -28 X s 344 487 m -28 X s 344 504 m -28 X s 372 519 m
 -56 X s
 gsave  2268 1538 0 0 C 241.108 521.314 t 0 r /Helvetica findfont 58.6478 sf 0 0 m (\2553) show NC gr 
 gsave  2268 1538 0 0 C 149.878 482.216 t 0 r /Helvetica findfont 84.7135 sf 0 0 m (10) show NC gr  344 618 m -28 X s 344 676 m -28 X s 344 717 m -28 X s 344 749 m -28 X s 344 775 m -28 X s 344 797 m -28 X s 344 817 m -28 X s 344 833 m -28 X s 372
 849 m -56 X s
 gsave  2268 1538 0 0 C 241.108 847.135 t 0 r /Helvetica findfont 58.6478 sf 0 0 m (\2552) show NC gr 
 gsave  2268 1538 0 0 C 149.878 811.295 t 0 r /Helvetica findfont 84.7135 sf 0 0 m (10) show NC gr  344 948 m -28 X s 344 1006 m -28 X s 344 1047 m -28 X s 344 1079 m -28 X s 344 1105 m -28 X s 344 1127 m -28 X s 344 1147 m -28 X s 344 1163 m -28 X s
 372 1179 m -56 X s
 gsave  2268 1538 0 0 C 250.882 1176.21 t 0 r /Helvetica findfont 58.6478 sf 0 0 m (\2551) show NC gr 
 gsave  2268 1538 0 0 C 159.652 1140.37 t 0 r /Helvetica findfont 84.7135 sf 0 0 m (10) show NC gr  344 1278 m -28 X s 344 1336 m -28 X s 344 1377 m -28 X s 344 1409 m -28 X s 344 1435 m -28 X s 344 1457 m -28 X s 344 1477 m -28 X s 344 1493 m -28 X
 s 372 1509 m -56 X s
 gsave  2268 1538 0 0 C 293.823 1472.06 t 0 r  -47 0 t /Helvetica findfont 84.7135 sf 0 0 m (1) show NC gr  2199 241 m 1268 Y s 2171 288 m 28 X s 2171 346 m 28 X s 2171 387 m 28 X s 2171 419 m 28 X s 2171 445 m 28 X s 2171 468 m 28 X s 2171 487 m 28
 X s 2171 504 m 28 X s 2143 519 m 56 X s 2171 618 m 28 X s 2171 676 m 28 X s 2171 717 m 28 X s 2171 749 m 28 X s 2171 775 m 28 X s 2171 797 m 28 X s 2171 817 m 28 X s 2171 833 m 28 X s 2143 849 m 56 X s 2171 948 m 28 X s 2171 1006 m 28 X s 2171 1047
 m 28 X s 2171 1079 m 28 X s 2171 1105 m 28 X s 2171 1127 m 28 X s 2171 1147 m 28 X s 2171 1163 m 28 X s 2143 1179 m 56 X s 2171 1278 m 28 X s 2171 1336 m 28 X s 2171 1377 m 28 X s 2171 1409 m 28 X s 2171 1435 m 28 X s 2171 1457 m 28 X s 2171 1477 m
 28 X s 2171 1493 m 28 X s 2143 1509 m 56 X s 0 0 0.6 c[  12 12 ] 0 sd 6 lw 1 1 1 c black 0 0 0.6 c 316 241 m 132 X 967 Y 19 X -25 Y 19 X -24 Y 18 X -23 Y 19 X -22 Y 19 X -22 Y 19 X -20 Y 19 X -19 Y 19 X -19 Y 18 X -19 Y 19 X -16 Y 19 X -15 Y 19 X
 -17 Y 19 X -16 Y 19 X -14 Y 18 X -13 Y 19 X -16 Y 19 X -16 Y 19 X -10 Y 19 X -15 Y 19 X -12 Y 18 X -12 Y 19 X -13 Y 19 X -14 Y 19 X -7 Y 19 X -13 Y 19 X -12 Y 18 X -11 Y 19 X -12 Y 19 X -9 Y 19 X -11 Y 19 X -13 Y 19 X -8 Y 18 X -10 Y 19 X -10 Y 19 X
 -9 Y 19 X -9 Y 19 X -11 Y 19 X -12 Y 18 X -5 Y 19 X -13 Y 19 X -7 Y 19 X -10 Y 19 X -9 Y 19 X -6 Y 18 X -15 Y 19 X -8 Y 19 X -5 Y 19 X -8 Y 19 X -5 Y 18 X -12 Y 19 X -5 Y 19 X -6 Y 19 X -11 Y 19 X -10 Y 19 X -9 Y 37 X -14 Y 19 X -14 Y 19 X 1 Y 19 X
 -7 Y 19 X -10 Y 18 X 2 Y 19 X -16 Y 19 X -9 Y 19 X -7 Y 19 X -4 Y 19 X -6 Y 18 X -9 Y 19 X -1 Y 19 X -16 Y 19 X 11 Y 19 X -11 Y 19 X -26 Y 18 X -5 Y 19 X 9 Y 19 X -17 Y 19 X -6 Y 19 X -12 Y 19 X 3 Y 18 X -9 Y 19 X -17 Y 19 X -15 Y 19 X 3 Y 19 X -8 Y
 19 X -9 Y 18 X 1 Y 19 X 12 Y 19 X -27 Y 19 X 4 Y 19 X -20 Y 19 X 8 Y 18 X -14 Y 19 X s 0 0.4 0.6 c[ 4 8] 0 sd 1 1 1 c black 0 0.4 0.6 c 316 241 m 132 X 886 Y 19 X -27 Y 19 X -24 Y 18 X -21 Y 19 X -17 Y 19 X -12 Y 19 X -14 Y 19 X -9 Y 19 X -10 Y 18 X
 -6 Y 19 X -9 Y 19 X -4 Y 19 X -5 Y 19 X -10 Y 19 X -2 Y 18 X -2 Y 19 X -4 Y 19 X -4 Y 19 X -7 Y 19 X -7 Y 37 X -8 Y 19 X -9 Y 19 X -4 Y 19 X -8 Y 19 X -7 Y 19 X -3 Y 18 X -8 Y 19 X -6 Y 19 X -7 Y 19 X -7 Y 19 X -7 Y 19 X -6 Y 18 X -4 Y 19 X -10 Y 19
 X -4 Y 19 X -7 Y 19 X -13 Y 19 X -2 Y 18 X -6 Y 19 X -5 Y 19 X -10 Y 19 X -6 Y 19 X -9 Y 19 X -6 Y 18 X -5 Y 19 X -7 Y 19 X -9 Y 19 X 3 Y 19 X -11 Y 18 X -9 Y 19 X -3 Y 19 X -11 Y 19 X -2 Y 19 X -10 Y 19 X 1 Y 18 X -9 Y 19 X -13 Y 19 X -12 Y 19 X -3
 Y 19 X -4 Y 19 X -9 Y 18 X -7 Y 19 X -6 Y 19 X 1 Y 19 X -17 Y 19 X -10 Y 37 X -7 Y 19 X -2 Y 19 X -15 Y 19 X -4 Y 19 X -9 Y 19 X -3 Y 18 X -7 Y 19 X -10 Y 19 X -10 Y 19 X 3 Y 19 X -13 Y 19 X -9 Y 18 X -6 Y 19 X -15 Y 19 X 7 Y 19 X -17 Y 19 X -5 Y 19
 X -2 Y 18 X -20 Y 19 X -3 Y 19 X -3 Y 19 X 2 Y 19 X -11 Y 19 X -2 Y 18 X -22 Y 19 X s black[  ] 0 sd 1 1 1 c black 316 241 m 132 X 478 Y 19 X 23 Y 19 X 20 Y 18 X 20 Y 19 X 15 Y 19 X 17 Y 19 X 13 Y 19 X 15 Y 19 X 11 Y 18 X 12 Y 19 X 11 Y 19 X 11 Y 19
 X 9 Y 19 X 8 Y 19 X 7 Y 18 X 7 Y 19 X 6 Y 19 X 4 Y 19 X 6 Y 19 X 3 Y 19 X 4 Y 18 X 1 Y 19 X 2 Y 19 X 1 Y 19 X 1 Y 56 X -1 Y 19 X -2 Y 38 X -3 Y 19 X -1 Y 19 X -3 Y 18 X -1 Y 19 X -6 Y 19 X -1 Y 19 X -3 Y 19 X -3 Y 19 X -3 Y 18 X -4 Y 19 X -4 Y 19 X
 -3 Y 19 X -3 Y 19 X -4 Y 19 X -3 Y 18 X -5 Y 19 X -2 Y 19 X -5 Y 19 X -5 Y 19 X -3 Y 18 X -5 Y 19 X -4 Y 19 X -3 Y 19 X -6 Y 19 X -5 Y 19 X -4 Y 18 X -7 Y 19 X -4 Y 19 X -5 Y 19 X -4 Y 19 X -6 Y 19 X -5 Y 18 X -7 Y 19 X -5 Y 19 X -5 Y 19 X -6 Y 19 X
 -6 Y 19 X -4 Y 18 X -8 Y 19 X -7 Y 19 X -4 Y 19 X -6 Y 19 X -5 Y 19 X -9 Y 18 X -6 Y 19 X -4 Y 19 X -6 Y 19 X -6 Y 19 X -6 Y 19 X -10 Y 18 X -5 Y 19 X -4 Y 19 X -8 Y 19 X -5 Y 19 X -7 Y 19 X -6 Y 18 X -5 Y 19 X -8 Y 19 X -4 Y 19 X -7 Y 19 X -5 Y 19
 X -7 Y 18 X -7 Y 19 X s
 gsave  2268 1538 0 0 C 1309.8 1381.48 t 0 r /Helvetica-Bold findfont 55.3896 sf 0 0 m (Conversion electrons) show NC gr  0 0.4 0.6 c[ 4 8] 0 sd 1080 1403 m 189 X s black
 gsave  2268 1538 0 0 C 1309.8 1280.48 t 0 r /Helvetica-Bold findfont 55.3896 sf 0 0 m (Isolated electrons ) show NC gr [  ] 0 sd 1080 1303 m 189 X s
 gsave  2268 1538 0 0 C 1309.8 1182.73 t 0 r /Helvetica-Bold findfont 55.3896 sf 0 0 m (Non\255Isolated electrons) show NC gr  0 0 0.6 c[  12 12 ] 0 sd 1080 1203 m 189 X s black
 gsave  2268 1538 0 0 C 1309.8 1081.73 t 0 r /Helvetica-Bold findfont 55.3896 sf 0 0 m (Hadrons) show NC gr  0.6 0 0.2 c[  ] 0 sd 1080 1102 m 189 X s
 gr  gr showpage
end
%%EOF
