%!PS-Adobe-2.0 EPSF-2.0
%%BoundingBox:  0 0 567 384
%%Title: /home/rohin/Analysis/dataAna/2014/July/electron_vars/EtCone20Iso.eps: c1_n8
%%Creator: ROOT Version 5.34/14
%%CreationDate: Tue Sep  9 00:34:25 2014
%%EndComments
%%BeginProlog
80 dict begin
/s {stroke} def /l {lineto} def /m {moveto} def /t {translate} def
/r {rotate} def /rl {roll}  def /R {repeat} def
/d {rlineto} def /rm {rmoveto} def /gr {grestore} def /f {eofill} def
/c {setrgbcolor} def /black {0 setgray} def /sd {setdash} def
/cl {closepath} def /sf {scalefont setfont} def /lw {setlinewidth} def
/box {m dup 0 exch d exch 0 d 0 exch neg d cl} def
/NC{systemdict begin initclip end}def/C{NC box clip newpath}def
/bl {box s} def /bf {box f} def /Y { 0 exch d} def /X { 0 d} def 
/K {{pop pop 0 moveto} exch kshow} bind def
/ita {/ang 15 def gsave [1 0 ang dup sin exch cos div 1 0 0] concat} def 
/mp {newpath /y exch def /x exch def} def
/side {[w .77 mul w .23 mul] .385 w mul sd w 0 l currentpoint t -144 r} def
/mr {mp x y w2 0 360 arc} def /m24 {mr s} def /m20 {mr f} def
/mb {mp x y w2 add m w2 neg 0 d 0 w neg d w 0 d 0 w d cl} def
/mt {mp x y w2 add m w2 neg w neg d w 0 d cl} def
/m21 {mb f} def /m25 {mb s} def /m22 {mt f} def /m26{mt s} def
/m23 {mp x y w2 sub m w2 w d w neg 0 d cl f} def
/m27 {mp x y w2 add m w3 neg w2 neg d w3 w2 neg d w3 w2 d cl s} def
/m28 {mp x w2 sub y w2 sub w3 add m w3 0 d  0 w3 neg d w3 0 d 0 w3 d w3 0 d  0 w3 d w3 neg 0 d 0 w3 d w3 neg 0 d 0 w3 neg d w3 neg 0 d cl s } def
/m29 {mp gsave x w2 sub y w2 add w3 sub m currentpoint t 4 {side} repeat cl fill gr} def
/m30 {mp gsave x w2 sub y w2 add w3 sub m currentpoint t 4 {side} repeat cl s gr} def
/m31 {mp x y w2 sub m 0 w d x w2 sub y m w 0 d x w2 sub y w2 add m w w neg d x w2 sub y w2 sub m w w d s} def
/m32 {mp x y w2 sub m w2 w d w neg 0 d cl s} def
/m33 {mp x y w2 add m w3 neg w2 neg d w3 w2 neg d w3 w2 d cl f} def
/m34 {mp x w2 sub y w2 sub w3 add m w3 0 d  0 w3 neg d w3 0 d 0 w3 d w3 0 d  0 w3 d w3 neg 0 d 0 w3 d w3 neg 0 d 0 w3 neg d w3 neg 0 d cl f } def
/m2 {mp x y w2 sub m 0 w d x w2 sub y m w 0 d s} def
/m5 {mp x w2 sub y w2 sub m w w d x w2 sub y w2 add m w w neg d s} def
/reEncode {exch findfont dup length dict begin {1 index /FID eq  {pop pop} {def} ifelse } forall /Encoding exch def currentdict end dup /FontName get exch definefont pop } def [/Times-Bold /Times-Italic /Times-BoldItalic /Helvetica /Helvetica-Oblique
 /Helvetica-Bold /Helvetica-BoldOblique /Courier /Courier-Oblique /Courier-Bold /Courier-BoldOblique /Times-Roman /AvantGarde-Book /AvantGarde-BookOblique /AvantGarde-Demi /AvantGarde-DemiOblique /Bookman-Demi /Bookman-DemiItalic /Bookman-Light
 /Bookman-LightItalic /Helvetica-Narrow /Helvetica-Narrow-Bold /Helvetica-Narrow-BoldOblique /Helvetica-Narrow-Oblique /NewCenturySchlbk-Roman /NewCenturySchlbk-Bold /NewCenturySchlbk-BoldItalic /NewCenturySchlbk-Italic /Palatino-Bold
 /Palatino-BoldItalic /Palatino-Italic /Palatino-Roman ] {ISOLatin1Encoding reEncode } forall
%%EndProlog
%%BeginSetup
%%EndSetup
newpath  gsave  .25 .25 scale  gsave  0 0 t black[  ] 0 sd 3 lw 1 1 1 c 2268 1538 0 0 bf black 1 1 1 c 1883 1251 316 215 bf black 1883 1251 316 215 bl 1 1 1 c 1883 1251 316 215 bf black 1883 1251 316 215 bl 0.6 0 0.2 c 6 lw 1 1 1 c black 0.6 0 0.2 c
 316 1069 m 19 X 46 Y 19 X 35 Y 19 X 16 Y 18 X 3 Y 19 X -6 Y 19 X -8 Y 19 X -12 Y 19 X -12 Y 19 X -14 Y 18 X -14 Y 19 X -15 Y 19 X -15 Y 19 X -14 Y 19 X -16 Y 19 X -13 Y 18 X -15 Y 19 X -14 Y 19 X -14 Y 19 X -14 Y 19 X -13 Y 19 X -13 Y 18 X -14 Y 19
 X -14 Y 19 X -13 Y 19 X -11 Y 19 X -13 Y 19 X -11 Y 18 X -12 Y 19 X -13 Y 19 X -13 Y 19 X -11 Y 19 X -9 Y 19 X -12 Y 18 X -9 Y 19 X -13 Y 19 X -12 Y 19 X -10 Y 19 X -11 Y 19 X -8 Y 18 X -10 Y 19 X -12 Y 19 X -9 Y 19 X -9 Y 19 X -14 Y 19 X -10 Y 18 X
 -1 Y 19 X -18 Y 19 X -6 Y 19 X -12 Y 19 X -5 Y 19 X -13 Y 18 X -12 Y 19 X -4 Y 19 X -11 Y 19 X -6 Y 19 X -9 Y 18 X -14 Y 38 X -13 Y 19 X -5 Y 19 X -12 Y 19 X -8 Y 37 X -11 Y 19 X -8 Y 19 X -4 Y 19 X -9 Y 19 X -5 Y 18 X -3 Y 19 X -20 Y 19 X -14 Y 19
 X 14 Y 19 X -19 Y 19 X -9 Y 18 X 17 Y 19 X -15 Y 19 X -2 Y 19 X -10 Y 19 X -14 Y 37 X -15 Y 19 X -4 Y 19 X -5 Y 19 X 11 Y 19 X -27 Y 19 X -20 Y 18 X 9 Y 19 X -43 Y 19 X 41 Y 19 X -5 Y 19 X -25 Y 19 X 1 Y 18 X 10 Y 19 X -46 Y 19 X 13 Y 19 X 11 Y 19 X
 -24 Y 56 X s black 3 lw 316 215 m 1883 X s
 gsave  2268 1538 0 0 C 1922.35 42.3568 t 0 r /Helvetica findfont 84.7135 sf 0 0 m (\(0.2\)/Et) show NC gr 
 gsave  2268 1538 0 0 C 1795.28 81.4553 t 0 r /Helvetica findfont 58.6478 sf 0 0 m (cone) show NC gr 
 gsave  2268 1538 0 0 C 1713.82 42.3568 t 0 r /Helvetica findfont 84.7135 sf 0 0 m (Et) show NC gr  316 253 m -38 Y s 354 234 m -19 Y s 391 234 m -19 Y s 429 234 m -19 Y s 467 234 m -19 Y s 504 253 m -38 Y s 542 234 m -19 Y s 580 234 m -19 Y s 617
 234 m -19 Y s 655 234 m -19 Y s 693 253 m -38 Y s 730 234 m -19 Y s 768 234 m -19 Y s 806 234 m -19 Y s 843 234 m -19 Y s 881 253 m -38 Y s 919 234 m -19 Y s 956 234 m -19 Y s 994 234 m -19 Y s 1032 234 m -19 Y s 1069 253 m -38 Y s 1107 234 m -19 Y
 s 1145 234 m -19 Y s 1182 234 m -19 Y s 1220 234 m -19 Y s 1258 253 m -38 Y s 1295 234 m -19 Y s 1333 234 m -19 Y s 1371 234 m -19 Y s 1408 234 m -19 Y s 1446 253 m -38 Y s 1484 234 m -19 Y s 1521 234 m -19 Y s 1559 234 m -19 Y s 1597 234 m -19 Y s
 1634 253 m -38 Y s 1672 234 m -19 Y s 1710 234 m -19 Y s 1747 234 m -19 Y s 1785 234 m -19 Y s 1823 253 m -38 Y s 1860 234 m -19 Y s 1898 234 m -19 Y s 1936 234 m -19 Y s 1973 234 m -19 Y s 2011 253 m -38 Y s 2049 234 m -19 Y s 2086 234 m -19 Y s
 2124 234 m -19 Y s 2162 234 m -19 Y s 2199 253 m -38 Y s
 gsave  2268 1538 0 0 C 293.239 133.587 t 0 r /Helvetica findfont 84.7135 sf 0 0 m (0) show NC gr 
 gsave  2268 1538 0 0 C 485.474 133.587 t 0 r /Helvetica findfont 84.7135 sf 0 0 m (1) show NC gr 
 gsave  2268 1538 0 0 C 667.934 133.587 t 0 r /Helvetica findfont 84.7135 sf 0 0 m (2) show NC gr 
 gsave  2268 1538 0 0 C 856.91 133.587 t 0 r /Helvetica findfont 84.7135 sf 0 0 m (3) show NC gr 
 gsave  2268 1538 0 0 C 1045.89 133.587 t 0 r /Helvetica findfont 84.7135 sf 0 0 m (4) show NC gr 
 gsave  2268 1538 0 0 C 1234.86 133.587 t 0 r /Helvetica findfont 84.7135 sf 0 0 m (5) show NC gr 
 gsave  2268 1538 0 0 C 1420.58 133.587 t 0 r /Helvetica findfont 84.7135 sf 0 0 m (6) show NC gr 
 gsave  2268 1538 0 0 C 1609.56 133.587 t 0 r /Helvetica findfont 84.7135 sf 0 0 m (7) show NC gr 
 gsave  2268 1538 0 0 C 1798.53 133.587 t 0 r /Helvetica findfont 84.7135 sf 0 0 m (8) show NC gr 
 gsave  2268 1538 0 0 C 1987.51 133.587 t 0 r /Helvetica findfont 84.7135 sf 0 0 m (9) show NC gr 
 gsave  2268 1538 0 0 C 2153.68 133.587 t 0 r /Helvetica findfont 84.7135 sf 0 0 m (10) show NC gr  316 1466 m 1883 X s 316 1428 m 38 Y s 354 1447 m 19 Y s 391 1447 m 19 Y s 429 1447 m 19 Y s 467 1447 m 19 Y s 504 1428 m 38 Y s 542 1447 m 19 Y s 580
 1447 m 19 Y s 617 1447 m 19 Y s 655 1447 m 19 Y s 693 1428 m 38 Y s 730 1447 m 19 Y s 768 1447 m 19 Y s 806 1447 m 19 Y s 843 1447 m 19 Y s 881 1428 m 38 Y s 919 1447 m 19 Y s 956 1447 m 19 Y s 994 1447 m 19 Y s 1032 1447 m 19 Y s 1069 1428 m 38 Y s
 1107 1447 m 19 Y s 1145 1447 m 19 Y s 1182 1447 m 19 Y s 1220 1447 m 19 Y s 1258 1428 m 38 Y s 1295 1447 m 19 Y s 1333 1447 m 19 Y s 1371 1447 m 19 Y s 1408 1447 m 19 Y s 1446 1428 m 38 Y s 1484 1447 m 19 Y s 1521 1447 m 19 Y s 1559 1447 m 19 Y s
 1597 1447 m 19 Y s 1634 1428 m 38 Y s 1672 1447 m 19 Y s 1710 1447 m 19 Y s 1747 1447 m 19 Y s 1785 1447 m 19 Y s 1823 1428 m 38 Y s 1860 1447 m 19 Y s 1898 1447 m 19 Y s 1936 1447 m 19 Y s 1973 1447 m 19 Y s 2011 1428 m 38 Y s 2049 1447 m 19 Y s
 2086 1447 m 19 Y s 2124 1447 m 19 Y s 2162 1447 m 19 Y s 2199 1428 m 38 Y s 316 215 m 1251 Y s 344 260 m -28 X s 344 293 m -28 X s 344 319 m -28 X s 344 340 m -28 X s 344 358 m -28 X s 344 373 m -28 X s 344 387 m -28 X s 371 399 m -55 X s
 gsave  2268 1538 0 0 C 241.108 397.502 t 0 r /Helvetica findfont 58.6478 sf 0 0 m (\2554) show NC gr 
 gsave  2268 1538 0 0 C 149.878 361.662 t 0 r /Helvetica findfont 84.7135 sf 0 0 m (10) show NC gr  344 479 m -28 X s 344 526 m -28 X s 344 560 m -28 X s 344 585 m -28 X s 344 607 m -28 X s 344 624 m -28 X s 344 640 m -28 X s 344 654 m -28 X s 371
 666 m -55 X s
 gsave  2268 1538 0 0 C 241.108 667.934 t 0 r /Helvetica findfont 58.6478 sf 0 0 m (\2553) show NC gr 
 gsave  2268 1538 0 0 C 149.878 628.835 t 0 r /Helvetica findfont 84.7135 sf 0 0 m (10) show NC gr  344 746 m -28 X s 344 793 m -28 X s 344 826 m -28 X s 344 852 m -28 X s 344 873 m -28 X s 344 891 m -28 X s 344 907 m -28 X s 344 920 m -28 X s 371
 933 m -55 X s
 gsave  2268 1538 0 0 C 241.108 931.849 t 0 r /Helvetica findfont 58.6478 sf 0 0 m (\2552) show NC gr 
 gsave  2268 1538 0 0 C 149.878 896.009 t 0 r /Helvetica findfont 84.7135 sf 0 0 m (10) show NC gr  344 1013 m -28 X s 344 1060 m -28 X s 344 1093 m -28 X s 344 1119 m -28 X s 344 1140 m -28 X s 344 1158 m -28 X s 344 1174 m -28 X s 344 1187 m -28 X
 s 371 1199 m -55 X s
 gsave  2268 1538 0 0 C 250.882 1199.02 t 0 r /Helvetica findfont 58.6478 sf 0 0 m (\2551) show NC gr 
 gsave  2268 1538 0 0 C 159.652 1163.18 t 0 r /Helvetica findfont 84.7135 sf 0 0 m (10) show NC gr  344 1280 m -28 X s 344 1327 m -28 X s 344 1360 m -28 X s 344 1386 m -28 X s 344 1407 m -28 X s 344 1425 m -28 X s 344 1440 m -28 X s 344 1454 m -28 X
 s 371 1466 m -55 X s
 gsave  2268 1538 0 0 C 293.823 1429.7 t 0 r  -47 0 t /Helvetica findfont 84.7135 sf 0 0 m (1) show NC gr  2199 215 m 1251 Y s 2172 260 m 27 X s 2172 293 m 27 X s 2172 319 m 27 X s 2172 340 m 27 X s 2172 358 m 27 X s 2172 373 m 27 X s 2172 387 m 27 X
 s 2144 399 m 55 X s 2172 479 m 27 X s 2172 526 m 27 X s 2172 560 m 27 X s 2172 585 m 27 X s 2172 607 m 27 X s 2172 624 m 27 X s 2172 640 m 27 X s 2172 654 m 27 X s 2144 666 m 55 X s 2172 746 m 27 X s 2172 793 m 27 X s 2172 826 m 27 X s 2172 852 m 27
 X s 2172 873 m 27 X s 2172 891 m 27 X s 2172 907 m 27 X s 2172 920 m 27 X s 2144 933 m 55 X s 2172 1013 m 27 X s 2172 1060 m 27 X s 2172 1093 m 27 X s 2172 1119 m 27 X s 2172 1140 m 27 X s 2172 1158 m 27 X s 2172 1174 m 27 X s 2172 1187 m 27 X s
 2144 1199 m 55 X s 2172 1280 m 27 X s 2172 1327 m 27 X s 2172 1360 m 27 X s 2172 1386 m 27 X s 2172 1407 m 27 X s 2172 1425 m 27 X s 2172 1440 m 27 X s 2172 1454 m 27 X s 2144 1466 m 55 X s 0 0 0.6 c[  12 12 ] 0 sd 6 lw 1 1 1 c black 0 0 0.6 c 316
 1209 m 19 X 18 Y 19 X -6 Y 19 X -18 Y 18 X -21 Y 19 X -23 Y 19 X -21 Y 19 X -24 Y 19 X -22 Y 19 X -21 Y 18 X -21 Y 19 X -20 Y 19 X -19 Y 19 X -20 Y 19 X -17 Y 19 X -19 Y 18 X -17 Y 19 X -16 Y 19 X -16 Y 19 X -15 Y 19 X -15 Y 19 X -17 Y 18 X -12 Y 19
 X -17 Y 19 X -13 Y 19 X -16 Y 19 X -9 Y 19 X -14 Y 18 X -17 Y 19 X -13 Y 19 X -10 Y 19 X -10 Y 19 X -21 Y 19 X -7 Y 18 X -9 Y 19 X -13 Y 19 X -16 Y 19 X -10 Y 19 X -9 Y 19 X -17 Y 18 X -2 Y 19 X -12 Y 19 X -10 Y 19 X -9 Y 19 X -16 Y 19 X -8 Y 18 X
 -11 Y 19 X -13 Y 19 X -8 Y 19 X -4 Y 19 X -18 Y 19 X -1 Y 18 X -11 Y 19 X -18 Y 19 X -2 Y 19 X -6 Y 19 X -13 Y 18 X -19 Y 19 X 10 Y 19 X -8 Y 19 X -9 Y 19 X -19 Y 19 X -22 Y 18 X 9 Y 19 X -23 Y 19 X 16 Y 19 X -31 Y 19 X 18 Y 19 X -7 Y 18 X -46 Y 19
 X 7 Y 19 X -17 Y 19 X -16 Y 19 X 4 Y 19 X 17 Y 18 X -39 Y 19 X 20 Y 19 X -11 Y 19 X -17 Y 19 X -14 Y 19 X 31 Y 18 X -50 Y 19 X 13 Y 19 X -3 Y 19 X -43 Y 38 X 14 Y 18 X -14 Y 19 X 25 Y 19 X -25 Y 207 X s 0 0.4 0.6 c[ 4 8] 0 sd 1 1 1 c black 0 0.4 0.6
 c 316 1319 m 19 X -127 Y 19 X -34 Y 19 X -8 Y 18 X -7 Y 19 X -12 Y 19 X -16 Y 19 X -17 Y 19 X -16 Y 19 X -19 Y 18 X -18 Y 19 X -20 Y 19 X -18 Y 19 X -18 Y 19 X -15 Y 19 X -17 Y 18 X -19 Y 19 X -8 Y 19 X -16 Y 19 X -15 Y 19 X -12 Y 19 X -18 Y 18 X
 -13 Y 19 X -10 Y 19 X -13 Y 19 X -8 Y 19 X -22 Y 19 X -16 Y 18 X -6 Y 19 X -8 Y 19 X -16 Y 19 X -4 Y 19 X -25 Y 19 X -7 Y 18 X -8 Y 19 X -14 Y 19 X -3 Y 19 X -4 Y 19 X -14 Y 19 X -5 Y 18 X -18 Y 19 X -4 Y 19 X -30 Y 19 X 8 Y 19 X -23 Y 19 X 1 Y 18 X
 -9 Y 19 X -11 Y 19 X -3 Y 19 X -9 Y 19 X -12 Y 19 X 8 Y 18 X -18 Y 19 X -21 Y 19 X -10 Y 19 X 14 Y 19 X -24 Y 18 X 2 Y 19 X -17 Y 19 X 2 Y 19 X 5 Y 19 X -20 Y 19 X -27 Y 37 X 26 Y 19 X -49 Y 19 X 15 Y 19 X -6 Y 19 X 11 Y 18 X -23 Y 19 X -4 Y 19 X 16
 Y 19 X -51 Y 19 X 5 Y 19 X -38 Y 18 X 42 Y 38 X -12 Y 19 X -75 Y 19 X 61 Y 37 X -23 Y 19 X 7 Y 19 X -36 Y 19 X -51 Y 19 X 42 Y 19 X 45 Y 18 X -56 Y 19 X -24 Y 19 X 62 Y 19 X -32 Y 19 X 5 Y 19 X -22 Y 18 X -20 Y 19 X -16 Y 19 X -18 Y 19 X 41 Y 19 X
 -31 Y 19 X 24 Y 18 X 7 Y 19 X s black[  ] 0 sd 1 1 1 c black 316 1454 m 19 X -304 Y 19 X -163 Y 19 X -107 Y 18 X -75 Y 19 X -59 Y 19 X -53 Y 19 X -38 Y 19 X -31 Y 19 X -16 Y 18 X -36 Y 19 X -30 Y 19 X -15 Y 19 X -33 Y 19 X -16 Y 19 X -19 Y 18 X -17
 Y 19 X -29 Y 38 X -11 Y 19 X -19 Y 19 X -11 Y 18 X -19 Y 19 X -21 Y 19 X 6 Y 19 X -16 Y 19 X -28 Y 37 X -47 Y 19 X 20 Y 19 X -7 Y 19 X -24 Y 19 X -4 Y 19 X 7 Y 18 X -24 Y 1243 X s
 gsave  2268 1538 0 0 C 1352.16 1267.44 t 0 r /Helvetica-Bold findfont 55.3896 sf 0 0 m (Conversion electrons) show NC gr  0 0.4 0.6 c[ 4 8] 0 sd 1128 1285 m 186 X s black
 gsave  2268 1538 0 0 C 1352.16 1176.21 t 0 r /Helvetica-Bold findfont 55.3896 sf 0 0 m (Isolated electrons ) show NC gr [  ] 0 sd 1128 1195 m 186 X s
 gsave  2268 1538 0 0 C 1352.16 1088.24 t 0 r /Helvetica-Bold findfont 55.3896 sf 0 0 m (Non\255Isolated electrons) show NC gr  0 0 0.6 c[  12 12 ] 0 sd 1128 1105 m 186 X s black
 gsave  2268 1538 0 0 C 1352.16 997.013 t 0 r /Helvetica-Bold findfont 55.3896 sf 0 0 m (Hadrons) show NC gr  0.6 0 0.2 c[  ] 0 sd 1128 1016 m 186 X s
 gr  gr showpage
end
%%EOF
