%!PS-Adobe-2.0 EPSF-2.0
%%BoundingBox:  0 0 567 384
%%Title: /home/rohin/Analysis/dataAna/2014/July/electron_vars/EtCone30Iso.eps: c1_n9
%%Creator: ROOT Version 5.34/14
%%CreationDate: Tue Sep  9 00:33:54 2014
%%EndComments
%%BeginProlog
80 dict begin
/s {stroke} def /l {lineto} def /m {moveto} def /t {translate} def
/r {rotate} def /rl {roll}  def /R {repeat} def
/d {rlineto} def /rm {rmoveto} def /gr {grestore} def /f {eofill} def
/c {setrgbcolor} def /black {0 setgray} def /sd {setdash} def
/cl {closepath} def /sf {scalefont setfont} def /lw {setlinewidth} def
/box {m dup 0 exch d exch 0 d 0 exch neg d cl} def
/NC{systemdict begin initclip end}def/C{NC box clip newpath}def
/bl {box s} def /bf {box f} def /Y { 0 exch d} def /X { 0 d} def 
/K {{pop pop 0 moveto} exch kshow} bind def
/ita {/ang 15 def gsave [1 0 ang dup sin exch cos div 1 0 0] concat} def 
/mp {newpath /y exch def /x exch def} def
/side {[w .77 mul w .23 mul] .385 w mul sd w 0 l currentpoint t -144 r} def
/mr {mp x y w2 0 360 arc} def /m24 {mr s} def /m20 {mr f} def
/mb {mp x y w2 add m w2 neg 0 d 0 w neg d w 0 d 0 w d cl} def
/mt {mp x y w2 add m w2 neg w neg d w 0 d cl} def
/m21 {mb f} def /m25 {mb s} def /m22 {mt f} def /m26{mt s} def
/m23 {mp x y w2 sub m w2 w d w neg 0 d cl f} def
/m27 {mp x y w2 add m w3 neg w2 neg d w3 w2 neg d w3 w2 d cl s} def
/m28 {mp x w2 sub y w2 sub w3 add m w3 0 d  0 w3 neg d w3 0 d 0 w3 d w3 0 d  0 w3 d w3 neg 0 d 0 w3 d w3 neg 0 d 0 w3 neg d w3 neg 0 d cl s } def
/m29 {mp gsave x w2 sub y w2 add w3 sub m currentpoint t 4 {side} repeat cl fill gr} def
/m30 {mp gsave x w2 sub y w2 add w3 sub m currentpoint t 4 {side} repeat cl s gr} def
/m31 {mp x y w2 sub m 0 w d x w2 sub y m w 0 d x w2 sub y w2 add m w w neg d x w2 sub y w2 sub m w w d s} def
/m32 {mp x y w2 sub m w2 w d w neg 0 d cl s} def
/m33 {mp x y w2 add m w3 neg w2 neg d w3 w2 neg d w3 w2 d cl f} def
/m34 {mp x w2 sub y w2 sub w3 add m w3 0 d  0 w3 neg d w3 0 d 0 w3 d w3 0 d  0 w3 d w3 neg 0 d 0 w3 d w3 neg 0 d 0 w3 neg d w3 neg 0 d cl f } def
/m2 {mp x y w2 sub m 0 w d x w2 sub y m w 0 d s} def
/m5 {mp x w2 sub y w2 sub m w w d x w2 sub y w2 add m w w neg d s} def
/reEncode {exch findfont dup length dict begin {1 index /FID eq  {pop pop} {def} ifelse } forall /Encoding exch def currentdict end dup /FontName get exch definefont pop } def [/Times-Bold /Times-Italic /Times-BoldItalic /Helvetica /Helvetica-Oblique
 /Helvetica-Bold /Helvetica-BoldOblique /Courier /Courier-Oblique /Courier-Bold /Courier-BoldOblique /Times-Roman /AvantGarde-Book /AvantGarde-BookOblique /AvantGarde-Demi /AvantGarde-DemiOblique /Bookman-Demi /Bookman-DemiItalic /Bookman-Light
 /Bookman-LightItalic /Helvetica-Narrow /Helvetica-Narrow-Bold /Helvetica-Narrow-BoldOblique /Helvetica-Narrow-Oblique /NewCenturySchlbk-Roman /NewCenturySchlbk-Bold /NewCenturySchlbk-BoldItalic /NewCenturySchlbk-Italic /Palatino-Bold
 /Palatino-BoldItalic /Palatino-Italic /Palatino-Roman ] {ISOLatin1Encoding reEncode } forall
%%EndProlog
%%BeginSetup
%%EndSetup
newpath  gsave  .25 .25 scale  gsave  0 0 t black[  ] 0 sd 3 lw 1 1 1 c 2268 1538 0 0 bf black 1 1 1 c 1883 1291 316 218 bf black 1883 1291 316 218 bl 1 1 1 c 1883 1291 316 218 bf black 1883 1291 316 218 bl 0.6 0 0.2 c 6 lw 1 1 1 c black 0.6 0 0.2 c
 316 987 m 19 X 51 Y 19 X 50 Y 19 X 29 Y 18 X 14 Y 19 X 3 Y 19 X -2 Y 19 X -5 Y 19 X -8 Y 19 X -9 Y 18 X -10 Y 19 X -11 Y 19 X -10 Y 19 X -14 Y 19 X -12 Y 19 X -12 Y 18 X -11 Y 19 X -13 Y 19 X -11 Y 19 X -13 Y 19 X -12 Y 19 X -13 Y 18 X -13 Y 19 X
 -11 Y 19 X -11 Y 19 X -14 Y 19 X -11 Y 19 X -14 Y 18 X -10 Y 19 X -13 Y 19 X -10 Y 19 X -13 Y 19 X -9 Y 19 X -11 Y 18 X -13 Y 19 X -9 Y 19 X -15 Y 19 X -10 Y 19 X -9 Y 19 X -11 Y 18 X -9 Y 19 X -10 Y 19 X -11 Y 19 X -9 Y 19 X -11 Y 19 X -10 Y 18 X
 -11 Y 19 X -8 Y 19 X -8 Y 19 X -8 Y 19 X -13 Y 19 X -8 Y 18 X -8 Y 19 X -7 Y 19 X -11 Y 19 X -12 Y 19 X -10 Y 18 X -3 Y 19 X -16 Y 19 X -3 Y 19 X -2 Y 19 X -11 Y 19 X -10 Y 18 X -10 Y 19 X -9 Y 19 X -3 Y 19 X -15 Y 19 X -3 Y 19 X 1 Y 18 X -15 Y 19 X
 -12 Y 19 X 13 Y 19 X -28 Y 19 X 7 Y 19 X -14 Y 18 X -3 Y 19 X -12 Y 19 X -4 Y 19 X -6 Y 19 X -16 Y 19 X -6 Y 18 X -10 Y 19 X 14 Y 19 X -19 Y 38 X -19 Y 19 X 6 Y 18 X -1 Y 19 X -2 Y 19 X -24 Y 19 X 6 Y 19 X -1 Y 19 X -30 Y 18 X 15 Y 38 X -42 Y 19 X
 25 Y 19 X -12 Y 19 X -9 Y 18 X 1 Y 19 X s black 3 lw 316 218 m 1883 X s
 gsave  2268 1538 0 0 C 2183 13.0329 t 0 r /Helvetica findfont 58.6478 sf 0 0 m (t) show NC gr 
 gsave  2268 1538 0 0 C 1932.12 58.6478 t 0 r /Helvetica findfont 84.7135 sf 0 0 m (\(0.3\)/E) show NC gr 
 gsave  2268 1538 0 0 C 1805.05 97.7464 t 0 r /Helvetica findfont 58.6478 sf 0 0 m (cone) show NC gr 
 gsave  2268 1538 0 0 C 1805.05 32.5821 t 0 r /Helvetica findfont 58.6478 sf 0 0 m (t) show NC gr 
 gsave  2268 1538 0 0 C 1749.66 58.6478 t 0 r /Helvetica findfont 84.7135 sf 0 0 m (E) show NC gr  316 257 m -39 Y s 354 237 m -19 Y s 391 237 m -19 Y s 429 237 m -19 Y s 467 237 m -19 Y s 504 257 m -39 Y s 542 237 m -19 Y s 580 237 m -19 Y s 617 237
 m -19 Y s 655 237 m -19 Y s 693 257 m -39 Y s 730 237 m -19 Y s 768 237 m -19 Y s 806 237 m -19 Y s 843 237 m -19 Y s 881 257 m -39 Y s 919 237 m -19 Y s 956 237 m -19 Y s 994 237 m -19 Y s 1032 237 m -19 Y s 1069 257 m -39 Y s 1107 237 m -19 Y s
 1145 237 m -19 Y s 1182 237 m -19 Y s 1220 237 m -19 Y s 1258 257 m -39 Y s 1295 237 m -19 Y s 1333 237 m -19 Y s 1371 237 m -19 Y s 1408 237 m -19 Y s 1446 257 m -39 Y s 1484 237 m -19 Y s 1521 237 m -19 Y s 1559 237 m -19 Y s 1597 237 m -19 Y s
 1634 257 m -39 Y s 1672 237 m -19 Y s 1710 237 m -19 Y s 1747 237 m -19 Y s 1785 237 m -19 Y s 1823 257 m -39 Y s 1860 237 m -19 Y s 1898 237 m -19 Y s 1936 237 m -19 Y s 1973 237 m -19 Y s 2011 257 m -39 Y s 2049 237 m -19 Y s 2086 237 m -19 Y s
 2124 237 m -19 Y s 2162 237 m -19 Y s 2199 257 m -39 Y s
 gsave  2268 1538 0 0 C 293.239 136.845 t 0 r /Helvetica findfont 84.7135 sf 0 0 m (0) show NC gr 
 gsave  2268 1538 0 0 C 485.474 136.845 t 0 r /Helvetica findfont 84.7135 sf 0 0 m (1) show NC gr 
 gsave  2268 1538 0 0 C 667.934 136.845 t 0 r /Helvetica findfont 84.7135 sf 0 0 m (2) show NC gr 
 gsave  2268 1538 0 0 C 856.91 136.845 t 0 r /Helvetica findfont 84.7135 sf 0 0 m (3) show NC gr 
 gsave  2268 1538 0 0 C 1045.89 136.845 t 0 r /Helvetica findfont 84.7135 sf 0 0 m (4) show NC gr 
 gsave  2268 1538 0 0 C 1234.86 136.845 t 0 r /Helvetica findfont 84.7135 sf 0 0 m (5) show NC gr 
 gsave  2268 1538 0 0 C 1420.58 136.845 t 0 r /Helvetica findfont 84.7135 sf 0 0 m (6) show NC gr 
 gsave  2268 1538 0 0 C 1609.56 136.845 t 0 r /Helvetica findfont 84.7135 sf 0 0 m (7) show NC gr 
 gsave  2268 1538 0 0 C 1798.53 136.845 t 0 r /Helvetica findfont 84.7135 sf 0 0 m (8) show NC gr 
 gsave  2268 1538 0 0 C 1987.51 136.845 t 0 r /Helvetica findfont 84.7135 sf 0 0 m (9) show NC gr 
 gsave  2268 1538 0 0 C 2153.68 136.845 t 0 r /Helvetica findfont 84.7135 sf 0 0 m (10) show NC gr  316 1509 m 1883 X s 316 1470 m 39 Y s 354 1489 m 20 Y s 391 1489 m 20 Y s 429 1489 m 20 Y s 467 1489 m 20 Y s 504 1470 m 39 Y s 542 1489 m 20 Y s 580
 1489 m 20 Y s 617 1489 m 20 Y s 655 1489 m 20 Y s 693 1470 m 39 Y s 730 1489 m 20 Y s 768 1489 m 20 Y s 806 1489 m 20 Y s 843 1489 m 20 Y s 881 1470 m 39 Y s 919 1489 m 20 Y s 956 1489 m 20 Y s 994 1489 m 20 Y s 1032 1489 m 20 Y s 1069 1470 m 39 Y s
 1107 1489 m 20 Y s 1145 1489 m 20 Y s 1182 1489 m 20 Y s 1220 1489 m 20 Y s 1258 1470 m 39 Y s 1295 1489 m 20 Y s 1333 1489 m 20 Y s 1371 1489 m 20 Y s 1408 1489 m 20 Y s 1446 1470 m 39 Y s 1484 1489 m 20 Y s 1521 1489 m 20 Y s 1559 1489 m 20 Y s
 1597 1489 m 20 Y s 1634 1470 m 39 Y s 1672 1489 m 20 Y s 1710 1489 m 20 Y s 1747 1489 m 20 Y s 1785 1489 m 20 Y s 1823 1470 m 39 Y s 1860 1489 m 20 Y s 1898 1489 m 20 Y s 1936 1489 m 20 Y s 1973 1489 m 20 Y s 2011 1470 m 39 Y s 2049 1489 m 20 Y s
 2086 1489 m 20 Y s 2124 1489 m 20 Y s 2162 1489 m 20 Y s 2199 1470 m 39 Y s 316 218 m 1291 Y s 345 229 m -29 X s 345 249 m -29 X s 345 267 m -29 X s 345 282 m -29 X s 373 296 m -57 X s
 gsave  2268 1538 0 0 C 241.108 293.239 t 0 r /Helvetica findfont 58.6478 sf 0 0 m (\2554) show NC gr 
 gsave  2268 1538 0 0 C 149.878 257.399 t 0 r /Helvetica findfont 84.7135 sf 0 0 m (10) show NC gr  345 387 m -29 X s 345 441 m -29 X s 345 479 m -29 X s 345 508 m -29 X s 345 532 m -29 X s 345 552 m -29 X s 345 570 m -29 X s 345 585 m -29 X s 373
 599 m -57 X s
 gsave  2268 1538 0 0 C 241.108 599.511 t 0 r /Helvetica findfont 58.6478 sf 0 0 m (\2553) show NC gr 
 gsave  2268 1538 0 0 C 149.878 560.413 t 0 r /Helvetica findfont 84.7135 sf 0 0 m (10) show NC gr  345 691 m -29 X s 345 744 m -29 X s 345 782 m -29 X s 345 811 m -29 X s 345 835 m -29 X s 345 855 m -29 X s 345 873 m -29 X s 345 889 m -29 X s 373
 902 m -57 X s
 gsave  2268 1538 0 0 C 241.108 899.267 t 0 r /Helvetica findfont 58.6478 sf 0 0 m (\2552) show NC gr 
 gsave  2268 1538 0 0 C 149.878 863.427 t 0 r /Helvetica findfont 84.7135 sf 0 0 m (10) show NC gr  345 994 m -29 X s 345 1047 m -29 X s 345 1085 m -29 X s 345 1114 m -29 X s 345 1138 m -29 X s 345 1159 m -29 X s 345 1176 m -29 X s 345 1192 m -29 X s
 373 1205 m -57 X s
 gsave  2268 1538 0 0 C 250.882 1202.28 t 0 r /Helvetica findfont 58.6478 sf 0 0 m (\2551) show NC gr 
 gsave  2268 1538 0 0 C 159.652 1166.44 t 0 r /Helvetica findfont 84.7135 sf 0 0 m (10) show NC gr  345 1297 m -29 X s 345 1350 m -29 X s 345 1388 m -29 X s 345 1417 m -29 X s 345 1441 m -29 X s 345 1462 m -29 X s 345 1479 m -29 X s 345 1495 m -29 X
 s 373 1509 m -57 X s
 gsave  2268 1538 0 0 C 293.823 1472.06 t 0 r  -47 0 t /Helvetica findfont 84.7135 sf 0 0 m (1) show NC gr  2199 218 m 1291 Y s 2171 229 m 28 X s 2171 249 m 28 X s 2171 267 m 28 X s 2171 282 m 28 X s 2142 296 m 57 X s 2171 387 m 28 X s 2171 441 m 28
 X s 2171 479 m 28 X s 2171 508 m 28 X s 2171 532 m 28 X s 2171 552 m 28 X s 2171 570 m 28 X s 2171 585 m 28 X s 2142 599 m 57 X s 2171 691 m 28 X s 2171 744 m 28 X s 2171 782 m 28 X s 2171 811 m 28 X s 2171 835 m 28 X s 2171 855 m 28 X s 2171 873 m
 28 X s 2171 889 m 28 X s 2142 902 m 57 X s 2171 994 m 28 X s 2171 1047 m 28 X s 2171 1085 m 28 X s 2171 1114 m 28 X s 2171 1138 m 28 X s 2171 1159 m 28 X s 2171 1176 m 28 X s 2171 1192 m 28 X s 2142 1205 m 57 X s 2171 1297 m 28 X s 2171 1350 m 28 X
 s 2171 1388 m 28 X s 2171 1417 m 28 X s 2171 1441 m 28 X s 2171 1462 m 28 X s 2171 1479 m 28 X s 2171 1495 m 28 X s 2142 1509 m 57 X s 0 0 0.6 c[  12 12 ] 0 sd 6 lw 1 1 1 c black 0 0 0.6 c 316 1129 m 19 X 40 Y 19 X 17 Y 19 X -1 Y 18 X -10 Y 19 X -15
 Y 19 X -16 Y 19 X -17 Y 19 X -17 Y 19 X -19 Y 18 X -18 Y 19 X -17 Y 19 X -16 Y 19 X -17 Y 19 X -18 Y 19 X -14 Y 18 X -16 Y 19 X -16 Y 19 X -15 Y 19 X -17 Y 19 X -16 Y 19 X -14 Y 18 X -14 Y 19 X -13 Y 19 X -16 Y 19 X -13 Y 19 X -16 Y 19 X -9 Y 18 X
 -18 Y 19 X -7 Y 19 X -14 Y 19 X -16 Y 19 X -15 Y 19 X -4 Y 18 X -18 Y 19 X -10 Y 19 X -12 Y 19 X -11 Y 19 X -18 Y 19 X -3 Y 18 X -15 Y 19 X -9 Y 19 X -16 Y 19 X -4 Y 19 X -10 Y 19 X -18 Y 18 X -6 Y 19 X -9 Y 19 X -9 Y 19 X -6 Y 19 X -19 Y 19 X -16 Y
 18 X -6 Y 19 X -11 Y 19 X -11 Y 19 X -6 Y 19 X -7 Y 18 X -13 Y 19 X -12 Y 19 X -5 Y 19 X -9 Y 19 X -9 Y 19 X -12 Y 18 X -6 Y 19 X -9 Y 19 X -26 Y 19 X 18 Y 19 X -25 Y 19 X 4 Y 18 X -24 Y 19 X -5 Y 19 X 17 Y 19 X -14 Y 19 X -10 Y 19 X -25 Y 18 X -11
 Y 19 X 6 Y 19 X -23 Y 19 X -18 Y 19 X 13 Y 19 X -3 Y 18 X -22 Y 19 X 3 Y 19 X -12 Y 19 X -14 Y 19 X -17 Y 19 X 23 Y 18 X -13 Y 19 X -21 Y 19 X 7 Y 19 X 9 Y 19 X -16 Y 169 X s 0 0.4 0.6 c[ 4 8] 0 sd 1 1 1 c black 0 0.4 0.6 c 316 1295 m 19 X -123 Y 19
 X -45 Y 19 X -5 Y 18 X 1 Y 19 X -9 Y 19 X -7 Y 19 X -10 Y 19 X -11 Y 19 X -14 Y 18 X -13 Y 19 X -16 Y 19 X -13 Y 19 X -17 Y 19 X -16 Y 19 X -13 Y 18 X -14 Y 19 X -15 Y 19 X -11 Y 19 X -14 Y 19 X -10 Y 19 X -22 Y 18 X -10 Y 19 X -12 Y 19 X -10 Y 19 X
 -12 Y 19 X -11 Y 19 X -13 Y 18 X -9 Y 19 X -19 Y 19 X -14 Y 38 X -20 Y 19 X -9 Y 18 X -10 Y 19 X -9 Y 19 X -8 Y 19 X -25 Y 19 X -6 Y 37 X -15 Y 19 X -15 Y 19 X -3 Y 19 X -13 Y 19 X -9 Y 19 X -10 Y 18 X -2 Y 19 X -11 Y 19 X -15 Y 19 X -11 Y 19 X 4 Y
 19 X -16 Y 18 X -3 Y 19 X -11 Y 19 X -11 Y 19 X -19 Y 19 X 1 Y 18 X 9 Y 19 X -24 Y 19 X -12 Y 19 X 9 Y 19 X -27 Y 19 X 9 Y 18 X -20 Y 19 X -12 Y 19 X -9 Y 19 X 6 Y 19 X -14 Y 19 X -7 Y 18 X -9 Y 19 X 3 Y 19 X -18 Y 19 X 6 Y 19 X -10 Y 37 X -2 Y 19 X
 7 Y 19 X -28 Y 19 X -29 Y 19 X 5 Y 19 X 16 Y 18 X -12 Y 19 X -9 Y 19 X -14 Y 19 X -7 Y 19 X -18 Y 19 X 11 Y 18 X -6 Y 19 X -16 Y 19 X 11 Y 19 X 11 Y 19 X -17 Y 19 X -3 Y 18 X -2 Y 19 X -34 Y 19 X 31 Y 19 X -48 Y 19 X -16 Y 19 X 42 Y 18 X -55 Y 19 X
 s black[  ] 0 sd 1 1 1 c black 316 1480 m 19 X -257 Y 19 X -157 Y 19 X -108 Y 18 X -78 Y 19 X -61 Y 19 X -55 Y 19 X -41 Y 19 X -34 Y 19 X -33 Y 18 X -34 Y 19 X -25 Y 19 X -28 Y 19 X -16 Y 19 X -35 Y 19 X -11 Y 18 X -22 Y 19 X -19 Y 19 X -27 Y 19 X
 -15 Y 19 X -10 Y 19 X -10 Y 18 X -15 Y 19 X -25 Y 19 X -10 Y 19 X -14 Y 19 X -28 Y 19 X -20 Y 18 X -9 Y 19 X 23 Y 19 X -11 Y 19 X -27 Y 19 X -44 Y 19 X 4 Y 18 X 38 Y 19 X -48 Y 1224 X s
 gsave  2268 1538 0 0 C 1286.99 1348.9 t 0 r /Helvetica-Bold findfont 52.1314 sf 0 0 m (Conversion electrons) show NC gr  0 0.4 0.6 c[ 4 8] 0 sd 1077 1375 m 175 X s black
 gsave  2268 1538 0 0 C 1286.99 1231.6 t 0 r /Helvetica-Bold findfont 52.1314 sf 0 0 m (Isolated electrons ) show NC gr [  ] 0 sd 1077 1256 m 175 X s
 gsave  2268 1538 0 0 C 1286.99 1114.31 t 0 r /Helvetica-Bold findfont 52.1314 sf 0 0 m (Non\255Isolated electrons) show NC gr  0 0 0.6 c[  12 12 ] 0 sd 1077 1138 m 175 X s black
 gsave  2268 1538 0 0 C 1286.99 993.755 t 0 r /Helvetica-Bold findfont 52.1314 sf 0 0 m (Hadrons) show NC gr  0.6 0 0.2 c[  ] 0 sd 1077 1020 m 175 X s
 gr  gr showpage
end
%%EOF
