%!PS-Adobe-2.0 EPSF-2.0
%%BoundingBox:  0 0 567 384
%%Title: /home/rohin/Analysis/dataAna/2014/July/electron_vars/F1.eps: c1_n10
%%Creator: ROOT Version 5.34/14
%%CreationDate: Tue Sep  9 00:33:16 2014
%%EndComments
%%BeginProlog
80 dict begin
/s {stroke} def /l {lineto} def /m {moveto} def /t {translate} def
/r {rotate} def /rl {roll}  def /R {repeat} def
/d {rlineto} def /rm {rmoveto} def /gr {grestore} def /f {eofill} def
/c {setrgbcolor} def /black {0 setgray} def /sd {setdash} def
/cl {closepath} def /sf {scalefont setfont} def /lw {setlinewidth} def
/box {m dup 0 exch d exch 0 d 0 exch neg d cl} def
/NC{systemdict begin initclip end}def/C{NC box clip newpath}def
/bl {box s} def /bf {box f} def /Y { 0 exch d} def /X { 0 d} def 
/K {{pop pop 0 moveto} exch kshow} bind def
/ita {/ang 15 def gsave [1 0 ang dup sin exch cos div 1 0 0] concat} def 
/mp {newpath /y exch def /x exch def} def
/side {[w .77 mul w .23 mul] .385 w mul sd w 0 l currentpoint t -144 r} def
/mr {mp x y w2 0 360 arc} def /m24 {mr s} def /m20 {mr f} def
/mb {mp x y w2 add m w2 neg 0 d 0 w neg d w 0 d 0 w d cl} def
/mt {mp x y w2 add m w2 neg w neg d w 0 d cl} def
/m21 {mb f} def /m25 {mb s} def /m22 {mt f} def /m26{mt s} def
/m23 {mp x y w2 sub m w2 w d w neg 0 d cl f} def
/m27 {mp x y w2 add m w3 neg w2 neg d w3 w2 neg d w3 w2 d cl s} def
/m28 {mp x w2 sub y w2 sub w3 add m w3 0 d  0 w3 neg d w3 0 d 0 w3 d w3 0 d  0 w3 d w3 neg 0 d 0 w3 d w3 neg 0 d 0 w3 neg d w3 neg 0 d cl s } def
/m29 {mp gsave x w2 sub y w2 add w3 sub m currentpoint t 4 {side} repeat cl fill gr} def
/m30 {mp gsave x w2 sub y w2 add w3 sub m currentpoint t 4 {side} repeat cl s gr} def
/m31 {mp x y w2 sub m 0 w d x w2 sub y m w 0 d x w2 sub y w2 add m w w neg d x w2 sub y w2 sub m w w d s} def
/m32 {mp x y w2 sub m w2 w d w neg 0 d cl s} def
/m33 {mp x y w2 add m w3 neg w2 neg d w3 w2 neg d w3 w2 d cl f} def
/m34 {mp x w2 sub y w2 sub w3 add m w3 0 d  0 w3 neg d w3 0 d 0 w3 d w3 0 d  0 w3 d w3 neg 0 d 0 w3 d w3 neg 0 d 0 w3 neg d w3 neg 0 d cl f } def
/m2 {mp x y w2 sub m 0 w d x w2 sub y m w 0 d s} def
/m5 {mp x w2 sub y w2 sub m w w d x w2 sub y w2 add m w w neg d s} def
/reEncode {exch findfont dup length dict begin {1 index /FID eq  {pop pop} {def} ifelse } forall /Encoding exch def currentdict end dup /FontName get exch definefont pop } def [/Times-Bold /Times-Italic /Times-BoldItalic /Helvetica /Helvetica-Oblique
 /Helvetica-Bold /Helvetica-BoldOblique /Courier /Courier-Oblique /Courier-Bold /Courier-BoldOblique /Times-Roman /AvantGarde-Book /AvantGarde-BookOblique /AvantGarde-Demi /AvantGarde-DemiOblique /Bookman-Demi /Bookman-DemiItalic /Bookman-Light
 /Bookman-LightItalic /Helvetica-Narrow /Helvetica-Narrow-Bold /Helvetica-Narrow-BoldOblique /Helvetica-Narrow-Oblique /NewCenturySchlbk-Roman /NewCenturySchlbk-Bold /NewCenturySchlbk-BoldItalic /NewCenturySchlbk-Italic /Palatino-Bold
 /Palatino-BoldItalic /Palatino-Italic /Palatino-Roman ] {ISOLatin1Encoding reEncode } forall
%%EndProlog
%%BeginSetup
%%EndSetup
newpath  gsave  .25 .25 scale  gsave  0 0 t black[  ] 0 sd 3 lw 1 1 1 c 2268 1538 0 0 bf black 1 1 1 c 1883 1265 316 244 bf black 1883 1265 316 244 bl 1 1 1 c 1883 1265 316 244 bf black 1883 1265 316 244 bl 0.6 0 0.2 c 6 lw 1 1 1 c black 0.6 0 0.2 c
 316 1170 m 19 X -75 Y 19 X -1 Y 19 X -5 Y 18 X 1 Y 19 X 2 Y 19 X 6 Y 19 X 7 Y 19 X 6 Y 19 X 8 Y 18 X 8 Y 19 X 9 Y 19 X 8 Y 19 X 8 Y 19 X 10 Y 19 X 8 Y 18 X 9 Y 19 X 8 Y 19 X 8 Y 19 X 6 Y 19 X 7 Y 19 X 5 Y 18 X 6 Y 19 X 3 Y 19 X 2 Y 19 X 1 Y 38 X 1 Y
 18 X -1 Y 19 X -2 Y 19 X -2 Y 19 X -2 Y 19 X -3 Y 19 X -2 Y 18 X -3 Y 19 X -4 Y 19 X -4 Y 19 X -5 Y 19 X -5 Y 19 X -5 Y 18 X -8 Y 19 X -8 Y 19 X -9 Y 19 X -9 Y 19 X -11 Y 19 X -11 Y 18 X -15 Y 19 X -12 Y 19 X -16 Y 19 X -13 Y 19 X -21 Y 19 X -17 Y
 18 X -18 Y 19 X -23 Y 19 X -17 Y 19 X -20 Y 19 X -19 Y 18 X -23 Y 19 X -15 Y 19 X -27 Y 19 X -26 Y 19 X -12 Y 19 X -22 Y 18 X -22 Y 19 X -9 Y 19 X -31 Y 19 X -25 Y 19 X -10 Y 19 X -36 Y 18 X -22 Y 19 X -7 Y 19 X -19 Y 19 X -7 Y 19 X -53 Y 19 X -22 Y
 18 X 8 Y 19 X -44 Y 19 X -52 Y 19 X -71 Y 19 X -34 Y 19 X 77 Y 18 X -19 Y 19 X -58 Y 19 X -58 Y 19 X -58 Y 38 X 58 Y 18 X -58 Y 245 X s black 3 lw 316 244 m 1883 X s
 gsave  2268 1538 0 0 C 2176.49 52.1314 t 0 r /Helvetica findfont 58.6478 sf 0 0 m (1) show NC gr 
 gsave  2268 1538 0 0 C 2153.68 74.9389 t 0 r /Helvetica findfont 84.7135 sf 0 0 m (f) show NC gr  316 283 m -39 Y s 354 264 m -20 Y s 391 264 m -20 Y s 429 264 m -20 Y s 467 264 m -20 Y s 504 283 m -39 Y s 542 264 m -20 Y s 580 264 m -20 Y s 617 264
 m -20 Y s 655 264 m -20 Y s 693 283 m -39 Y s 730 264 m -20 Y s 768 264 m -20 Y s 806 264 m -20 Y s 843 264 m -20 Y s 881 283 m -39 Y s 919 264 m -20 Y s 956 264 m -20 Y s 994 264 m -20 Y s 1032 264 m -20 Y s 1069 283 m -39 Y s 1107 264 m -20 Y s
 1145 264 m -20 Y s 1182 264 m -20 Y s 1220 264 m -20 Y s 1258 283 m -39 Y s 1295 264 m -20 Y s 1333 264 m -20 Y s 1371 264 m -20 Y s 1408 264 m -20 Y s 1446 283 m -39 Y s 1484 264 m -20 Y s 1521 264 m -20 Y s 1559 264 m -20 Y s 1597 264 m -20 Y s
 1634 283 m -39 Y s 1672 264 m -20 Y s 1710 264 m -20 Y s 1747 264 m -20 Y s 1785 264 m -20 Y s 1823 283 m -39 Y s 1860 264 m -20 Y s 1898 264 m -20 Y s 1936 264 m -20 Y s 1973 264 m -20 Y s 2011 283 m -39 Y s 2049 264 m -20 Y s 2086 264 m -20 Y s
 2124 264 m -20 Y s 2162 264 m -20 Y s 2199 283 m -39 Y s
 gsave  2268 1538 0 0 C 293.239 162.911 t 0 r /Helvetica findfont 84.7135 sf 0 0 m (0) show NC gr 
 gsave  2268 1538 0 0 C 449.633 162.911 t 0 r /Helvetica findfont 84.7135 sf 0 0 m (0.1) show NC gr 
 gsave  2268 1538 0 0 C 632.093 162.911 t 0 r /Helvetica findfont 84.7135 sf 0 0 m (0.2) show NC gr 
 gsave  2268 1538 0 0 C 821.07 162.911 t 0 r /Helvetica findfont 84.7135 sf 0 0 m (0.3) show NC gr 
 gsave  2268 1538 0 0 C 1010.05 162.911 t 0 r /Helvetica findfont 84.7135 sf 0 0 m (0.4) show NC gr 
 gsave  2268 1538 0 0 C 1199.02 162.911 t 0 r /Helvetica findfont 84.7135 sf 0 0 m (0.5) show NC gr 
 gsave  2268 1538 0 0 C 1384.74 162.911 t 0 r /Helvetica findfont 84.7135 sf 0 0 m (0.6) show NC gr 
 gsave  2268 1538 0 0 C 1573.72 162.911 t 0 r /Helvetica findfont 84.7135 sf 0 0 m (0.7) show NC gr 
 gsave  2268 1538 0 0 C 1762.69 162.911 t 0 r /Helvetica findfont 84.7135 sf 0 0 m (0.8) show NC gr 
 gsave  2268 1538 0 0 C 1951.67 162.911 t 0 r /Helvetica findfont 84.7135 sf 0 0 m (0.9) show NC gr 
 gsave  2268 1538 0 0 C 2183 162.911 t 0 r /Helvetica findfont 84.7135 sf 0 0 m (1) show NC gr  316 1509 m 1883 X s 316 1470 m 39 Y s 354 1489 m 20 Y s 391 1489 m 20 Y s 429 1489 m 20 Y s 467 1489 m 20 Y s 504 1470 m 39 Y s 542 1489 m 20 Y s 580 1489
 m 20 Y s 617 1489 m 20 Y s 655 1489 m 20 Y s 693 1470 m 39 Y s 730 1489 m 20 Y s 768 1489 m 20 Y s 806 1489 m 20 Y s 843 1489 m 20 Y s 881 1470 m 39 Y s 919 1489 m 20 Y s 956 1489 m 20 Y s 994 1489 m 20 Y s 1032 1489 m 20 Y s 1069 1470 m 39 Y s 1107
 1489 m 20 Y s 1145 1489 m 20 Y s 1182 1489 m 20 Y s 1220 1489 m 20 Y s 1258 1470 m 39 Y s 1295 1489 m 20 Y s 1333 1489 m 20 Y s 1371 1489 m 20 Y s 1408 1489 m 20 Y s 1446 1470 m 39 Y s 1484 1489 m 20 Y s 1521 1489 m 20 Y s 1559 1489 m 20 Y s 1597
 1489 m 20 Y s 1634 1470 m 39 Y s 1672 1489 m 20 Y s 1710 1489 m 20 Y s 1747 1489 m 20 Y s 1785 1489 m 20 Y s 1823 1470 m 39 Y s 1860 1489 m 20 Y s 1898 1489 m 20 Y s 1936 1489 m 20 Y s 1973 1489 m 20 Y s 2011 1470 m 39 Y s 2049 1489 m 20 Y s 2086
 1489 m 20 Y s 2124 1489 m 20 Y s 2162 1489 m 20 Y s 2199 1470 m 39 Y s 316 244 m 1265 Y s 344 251 m -28 X s 344 275 m -28 X s 344 294 m -28 X s 344 309 m -28 X s 344 322 m -28 X s 344 333 m -28 X s 344 343 m -28 X s 372 352 m -56 X s
 gsave  2268 1538 0 0 C 241.108 351.887 t 0 r /Helvetica findfont 58.6478 sf 0 0 m (\2556) show NC gr 
 gsave  2268 1538 0 0 C 149.878 312.788 t 0 r /Helvetica findfont 84.7135 sf 0 0 m (10) show NC gr  344 410 m -28 X s 344 444 m -28 X s 344 468 m -28 X s 344 486 m -28 X s 344 502 m -28 X s 344 515 m -28 X s 344 526 m -28 X s 344 536 m -28 X s 372
 544 m -56 X s
 gsave  2268 1538 0 0 C 241.108 547.38 t 0 r /Helvetica findfont 58.6478 sf 0 0 m (\2555) show NC gr 
 gsave  2268 1538 0 0 C 149.878 508.281 t 0 r /Helvetica findfont 84.7135 sf 0 0 m (10) show NC gr  344 603 m -28 X s 344 636 m -28 X s 344 661 m -28 X s 344 679 m -28 X s 344 695 m -28 X s 344 707 m -28 X s 344 719 m -28 X s 344 728 m -28 X s 372
 737 m -56 X s
 gsave  2268 1538 0 0 C 241.108 736.356 t 0 r /Helvetica findfont 58.6478 sf 0 0 m (\2554) show NC gr 
 gsave  2268 1538 0 0 C 149.878 700.516 t 0 r /Helvetica findfont 84.7135 sf 0 0 m (10) show NC gr  344 795 m -28 X s 344 829 m -28 X s 344 853 m -28 X s 344 872 m -28 X s 344 887 m -28 X s 344 900 m -28 X s 344 911 m -28 X s 344 921 m -28 X s 372
 930 m -56 X s
 gsave  2268 1538 0 0 C 241.108 931.849 t 0 r /Helvetica findfont 58.6478 sf 0 0 m (\2553) show NC gr 
 gsave  2268 1538 0 0 C 149.878 892.75 t 0 r /Helvetica findfont 84.7135 sf 0 0 m (10) show NC gr  344 988 m -28 X s 344 1022 m -28 X s 344 1046 m -28 X s 344 1065 m -28 X s 344 1080 m -28 X s 344 1093 m -28 X s 344 1104 m -28 X s 344 1114 m -28 X s
 372 1123 m -56 X s
 gsave  2268 1538 0 0 C 241.108 1120.83 t 0 r /Helvetica findfont 58.6478 sf 0 0 m (\2552) show NC gr 
 gsave  2268 1538 0 0 C 149.878 1084.98 t 0 r /Helvetica findfont 84.7135 sf 0 0 m (10) show NC gr  344 1181 m -28 X s 344 1215 m -28 X s 344 1239 m -28 X s 344 1258 m -28 X s 344 1273 m -28 X s 344 1286 m -28 X s 344 1297 m -28 X s 344 1307 m -28 X
 s 372 1316 m -56 X s
 gsave  2268 1538 0 0 C 250.882 1313.06 t 0 r /Helvetica findfont 58.6478 sf 0 0 m (\2551) show NC gr 
 gsave  2268 1538 0 0 C 159.652 1277.22 t 0 r /Helvetica findfont 84.7135 sf 0 0 m (10) show NC gr  344 1374 m -28 X s 344 1408 m -28 X s 344 1432 m -28 X s 344 1451 m -28 X s 344 1466 m -28 X s 344 1479 m -28 X s 344 1490 m -28 X s 344 1500 m -28 X
 s 372 1509 m -56 X s
 gsave  2268 1538 0 0 C 293.823 1472.06 t 0 r  -47 0 t /Helvetica findfont 84.7135 sf 0 0 m (1) show NC gr  2199 244 m 1265 Y s 2171 251 m 28 X s 2171 275 m 28 X s 2171 294 m 28 X s 2171 309 m 28 X s 2171 322 m 28 X s 2171 333 m 28 X s 2171 343 m 28
 X s 2143 352 m 56 X s 2171 410 m 28 X s 2171 444 m 28 X s 2171 468 m 28 X s 2171 486 m 28 X s 2171 502 m 28 X s 2171 515 m 28 X s 2171 526 m 28 X s 2171 536 m 28 X s 2143 544 m 56 X s 2171 603 m 28 X s 2171 636 m 28 X s 2171 661 m 28 X s 2171 679 m
 28 X s 2171 695 m 28 X s 2171 707 m 28 X s 2171 719 m 28 X s 2171 728 m 28 X s 2143 737 m 56 X s 2171 795 m 28 X s 2171 829 m 28 X s 2171 853 m 28 X s 2171 872 m 28 X s 2171 887 m 28 X s 2171 900 m 28 X s 2171 911 m 28 X s 2171 921 m 28 X s 2143 930
 m 56 X s 2171 988 m 28 X s 2171 1022 m 28 X s 2171 1046 m 28 X s 2171 1065 m 28 X s 2171 1080 m 28 X s 2171 1093 m 28 X s 2171 1104 m 28 X s 2171 1114 m 28 X s 2143 1123 m 56 X s 2171 1181 m 28 X s 2171 1215 m 28 X s 2171 1239 m 28 X s 2171 1258 m
 28 X s 2171 1273 m 28 X s 2171 1286 m 28 X s 2171 1297 m 28 X s 2171 1307 m 28 X s 2143 1316 m 56 X s 2171 1374 m 28 X s 2171 1408 m 28 X s 2171 1432 m 28 X s 2171 1451 m 28 X s 2171 1466 m 28 X s 2171 1479 m 28 X s 2171 1490 m 28 X s 2171 1500 m 28
 X s 2143 1509 m 56 X s 0 0 0.6 c[  12 12 ] 0 sd 6 lw 1 1 1 c black 0 0 0.6 c 316 1132 m 19 X -362 Y 19 X 36 Y 19 X 26 Y 18 X 18 Y 19 X 25 Y 19 X 21 Y 19 X 29 Y 19 X 14 Y 19 X 24 Y 18 X 24 Y 19 X 18 Y 19 X 23 Y 19 X 19 Y 19 X 23 Y 19 X 22 Y 18 X 17 Y
 19 X 20 Y 19 X 17 Y 19 X 16 Y 19 X 16 Y 19 X 12 Y 18 X 14 Y 19 X 9 Y 19 X 6 Y 19 X 7 Y 19 X 4 Y 19 X 2 Y 37 X 1 Y 38 X -1 Y 19 X -1 Y 19 X -1 Y 18 X -1 Y 19 X -2 Y 19 X -1 Y 19 X -2 Y 19 X -2 Y 19 X -3 Y 18 X -3 Y 19 X -4 Y 19 X -6 Y 19 X -5 Y 19 X
 -8 Y 19 X -8 Y 18 X -10 Y 19 X -12 Y 19 X -14 Y 19 X -15 Y 19 X -17 Y 19 X -20 Y 18 X -22 Y 19 X -22 Y 19 X -27 Y 19 X -25 Y 19 X -32 Y 18 X -29 Y 19 X -28 Y 19 X -40 Y 19 X -31 Y 19 X -35 Y 19 X -26 Y 18 X -49 Y 19 X -44 Y 19 X -7 Y 19 X -42 Y 19 X
 -43 Y 19 X -62 Y 18 X 13 Y 19 X -20 Y 19 X -17 Y 19 X -68 Y 19 X 47 Y 19 X -28 Y 18 X -77 Y 19 X 77 Y 19 X -77 Y 19 X -139 Y 56 X 81 Y 38 X -81 Y 320 X s 0 0.4 0.6 c[ 4 8] 0 sd 1 1 1 c black 0 0.4 0.6 c 316 1255 m 19 X -432 Y 19 X 14 Y 19 X 20 Y 18
 X 13 Y 19 X 28 Y 19 X 22 Y 19 X 17 Y 19 X 22 Y 19 X 23 Y 18 X 19 Y 19 X 17 Y 19 X 21 Y 19 X 19 Y 19 X 20 Y 19 X 19 Y 18 X 17 Y 19 X 18 Y 19 X 17 Y 19 X 16 Y 19 X 15 Y 19 X 13 Y 18 X 10 Y 19 X 10 Y 19 X 7 Y 19 X 6 Y 19 X 2 Y 19 X 3 Y 18 X 3 Y 19 X 2
 Y 38 X 1 Y 19 X 1 Y 19 X -1 Y 18 X -2 Y 19 X -3 Y 19 X -4 Y 19 X -4 Y 19 X -7 Y 19 X -6 Y 18 X -6 Y 19 X -10 Y 19 X -8 Y 19 X -9 Y 19 X -10 Y 19 X -12 Y 18 X -13 Y 19 X -12 Y 19 X -14 Y 19 X -16 Y 19 X -14 Y 19 X -15 Y 18 X -14 Y 19 X -23 Y 19 X -18
 Y 19 X -23 Y 19 X -21 Y 18 X -15 Y 19 X -20 Y 19 X -24 Y 19 X -18 Y 19 X -17 Y 19 X -40 Y 18 X -21 Y 19 X -25 Y 19 X -18 Y 19 X -12 Y 19 X -31 Y 19 X -11 Y 18 X -43 Y 19 X -26 Y 19 X -8 Y 19 X -88 Y 19 X 58 Y 19 X -58 Y 18 X -105 Y 19 X 34 Y 19 X
 -92 Y 19 X 58 Y 19 X -58 Y 37 X -149 Y 57 X 149 Y 19 X -149 Y 282 X s black[  ] 0 sd 1 1 1 c black 316 1118 m 19 X -306 Y 19 X 39 Y 19 X 27 Y 18 X 31 Y 19 X 26 Y 19 X 27 Y 19 X 27 Y 19 X 26 Y 19 X 25 Y 18 X 24 Y 19 X 21 Y 19 X 23 Y 19 X 19 Y 19 X 19
 Y 19 X 18 Y 18 X 16 Y 19 X 14 Y 19 X 13 Y 19 X 12 Y 19 X 11 Y 19 X 8 Y 18 X 7 Y 19 X 4 Y 19 X 3 Y 19 X 1 Y 38 X -2 Y 18 X -3 Y 19 X -4 Y 19 X -4 Y 19 X -4 Y 19 X -5 Y 19 X -5 Y 18 X -6 Y 19 X -7 Y 19 X -8 Y 19 X -10 Y 19 X -10 Y 19 X -12 Y 18 X -14
 Y 19 X -13 Y 19 X -16 Y 19 X -17 Y 19 X -18 Y 19 X -20 Y 18 X -21 Y 19 X -26 Y 19 X -25 Y 19 X -26 Y 19 X -32 Y 19 X -33 Y 18 X -35 Y 19 X -31 Y 19 X -35 Y 19 X -37 Y 19 X -42 Y 18 X -42 Y 19 X -42 Y 19 X -31 Y 19 X -44 Y 19 X -28 Y 19 X -68 Y 18 X
 4 Y 19 X -42 Y 19 X -34 Y 19 X -25 Y 38 X -58 Y 37 X -34 Y 19 X 34 Y 19 X -78 Y 19 X 44 Y 19 X -44 Y 94 X 44 Y 19 X -44 Y 376 X s
 gsave  2268 1538 0 0 C 700.516 772.197 t 0 r /Helvetica-Bold findfont 55.3896 sf 0 0 m (Conversion electrons) show NC gr  0 0.4 0.6 c[ 4 8] 0 sd 474 793 m 187 X s black
 gsave  2268 1538 0 0 C 700.516 671.192 t 0 r /Helvetica-Bold findfont 55.3896 sf 0 0 m (Isolated electrons ) show NC gr [  ] 0 sd 474 691 m 187 X s
 gsave  2268 1538 0 0 C 700.516 566.929 t 0 r /Helvetica-Bold findfont 55.3896 sf 0 0 m (Non\255Isolated electrons) show NC gr  0 0 0.6 c[  12 12 ] 0 sd 474 589 m 187 X s black
 gsave  2268 1538 0 0 C 700.516 465.924 t 0 r /Helvetica-Bold findfont 55.3896 sf 0 0 m (Hadrons) show NC gr  0.6 0 0.2 c[  ] 0 sd 474 488 m 187 X s
 gr  gr showpage
end
%%EOF
