%!PS-Adobe-2.0 EPSF-2.0
%%BoundingBox:  0 0 567 384
%%Title: /home/rohin/Analysis/dataAna/2014/July/electron_vars/F1core.eps: c1_n11
%%Creator: ROOT Version 5.34/14
%%CreationDate: Tue Sep  9 00:32:49 2014
%%EndComments
%%BeginProlog
80 dict begin
/s {stroke} def /l {lineto} def /m {moveto} def /t {translate} def
/r {rotate} def /rl {roll}  def /R {repeat} def
/d {rlineto} def /rm {rmoveto} def /gr {grestore} def /f {eofill} def
/c {setrgbcolor} def /black {0 setgray} def /sd {setdash} def
/cl {closepath} def /sf {scalefont setfont} def /lw {setlinewidth} def
/box {m dup 0 exch d exch 0 d 0 exch neg d cl} def
/NC{systemdict begin initclip end}def/C{NC box clip newpath}def
/bl {box s} def /bf {box f} def /Y { 0 exch d} def /X { 0 d} def 
/K {{pop pop 0 moveto} exch kshow} bind def
/ita {/ang 15 def gsave [1 0 ang dup sin exch cos div 1 0 0] concat} def 
/mp {newpath /y exch def /x exch def} def
/side {[w .77 mul w .23 mul] .385 w mul sd w 0 l currentpoint t -144 r} def
/mr {mp x y w2 0 360 arc} def /m24 {mr s} def /m20 {mr f} def
/mb {mp x y w2 add m w2 neg 0 d 0 w neg d w 0 d 0 w d cl} def
/mt {mp x y w2 add m w2 neg w neg d w 0 d cl} def
/m21 {mb f} def /m25 {mb s} def /m22 {mt f} def /m26{mt s} def
/m23 {mp x y w2 sub m w2 w d w neg 0 d cl f} def
/m27 {mp x y w2 add m w3 neg w2 neg d w3 w2 neg d w3 w2 d cl s} def
/m28 {mp x w2 sub y w2 sub w3 add m w3 0 d  0 w3 neg d w3 0 d 0 w3 d w3 0 d  0 w3 d w3 neg 0 d 0 w3 d w3 neg 0 d 0 w3 neg d w3 neg 0 d cl s } def
/m29 {mp gsave x w2 sub y w2 add w3 sub m currentpoint t 4 {side} repeat cl fill gr} def
/m30 {mp gsave x w2 sub y w2 add w3 sub m currentpoint t 4 {side} repeat cl s gr} def
/m31 {mp x y w2 sub m 0 w d x w2 sub y m w 0 d x w2 sub y w2 add m w w neg d x w2 sub y w2 sub m w w d s} def
/m32 {mp x y w2 sub m w2 w d w neg 0 d cl s} def
/m33 {mp x y w2 add m w3 neg w2 neg d w3 w2 neg d w3 w2 d cl f} def
/m34 {mp x w2 sub y w2 sub w3 add m w3 0 d  0 w3 neg d w3 0 d 0 w3 d w3 0 d  0 w3 d w3 neg 0 d 0 w3 d w3 neg 0 d 0 w3 neg d w3 neg 0 d cl f } def
/m2 {mp x y w2 sub m 0 w d x w2 sub y m w 0 d s} def
/m5 {mp x w2 sub y w2 sub m w w d x w2 sub y w2 add m w w neg d s} def
/reEncode {exch findfont dup length dict begin {1 index /FID eq  {pop pop} {def} ifelse } forall /Encoding exch def currentdict end dup /FontName get exch definefont pop } def [/Times-Bold /Times-Italic /Times-BoldItalic /Helvetica /Helvetica-Oblique
 /Helvetica-Bold /Helvetica-BoldOblique /Courier /Courier-Oblique /Courier-Bold /Courier-BoldOblique /Times-Roman /AvantGarde-Book /AvantGarde-BookOblique /AvantGarde-Demi /AvantGarde-DemiOblique /Bookman-Demi /Bookman-DemiItalic /Bookman-Light
 /Bookman-LightItalic /Helvetica-Narrow /Helvetica-Narrow-Bold /Helvetica-Narrow-BoldOblique /Helvetica-Narrow-Oblique /NewCenturySchlbk-Roman /NewCenturySchlbk-Bold /NewCenturySchlbk-BoldItalic /NewCenturySchlbk-Italic /Palatino-Bold
 /Palatino-BoldItalic /Palatino-Italic /Palatino-Roman ] {ISOLatin1Encoding reEncode } forall
%%EndProlog
%%BeginSetup
%%EndSetup
newpath  gsave  .25 .25 scale  gsave  0 0 t black[  ] 0 sd 3 lw 1 1 1 c 2268 1538 0 0 bf black 1 1 1 c 1883 1257 303 235 bf black 1883 1257 303 235 bl 1 1 1 c 1883 1257 303 235 bf black 1883 1257 303 235 bl 0.6 0 0.2 c 6 lw 1 1 1 c black 0.6 0 0.2 c
 303 1225 m 19 X -23 Y 19 X 11 Y 19 X 17 Y 18 X 14 Y 19 X 9 Y 19 X 5 Y 19 X 1 Y 19 X -2 Y 19 X -3 Y 18 X -5 Y 19 X -5 Y 19 X -7 Y 19 X -7 Y 19 X -8 Y 19 X -9 Y 18 X -10 Y 19 X -9 Y 19 X -11 Y 19 X -10 Y 19 X -10 Y 18 X -10 Y 19 X -9 Y 19 X -11 Y 19 X
 -9 Y 19 X -10 Y 19 X -14 Y 18 X -12 Y 19 X -15 Y 19 X -18 Y 19 X -17 Y 19 X -24 Y 19 X -19 Y 18 X -29 Y 19 X -26 Y 19 X -31 Y 19 X -29 Y 19 X -28 Y 19 X -24 Y 18 X -38 Y 19 X -14 Y 19 X -21 Y 19 X -28 Y 19 X -32 Y 19 X -15 Y 18 X -9 Y 19 X -17 Y 19
 X -18 Y 19 X -11 Y 19 X -2 Y 19 X -50 Y 18 X -61 Y 19 X 26 Y 19 X -63 Y 19 X 53 Y 19 X -44 Y 19 X -42 Y 18 X -58 Y 19 X 58 Y 19 X -58 Y 19 X 24 Y 19 X -116 Y 37 X -57 Y 38 X 57 Y 19 X -57 Y 75 X 57 Y 19 X -57 Y 75 X 57 Y 19 X -57 Y 452 X s black 3
 lw 303 235 m 1883 X s
 gsave  2268 1538 0 0 C 1971.22 65.1643 t 0 r /Helvetica findfont 84.7135 sf 0 0 m (\(core\)) show NC gr 
 gsave  2268 1538 0 0 C 1948.41 42.3568 t 0 r /Helvetica findfont 58.6478 sf 0 0 m (1) show NC gr 
 gsave  2268 1538 0 0 C 1925.6 65.1643 t 0 r /Helvetica findfont 84.7135 sf 0 0 m (f) show NC gr  303 273 m -38 Y s 341 254 m -19 Y s 378 254 m -19 Y s 416 254 m -19 Y s 454 254 m -19 Y s 491 273 m -38 Y s 529 254 m -19 Y s 567 254 m -19 Y s 604 254
 m -19 Y s 642 254 m -19 Y s 680 273 m -38 Y s 717 254 m -19 Y s 755 254 m -19 Y s 793 254 m -19 Y s 830 254 m -19 Y s 868 273 m -38 Y s 906 254 m -19 Y s 943 254 m -19 Y s 981 254 m -19 Y s 1019 254 m -19 Y s 1056 273 m -38 Y s 1094 254 m -19 Y s
 1132 254 m -19 Y s 1169 254 m -19 Y s 1207 254 m -19 Y s 1245 273 m -38 Y s 1282 254 m -19 Y s 1320 254 m -19 Y s 1358 254 m -19 Y s 1395 254 m -19 Y s 1433 273 m -38 Y s 1471 254 m -19 Y s 1508 254 m -19 Y s 1546 254 m -19 Y s 1584 254 m -19 Y s
 1621 273 m -38 Y s 1659 254 m -19 Y s 1697 254 m -19 Y s 1734 254 m -19 Y s 1772 254 m -19 Y s 1810 273 m -38 Y s 1847 254 m -19 Y s 1885 254 m -19 Y s 1923 254 m -19 Y s 1960 254 m -19 Y s 1998 273 m -38 Y s 2036 254 m -19 Y s 2073 254 m -19 Y s
 2111 254 m -19 Y s 2149 254 m -19 Y s 2186 273 m -38 Y s
 gsave  2268 1538 0 0 C 280.206 153.136 t 0 r /Helvetica findfont 84.7135 sf 0 0 m (0) show NC gr 
 gsave  2268 1538 0 0 C 436.601 153.136 t 0 r /Helvetica findfont 84.7135 sf 0 0 m (0.1) show NC gr 
 gsave  2268 1538 0 0 C 619.061 153.136 t 0 r /Helvetica findfont 84.7135 sf 0 0 m (0.2) show NC gr 
 gsave  2268 1538 0 0 C 808.037 153.136 t 0 r /Helvetica findfont 84.7135 sf 0 0 m (0.3) show NC gr 
 gsave  2268 1538 0 0 C 997.013 153.136 t 0 r /Helvetica findfont 84.7135 sf 0 0 m (0.4) show NC gr 
 gsave  2268 1538 0 0 C 1185.99 153.136 t 0 r /Helvetica findfont 84.7135 sf 0 0 m (0.5) show NC gr 
 gsave  2268 1538 0 0 C 1371.71 153.136 t 0 r /Helvetica findfont 84.7135 sf 0 0 m (0.6) show NC gr 
 gsave  2268 1538 0 0 C 1560.68 153.136 t 0 r /Helvetica findfont 84.7135 sf 0 0 m (0.7) show NC gr 
 gsave  2268 1538 0 0 C 1749.66 153.136 t 0 r /Helvetica findfont 84.7135 sf 0 0 m (0.8) show NC gr 
 gsave  2268 1538 0 0 C 1938.64 153.136 t 0 r /Helvetica findfont 84.7135 sf 0 0 m (0.9) show NC gr 
 gsave  2268 1538 0 0 C 2169.97 153.136 t 0 r /Helvetica findfont 84.7135 sf 0 0 m (1) show NC gr  303 1492 m 1883 X s 303 1454 m 38 Y s 341 1473 m 19 Y s 378 1473 m 19 Y s 416 1473 m 19 Y s 454 1473 m 19 Y s 491 1454 m 38 Y s 529 1473 m 19 Y s 567
 1473 m 19 Y s 604 1473 m 19 Y s 642 1473 m 19 Y s 680 1454 m 38 Y s 717 1473 m 19 Y s 755 1473 m 19 Y s 793 1473 m 19 Y s 830 1473 m 19 Y s 868 1454 m 38 Y s 906 1473 m 19 Y s 943 1473 m 19 Y s 981 1473 m 19 Y s 1019 1473 m 19 Y s 1056 1454 m 38 Y s
 1094 1473 m 19 Y s 1132 1473 m 19 Y s 1169 1473 m 19 Y s 1207 1473 m 19 Y s 1245 1454 m 38 Y s 1282 1473 m 19 Y s 1320 1473 m 19 Y s 1358 1473 m 19 Y s 1395 1473 m 19 Y s 1433 1454 m 38 Y s 1471 1473 m 19 Y s 1508 1473 m 19 Y s 1546 1473 m 19 Y s
 1584 1473 m 19 Y s 1621 1454 m 38 Y s 1659 1473 m 19 Y s 1697 1473 m 19 Y s 1734 1473 m 19 Y s 1772 1473 m 19 Y s 1810 1454 m 38 Y s 1847 1473 m 19 Y s 1885 1473 m 19 Y s 1923 1473 m 19 Y s 1960 1473 m 19 Y s 1998 1454 m 38 Y s 2036 1473 m 19 Y s
 2073 1473 m 19 Y s 2111 1473 m 19 Y s 2149 1473 m 19 Y s 2186 1454 m 38 Y s 303 235 m 1257 Y s 331 241 m -28 X s 331 265 m -28 X s 331 284 m -28 X s 331 299 m -28 X s 331 312 m -28 X s 331 323 m -28 X s 331 333 m -28 X s 359 341 m -56 X s
 gsave  2268 1538 0 0 C 228.075 342.112 t 0 r /Helvetica findfont 58.6478 sf 0 0 m (\2556) show NC gr 
 gsave  2268 1538 0 0 C 136.845 303.014 t 0 r /Helvetica findfont 84.7135 sf 0 0 m (10) show NC gr  331 399 m -28 X s 331 433 m -28 X s 331 457 m -28 X s 331 476 m -28 X s 331 491 m -28 X s 331 504 m -28 X s 331 515 m -28 X s 331 524 m -28 X s 359
 533 m -56 X s
 gsave  2268 1538 0 0 C 228.075 534.347 t 0 r /Helvetica findfont 58.6478 sf 0 0 m (\2555) show NC gr 
 gsave  2268 1538 0 0 C 136.845 495.248 t 0 r /Helvetica findfont 84.7135 sf 0 0 m (10) show NC gr  331 591 m -28 X s 331 625 m -28 X s 331 649 m -28 X s 331 667 m -28 X s 331 683 m -28 X s 331 695 m -28 X s 331 706 m -28 X s 331 716 m -28 X s 359
 725 m -56 X s
 gsave  2268 1538 0 0 C 228.075 723.323 t 0 r /Helvetica findfont 58.6478 sf 0 0 m (\2554) show NC gr 
 gsave  2268 1538 0 0 C 136.845 687.483 t 0 r /Helvetica findfont 84.7135 sf 0 0 m (10) show NC gr  331 783 m -28 X s 331 817 m -28 X s 331 841 m -28 X s 331 859 m -28 X s 331 874 m -28 X s 331 887 m -28 X s 331 898 m -28 X s 331 908 m -28 X s 359
 917 m -56 X s
 gsave  2268 1538 0 0 C 228.075 918.816 t 0 r /Helvetica findfont 58.6478 sf 0 0 m (\2553) show NC gr 
 gsave  2268 1538 0 0 C 136.845 879.718 t 0 r /Helvetica findfont 84.7135 sf 0 0 m (10) show NC gr  331 975 m -28 X s 331 1008 m -28 X s 331 1032 m -28 X s 331 1051 m -28 X s 331 1066 m -28 X s 331 1079 m -28 X s 331 1090 m -28 X s 331 1100 m -28 X s
 359 1109 m -56 X s
 gsave  2268 1538 0 0 C 228.075 1107.79 t 0 r /Helvetica findfont 58.6478 sf 0 0 m (\2552) show NC gr 
 gsave  2268 1538 0 0 C 136.845 1071.95 t 0 r /Helvetica findfont 84.7135 sf 0 0 m (10) show NC gr  331 1166 m -28 X s 331 1200 m -28 X s 331 1224 m -28 X s 331 1243 m -28 X s 331 1258 m -28 X s 331 1271 m -28 X s 331 1282 m -28 X s 331 1292 m -28 X
 s 359 1300 m -56 X s
 gsave  2268 1538 0 0 C 237.85 1300.03 t 0 r /Helvetica findfont 58.6478 sf 0 0 m (\2551) show NC gr 
 gsave  2268 1538 0 0 C 146.62 1264.19 t 0 r /Helvetica findfont 84.7135 sf 0 0 m (10) show NC gr  331 1358 m -28 X s 331 1392 m -28 X s 331 1416 m -28 X s 331 1435 m -28 X s 331 1450 m -28 X s 331 1463 m -28 X s 331 1474 m -28 X s 331 1483 m -28 X s
 359 1492 m -56 X s
 gsave  2268 1538 0 0 C 280.79 1455.77 t 0 r  -47 0 t /Helvetica findfont 84.7135 sf 0 0 m (1) show NC gr  2186 235 m 1257 Y s 2158 241 m 28 X s 2158 265 m 28 X s 2158 284 m 28 X s 2158 299 m 28 X s 2158 312 m 28 X s 2158 323 m 28 X s 2158 333 m 28 X
 s 2131 341 m 55 X s 2158 399 m 28 X s 2158 433 m 28 X s 2158 457 m 28 X s 2158 476 m 28 X s 2158 491 m 28 X s 2158 504 m 28 X s 2158 515 m 28 X s 2158 524 m 28 X s 2131 533 m 55 X s 2158 591 m 28 X s 2158 625 m 28 X s 2158 649 m 28 X s 2158 667 m 28
 X s 2158 683 m 28 X s 2158 695 m 28 X s 2158 706 m 28 X s 2158 716 m 28 X s 2131 725 m 55 X s 2158 783 m 28 X s 2158 817 m 28 X s 2158 841 m 28 X s 2158 859 m 28 X s 2158 874 m 28 X s 2158 887 m 28 X s 2158 898 m 28 X s 2158 908 m 28 X s 2131 917 m
 55 X s 2158 975 m 28 X s 2158 1008 m 28 X s 2158 1032 m 28 X s 2158 1051 m 28 X s 2158 1066 m 28 X s 2158 1079 m 28 X s 2158 1090 m 28 X s 2158 1100 m 28 X s 2131 1109 m 55 X s 2158 1166 m 28 X s 2158 1200 m 28 X s 2158 1224 m 28 X s 2158 1243 m 28
 X s 2158 1258 m 28 X s 2158 1271 m 28 X s 2158 1282 m 28 X s 2158 1292 m 28 X s 2131 1300 m 55 X s 2158 1358 m 28 X s 2158 1392 m 28 X s 2158 1416 m 28 X s 2158 1435 m 28 X s 2158 1450 m 28 X s 2158 1463 m 28 X s 2158 1474 m 28 X s 2158 1483 m 28 X
 s 2131 1492 m 55 X s 0 0 0.6 c[  12 12 ] 0 sd 6 lw 1 1 1 c black 0 0 0.6 c 303 1122 m 19 X -171 Y 19 X 48 Y 19 X 44 Y 18 X 36 Y 19 X 32 Y 19 X 28 Y 19 X 23 Y 19 X 20 Y 19 X 16 Y 18 X 14 Y 19 X 12 Y 19 X 9 Y 19 X 5 Y 19 X 3 Y 19 X -1 Y 18 X -4 Y 19 X
 -4 Y 19 X -5 Y 19 X -4 Y 19 X -3 Y 18 X -2 Y 38 X -1 Y 19 X -1 Y 19 X -1 Y 19 X -3 Y 18 X -6 Y 19 X -6 Y 19 X -9 Y 19 X -14 Y 19 X -13 Y 19 X -19 Y 18 X -21 Y 19 X -25 Y 19 X -27 Y 19 X -30 Y 19 X -38 Y 19 X -37 Y 18 X -42 Y 19 X -46 Y 19 X -54 Y 19
 X -60 Y 19 X -70 Y 19 X -69 Y 18 X -66 Y 19 X -72 Y 19 X -24 Y 19 X -91 Y 19 X 33 Y 19 X -171 Y 56 X 80 Y 19 X 91 Y 19 X -171 Y 56 X 80 Y 19 X -80 Y 772 X s 0 0.4 0.6 c[ 4 8] 0 sd 1 1 1 c black 0 0.4 0.6 c 303 1245 m 19 X -177 Y 19 X 39 Y 19 X 31 Y
 18 X 21 Y 19 X 19 Y 19 X 15 Y 19 X 7 Y 19 X 9 Y 19 X 8 Y 18 X 5 Y 19 X 5 Y 19 X 5 Y 19 X 4 Y 19 X 1 Y 19 X -1 Y 37 X -3 Y 19 X -2 Y 19 X -2 Y 19 X -4 Y 18 X -4 Y 19 X -7 Y 19 X -10 Y 19 X -10 Y 19 X -10 Y 19 X -11 Y 18 X -12 Y 19 X -15 Y 19 X -15 Y
 19 X -19 Y 19 X -19 Y 19 X -18 Y 18 X -26 Y 19 X -24 Y 19 X -28 Y 19 X -26 Y 19 X -33 Y 19 X -33 Y 18 X -37 Y 19 X -43 Y 19 X -51 Y 19 X -25 Y 19 X -86 Y 37 X -19 Y 19 X -54 Y 19 X -116 Y 19 X 58 Y 19 X -34 Y 19 X -115 Y 18 X 58 Y 19 X -58 Y 19 X 58
 Y 38 X 33 Y 19 X -239 Y 18 X 148 Y 19 X -148 Y 19 X 148 Y 19 X -148 Y 753 X s black[  ] 0 sd 1 1 1 c black 303 1106 m 19 X -219 Y 19 X 32 Y 19 X 37 Y 18 X 35 Y 19 X 37 Y 19 X 36 Y 19 X 34 Y 19 X 32 Y 19 X 32 Y 18 X 28 Y 19 X 25 Y 19 X 21 Y 19 X 14 Y
 19 X 8 Y 19 X 4 Y 18 X -1 Y 19 X -3 Y 19 X -5 Y 19 X -3 Y 19 X -3 Y 18 X -2 Y 19 X -4 Y 19 X -6 Y 19 X -7 Y 19 X -9 Y 19 X -11 Y 18 X -15 Y 19 X -18 Y 19 X -21 Y 19 X -25 Y 19 X -31 Y 19 X -34 Y 18 X -37 Y 19 X -38 Y 19 X -40 Y 19 X -43 Y 19 X -44 Y
 19 X -48 Y 18 X -44 Y 19 X -59 Y 19 X -60 Y 19 X -64 Y 19 X -83 Y 19 X -110 Y 18 X -82 Y 19 X -77 Y 19 X 44 Y 19 X 33 Y 38 X -77 Y 941 X s
 gsave  2268 1538 0 0 C 1368.45 1277.22 t 0 r /Helvetica-Bold findfont 55.3896 sf 0 0 m (Conversion electrons) show NC gr  0 0.4 0.6 c[ 4 8] 0 sd 1119 1294 m 206 X s black
 gsave  2268 1538 0 0 C 1368.45 1192.51 t 0 r /Helvetica-Bold findfont 55.3896 sf 0 0 m (Isolated electrons ) show NC gr [  ] 0 sd 1119 1210 m 206 X s
 gsave  2268 1538 0 0 C 1368.45 1107.79 t 0 r /Helvetica-Bold findfont 55.3896 sf 0 0 m (Non\255Isolated electrons) show NC gr  0 0 0.6 c[  12 12 ] 0 sd 1119 1126 m 206 X s black
 gsave  2268 1538 0 0 C 1368.45 1026.34 t 0 r /Helvetica-Bold findfont 55.3896 sf 0 0 m (Hadrons) show NC gr  0.6 0 0.2 c[  ] 0 sd 1119 1042 m 206 X s
 gr  gr showpage
end
%%EOF
