%!PS-Adobe-2.0 EPSF-2.0
%%BoundingBox:  0 0 567 384
%%Title: /home/rohin/Analysis/dataAna/2014/July/electron_vars/F3.eps: c1_n12
%%Creator: ROOT Version 5.34/14
%%CreationDate: Tue Sep  9 00:32:27 2014
%%EndComments
%%BeginProlog
80 dict begin
/s {stroke} def /l {lineto} def /m {moveto} def /t {translate} def
/r {rotate} def /rl {roll}  def /R {repeat} def
/d {rlineto} def /rm {rmoveto} def /gr {grestore} def /f {eofill} def
/c {setrgbcolor} def /black {0 setgray} def /sd {setdash} def
/cl {closepath} def /sf {scalefont setfont} def /lw {setlinewidth} def
/box {m dup 0 exch d exch 0 d 0 exch neg d cl} def
/NC{systemdict begin initclip end}def/C{NC box clip newpath}def
/bl {box s} def /bf {box f} def /Y { 0 exch d} def /X { 0 d} def 
/K {{pop pop 0 moveto} exch kshow} bind def
/ita {/ang 15 def gsave [1 0 ang dup sin exch cos div 1 0 0] concat} def 
/mp {newpath /y exch def /x exch def} def
/side {[w .77 mul w .23 mul] .385 w mul sd w 0 l currentpoint t -144 r} def
/mr {mp x y w2 0 360 arc} def /m24 {mr s} def /m20 {mr f} def
/mb {mp x y w2 add m w2 neg 0 d 0 w neg d w 0 d 0 w d cl} def
/mt {mp x y w2 add m w2 neg w neg d w 0 d cl} def
/m21 {mb f} def /m25 {mb s} def /m22 {mt f} def /m26{mt s} def
/m23 {mp x y w2 sub m w2 w d w neg 0 d cl f} def
/m27 {mp x y w2 add m w3 neg w2 neg d w3 w2 neg d w3 w2 d cl s} def
/m28 {mp x w2 sub y w2 sub w3 add m w3 0 d  0 w3 neg d w3 0 d 0 w3 d w3 0 d  0 w3 d w3 neg 0 d 0 w3 d w3 neg 0 d 0 w3 neg d w3 neg 0 d cl s } def
/m29 {mp gsave x w2 sub y w2 add w3 sub m currentpoint t 4 {side} repeat cl fill gr} def
/m30 {mp gsave x w2 sub y w2 add w3 sub m currentpoint t 4 {side} repeat cl s gr} def
/m31 {mp x y w2 sub m 0 w d x w2 sub y m w 0 d x w2 sub y w2 add m w w neg d x w2 sub y w2 sub m w w d s} def
/m32 {mp x y w2 sub m w2 w d w neg 0 d cl s} def
/m33 {mp x y w2 add m w3 neg w2 neg d w3 w2 neg d w3 w2 d cl f} def
/m34 {mp x w2 sub y w2 sub w3 add m w3 0 d  0 w3 neg d w3 0 d 0 w3 d w3 0 d  0 w3 d w3 neg 0 d 0 w3 d w3 neg 0 d 0 w3 neg d w3 neg 0 d cl f } def
/m2 {mp x y w2 sub m 0 w d x w2 sub y m w 0 d s} def
/m5 {mp x w2 sub y w2 sub m w w d x w2 sub y w2 add m w w neg d s} def
/reEncode {exch findfont dup length dict begin {1 index /FID eq  {pop pop} {def} ifelse } forall /Encoding exch def currentdict end dup /FontName get exch definefont pop } def [/Times-Bold /Times-Italic /Times-BoldItalic /Helvetica /Helvetica-Oblique
 /Helvetica-Bold /Helvetica-BoldOblique /Courier /Courier-Oblique /Courier-Bold /Courier-BoldOblique /Times-Roman /AvantGarde-Book /AvantGarde-BookOblique /AvantGarde-Demi /AvantGarde-DemiOblique /Bookman-Demi /Bookman-DemiItalic /Bookman-Light
 /Bookman-LightItalic /Helvetica-Narrow /Helvetica-Narrow-Bold /Helvetica-Narrow-BoldOblique /Helvetica-Narrow-Oblique /NewCenturySchlbk-Roman /NewCenturySchlbk-Bold /NewCenturySchlbk-BoldItalic /NewCenturySchlbk-Italic /Palatino-Bold
 /Palatino-BoldItalic /Palatino-Italic /Palatino-Roman ] {ISOLatin1Encoding reEncode } forall
%%EndProlog
%%BeginSetup
%%EndSetup
newpath  gsave  .25 .25 scale  gsave  0 0 t black[  ] 0 sd 3 lw 1 1 1 c 2268 1538 0 0 bf black 1 1 1 c 1884 1251 306 241 bf black 1884 1251 306 241 bl 1 1 1 c 1884 1251 306 241 bf black 1884 1251 306 241 bl 0.6 0 0.2 c 6 lw 1 1 1 c black 0.6 0 0.2 c
 306 1379 m 19 X -6 Y 19 X -51 Y 19 X -38 Y 19 X -30 Y 18 X -25 Y 19 X -22 Y 19 X -20 Y 19 X -19 Y 19 X -18 Y 19 X -15 Y 18 X -16 Y 19 X -13 Y 19 X -15 Y 19 X -13 Y 19 X -14 Y 19 X -12 Y 18 X -15 Y 19 X -12 Y 19 X -11 Y 19 X -12 Y 19 X -13 Y 19 X -8
 Y 18 X -10 Y 19 X -11 Y 19 X -10 Y 19 X -8 Y 19 X -11 Y 19 X -6 Y 18 X -9 Y 19 X -12 Y 19 X -2 Y 19 X -11 Y 19 X -7 Y 19 X 3 Y 18 X -10 Y 19 X -8 Y 19 X -4 Y 19 X -4 Y 19 X -8 Y 19 X 1 Y 18 X -5 Y 19 X -6 Y 19 X -6 Y 19 X 4 Y 19 X -9 Y 19 X -1 Y 18
 X -6 Y 19 X -8 Y 19 X 8 Y 38 X -12 Y 19 X -6 Y 18 X -2 Y 19 X -8 Y 19 X 4 Y 19 X -1 Y 19 X -8 Y 19 X -2 Y 18 X 1 Y 38 X -5 Y 19 X -9 Y 19 X -1 Y 19 X -5 Y 18 X -5 Y 19 X -12 Y 19 X -17 Y 19 X 1 Y 19 X -12 Y 19 X -5 Y 18 X -34 Y 19 X -16 Y 19 X -4 Y
 19 X -27 Y 19 X -33 Y 19 X 10 Y 18 X -20 Y 19 X -5 Y 19 X -44 Y 19 X -307 Y 75 X 58 Y 19 X -58 Y 283 X s black 3 lw 306 241 m 1884 X s
 gsave  2268 1538 0 0 C 2156.94 48.8732 t 0 r /Helvetica findfont 58.6478 sf 0 0 m (3) show NC gr 
 gsave  2268 1538 0 0 C 2134.13 74.9389 t 0 r /Helvetica findfont 84.7135 sf 0 0 m (f) show NC gr  306 279 m -38 Y s 344 260 m -19 Y s 382 260 m -19 Y s 419 260 m -19 Y s 457 260 m -19 Y s 495 279 m -38 Y s 532 260 m -19 Y s 570 260 m -19 Y s 608 260
 m -19 Y s 645 260 m -19 Y s 683 279 m -38 Y s 721 260 m -19 Y s 758 260 m -19 Y s 796 260 m -19 Y s 834 260 m -19 Y s 871 279 m -38 Y s 909 260 m -19 Y s 947 260 m -19 Y s 984 260 m -19 Y s 1022 260 m -19 Y s 1060 279 m -38 Y s 1097 260 m -19 Y s
 1135 260 m -19 Y s 1173 260 m -19 Y s 1210 260 m -19 Y s 1248 279 m -38 Y s 1286 260 m -19 Y s 1323 260 m -19 Y s 1361 260 m -19 Y s 1399 260 m -19 Y s 1436 279 m -38 Y s 1474 260 m -19 Y s 1512 260 m -19 Y s 1549 260 m -19 Y s 1587 260 m -19 Y s
 1625 279 m -38 Y s 1662 260 m -19 Y s 1700 260 m -19 Y s 1738 260 m -19 Y s 1775 260 m -19 Y s 1813 279 m -38 Y s 1851 260 m -19 Y s 1888 260 m -19 Y s 1926 260 m -19 Y s 1964 260 m -19 Y s 2001 279 m -38 Y s 2039 260 m -19 Y s 2077 260 m -19 Y s
 2114 260 m -19 Y s 2152 260 m -19 Y s 2190 279 m -38 Y s
 gsave  2268 1538 0 0 C 283.465 159.652 t 0 r /Helvetica findfont 84.7135 sf 0 0 m (0) show NC gr 
 gsave  2268 1538 0 0 C 439.859 159.652 t 0 r /Helvetica findfont 84.7135 sf 0 0 m (0.1) show NC gr 
 gsave  2268 1538 0 0 C 622.319 159.652 t 0 r /Helvetica findfont 84.7135 sf 0 0 m (0.2) show NC gr 
 gsave  2268 1538 0 0 C 811.295 159.652 t 0 r /Helvetica findfont 84.7135 sf 0 0 m (0.3) show NC gr 
 gsave  2268 1538 0 0 C 1000.27 159.652 t 0 r /Helvetica findfont 84.7135 sf 0 0 m (0.4) show NC gr 
 gsave  2268 1538 0 0 C 1189.25 159.652 t 0 r /Helvetica findfont 84.7135 sf 0 0 m (0.5) show NC gr 
 gsave  2268 1538 0 0 C 1374.97 159.652 t 0 r /Helvetica findfont 84.7135 sf 0 0 m (0.6) show NC gr 
 gsave  2268 1538 0 0 C 1563.94 159.652 t 0 r /Helvetica findfont 84.7135 sf 0 0 m (0.7) show NC gr 
 gsave  2268 1538 0 0 C 1752.92 159.652 t 0 r /Helvetica findfont 84.7135 sf 0 0 m (0.8) show NC gr 
 gsave  2268 1538 0 0 C 1941.9 159.652 t 0 r /Helvetica findfont 84.7135 sf 0 0 m (0.9) show NC gr 
 gsave  2268 1538 0 0 C 2173.23 159.652 t 0 r /Helvetica findfont 84.7135 sf 0 0 m (1) show NC gr  306 1492 m 1884 X s 306 1454 m 38 Y s 344 1473 m 19 Y s 382 1473 m 19 Y s 419 1473 m 19 Y s 457 1473 m 19 Y s 495 1454 m 38 Y s 532 1473 m 19 Y s 570
 1473 m 19 Y s 608 1473 m 19 Y s 645 1473 m 19 Y s 683 1454 m 38 Y s 721 1473 m 19 Y s 758 1473 m 19 Y s 796 1473 m 19 Y s 834 1473 m 19 Y s 871 1454 m 38 Y s 909 1473 m 19 Y s 947 1473 m 19 Y s 984 1473 m 19 Y s 1022 1473 m 19 Y s 1060 1454 m 38 Y s
 1097 1473 m 19 Y s 1135 1473 m 19 Y s 1173 1473 m 19 Y s 1210 1473 m 19 Y s 1248 1454 m 38 Y s 1286 1473 m 19 Y s 1323 1473 m 19 Y s 1361 1473 m 19 Y s 1399 1473 m 19 Y s 1436 1454 m 38 Y s 1474 1473 m 19 Y s 1512 1473 m 19 Y s 1549 1473 m 19 Y s
 1587 1473 m 19 Y s 1625 1454 m 38 Y s 1662 1473 m 19 Y s 1700 1473 m 19 Y s 1738 1473 m 19 Y s 1775 1473 m 19 Y s 1813 1454 m 38 Y s 1851 1473 m 19 Y s 1888 1473 m 19 Y s 1926 1473 m 19 Y s 1964 1473 m 19 Y s 2001 1454 m 38 Y s 2039 1473 m 19 Y s
 2077 1473 m 19 Y s 2114 1473 m 19 Y s 2152 1473 m 19 Y s 2190 1454 m 38 Y s 306 241 m 1251 Y s 334 244 m -28 X s 334 268 m -28 X s 334 286 m -28 X s 334 301 m -28 X s 334 314 m -28 X s 334 325 m -28 X s 334 335 m -28 X s 362 344 m -56 X s
 gsave  2268 1538 0 0 C 231.333 345.371 t 0 r /Helvetica findfont 58.6478 sf 0 0 m (\2556) show NC gr 
 gsave  2268 1538 0 0 C 140.103 306.272 t 0 r /Helvetica findfont 84.7135 sf 0 0 m (10) show NC gr  334 402 m -28 X s 334 435 m -28 X s 334 459 m -28 X s 334 478 m -28 X s 334 493 m -28 X s 334 506 m -28 X s 334 517 m -28 X s 334 527 m -28 X s 362
 535 m -56 X s
 gsave  2268 1538 0 0 C 231.333 537.605 t 0 r /Helvetica findfont 58.6478 sf 0 0 m (\2555) show NC gr 
 gsave  2268 1538 0 0 C 140.103 498.507 t 0 r /Helvetica findfont 84.7135 sf 0 0 m (10) show NC gr  334 593 m -28 X s 334 627 m -28 X s 334 651 m -28 X s 334 669 m -28 X s 334 684 m -28 X s 334 697 m -28 X s 334 708 m -28 X s 334 718 m -28 X s 362
 727 m -56 X s
 gsave  2268 1538 0 0 C 231.333 726.582 t 0 r /Helvetica findfont 58.6478 sf 0 0 m (\2554) show NC gr 
 gsave  2268 1538 0 0 C 140.103 690.741 t 0 r /Helvetica findfont 84.7135 sf 0 0 m (10) show NC gr  334 784 m -28 X s 334 818 m -28 X s 334 842 m -28 X s 334 860 m -28 X s 334 876 m -28 X s 334 888 m -28 X s 334 900 m -28 X s 334 909 m -28 X s 362
 918 m -56 X s
 gsave  2268 1538 0 0 C 231.333 918.816 t 0 r /Helvetica findfont 58.6478 sf 0 0 m (\2553) show NC gr 
 gsave  2268 1538 0 0 C 140.103 879.718 t 0 r /Helvetica findfont 84.7135 sf 0 0 m (10) show NC gr  334 976 m -28 X s 334 1009 m -28 X s 334 1033 m -28 X s 334 1052 m -28 X s 334 1067 m -28 X s 334 1080 m -28 X s 334 1091 m -28 X s 334 1101 m -28 X s
 362 1109 m -56 X s
 gsave  2268 1538 0 0 C 231.333 1107.79 t 0 r /Helvetica findfont 58.6478 sf 0 0 m (\2552) show NC gr 
 gsave  2268 1538 0 0 C 140.103 1071.95 t 0 r /Helvetica findfont 84.7135 sf 0 0 m (10) show NC gr  334 1167 m -28 X s 334 1201 m -28 X s 334 1225 m -28 X s 334 1243 m -28 X s 334 1258 m -28 X s 334 1271 m -28 X s 334 1282 m -28 X s 334 1292 m -28 X
 s 362 1301 m -56 X s
 gsave  2268 1538 0 0 C 241.108 1300.03 t 0 r /Helvetica findfont 58.6478 sf 0 0 m (\2551) show NC gr 
 gsave  2268 1538 0 0 C 149.878 1264.19 t 0 r /Helvetica findfont 84.7135 sf 0 0 m (10) show NC gr  334 1358 m -28 X s 334 1392 m -28 X s 334 1416 m -28 X s 334 1435 m -28 X s 334 1450 m -28 X s 334 1463 m -28 X s 334 1474 m -28 X s 334 1484 m -28 X
 s 362 1492 m -56 X s
 gsave  2268 1538 0 0 C 284.048 1455.77 t 0 r  -47 0 t /Helvetica findfont 84.7135 sf 0 0 m (1) show NC gr  2190 241 m 1251 Y s 2162 244 m 28 X s 2162 268 m 28 X s 2162 286 m 28 X s 2162 301 m 28 X s 2162 314 m 28 X s 2162 325 m 28 X s 2162 335 m 28
 X s 2134 344 m 56 X s 2162 402 m 28 X s 2162 435 m 28 X s 2162 459 m 28 X s 2162 478 m 28 X s 2162 493 m 28 X s 2162 506 m 28 X s 2162 517 m 28 X s 2162 527 m 28 X s 2134 535 m 56 X s 2162 593 m 28 X s 2162 627 m 28 X s 2162 651 m 28 X s 2162 669 m
 28 X s 2162 684 m 28 X s 2162 697 m 28 X s 2162 708 m 28 X s 2162 718 m 28 X s 2134 727 m 56 X s 2162 784 m 28 X s 2162 818 m 28 X s 2162 842 m 28 X s 2162 860 m 28 X s 2162 876 m 28 X s 2162 888 m 28 X s 2162 900 m 28 X s 2162 909 m 28 X s 2134 918
 m 56 X s 2162 976 m 28 X s 2162 1009 m 28 X s 2162 1033 m 28 X s 2162 1052 m 28 X s 2162 1067 m 28 X s 2162 1080 m 28 X s 2162 1091 m 28 X s 2162 1101 m 28 X s 2134 1109 m 56 X s 2162 1167 m 28 X s 2162 1201 m 28 X s 2162 1225 m 28 X s 2162 1243 m
 28 X s 2162 1258 m 28 X s 2162 1271 m 28 X s 2162 1282 m 28 X s 2162 1292 m 28 X s 2134 1301 m 56 X s 2162 1358 m 28 X s 2162 1392 m 28 X s 2162 1416 m 28 X s 2162 1435 m 28 X s 2162 1450 m 28 X s 2162 1463 m 28 X s 2162 1474 m 28 X s 2162 1484 m 28
 X s 2134 1492 m 56 X s 0 0 0.6 c[  12 12 ] 0 sd 6 lw 1 1 1 c black 0 0 0.6 c 306 1434 m 19 X -36 Y 19 X -111 Y 19 X -76 Y 19 X -52 Y 18 X -39 Y 19 X -31 Y 19 X -30 Y 19 X -26 Y 19 X -22 Y 19 X -21 Y 18 X -20 Y 19 X -19 Y 19 X -16 Y 19 X -18 Y 19 X
 -17 Y 19 X -18 Y 18 X -18 Y 19 X -12 Y 19 X -18 Y 19 X -9 Y 19 X -18 Y 19 X -23 Y 18 X -5 Y 19 X -29 Y 19 X 16 Y 19 X -28 Y 19 X -22 Y 19 X -11 Y 18 X -20 Y 19 X -3 Y 19 X -9 Y 19 X 10 Y 19 X -52 Y 19 X -17 Y 18 X 21 Y 19 X -2 Y 19 X -27 Y 19 X 8 Y
 19 X -39 Y 19 X -9 Y 18 X -20 Y 19 X 16 Y 19 X -29 Y 19 X 13 Y 19 X -47 Y 19 X 26 Y 18 X 21 Y 19 X -28 Y 19 X 15 Y 19 X 13 Y 19 X -47 Y 19 X -115 Y 18 X 57 Y 19 X 68 Y 19 X -125 Y 19 X 76 Y 19 X 39 Y 19 X -39 Y 18 X 15 Y 19 X -15 Y 19 X -19 Y 38 X
 -57 Y 19 X 57 Y 37 X -57 Y 19 X 33 Y 19 X -91 Y 19 X 58 Y 19 X -58 Y 37 X -85 Y 19 X 85 Y 19 X -85 Y 490 X s 0 0.4 0.6 c[ 4 8] 0 sd 1 1 1 c black 0 0.4 0.6 c 306 1451 m 19 X -85 Y 19 X -108 Y 19 X -54 Y 19 X -40 Y 18 X -30 Y 19 X -27 Y 19 X -25 Y 19
 X -21 Y 19 X -20 Y 19 X -18 Y 18 X -20 Y 19 X -13 Y 19 X -19 Y 19 X -20 Y 19 X -8 Y 19 X -20 Y 18 X -21 Y 19 X -9 Y 19 X -26 Y 19 X -10 Y 19 X -17 Y 19 X -2 Y 18 X -18 Y 19 X -13 Y 19 X -14 Y 19 X -11 Y 19 X -19 Y 19 X 6 Y 18 X -68 Y 19 X 22 Y 19 X
 -20 Y 19 X 4 Y 19 X 3 Y 19 X -27 Y 18 X -36 Y 19 X 36 Y 19 X -19 Y 19 X -6 Y 19 X -28 Y 19 X 13 Y 18 X -28 Y 19 X 15 Y 19 X -41 Y 19 X 26 Y 19 X -12 Y 19 X 18 Y 18 X -82 Y 19 X 76 Y 19 X 20 Y 19 X -72 Y 19 X 19 Y 19 X -9 Y 18 X 16 Y 19 X -16 Y 19 X
 -34 Y 19 X 13 Y 38 X -13 Y 18 X -34 Y 19 X -24 Y 38 X -33 Y 19 X 57 Y 19 X -115 Y 37 X 58 Y 19 X 57 Y 19 X -115 Y 38 X -149 Y 18 X 207 Y 38 X -58 Y 57 X -149 Y 452 X s black[  ] 0 sd 1 1 1 c black 306 1459 m 19 X -66 Y 19 X -228 Y 19 X -135 Y 19 X
 -89 Y 18 X -67 Y 19 X -58 Y 19 X -47 Y 19 X -23 Y 19 X -29 Y 19 X -31 Y 18 X -27 Y 19 X -17 Y 19 X -12 Y 19 X -15 Y 19 X -35 Y 19 X -4 Y 18 X -8 Y 19 X -37 Y 19 X -8 Y 19 X -38 Y 19 X 20 Y 19 X -31 Y 18 X 8 Y 19 X -75 Y 19 X 17 Y 19 X -26 Y 19 X -11
 Y 19 X 11 Y 18 X -58 Y 19 X 47 Y 19 X -71 Y 19 X 43 Y 19 X -77 Y 37 X -41 Y 38 X 75 Y 19 X -34 Y 19 X -41 Y 19 X 41 Y 18 X -41 Y 57 X 41 Y 19 X -41 Y 1036 X s
 gsave  2268 1538 0 0 C 1309.8 1332.61 t 0 r /Helvetica-Bold findfont 58.6478 sf 0 0 m (Conversion electrons) show NC gr  0 0.4 0.6 c[ 4 8] 0 sd 1052 1352 m 212 X s black
 gsave  2268 1538 0 0 C 1309.8 1241.38 t 0 r /Helvetica-Bold findfont 58.6478 sf 0 0 m (Isolated electrons ) show NC gr [  ] 0 sd 1052 1260 m 212 X s
 gsave  2268 1538 0 0 C 1309.8 1150.15 t 0 r /Helvetica-Bold findfont 58.6478 sf 0 0 m (Non\255Isolated electrons) show NC gr  0 0 0.6 c[  12 12 ] 0 sd 1052 1168 m 212 X s black
 gsave  2268 1538 0 0 C 1309.8 1055.66 t 0 r /Helvetica-Bold findfont 58.6478 sf 0 0 m (Hadrons) show NC gr  0.6 0 0.2 c[  ] 0 sd 1052 1076 m 212 X s
 gr  gr showpage
end
%%EOF
