%!PS-Adobe-2.0 EPSF-2.0
%%BoundingBox:  0 0 567 384
%%Title: /home/rohin/Analysis/dataAna/2014/July/electron_vars/F3core.eps: c1_n13
%%Creator: ROOT Version 5.34/14
%%CreationDate: Tue Sep  9 00:32:06 2014
%%EndComments
%%BeginProlog
80 dict begin
/s {stroke} def /l {lineto} def /m {moveto} def /t {translate} def
/r {rotate} def /rl {roll}  def /R {repeat} def
/d {rlineto} def /rm {rmoveto} def /gr {grestore} def /f {eofill} def
/c {setrgbcolor} def /black {0 setgray} def /sd {setdash} def
/cl {closepath} def /sf {scalefont setfont} def /lw {setlinewidth} def
/box {m dup 0 exch d exch 0 d 0 exch neg d cl} def
/NC{systemdict begin initclip end}def/C{NC box clip newpath}def
/bl {box s} def /bf {box f} def /Y { 0 exch d} def /X { 0 d} def 
/K {{pop pop 0 moveto} exch kshow} bind def
/ita {/ang 15 def gsave [1 0 ang dup sin exch cos div 1 0 0] concat} def 
/mp {newpath /y exch def /x exch def} def
/side {[w .77 mul w .23 mul] .385 w mul sd w 0 l currentpoint t -144 r} def
/mr {mp x y w2 0 360 arc} def /m24 {mr s} def /m20 {mr f} def
/mb {mp x y w2 add m w2 neg 0 d 0 w neg d w 0 d 0 w d cl} def
/mt {mp x y w2 add m w2 neg w neg d w 0 d cl} def
/m21 {mb f} def /m25 {mb s} def /m22 {mt f} def /m26{mt s} def
/m23 {mp x y w2 sub m w2 w d w neg 0 d cl f} def
/m27 {mp x y w2 add m w3 neg w2 neg d w3 w2 neg d w3 w2 d cl s} def
/m28 {mp x w2 sub y w2 sub w3 add m w3 0 d  0 w3 neg d w3 0 d 0 w3 d w3 0 d  0 w3 d w3 neg 0 d 0 w3 d w3 neg 0 d 0 w3 neg d w3 neg 0 d cl s } def
/m29 {mp gsave x w2 sub y w2 add w3 sub m currentpoint t 4 {side} repeat cl fill gr} def
/m30 {mp gsave x w2 sub y w2 add w3 sub m currentpoint t 4 {side} repeat cl s gr} def
/m31 {mp x y w2 sub m 0 w d x w2 sub y m w 0 d x w2 sub y w2 add m w w neg d x w2 sub y w2 sub m w w d s} def
/m32 {mp x y w2 sub m w2 w d w neg 0 d cl s} def
/m33 {mp x y w2 add m w3 neg w2 neg d w3 w2 neg d w3 w2 d cl f} def
/m34 {mp x w2 sub y w2 sub w3 add m w3 0 d  0 w3 neg d w3 0 d 0 w3 d w3 0 d  0 w3 d w3 neg 0 d 0 w3 d w3 neg 0 d 0 w3 neg d w3 neg 0 d cl f } def
/m2 {mp x y w2 sub m 0 w d x w2 sub y m w 0 d s} def
/m5 {mp x w2 sub y w2 sub m w w d x w2 sub y w2 add m w w neg d s} def
/reEncode {exch findfont dup length dict begin {1 index /FID eq  {pop pop} {def} ifelse } forall /Encoding exch def currentdict end dup /FontName get exch definefont pop } def [/Times-Bold /Times-Italic /Times-BoldItalic /Helvetica /Helvetica-Oblique
 /Helvetica-Bold /Helvetica-BoldOblique /Courier /Courier-Oblique /Courier-Bold /Courier-BoldOblique /Times-Roman /AvantGarde-Book /AvantGarde-BookOblique /AvantGarde-Demi /AvantGarde-DemiOblique /Bookman-Demi /Bookman-DemiItalic /Bookman-Light
 /Bookman-LightItalic /Helvetica-Narrow /Helvetica-Narrow-Bold /Helvetica-Narrow-BoldOblique /Helvetica-Narrow-Oblique /NewCenturySchlbk-Roman /NewCenturySchlbk-Bold /NewCenturySchlbk-BoldItalic /NewCenturySchlbk-Italic /Palatino-Bold
 /Palatino-BoldItalic /Palatino-Italic /Palatino-Roman ] {ISOLatin1Encoding reEncode } forall
%%EndProlog
%%BeginSetup
%%EndSetup
newpath  gsave  .25 .25 scale  gsave  0 0 t black[  ] 0 sd 3 lw 1 1 1 c 2268 1538 0 0 bf black 1 1 1 c 1884 1251 283 205 bf black 1884 1251 283 205 bl 1 1 1 c 1884 1251 283 205 bf black 1884 1251 283 205 bl 0.6 0 0.2 c 6 lw 1 1 1 c black 0.6 0 0.2 c
 283 1396 m 19 X -74 Y 19 X -66 Y 19 X -43 Y 19 X -34 Y 19 X -28 Y 18 X -24 Y 19 X -21 Y 19 X -21 Y 19 X -17 Y 19 X -16 Y 19 X -15 Y 18 X -12 Y 19 X -15 Y 19 X -11 Y 19 X -33 Y 19 X -10 Y 19 X -10 Y 18 X -10 Y 19 X -10 Y 19 X -11 Y 19 X -11 Y 19 X
 -12 Y 19 X -11 Y 18 X -10 Y 19 X -15 Y 19 X -15 Y 19 X -10 Y 19 X -13 Y 19 X -11 Y 18 X -15 Y 19 X -3 Y 19 X -13 Y 19 X -8 Y 19 X -12 Y 19 X -10 Y 18 X 4 Y 19 X -26 Y 19 X 9 Y 19 X -11 Y 19 X -5 Y 19 X -4 Y 18 X 1 Y 19 X -1 Y 19 X -3 Y 19 X -6 Y 19
 X -15 Y 19 X 10 Y 18 X -5 Y 19 X -15 Y 19 X -6 Y 19 X 8 Y 19 X -26 Y 19 X 4 Y 18 X 10 Y 19 X -5 Y 19 X -18 Y 19 X 4 Y 19 X -25 Y 19 X 1 Y 18 X 5 Y 19 X -14 Y 19 X -17 Y 19 X 26 Y 19 X -20 Y 19 X -10 Y 18 X 10 Y 19 X -12 Y 19 X -12 Y 19 X -5 Y 19 X
 -11 Y 19 X -19 Y 18 X -43 Y 19 X 24 Y 19 X 13 Y 19 X -32 Y 19 X 8 Y 19 X -23 Y 18 X -97 Y 19 X -42 Y 19 X -34 Y 57 X -116 Y 18 X 58 Y 19 X -58 Y 94 X 58 Y 19 X -58 Y 57 X 58 Y 19 X -58 Y 94 X s black 3 lw 283 205 m 1884 X s
 gsave  2268 1538 0 0 C 1951.67 39.0986 t 0 r /Helvetica findfont 84.7135 sf 0 0 m (\(core\)) show NC gr 
 gsave  2268 1538 0 0 C 1919.09 13.0329 t 0 r /Helvetica findfont 58.6478 sf 0 0 m (3) show NC gr 
 gsave  2268 1538 0 0 C 1896.28 39.0986 t 0 r /Helvetica findfont 84.7135 sf 0 0 m (f) show NC gr  283 244 m -39 Y s 321 224 m -19 Y s 359 224 m -19 Y s 396 224 m -19 Y s 434 224 m -19 Y s 472 244 m -39 Y s 509 224 m -19 Y s 547 224 m -19 Y s 585 224
 m -19 Y s 622 224 m -19 Y s 660 244 m -39 Y s 698 224 m -19 Y s 735 224 m -19 Y s 773 224 m -19 Y s 811 224 m -19 Y s 848 244 m -39 Y s 886 224 m -19 Y s 924 224 m -19 Y s 961 224 m -19 Y s 999 224 m -19 Y s 1037 244 m -39 Y s 1074 224 m -19 Y s
 1112 224 m -19 Y s 1150 224 m -19 Y s 1187 224 m -19 Y s 1225 244 m -39 Y s 1263 224 m -19 Y s 1300 224 m -19 Y s 1338 224 m -19 Y s 1376 224 m -19 Y s 1413 244 m -39 Y s 1451 224 m -19 Y s 1489 224 m -19 Y s 1526 224 m -19 Y s 1564 224 m -19 Y s
 1602 244 m -39 Y s 1639 224 m -19 Y s 1677 224 m -19 Y s 1715 224 m -19 Y s 1752 224 m -19 Y s 1790 244 m -39 Y s 1828 224 m -19 Y s 1865 224 m -19 Y s 1903 224 m -19 Y s 1941 224 m -19 Y s 1978 244 m -39 Y s 2016 224 m -19 Y s 2054 224 m -19 Y s
 2091 224 m -19 Y s 2129 224 m -19 Y s 2167 244 m -39 Y s
 gsave  2268 1538 0 0 C 260.657 123.812 t 0 r /Helvetica findfont 84.7135 sf 0 0 m (0) show NC gr 
 gsave  2268 1538 0 0 C 417.051 123.812 t 0 r /Helvetica findfont 84.7135 sf 0 0 m (0.1) show NC gr 
 gsave  2268 1538 0 0 C 599.511 123.812 t 0 r /Helvetica findfont 84.7135 sf 0 0 m (0.2) show NC gr 
 gsave  2268 1538 0 0 C 788.488 123.812 t 0 r /Helvetica findfont 84.7135 sf 0 0 m (0.3) show NC gr 
 gsave  2268 1538 0 0 C 977.464 123.812 t 0 r /Helvetica findfont 84.7135 sf 0 0 m (0.4) show NC gr 
 gsave  2268 1538 0 0 C 1166.44 123.812 t 0 r /Helvetica findfont 84.7135 sf 0 0 m (0.5) show NC gr 
 gsave  2268 1538 0 0 C 1352.16 123.812 t 0 r /Helvetica findfont 84.7135 sf 0 0 m (0.6) show NC gr 
 gsave  2268 1538 0 0 C 1541.13 123.812 t 0 r /Helvetica findfont 84.7135 sf 0 0 m (0.7) show NC gr 
 gsave  2268 1538 0 0 C 1730.11 123.812 t 0 r /Helvetica findfont 84.7135 sf 0 0 m (0.8) show NC gr 
 gsave  2268 1538 0 0 C 1919.09 123.812 t 0 r /Helvetica findfont 84.7135 sf 0 0 m (0.9) show NC gr 
 gsave  2268 1538 0 0 C 2150.42 123.812 t 0 r /Helvetica findfont 84.7135 sf 0 0 m (1) show NC gr  283 1456 m 1884 X s 283 1418 m 38 Y s 321 1437 m 19 Y s 359 1437 m 19 Y s 396 1437 m 19 Y s 434 1437 m 19 Y s 472 1418 m 38 Y s 509 1437 m 19 Y s 547
 1437 m 19 Y s 585 1437 m 19 Y s 622 1437 m 19 Y s 660 1418 m 38 Y s 698 1437 m 19 Y s 735 1437 m 19 Y s 773 1437 m 19 Y s 811 1437 m 19 Y s 848 1418 m 38 Y s 886 1437 m 19 Y s 924 1437 m 19 Y s 961 1437 m 19 Y s 999 1437 m 19 Y s 1037 1418 m 38 Y s
 1074 1437 m 19 Y s 1112 1437 m 19 Y s 1150 1437 m 19 Y s 1187 1437 m 19 Y s 1225 1418 m 38 Y s 1263 1437 m 19 Y s 1300 1437 m 19 Y s 1338 1437 m 19 Y s 1376 1437 m 19 Y s 1413 1418 m 38 Y s 1451 1437 m 19 Y s 1489 1437 m 19 Y s 1526 1437 m 19 Y s
 1564 1437 m 19 Y s 1602 1418 m 38 Y s 1639 1437 m 19 Y s 1677 1437 m 19 Y s 1715 1437 m 19 Y s 1752 1437 m 19 Y s 1790 1418 m 38 Y s 1828 1437 m 19 Y s 1865 1437 m 19 Y s 1903 1437 m 19 Y s 1941 1437 m 19 Y s 1978 1418 m 38 Y s 2016 1437 m 19 Y s
 2054 1437 m 19 Y s 2091 1437 m 19 Y s 2129 1437 m 19 Y s 2167 1418 m 38 Y s 283 205 m 1251 Y s 311 228 m -28 X s 311 247 m -28 X s 311 262 m -28 X s 311 275 m -28 X s 311 286 m -28 X s 311 296 m -28 X s 339 305 m -56 X s
 gsave  2268 1538 0 0 C 208.526 306.272 t 0 r /Helvetica findfont 58.6478 sf 0 0 m (\2556) show NC gr 
 gsave  2268 1538 0 0 C 117.296 267.173 t 0 r /Helvetica findfont 84.7135 sf 0 0 m (10) show NC gr  311 362 m -28 X s 311 396 m -28 X s 311 420 m -28 X s 311 439 m -28 X s 311 454 m -28 X s 311 467 m -28 X s 311 478 m -28 X s 311 488 m -28 X s 339
 497 m -56 X s
 gsave  2268 1538 0 0 C 208.526 498.507 t 0 r /Helvetica findfont 58.6478 sf 0 0 m (\2555) show NC gr 
 gsave  2268 1538 0 0 C 117.296 459.408 t 0 r /Helvetica findfont 84.7135 sf 0 0 m (10) show NC gr  311 554 m -28 X s 311 588 m -28 X s 311 612 m -28 X s 311 631 m -28 X s 311 646 m -28 X s 311 659 m -28 X s 311 670 m -28 X s 311 680 m -28 X s 339
 689 m -56 X s
 gsave  2268 1538 0 0 C 208.526 687.483 t 0 r /Helvetica findfont 58.6478 sf 0 0 m (\2554) show NC gr 
 gsave  2268 1538 0 0 C 117.296 651.643 t 0 r /Helvetica findfont 84.7135 sf 0 0 m (10) show NC gr  311 746 m -28 X s 311 780 m -28 X s 311 804 m -28 X s 311 823 m -28 X s 311 838 m -28 X s 311 851 m -28 X s 311 862 m -28 X s 311 872 m -28 X s 339
 881 m -56 X s
 gsave  2268 1538 0 0 C 208.526 882.976 t 0 r /Helvetica findfont 58.6478 sf 0 0 m (\2553) show NC gr 
 gsave  2268 1538 0 0 C 117.296 843.877 t 0 r /Helvetica findfont 84.7135 sf 0 0 m (10) show NC gr  311 938 m -28 X s 311 972 m -28 X s 311 996 m -28 X s 311 1015 m -28 X s 311 1030 m -28 X s 311 1043 m -28 X s 311 1054 m -28 X s 311 1064 m -28 X s
 339 1073 m -56 X s
 gsave  2268 1538 0 0 C 208.526 1071.95 t 0 r /Helvetica findfont 58.6478 sf 0 0 m (\2552) show NC gr 
 gsave  2268 1538 0 0 C 117.296 1036.11 t 0 r /Helvetica findfont 84.7135 sf 0 0 m (10) show NC gr  311 1130 m -28 X s 311 1164 m -28 X s 311 1188 m -28 X s 311 1207 m -28 X s 311 1222 m -28 X s 311 1235 m -28 X s 311 1246 m -28 X s 311 1256 m -28 X
 s 339 1264 m -56 X s
 gsave  2268 1538 0 0 C 218.3 1264.19 t 0 r /Helvetica findfont 58.6478 sf 0 0 m (\2551) show NC gr 
 gsave  2268 1538 0 0 C 127.07 1228.35 t 0 r /Helvetica findfont 84.7135 sf 0 0 m (10) show NC gr  311 1322 m -28 X s 311 1356 m -28 X s 311 1380 m -28 X s 311 1399 m -28 X s 311 1414 m -28 X s 311 1427 m -28 X s 311 1438 m -28 X s 311 1448 m -28 X s
 339 1456 m -56 X s
 gsave  2268 1538 0 0 C 261.241 1419.93 t 0 r  -47 0 t /Helvetica findfont 84.7135 sf 0 0 m (1) show NC gr  2167 205 m 1251 Y s 2139 228 m 28 X s 2139 247 m 28 X s 2139 262 m 28 X s 2139 275 m 28 X s 2139 286 m 28 X s 2139 296 m 28 X s 2111 305 m 56
 X s 2139 362 m 28 X s 2139 396 m 28 X s 2139 420 m 28 X s 2139 439 m 28 X s 2139 454 m 28 X s 2139 467 m 28 X s 2139 478 m 28 X s 2139 488 m 28 X s 2111 497 m 56 X s 2139 554 m 28 X s 2139 588 m 28 X s 2139 612 m 28 X s 2139 631 m 28 X s 2139 646 m
 28 X s 2139 659 m 28 X s 2139 670 m 28 X s 2139 680 m 28 X s 2111 689 m 56 X s 2139 746 m 28 X s 2139 780 m 28 X s 2139 804 m 28 X s 2139 823 m 28 X s 2139 838 m 28 X s 2139 851 m 28 X s 2139 862 m 28 X s 2139 872 m 28 X s 2111 881 m 56 X s 2139 938
 m 28 X s 2139 972 m 28 X s 2139 996 m 28 X s 2139 1015 m 28 X s 2139 1030 m 28 X s 2139 1043 m 28 X s 2139 1054 m 28 X s 2139 1064 m 28 X s 2111 1073 m 56 X s 2139 1130 m 28 X s 2139 1164 m 28 X s 2139 1188 m 28 X s 2139 1207 m 28 X s 2139 1222 m 28
 X s 2139 1235 m 28 X s 2139 1246 m 28 X s 2139 1256 m 28 X s 2111 1264 m 56 X s 2139 1322 m 28 X s 2139 1356 m 28 X s 2139 1380 m 28 X s 2139 1399 m 28 X s 2139 1414 m 28 X s 2139 1427 m 28 X s 2139 1438 m 28 X s 2139 1448 m 28 X s 2111 1456 m 56 X
 s 0 0 0.6 c[  12 12 ] 0 sd 6 lw 1 1 1 c black 0 0 0.6 c 283 1432 m 19 X -127 Y 19 X -119 Y 19 X -71 Y 19 X -49 Y 19 X -37 Y 18 X -33 Y 19 X -28 Y 19 X -23 Y 19 X -29 Y 19 X -19 Y 19 X -24 Y 18 X -10 Y 19 X -21 Y 19 X -20 Y 19 X -31 Y 19 X -16 Y 19 X
 -20 Y 18 X -15 Y 19 X -14 Y 19 X -21 Y 19 X -17 Y 19 X -13 Y 19 X 9 Y 18 X -32 Y 19 X -13 Y 19 X 2 Y 19 X -25 Y 19 X -24 Y 19 X -12 Y 18 X -3 Y 19 X -3 Y 19 X -27 Y 19 X -8 Y 19 X -14 Y 19 X -40 Y 18 X -29 Y 38 X -13 Y 19 X -34 Y 38 X -58 Y 18 X -58
 Y 19 X 58 Y 19 X 58 Y 19 X -204 Y 19 X 180 Y 19 X -92 Y 18 X 92 Y 19 X 58 Y 19 X -150 Y 19 X -88 Y 19 X 88 Y 19 X 58 Y 18 X -146 Y 57 X 180 Y 19 X -34 Y 19 X -58 Y 18 X -88 Y 19 X 88 Y 19 X -88 Y 113 X 88 Y 19 X -88 Y 113 X 88 Y 19 X -88 Y 75 X 88 Y
 19 X -88 Y 56 X 88 Y 19 X -88 Y 94 X 88 Y 19 X -88 Y 170 X s 0 0.4 0.6 c[ 4 8] 0 sd 1 1 1 c black 0 0.4 0.6 c 283 1438 m 19 X -167 Y 19 X -99 Y 19 X -59 Y 19 X -42 Y 19 X -33 Y 18 X -34 Y 19 X -18 Y 19 X -26 Y 19 X -24 Y 19 X -15 Y 19 X -22 Y 18 X
 -11 Y 19 X -24 Y 19 X -8 Y 19 X -63 Y 19 X -15 Y 19 X -24 Y 18 X -3 Y 19 X -15 Y 19 X -16 Y 19 X -16 Y 19 X 3 Y 19 X -18 Y 18 X -2 Y 19 X -10 Y 19 X -29 Y 19 X -10 Y 19 X -34 Y 19 X -4 Y 18 X 23 Y 19 X -23 Y 19 X 12 Y 19 X -38 Y 19 X -46 Y 37 X -24
 Y 19 X 42 Y 38 X -42 Y 19 X -58 Y 19 X 71 Y 18 X -105 Y 19 X 92 Y 19 X -34 Y 38 X -24 Y 19 X 92 Y 18 X -68 Y 19 X -24 Y 19 X 24 Y 19 X -58 Y 19 X 92 Y 19 X -92 Y 37 X -207 Y 19 X 149 Y 19 X 58 Y 19 X -58 Y 19 X 58 Y 18 X -207 Y 19 X 149 Y 19 X -149
 Y 38 X 149 Y 75 X -149 Y 57 X 241 Y 18 X -92 Y 19 X -149 Y 38 X 149 Y 19 X -149 Y 226 X 149 Y 37 X -149 Y 189 X s black[  ] 0 sd 1 1 1 c black 283 1452 m 19 X -250 Y 19 X -197 Y 19 X -109 Y 19 X -73 Y 19 X -55 Y 18 X -45 Y 19 X -39 Y 19 X -29 Y 19 X
 -38 Y 19 X -26 Y 19 X -32 Y 18 X -46 Y 19 X -2 Y 19 X -19 Y 19 X -47 Y 19 X -38 Y 19 X -58 Y 37 X -28 Y 38 X -76 Y 38 X 76 Y 18 X -116 Y 19 X 98 Y 19 X -58 Y 38 X -40 Y 1356 X s
 gsave  2268 1538 0 0 C 1316.32 1322.83 t 0 r /Helvetica-Bold findfont 61.9061 sf 0 0 m (Conversion electrons) show NC gr  0 0.4 0.6 c[ 4 8] 0 sd 1065 1349 m 208 X s black
 gsave  2268 1538 0 0 C 1316.32 1205.54 t 0 r /Helvetica-Bold findfont 61.9061 sf 0 0 m (Isolated electrons ) show NC gr [  ] 0 sd 1065 1232 m 208 X s
 gsave  2268 1538 0 0 C 1316.32 1088.24 t 0 r /Helvetica-Bold findfont 61.9061 sf 0 0 m (Non\255Isolated electrons) show NC gr  0 0 0.6 c[  12 12 ] 0 sd 1065 1114 m 208 X s black
 gsave  2268 1538 0 0 C 1316.32 970.948 t 0 r /Helvetica-Bold findfont 61.9061 sf 0 0 m (Hadrons) show NC gr  0.6 0 0.2 c[  ] 0 sd 1065 997 m 208 X s
 gr  gr showpage
end
%%EOF
