%!PS-Adobe-2.0 EPSF-2.0
%%BoundingBox:  0 0 567 384
%%Title: /home/rohin/Analysis/dataAna/2014/July/electron_vars/NSiHits.eps: c1_n16
%%Creator: ROOT Version 5.34/14
%%CreationDate: Tue Sep  9 00:30:16 2014
%%EndComments
%%BeginProlog
80 dict begin
/s {stroke} def /l {lineto} def /m {moveto} def /t {translate} def
/r {rotate} def /rl {roll}  def /R {repeat} def
/d {rlineto} def /rm {rmoveto} def /gr {grestore} def /f {eofill} def
/c {setrgbcolor} def /black {0 setgray} def /sd {setdash} def
/cl {closepath} def /sf {scalefont setfont} def /lw {setlinewidth} def
/box {m dup 0 exch d exch 0 d 0 exch neg d cl} def
/NC{systemdict begin initclip end}def/C{NC box clip newpath}def
/bl {box s} def /bf {box f} def /Y { 0 exch d} def /X { 0 d} def 
/K {{pop pop 0 moveto} exch kshow} bind def
/ita {/ang 15 def gsave [1 0 ang dup sin exch cos div 1 0 0] concat} def 
/mp {newpath /y exch def /x exch def} def
/side {[w .77 mul w .23 mul] .385 w mul sd w 0 l currentpoint t -144 r} def
/mr {mp x y w2 0 360 arc} def /m24 {mr s} def /m20 {mr f} def
/mb {mp x y w2 add m w2 neg 0 d 0 w neg d w 0 d 0 w d cl} def
/mt {mp x y w2 add m w2 neg w neg d w 0 d cl} def
/m21 {mb f} def /m25 {mb s} def /m22 {mt f} def /m26{mt s} def
/m23 {mp x y w2 sub m w2 w d w neg 0 d cl f} def
/m27 {mp x y w2 add m w3 neg w2 neg d w3 w2 neg d w3 w2 d cl s} def
/m28 {mp x w2 sub y w2 sub w3 add m w3 0 d  0 w3 neg d w3 0 d 0 w3 d w3 0 d  0 w3 d w3 neg 0 d 0 w3 d w3 neg 0 d 0 w3 neg d w3 neg 0 d cl s } def
/m29 {mp gsave x w2 sub y w2 add w3 sub m currentpoint t 4 {side} repeat cl fill gr} def
/m30 {mp gsave x w2 sub y w2 add w3 sub m currentpoint t 4 {side} repeat cl s gr} def
/m31 {mp x y w2 sub m 0 w d x w2 sub y m w 0 d x w2 sub y w2 add m w w neg d x w2 sub y w2 sub m w w d s} def
/m32 {mp x y w2 sub m w2 w d w neg 0 d cl s} def
/m33 {mp x y w2 add m w3 neg w2 neg d w3 w2 neg d w3 w2 d cl f} def
/m34 {mp x w2 sub y w2 sub w3 add m w3 0 d  0 w3 neg d w3 0 d 0 w3 d w3 0 d  0 w3 d w3 neg 0 d 0 w3 d w3 neg 0 d 0 w3 neg d w3 neg 0 d cl f } def
/m2 {mp x y w2 sub m 0 w d x w2 sub y m w 0 d s} def
/m5 {mp x w2 sub y w2 sub m w w d x w2 sub y w2 add m w w neg d s} def
/reEncode {exch findfont dup length dict begin {1 index /FID eq  {pop pop} {def} ifelse } forall /Encoding exch def currentdict end dup /FontName get exch definefont pop } def [/Times-Bold /Times-Italic /Times-BoldItalic /Helvetica /Helvetica-Oblique
 /Helvetica-Bold /Helvetica-BoldOblique /Courier /Courier-Oblique /Courier-Bold /Courier-BoldOblique /Times-Roman /AvantGarde-Book /AvantGarde-BookOblique /AvantGarde-Demi /AvantGarde-DemiOblique /Bookman-Demi /Bookman-DemiItalic /Bookman-Light
 /Bookman-LightItalic /Helvetica-Narrow /Helvetica-Narrow-Bold /Helvetica-Narrow-BoldOblique /Helvetica-Narrow-Oblique /NewCenturySchlbk-Roman /NewCenturySchlbk-Bold /NewCenturySchlbk-BoldItalic /NewCenturySchlbk-Italic /Palatino-Bold
 /Palatino-BoldItalic /Palatino-Italic /Palatino-Roman ] {ISOLatin1Encoding reEncode } forall
%%EndProlog
%%BeginSetup
%%EndSetup
newpath  gsave  .25 .25 scale  gsave  0 0 t black[  ] 0 sd 3 lw 1 1 1 c 2268 1538 0 0 bf black 1 1 1 c 1883 1323 316 186 bf black 1883 1323 316 186 bl 1 1 1 c 1883 1323 316 186 bf black 1883 1323 316 186 bl 0.6 0 0.2 c 6 lw 1 1 1 c black 0.6 0 0.2 c
 316 971 m 47 X -785 Y 94 X 253 Y 47 X 316 Y 47 X 34 Y 48 X 111 Y 47 X 236 Y 47 X 70 Y 47 X 68 Y 47 X 63 Y 47 X 87 Y 47 X -67 Y 47 X -43 Y 47 X -78 Y 47 X -66 Y 47 X -89 Y 47 X -88 Y 48 X -112 Y 47 X -115 Y 47 X -154 Y 47 X -112 Y 47 X -254 Y 47 X
 -60 Y 800 X s black 3 lw 316 186 m 1883 X s
 gsave  2268 1538 0 0 C 1749.66 6.51643 t 0 r /Helvetica findfont 84.7135 sf 0 0 m (#Silicon hits) show NC gr  316 224 m -38 Y s 363 205 m -19 Y s 410 205 m -19 Y s 457 205 m -19 Y s 504 205 m -19 Y s 551 224 m -38 Y s 599 205 m -19 Y s 646 205 m -19
 Y s 693 205 m -19 Y s 740 205 m -19 Y s 787 224 m -38 Y s 834 205 m -19 Y s 881 205 m -19 Y s 928 205 m -19 Y s 975 205 m -19 Y s 1022 224 m -38 Y s 1069 205 m -19 Y s 1116 205 m -19 Y s 1164 205 m -19 Y s 1211 205 m -19 Y s 1258 224 m -38 Y s 1305
 205 m -19 Y s 1352 205 m -19 Y s 1399 205 m -19 Y s 1446 205 m -19 Y s 1493 224 m -38 Y s 1540 205 m -19 Y s 1587 205 m -19 Y s 1634 205 m -19 Y s 1681 205 m -19 Y s 1728 224 m -38 Y s 1776 205 m -19 Y s 1823 205 m -19 Y s 1870 205 m -19 Y s 1917
 205 m -19 Y s 1964 224 m -38 Y s 2011 205 m -19 Y s 2058 205 m -19 Y s 2105 205 m -19 Y s 2152 205 m -19 Y s 2199 224 m -38 Y s
 gsave  2268 1538 0 0 C 293.239 104.263 t 0 r /Helvetica findfont 84.7135 sf 0 0 m (0) show NC gr 
 gsave  2268 1538 0 0 C 527.831 104.263 t 0 r /Helvetica findfont 84.7135 sf 0 0 m (5) show NC gr 
 gsave  2268 1538 0 0 C 739.614 104.263 t 0 r /Helvetica findfont 84.7135 sf 0 0 m (10) show NC gr 
 gsave  2268 1538 0 0 C 974.206 104.263 t 0 r /Helvetica findfont 84.7135 sf 0 0 m (15) show NC gr 
 gsave  2268 1538 0 0 C 1212.06 104.263 t 0 r /Helvetica findfont 84.7135 sf 0 0 m (20) show NC gr 
 gsave  2268 1538 0 0 C 1446.65 104.263 t 0 r /Helvetica findfont 84.7135 sf 0 0 m (25) show NC gr 
 gsave  2268 1538 0 0 C 1681.24 104.263 t 0 r /Helvetica findfont 84.7135 sf 0 0 m (30) show NC gr 
 gsave  2268 1538 0 0 C 1915.83 104.263 t 0 r /Helvetica findfont 84.7135 sf 0 0 m (35) show NC gr 
 gsave  2268 1538 0 0 C 2153.68 104.263 t 0 r /Helvetica findfont 84.7135 sf 0 0 m (40) show NC gr  316 1509 m 1883 X s 316 1470 m 39 Y s 363 1489 m 20 Y s 410 1489 m 20 Y s 457 1489 m 20 Y s 504 1489 m 20 Y s 551 1470 m 39 Y s 599 1489 m 20 Y s 646
 1489 m 20 Y s 693 1489 m 20 Y s 740 1489 m 20 Y s 787 1470 m 39 Y s 834 1489 m 20 Y s 881 1489 m 20 Y s 928 1489 m 20 Y s 975 1489 m 20 Y s 1022 1470 m 39 Y s 1069 1489 m 20 Y s 1116 1489 m 20 Y s 1164 1489 m 20 Y s 1211 1489 m 20 Y s 1258 1470 m 39
 Y s 1305 1489 m 20 Y s 1352 1489 m 20 Y s 1399 1489 m 20 Y s 1446 1489 m 20 Y s 1493 1470 m 39 Y s 1540 1489 m 20 Y s 1587 1489 m 20 Y s 1634 1489 m 20 Y s 1681 1489 m 20 Y s 1728 1470 m 39 Y s 1776 1489 m 20 Y s 1823 1489 m 20 Y s 1870 1489 m 20 Y
 s 1917 1489 m 20 Y s 1964 1470 m 39 Y s 2011 1489 m 20 Y s 2058 1489 m 20 Y s 2105 1489 m 20 Y s 2152 1489 m 20 Y s 2199 1470 m 39 Y s 316 186 m 1323 Y s 345 193 m -29 X s 345 218 m -29 X s 345 237 m -29 X s 345 253 m -29 X s 345 267 m -29 X s 345
 279 m -29 X s 345 289 m -29 X s 375 298 m -59 X s
 gsave  2268 1538 0 0 C 241.108 299.756 t 0 r /Helvetica findfont 58.6478 sf 0 0 m (\2556) show NC gr 
 gsave  2268 1538 0 0 C 149.878 260.657 t 0 r /Helvetica findfont 84.7135 sf 0 0 m (10) show NC gr  345 359 m -29 X s 345 394 m -29 X s 345 420 m -29 X s 345 439 m -29 X s 345 455 m -29 X s 345 469 m -29 X s 345 480 m -29 X s 345 491 m -29 X s 375
 500 m -59 X s
 gsave  2268 1538 0 0 C 241.108 501.765 t 0 r /Helvetica findfont 58.6478 sf 0 0 m (\2555) show NC gr 
 gsave  2268 1538 0 0 C 149.878 462.666 t 0 r /Helvetica findfont 84.7135 sf 0 0 m (10) show NC gr  345 561 m -29 X s 345 596 m -29 X s 345 621 m -29 X s 345 641 m -29 X s 345 657 m -29 X s 345 670 m -29 X s 345 682 m -29 X s 345 692 m -29 X s 375
 702 m -59 X s
 gsave  2268 1538 0 0 C 241.108 700.516 t 0 r /Helvetica findfont 58.6478 sf 0 0 m (\2554) show NC gr 
 gsave  2268 1538 0 0 C 149.878 664.676 t 0 r /Helvetica findfont 84.7135 sf 0 0 m (10) show NC gr  345 762 m -29 X s 345 798 m -29 X s 345 823 m -29 X s 345 843 m -29 X s 345 859 m -29 X s 345 872 m -29 X s 345 884 m -29 X s 345 894 m -29 X s 375
 903 m -59 X s
 gsave  2268 1538 0 0 C 241.108 905.783 t 0 r /Helvetica findfont 58.6478 sf 0 0 m (\2553) show NC gr 
 gsave  2268 1538 0 0 C 149.878 866.685 t 0 r /Helvetica findfont 84.7135 sf 0 0 m (10) show NC gr  345 964 m -29 X s 345 1000 m -29 X s 345 1025 m -29 X s 345 1044 m -29 X s 345 1060 m -29 X s 345 1074 m -29 X s 345 1086 m -29 X s 345 1096 m -29 X s
 375 1105 m -59 X s
 gsave  2268 1538 0 0 C 241.108 1104.53 t 0 r /Helvetica findfont 58.6478 sf 0 0 m (\2552) show NC gr 
 gsave  2268 1538 0 0 C 149.878 1068.69 t 0 r /Helvetica findfont 84.7135 sf 0 0 m (10) show NC gr  345 1166 m -29 X s 345 1201 m -29 X s 345 1227 m -29 X s 345 1246 m -29 X s 345 1262 m -29 X s 345 1276 m -29 X s 345 1287 m -29 X s 345 1298 m -29 X
 s 375 1307 m -59 X s
 gsave  2268 1538 0 0 C 250.882 1306.54 t 0 r /Helvetica findfont 58.6478 sf 0 0 m (\2551) show NC gr 
 gsave  2268 1538 0 0 C 159.652 1270.7 t 0 r /Helvetica findfont 84.7135 sf 0 0 m (10) show NC gr  345 1368 m -29 X s 345 1403 m -29 X s 345 1428 m -29 X s 345 1448 m -29 X s 345 1464 m -29 X s 345 1477 m -29 X s 345 1489 m -29 X s 345 1499 m -29 X s
 375 1509 m -59 X s
 gsave  2268 1538 0 0 C 293.823 1472.06 t 0 r  -47 0 t /Helvetica findfont 84.7135 sf 0 0 m (1) show NC gr  2199 186 m 1323 Y s 2170 193 m 29 X s 2170 218 m 29 X s 2170 237 m 29 X s 2170 253 m 29 X s 2170 267 m 29 X s 2170 279 m 29 X s 2170 289 m 29
 X s 2141 298 m 58 X s 2170 359 m 29 X s 2170 394 m 29 X s 2170 420 m 29 X s 2170 439 m 29 X s 2170 455 m 29 X s 2170 469 m 29 X s 2170 480 m 29 X s 2170 491 m 29 X s 2141 500 m 58 X s 2170 561 m 29 X s 2170 596 m 29 X s 2170 621 m 29 X s 2170 641 m
 29 X s 2170 657 m 29 X s 2170 670 m 29 X s 2170 682 m 29 X s 2170 692 m 29 X s 2141 702 m 58 X s 2170 762 m 29 X s 2170 798 m 29 X s 2170 823 m 29 X s 2170 843 m 29 X s 2170 859 m 29 X s 2170 872 m 29 X s 2170 884 m 29 X s 2170 894 m 29 X s 2141 903
 m 58 X s 2170 964 m 29 X s 2170 1000 m 29 X s 2170 1025 m 29 X s 2170 1044 m 29 X s 2170 1060 m 29 X s 2170 1074 m 29 X s 2170 1086 m 29 X s 2170 1096 m 29 X s 2141 1105 m 58 X s 2170 1166 m 29 X s 2170 1201 m 29 X s 2170 1227 m 29 X s 2170 1246 m
 29 X s 2170 1262 m 29 X s 2170 1276 m 29 X s 2170 1287 m 29 X s 2170 1298 m 29 X s 2141 1307 m 58 X s 2170 1368 m 29 X s 2170 1403 m 29 X s 2170 1428 m 29 X s 2170 1448 m 29 X s 2170 1464 m 29 X s 2170 1477 m 29 X s 2170 1489 m 29 X s 2170 1499 m 29
 X s 2141 1509 m 58 X s 0 0 0.6 c[  12 12 ] 0 sd 6 lw 1 1 1 c black 0 0 0.6 c 316 773 m 47 X -587 Y 94 X 286 Y 47 X 287 Y 47 X 141 Y 48 X 16 Y 47 X 210 Y 47 X 40 Y 47 X 99 Y 47 X 67 Y 47 X 95 Y 47 X -67 Y 47 X -43 Y 47 X -80 Y 47 X -66 Y 47 X -88 Y
 47 X -90 Y 48 X -108 Y 47 X -120 Y 47 X -116 Y 47 X -125 Y 47 X -193 Y 47 X -145 Y 800 X s 0 0.4 0.6 c[ 4 8] 0 sd 1 1 1 c black 0 0.4 0.6 c 316 1254 m 47 X -1068 Y 94 X 297 Y 47 X 506 Y 47 X -6 Y 48 X 87 Y 47 X 206 Y 47 X 87 Y 47 X -25 Y 47 X 11 Y
 47 X -1 Y 47 X -46 Y 47 X -40 Y 47 X -58 Y 47 X -66 Y 47 X -72 Y 47 X -86 Y 48 X -100 Y 47 X -111 Y 47 X -116 Y 47 X -154 Y 47 X -97 Y 47 X -216 Y 800 X s black[  ] 0 sd 1 1 1 c black 316 807 m 47 X -621 Y 94 X 350 Y 47 X 211 Y 47 X 162 Y 48 X -2 Y
 47 X 186 Y 47 X 57 Y 47 X 110 Y 47 X 70 Y 47 X 100 Y 47 X -69 Y 47 X -43 Y 47 X -82 Y 47 X -68 Y 47 X -90 Y 47 X -90 Y 48 X -107 Y 47 X -112 Y 47 X -125 Y 47 X -134 Y 47 X -85 Y 47 X -239 Y 47 X 82 Y 47 X -82 Y 706 X s
 gsave  2268 1538 0 0 C 1472.71 1371.71 t 0 r /Helvetica-Bold findfont 52.1314 sf 0 0 m (Conversion electrons) show NC gr  0 0.4 0.6 c[ 4 8] 0 sd 1257 1399 m 180 X s black
 gsave  2268 1538 0 0 C 1472.71 1241.38 t 0 r /Helvetica-Bold findfont 52.1314 sf 0 0 m (Isolated electrons ) show NC gr [  ] 0 sd 1257 1270 m 180 X s
 gsave  2268 1538 0 0 C 1472.71 1114.31 t 0 r /Helvetica-Bold findfont 52.1314 sf 0 0 m (Non\255Isolated electrons) show NC gr  0 0 0.6 c[  12 12 ] 0 sd 1257 1141 m 180 X s black
 gsave  2268 1538 0 0 C 1472.71 983.98 t 0 r /Helvetica-Bold findfont 52.1314 sf 0 0 m (Hadrons) show NC gr  0.6 0 0.2 c[  ] 0 sd 1257 1012 m 180 X s
 gr  gr showpage
end
%%EOF
