%!PS-Adobe-2.0 EPSF-2.0
%%BoundingBox:  0 0 567 384
%%Title: /home/rohin/Analysis/dataAna/2014/July/electron_vars/NTRTHtHits.eps: c1_n17
%%Creator: ROOT Version 5.34/14
%%CreationDate: Tue Sep  9 00:29:46 2014
%%EndComments
%%BeginProlog
80 dict begin
/s {stroke} def /l {lineto} def /m {moveto} def /t {translate} def
/r {rotate} def /rl {roll}  def /R {repeat} def
/d {rlineto} def /rm {rmoveto} def /gr {grestore} def /f {eofill} def
/c {setrgbcolor} def /black {0 setgray} def /sd {setdash} def
/cl {closepath} def /sf {scalefont setfont} def /lw {setlinewidth} def
/box {m dup 0 exch d exch 0 d 0 exch neg d cl} def
/NC{systemdict begin initclip end}def/C{NC box clip newpath}def
/bl {box s} def /bf {box f} def /Y { 0 exch d} def /X { 0 d} def 
/K {{pop pop 0 moveto} exch kshow} bind def
/ita {/ang 15 def gsave [1 0 ang dup sin exch cos div 1 0 0] concat} def 
/mp {newpath /y exch def /x exch def} def
/side {[w .77 mul w .23 mul] .385 w mul sd w 0 l currentpoint t -144 r} def
/mr {mp x y w2 0 360 arc} def /m24 {mr s} def /m20 {mr f} def
/mb {mp x y w2 add m w2 neg 0 d 0 w neg d w 0 d 0 w d cl} def
/mt {mp x y w2 add m w2 neg w neg d w 0 d cl} def
/m21 {mb f} def /m25 {mb s} def /m22 {mt f} def /m26{mt s} def
/m23 {mp x y w2 sub m w2 w d w neg 0 d cl f} def
/m27 {mp x y w2 add m w3 neg w2 neg d w3 w2 neg d w3 w2 d cl s} def
/m28 {mp x w2 sub y w2 sub w3 add m w3 0 d  0 w3 neg d w3 0 d 0 w3 d w3 0 d  0 w3 d w3 neg 0 d 0 w3 d w3 neg 0 d 0 w3 neg d w3 neg 0 d cl s } def
/m29 {mp gsave x w2 sub y w2 add w3 sub m currentpoint t 4 {side} repeat cl fill gr} def
/m30 {mp gsave x w2 sub y w2 add w3 sub m currentpoint t 4 {side} repeat cl s gr} def
/m31 {mp x y w2 sub m 0 w d x w2 sub y m w 0 d x w2 sub y w2 add m w w neg d x w2 sub y w2 sub m w w d s} def
/m32 {mp x y w2 sub m w2 w d w neg 0 d cl s} def
/m33 {mp x y w2 add m w3 neg w2 neg d w3 w2 neg d w3 w2 d cl f} def
/m34 {mp x w2 sub y w2 sub w3 add m w3 0 d  0 w3 neg d w3 0 d 0 w3 d w3 0 d  0 w3 d w3 neg 0 d 0 w3 d w3 neg 0 d 0 w3 neg d w3 neg 0 d cl f } def
/m2 {mp x y w2 sub m 0 w d x w2 sub y m w 0 d s} def
/m5 {mp x w2 sub y w2 sub m w w d x w2 sub y w2 add m w w neg d s} def
/reEncode {exch findfont dup length dict begin {1 index /FID eq  {pop pop} {def} ifelse } forall /Encoding exch def currentdict end dup /FontName get exch definefont pop } def [/Times-Bold /Times-Italic /Times-BoldItalic /Helvetica /Helvetica-Oblique
 /Helvetica-Bold /Helvetica-BoldOblique /Courier /Courier-Oblique /Courier-Bold /Courier-BoldOblique /Times-Roman /AvantGarde-Book /AvantGarde-BookOblique /AvantGarde-Demi /AvantGarde-DemiOblique /Bookman-Demi /Bookman-DemiItalic /Bookman-Light
 /Bookman-LightItalic /Helvetica-Narrow /Helvetica-Narrow-Bold /Helvetica-Narrow-BoldOblique /Helvetica-Narrow-Oblique /NewCenturySchlbk-Roman /NewCenturySchlbk-Bold /NewCenturySchlbk-BoldItalic /NewCenturySchlbk-Italic /Palatino-Bold
 /Palatino-BoldItalic /Palatino-Italic /Palatino-Roman ] {ISOLatin1Encoding reEncode } forall
%%EndProlog
%%BeginSetup
%%EndSetup
newpath  gsave  .25 .25 scale  gsave  0 0 t black[  ] 0 sd 3 lw 1 1 1 c 2268 1538 0 0 bf black 1 1 1 c 1883 1252 316 257 bf black 1883 1252 316 257 bl 1 1 1 c 1883 1252 316 257 bf black 1883 1252 316 257 bl 0.6 0 0.2 c 6 lw 1 1 1 c black 0.6 0 0.2 c
 316 1381 m 63 X -15 Y 63 X 6 Y 62 X -23 Y 63 X -41 Y 63 X -53 Y 63 X -58 Y 62 X -61 Y 63 X -59 Y 63 X -56 Y 63 X -48 Y 63 X -46 Y 62 X -37 Y 63 X -42 Y 63 X -38 Y 63 X -45 Y 62 X -36 Y 63 X -29 Y 63 X -30 Y 63 X -54 Y 63 X -43 Y 62 X -75 Y 63 X 15 Y
 63 X -40 Y 63 X -16 Y 62 X -104 Y 126 X -35 Y 63 X -61 Y 63 X 61 Y 62 X s black 3 lw 316 257 m 1883 X s
 gsave  2268 1538 0 0 C 1834.37 78.1971 t 0 r /Helvetica findfont 84.7135 sf 0 0 m (#TRT hits) show NC gr  316 296 m -39 Y s 379 277 m -20 Y s 442 277 m -20 Y s 504 277 m -20 Y s 567 277 m -20 Y s 630 296 m -39 Y s 693 277 m -20 Y s 755 277 m -20 Y s
 818 277 m -20 Y s 881 277 m -20 Y s 944 296 m -39 Y s 1007 277 m -20 Y s 1069 277 m -20 Y s 1132 277 m -20 Y s 1195 277 m -20 Y s 1258 296 m -39 Y s 1320 277 m -20 Y s 1383 277 m -20 Y s 1446 277 m -20 Y s 1509 277 m -20 Y s 1572 296 m -39 Y s 1634
 277 m -20 Y s 1697 277 m -20 Y s 1760 277 m -20 Y s 1823 277 m -20 Y s 1885 296 m -39 Y s 1948 277 m -20 Y s 2011 277 m -20 Y s 2074 277 m -20 Y s 2137 277 m -20 Y s 2199 296 m -39 Y s
 gsave  2268 1538 0 0 C 293.239 175.944 t 0 r /Helvetica findfont 84.7135 sf 0 0 m (0) show NC gr 
 gsave  2268 1538 0 0 C 606.028 175.944 t 0 r /Helvetica findfont 84.7135 sf 0 0 m (5) show NC gr 
 gsave  2268 1538 0 0 C 896.009 175.944 t 0 r /Helvetica findfont 84.7135 sf 0 0 m (10) show NC gr 
 gsave  2268 1538 0 0 C 1212.06 175.944 t 0 r /Helvetica findfont 84.7135 sf 0 0 m (15) show NC gr 
 gsave  2268 1538 0 0 C 1524.84 175.944 t 0 r /Helvetica findfont 84.7135 sf 0 0 m (20) show NC gr 
 gsave  2268 1538 0 0 C 1837.63 175.944 t 0 r /Helvetica findfont 84.7135 sf 0 0 m (25) show NC gr 
 gsave  2268 1538 0 0 C 2153.68 175.944 t 0 r /Helvetica findfont 84.7135 sf 0 0 m (30) show NC gr  316 1509 m 1883 X s 316 1470 m 39 Y s 379 1489 m 20 Y s 442 1489 m 20 Y s 504 1489 m 20 Y s 567 1489 m 20 Y s 630 1470 m 39 Y s 693 1489 m 20 Y s 755
 1489 m 20 Y s 818 1489 m 20 Y s 881 1489 m 20 Y s 944 1470 m 39 Y s 1007 1489 m 20 Y s 1069 1489 m 20 Y s 1132 1489 m 20 Y s 1195 1489 m 20 Y s 1258 1470 m 39 Y s 1320 1489 m 20 Y s 1383 1489 m 20 Y s 1446 1489 m 20 Y s 1509 1489 m 20 Y s 1572 1470
 m 39 Y s 1634 1489 m 20 Y s 1697 1489 m 20 Y s 1760 1489 m 20 Y s 1823 1489 m 20 Y s 1885 1470 m 39 Y s 1948 1489 m 20 Y s 2011 1489 m 20 Y s 2074 1489 m 20 Y s 2137 1489 m 20 Y s 2199 1470 m 39 Y s 316 257 m 1252 Y s 344 264 m -28 X s 344 278 m -28
 X s 344 289 m -28 X s 344 299 m -28 X s 371 309 m -55 X s
 gsave  2268 1538 0 0 C 241.108 309.53 t 0 r /Helvetica findfont 58.6478 sf 0 0 m (\2556) show NC gr 
 gsave  2268 1538 0 0 C 149.878 270.432 t 0 r /Helvetica findfont 84.7135 sf 0 0 m (10) show NC gr  344 369 m -28 X s 344 404 m -28 X s 344 429 m -28 X s 344 448 m -28 X s 344 464 m -28 X s 344 478 m -28 X s 344 489 m -28 X s 344 499 m -28 X s 371
 509 m -55 X s
 gsave  2268 1538 0 0 C 241.108 511.539 t 0 r /Helvetica findfont 58.6478 sf 0 0 m (\2555) show NC gr 
 gsave  2268 1538 0 0 C 149.878 472.441 t 0 r /Helvetica findfont 84.7135 sf 0 0 m (10) show NC gr  344 569 m -28 X s 344 604 m -28 X s 344 629 m -28 X s 344 648 m -28 X s 344 664 m -28 X s 344 678 m -28 X s 344 689 m -28 X s 344 699 m -28 X s 371
 709 m -55 X s
 gsave  2268 1538 0 0 C 241.108 707.032 t 0 r /Helvetica findfont 58.6478 sf 0 0 m (\2554) show NC gr 
 gsave  2268 1538 0 0 C 149.878 671.192 t 0 r /Helvetica findfont 84.7135 sf 0 0 m (10) show NC gr  344 769 m -28 X s 344 804 m -28 X s 344 829 m -28 X s 344 848 m -28 X s 344 864 m -28 X s 344 878 m -28 X s 344 889 m -28 X s 344 899 m -28 X s 371
 909 m -55 X s
 gsave  2268 1538 0 0 C 241.108 909.042 t 0 r /Helvetica findfont 58.6478 sf 0 0 m (\2553) show NC gr 
 gsave  2268 1538 0 0 C 149.878 869.943 t 0 r /Helvetica findfont 84.7135 sf 0 0 m (10) show NC gr  344 969 m -28 X s 344 1004 m -28 X s 344 1029 m -28 X s 344 1048 m -28 X s 344 1064 m -28 X s 344 1078 m -28 X s 344 1089 m -28 X s 344 1099 m -28 X s
 371 1109 m -55 X s
 gsave  2268 1538 0 0 C 241.108 1107.79 t 0 r /Helvetica findfont 58.6478 sf 0 0 m (\2552) show NC gr 
 gsave  2268 1538 0 0 C 149.878 1071.95 t 0 r /Helvetica findfont 84.7135 sf 0 0 m (10) show NC gr  344 1169 m -28 X s 344 1204 m -28 X s 344 1229 m -28 X s 344 1248 m -28 X s 344 1264 m -28 X s 344 1278 m -28 X s 344 1289 m -28 X s 344 1299 m -28 X
 s 371 1309 m -55 X s
 gsave  2268 1538 0 0 C 250.882 1306.54 t 0 r /Helvetica findfont 58.6478 sf 0 0 m (\2551) show NC gr 
 gsave  2268 1538 0 0 C 159.652 1270.7 t 0 r /Helvetica findfont 84.7135 sf 0 0 m (10) show NC gr  344 1369 m -28 X s 344 1404 m -28 X s 344 1429 m -28 X s 344 1448 m -28 X s 344 1464 m -28 X s 344 1478 m -28 X s 344 1489 m -28 X s 344 1499 m -28 X s
 371 1509 m -55 X s
 gsave  2268 1538 0 0 C 293.823 1472.06 t 0 r  -47 0 t /Helvetica findfont 84.7135 sf 0 0 m (1) show NC gr  2199 257 m 1252 Y s 2172 264 m 27 X s 2172 278 m 27 X s 2172 289 m 27 X s 2172 299 m 27 X s 2144 309 m 55 X s 2172 369 m 27 X s 2172 404 m 27
 X s 2172 429 m 27 X s 2172 448 m 27 X s 2172 464 m 27 X s 2172 478 m 27 X s 2172 489 m 27 X s 2172 499 m 27 X s 2144 509 m 55 X s 2172 569 m 27 X s 2172 604 m 27 X s 2172 629 m 27 X s 2172 648 m 27 X s 2172 664 m 27 X s 2172 678 m 27 X s 2172 689 m
 27 X s 2172 699 m 27 X s 2144 709 m 55 X s 2172 769 m 27 X s 2172 804 m 27 X s 2172 829 m 27 X s 2172 848 m 27 X s 2172 864 m 27 X s 2172 878 m 27 X s 2172 889 m 27 X s 2172 899 m 27 X s 2144 909 m 55 X s 2172 969 m 27 X s 2172 1004 m 27 X s 2172
 1029 m 27 X s 2172 1048 m 27 X s 2172 1064 m 27 X s 2172 1078 m 27 X s 2172 1089 m 27 X s 2172 1099 m 27 X s 2144 1109 m 55 X s 2172 1169 m 27 X s 2172 1204 m 27 X s 2172 1229 m 27 X s 2172 1248 m 27 X s 2172 1264 m 27 X s 2172 1278 m 27 X s 2172
 1289 m 27 X s 2172 1299 m 27 X s 2144 1309 m 55 X s 2172 1369 m 27 X s 2172 1404 m 27 X s 2172 1429 m 27 X s 2172 1448 m 27 X s 2172 1464 m 27 X s 2172 1478 m 27 X s 2172 1489 m 27 X s 2172 1499 m 27 X s 2144 1509 m 55 X s 0 0 0.6 c[  12 12 ] 0 sd 6
 lw 1 1 1 c black 0 0 0.6 c 316 1322 m 63 X -154 Y 63 X 35 Y 62 X 37 Y 63 X 31 Y 63 X 23 Y 63 X 15 Y 62 X 6 Y 63 X -2 Y 63 X -10 Y 63 X -18 Y 63 X -26 Y 62 X -33 Y 63 X -39 Y 63 X -43 Y 63 X -48 Y 62 X -50 Y 63 X -53 Y 63 X -46 Y 63 X -46 Y 63 X -46
 Y 62 X -35 Y 63 X -52 Y 63 X -33 Y 63 X -50 Y 62 X -46 Y 63 X -40 Y 63 X -67 Y 63 X -28 Y 63 X -103 Y 62 X s 0 0.4 0.6 c[ 4 8] 0 sd 1 1 1 c black 0 0.4 0.6 c 316 1403 m 63 X -234 Y 63 X 37 Y 62 X 30 Y 63 X 23 Y 63 X 16 Y 63 X 9 Y 62 X 3 Y 63 X -4 Y
 63 X -10 Y 63 X -16 Y 63 X -23 Y 62 X -28 Y 63 X -34 Y 63 X -33 Y 63 X -39 Y 62 X -39 Y 63 X -36 Y 63 X -35 Y 63 X -37 Y 63 X -30 Y 62 X -32 Y 63 X -40 Y 63 X -34 Y 63 X -23 Y 62 X -42 Y 63 X -26 Y 63 X -42 Y 63 X -53 Y 63 X -50 Y 62 X s black[  ] 0
 sd 1 1 1 c black 316 1293 m 63 X -165 Y 63 X 49 Y 62 X 48 Y 63 X 38 Y 63 X 27 Y 63 X 18 Y 62 X 9 Y 63 X -1 Y 63 X -8 Y 63 X -16 Y 63 X -23 Y 62 X -29 Y 63 X -33 Y 63 X -36 Y 63 X -37 Y 62 X -35 Y 63 X -33 Y 63 X -32 Y 63 X -28 Y 63 X -28 Y 62 X -32
 Y 63 X -29 Y 63 X -29 Y 63 X -31 Y 62 X -39 Y 63 X -35 Y 63 X -33 Y 63 X -36 Y 63 X -37 Y 62 X s
 gsave  2268 1538 0 0 C 687.483 716.807 t 0 r /Helvetica-Bold findfont 52.1314 sf 0 0 m (Conversion electrons) show NC gr  0 0.4 0.6 c[ 4 8] 0 sd 477 738 m 175 X s black
 gsave  2268 1538 0 0 C 687.483 609.286 t 0 r /Helvetica-Bold findfont 52.1314 sf 0 0 m (Isolated electrons ) show NC gr [  ] 0 sd 477 630 m 175 X s
 gsave  2268 1538 0 0 C 687.483 501.765 t 0 r /Helvetica-Bold findfont 52.1314 sf 0 0 m (Non\255Isolated electrons) show NC gr  0 0 0.6 c[  12 12 ] 0 sd 477 523 m 175 X s black
 gsave  2268 1538 0 0 C 687.483 394.244 t 0 r /Helvetica-Bold findfont 52.1314 sf 0 0 m (Hadrons) show NC gr  0.6 0 0.2 c[  ] 0 sd 477 415 m 175 X s
 gr  gr showpage
end
%%EOF
