%!PS-Adobe-2.0 EPSF-2.0
%%BoundingBox:  0 0 567 384
%%Title: /home/rohin/Analysis/dataAna/2014/July/electron_vars/PtCone20Iso.eps: c1_n18
%%Creator: ROOT Version 5.34/14
%%CreationDate: Tue Sep  9 00:29:22 2014
%%EndComments
%%BeginProlog
80 dict begin
/s {stroke} def /l {lineto} def /m {moveto} def /t {translate} def
/r {rotate} def /rl {roll}  def /R {repeat} def
/d {rlineto} def /rm {rmoveto} def /gr {grestore} def /f {eofill} def
/c {setrgbcolor} def /black {0 setgray} def /sd {setdash} def
/cl {closepath} def /sf {scalefont setfont} def /lw {setlinewidth} def
/box {m dup 0 exch d exch 0 d 0 exch neg d cl} def
/NC{systemdict begin initclip end}def/C{NC box clip newpath}def
/bl {box s} def /bf {box f} def /Y { 0 exch d} def /X { 0 d} def 
/K {{pop pop 0 moveto} exch kshow} bind def
/ita {/ang 15 def gsave [1 0 ang dup sin exch cos div 1 0 0] concat} def 
/mp {newpath /y exch def /x exch def} def
/side {[w .77 mul w .23 mul] .385 w mul sd w 0 l currentpoint t -144 r} def
/mr {mp x y w2 0 360 arc} def /m24 {mr s} def /m20 {mr f} def
/mb {mp x y w2 add m w2 neg 0 d 0 w neg d w 0 d 0 w d cl} def
/mt {mp x y w2 add m w2 neg w neg d w 0 d cl} def
/m21 {mb f} def /m25 {mb s} def /m22 {mt f} def /m26{mt s} def
/m23 {mp x y w2 sub m w2 w d w neg 0 d cl f} def
/m27 {mp x y w2 add m w3 neg w2 neg d w3 w2 neg d w3 w2 d cl s} def
/m28 {mp x w2 sub y w2 sub w3 add m w3 0 d  0 w3 neg d w3 0 d 0 w3 d w3 0 d  0 w3 d w3 neg 0 d 0 w3 d w3 neg 0 d 0 w3 neg d w3 neg 0 d cl s } def
/m29 {mp gsave x w2 sub y w2 add w3 sub m currentpoint t 4 {side} repeat cl fill gr} def
/m30 {mp gsave x w2 sub y w2 add w3 sub m currentpoint t 4 {side} repeat cl s gr} def
/m31 {mp x y w2 sub m 0 w d x w2 sub y m w 0 d x w2 sub y w2 add m w w neg d x w2 sub y w2 sub m w w d s} def
/m32 {mp x y w2 sub m w2 w d w neg 0 d cl s} def
/m33 {mp x y w2 add m w3 neg w2 neg d w3 w2 neg d w3 w2 d cl f} def
/m34 {mp x w2 sub y w2 sub w3 add m w3 0 d  0 w3 neg d w3 0 d 0 w3 d w3 0 d  0 w3 d w3 neg 0 d 0 w3 d w3 neg 0 d 0 w3 neg d w3 neg 0 d cl f } def
/m2 {mp x y w2 sub m 0 w d x w2 sub y m w 0 d s} def
/m5 {mp x w2 sub y w2 sub m w w d x w2 sub y w2 add m w w neg d s} def
/reEncode {exch findfont dup length dict begin {1 index /FID eq  {pop pop} {def} ifelse } forall /Encoding exch def currentdict end dup /FontName get exch definefont pop } def [/Times-Bold /Times-Italic /Times-BoldItalic /Helvetica /Helvetica-Oblique
 /Helvetica-Bold /Helvetica-BoldOblique /Courier /Courier-Oblique /Courier-Bold /Courier-BoldOblique /Times-Roman /AvantGarde-Book /AvantGarde-BookOblique /AvantGarde-Demi /AvantGarde-DemiOblique /Bookman-Demi /Bookman-DemiItalic /Bookman-Light
 /Bookman-LightItalic /Helvetica-Narrow /Helvetica-Narrow-Bold /Helvetica-Narrow-BoldOblique /Helvetica-Narrow-Oblique /NewCenturySchlbk-Roman /NewCenturySchlbk-Bold /NewCenturySchlbk-BoldItalic /NewCenturySchlbk-Italic /Palatino-Bold
 /Palatino-BoldItalic /Palatino-Italic /Palatino-Roman ] {ISOLatin1Encoding reEncode } forall
%%EndProlog
%%BeginSetup
%%EndSetup
newpath  gsave  .25 .25 scale  gsave  0 0 t black[  ] 0 sd 3 lw 1 1 1 c 2268 1538 0 0 bf black 1 1 1 c 1883 1284 316 225 bf black 1883 1284 316 225 bl 1 1 1 c 1883 1284 316 225 bf black 1883 1284 316 225 bl 0.6 0 0.2 c 6 lw 1 1 1 c black 0.6 0 0.2 c
 316 1216 m 19 X -159 Y 19 X 6 Y 19 X 10 Y 18 X 9 Y 19 X 9 Y 19 X 8 Y 19 X 6 Y 19 X 3 Y 19 X 2 Y 18 X -7 Y 19 X -11 Y 19 X -10 Y 19 X -11 Y 19 X -10 Y 19 X -11 Y 18 X -11 Y 19 X -11 Y 19 X -11 Y 19 X -9 Y 19 X -13 Y 19 X -9 Y 18 X -11 Y 19 X -11 Y 19
 X -11 Y 19 X -9 Y 19 X -11 Y 19 X -9 Y 18 X -11 Y 19 X -12 Y 19 X -7 Y 19 X -11 Y 19 X -8 Y 19 X -14 Y 18 X -8 Y 19 X -9 Y 19 X -8 Y 19 X -10 Y 19 X -10 Y 19 X -11 Y 18 X -9 Y 19 X -10 Y 19 X -8 Y 19 X -10 Y 19 X -7 Y 19 X -12 Y 18 X -9 Y 19 X -7 Y
 19 X -9 Y 19 X -15 Y 19 X -3 Y 19 X -17 Y 18 X -6 Y 19 X -7 Y 19 X -11 Y 19 X -12 Y 37 X -15 Y 19 X -7 Y 19 X -8 Y 19 X -8 Y 19 X -12 Y 19 X -7 Y 18 X -9 Y 19 X -6 Y 19 X -16 Y 19 X 4 Y 19 X -15 Y 19 X -7 Y 18 X -9 Y 19 X -2 Y 19 X -20 Y 19 X -2 Y
 19 X -4 Y 19 X -10 Y 18 X -11 Y 19 X -11 Y 19 X -7 Y 19 X -4 Y 19 X -4 Y 19 X -14 Y 18 X -2 Y 19 X -4 Y 19 X 8 Y 19 X -29 Y 19 X -4 Y 19 X -12 Y 18 X -2 Y 19 X -14 Y 19 X -7 Y 19 X -5 Y 19 X 6 Y 19 X -23 Y 18 X -4 Y 19 X 5 Y 19 X -14 Y 19 X 2 Y 19 X
 -8 Y 19 X -22 Y 18 X -6 Y 19 X s black 3 lw 316 225 m 1883 X s
 gsave  2268 1538 0 0 C 2163.45 19.5493 t 0 r /Helvetica findfont 58.6478 sf 0 0 m (T) show NC gr 
 gsave  2268 1538 0 0 C 1919.09 68.4225 t 0 r /Helvetica findfont 84.7135 sf 0 0 m (\(0.2\)/p) show NC gr 
 gsave  2268 1538 0 0 C 1792.02 101.005 t 0 r /Helvetica findfont 58.6478 sf 0 0 m (cone) show NC gr 
 gsave  2268 1538 0 0 C 1792.02 19.5493 t 0 r /Helvetica findfont 58.6478 sf 0 0 m (T) show NC gr 
 gsave  2268 1538 0 0 C 1746.4 68.4225 t 0 r /Helvetica findfont 84.7135 sf 0 0 m (p) show NC gr  316 263 m -38 Y s 354 244 m -19 Y s 391 244 m -19 Y s 429 244 m -19 Y s 467 244 m -19 Y s 504 263 m -38 Y s 542 244 m -19 Y s 580 244 m -19 Y s 617 244
 m -19 Y s 655 244 m -19 Y s 693 263 m -38 Y s 730 244 m -19 Y s 768 244 m -19 Y s 806 244 m -19 Y s 843 244 m -19 Y s 881 263 m -38 Y s 919 244 m -19 Y s 956 244 m -19 Y s 994 244 m -19 Y s 1032 244 m -19 Y s 1069 263 m -38 Y s 1107 244 m -19 Y s
 1145 244 m -19 Y s 1182 244 m -19 Y s 1220 244 m -19 Y s 1258 263 m -38 Y s 1295 244 m -19 Y s 1333 244 m -19 Y s 1371 244 m -19 Y s 1408 244 m -19 Y s 1446 263 m -38 Y s 1484 244 m -19 Y s 1521 244 m -19 Y s 1559 244 m -19 Y s 1597 244 m -19 Y s
 1634 263 m -38 Y s 1672 244 m -19 Y s 1710 244 m -19 Y s 1747 244 m -19 Y s 1785 244 m -19 Y s 1823 263 m -38 Y s 1860 244 m -19 Y s 1898 244 m -19 Y s 1936 244 m -19 Y s 1973 244 m -19 Y s 2011 263 m -38 Y s 2049 244 m -19 Y s 2086 244 m -19 Y s
 2124 244 m -19 Y s 2162 244 m -19 Y s 2199 263 m -38 Y s
 gsave  2268 1538 0 0 C 293.239 143.361 t 0 r /Helvetica findfont 84.7135 sf 0 0 m (0) show NC gr 
 gsave  2268 1538 0 0 C 485.474 143.361 t 0 r /Helvetica findfont 84.7135 sf 0 0 m (1) show NC gr 
 gsave  2268 1538 0 0 C 667.934 143.361 t 0 r /Helvetica findfont 84.7135 sf 0 0 m (2) show NC gr 
 gsave  2268 1538 0 0 C 856.91 143.361 t 0 r /Helvetica findfont 84.7135 sf 0 0 m (3) show NC gr 
 gsave  2268 1538 0 0 C 1045.89 143.361 t 0 r /Helvetica findfont 84.7135 sf 0 0 m (4) show NC gr 
 gsave  2268 1538 0 0 C 1234.86 143.361 t 0 r /Helvetica findfont 84.7135 sf 0 0 m (5) show NC gr 
 gsave  2268 1538 0 0 C 1420.58 143.361 t 0 r /Helvetica findfont 84.7135 sf 0 0 m (6) show NC gr 
 gsave  2268 1538 0 0 C 1609.56 143.361 t 0 r /Helvetica findfont 84.7135 sf 0 0 m (7) show NC gr 
 gsave  2268 1538 0 0 C 1798.53 143.361 t 0 r /Helvetica findfont 84.7135 sf 0 0 m (8) show NC gr 
 gsave  2268 1538 0 0 C 1987.51 143.361 t 0 r /Helvetica findfont 84.7135 sf 0 0 m (9) show NC gr 
 gsave  2268 1538 0 0 C 2153.68 143.361 t 0 r /Helvetica findfont 84.7135 sf 0 0 m (10) show NC gr  316 1509 m 1883 X s 316 1470 m 39 Y s 354 1489 m 20 Y s 391 1489 m 20 Y s 429 1489 m 20 Y s 467 1489 m 20 Y s 504 1470 m 39 Y s 542 1489 m 20 Y s 580
 1489 m 20 Y s 617 1489 m 20 Y s 655 1489 m 20 Y s 693 1470 m 39 Y s 730 1489 m 20 Y s 768 1489 m 20 Y s 806 1489 m 20 Y s 843 1489 m 20 Y s 881 1470 m 39 Y s 919 1489 m 20 Y s 956 1489 m 20 Y s 994 1489 m 20 Y s 1032 1489 m 20 Y s 1069 1470 m 39 Y s
 1107 1489 m 20 Y s 1145 1489 m 20 Y s 1182 1489 m 20 Y s 1220 1489 m 20 Y s 1258 1470 m 39 Y s 1295 1489 m 20 Y s 1333 1489 m 20 Y s 1371 1489 m 20 Y s 1408 1489 m 20 Y s 1446 1470 m 39 Y s 1484 1489 m 20 Y s 1521 1489 m 20 Y s 1559 1489 m 20 Y s
 1597 1489 m 20 Y s 1634 1470 m 39 Y s 1672 1489 m 20 Y s 1710 1489 m 20 Y s 1747 1489 m 20 Y s 1785 1489 m 20 Y s 1823 1470 m 39 Y s 1860 1489 m 20 Y s 1898 1489 m 20 Y s 1936 1489 m 20 Y s 1973 1489 m 20 Y s 2011 1470 m 39 Y s 2049 1489 m 20 Y s
 2086 1489 m 20 Y s 2124 1489 m 20 Y s 2162 1489 m 20 Y s 2199 1470 m 39 Y s 316 225 m 1284 Y s 344 235 m -28 X s 344 259 m -28 X s 344 279 m -28 X s 344 296 m -28 X s 344 311 m -28 X s 373 324 m -57 X s
 gsave  2268 1538 0 0 C 241.108 322.563 t 0 r /Helvetica findfont 58.6478 sf 0 0 m (\2554) show NC gr 
 gsave  2268 1538 0 0 C 149.878 286.723 t 0 r /Helvetica findfont 84.7135 sf 0 0 m (10) show NC gr  344 413 m -28 X s 344 466 m -28 X s 344 503 m -28 X s 344 531 m -28 X s 344 555 m -28 X s 344 575 m -28 X s 344 592 m -28 X s 344 607 m -28 X s 373
 620 m -57 X s
 gsave  2268 1538 0 0 C 241.108 622.319 t 0 r /Helvetica findfont 58.6478 sf 0 0 m (\2553) show NC gr 
 gsave  2268 1538 0 0 C 149.878 583.22 t 0 r /Helvetica findfont 84.7135 sf 0 0 m (10) show NC gr  344 710 m -28 X s 344 762 m -28 X s 344 799 m -28 X s 344 827 m -28 X s 344 851 m -28 X s 344 871 m -28 X s 344 888 m -28 X s 344 903 m -28 X s 373 916
 m -57 X s
 gsave  2268 1538 0 0 C 241.108 915.558 t 0 r /Helvetica findfont 58.6478 sf 0 0 m (\2552) show NC gr 
 gsave  2268 1538 0 0 C 149.878 879.718 t 0 r /Helvetica findfont 84.7135 sf 0 0 m (10) show NC gr  344 1006 m -28 X s 344 1058 m -28 X s 344 1095 m -28 X s 344 1123 m -28 X s 344 1147 m -28 X s 344 1167 m -28 X s 344 1184 m -28 X s 344 1199 m -28 X
 s 373 1213 m -57 X s
 gsave  2268 1538 0 0 C 250.882 1212.06 t 0 r /Helvetica findfont 58.6478 sf 0 0 m (\2551) show NC gr 
 gsave  2268 1538 0 0 C 159.652 1176.21 t 0 r /Helvetica findfont 84.7135 sf 0 0 m (10) show NC gr  344 1302 m -28 X s 344 1354 m -28 X s 344 1391 m -28 X s 344 1419 m -28 X s 344 1443 m -28 X s 344 1463 m -28 X s 344 1480 m -28 X s 344 1495 m -28 X
 s 373 1509 m -57 X s
 gsave  2268 1538 0 0 C 293.823 1472.06 t 0 r  -47 0 t /Helvetica findfont 84.7135 sf 0 0 m (1) show NC gr  2199 225 m 1284 Y s 2171 235 m 28 X s 2171 259 m 28 X s 2171 279 m 28 X s 2171 296 m 28 X s 2171 311 m 28 X s 2143 324 m 56 X s 2171 413 m 28
 X s 2171 466 m 28 X s 2171 503 m 28 X s 2171 531 m 28 X s 2171 555 m 28 X s 2171 575 m 28 X s 2171 592 m 28 X s 2171 607 m 28 X s 2143 620 m 56 X s 2171 710 m 28 X s 2171 762 m 28 X s 2171 799 m 28 X s 2171 827 m 28 X s 2171 851 m 28 X s 2171 871 m
 28 X s 2171 888 m 28 X s 2171 903 m 28 X s 2143 916 m 56 X s 2171 1006 m 28 X s 2171 1058 m 28 X s 2171 1095 m 28 X s 2171 1123 m 28 X s 2171 1147 m 28 X s 2171 1167 m 28 X s 2171 1184 m 28 X s 2171 1199 m 28 X s 2143 1213 m 56 X s 2171 1302 m 28 X
 s 2171 1354 m 28 X s 2171 1391 m 28 X s 2171 1419 m 28 X s 2171 1443 m 28 X s 2171 1463 m 28 X s 2171 1480 m 28 X s 2171 1495 m 28 X s 2143 1509 m 56 X s 0 0 0.6 c[  12 12 ] 0 sd 6 lw 1 1 1 c black 0 0 0.6 c 316 1321 m 19 X -144 Y 19 X -7 Y 19 X -10
 Y 18 X -11 Y 19 X -14 Y 19 X -15 Y 19 X -17 Y 19 X -16 Y 19 X -18 Y 18 X -15 Y 19 X -20 Y 19 X -15 Y 19 X -15 Y 19 X -15 Y 19 X -15 Y 18 X -16 Y 19 X -14 Y 19 X -14 Y 19 X -16 Y 19 X -14 Y 19 X -13 Y 18 X -12 Y 19 X -15 Y 19 X -10 Y 19 X -13 Y 19 X
 -11 Y 19 X -14 Y 18 X -11 Y 19 X -18 Y 19 X -6 Y 19 X -15 Y 19 X -11 Y 19 X -11 Y 18 X -15 Y 19 X -13 Y 19 X -7 Y 19 X -11 Y 19 X -12 Y 19 X -6 Y 18 X -20 Y 19 X -5 Y 19 X -16 Y 19 X -3 Y 19 X -22 Y 19 X -9 Y 18 X -4 Y 19 X -20 Y 19 X -11 Y 19 X -1
 Y 19 X -16 Y 19 X -16 Y 18 X -3 Y 19 X -14 Y 19 X -14 Y 19 X -6 Y 19 X -1 Y 18 X -18 Y 19 X -2 Y 19 X -14 Y 19 X -13 Y 19 X -3 Y 19 X -13 Y 18 X -13 Y 19 X -16 Y 19 X 7 Y 19 X -28 Y 19 X 1 Y 19 X -5 Y 18 X 2 Y 19 X -31 Y 19 X 3 Y 19 X -26 Y 19 X 3 Y
 19 X 5 Y 18 X -70 Y 19 X 43 Y 19 X -22 Y 19 X 16 Y 19 X -10 Y 19 X -46 Y 18 X -15 Y 19 X 8 Y 19 X -8 Y 19 X 17 Y 19 X -21 Y 19 X 19 Y 18 X -20 Y 245 X s 0 0.4 0.6 c[ 4 8] 0 sd 1 1 1 c black 0 0.4 0.6 c 316 1422 m 19 X -323 Y 19 X -26 Y 19 X -10 Y 18
 X -2 Y 19 X -3 Y 19 X -3 Y 19 X -2 Y 19 X -9 Y 19 X -11 Y 18 X -24 Y 19 X -19 Y 19 X -17 Y 19 X -13 Y 19 X -14 Y 19 X -12 Y 18 X -15 Y 19 X -11 Y 19 X -13 Y 19 X -16 Y 19 X -12 Y 19 X -11 Y 18 X -11 Y 19 X -12 Y 19 X -13 Y 19 X -6 Y 19 X -18 Y 19 X
 -7 Y 18 X -14 Y 19 X -7 Y 19 X -17 Y 19 X -8 Y 19 X -11 Y 19 X -8 Y 18 X -6 Y 19 X -19 Y 19 X -8 Y 19 X -10 Y 19 X -17 Y 19 X -1 Y 18 X -11 Y 19 X -7 Y 19 X -20 Y 19 X -6 Y 19 X -5 Y 19 X -10 Y 18 X -12 Y 19 X -4 Y 19 X -5 Y 19 X -25 Y 19 X -2 Y 19
 X -7 Y 18 X -4 Y 19 X -2 Y 19 X -20 Y 19 X -13 Y 19 X -13 Y 18 X -5 Y 19 X -1 Y 19 X -19 Y 19 X 3 Y 19 X -22 Y 19 X 9 Y 18 X -22 Y 19 X -7 Y 19 X -5 Y 19 X -20 Y 19 X -12 Y 19 X -16 Y 18 X 13 Y 19 X 4 Y 19 X -33 Y 38 X 3 Y 19 X -11 Y 18 X -29 Y 19 X
 4 Y 19 X -15 Y 19 X 25 Y 19 X -16 Y 19 X -18 Y 18 X 7 Y 19 X -50 Y 19 X 38 Y 19 X -32 Y 19 X -37 Y 19 X 58 Y 18 X 3 Y 19 X -56 Y 38 X 12 Y 19 X -21 Y 19 X 21 Y 18 X -21 Y 19 X -4 Y 19 X 35 Y 19 X -31 Y 19 X -4 Y 56 X s black[  ] 0 sd 1 1 1 c black
 316 1506 m 19 X -596 Y 19 X -140 Y 19 X -96 Y 18 X -73 Y 19 X -56 Y 19 X -51 Y 19 X -51 Y 19 X -34 Y 19 X -47 Y 18 X -30 Y 19 X -23 Y 19 X -44 Y 19 X -5 Y 19 X -35 Y 1619 X s
 gsave  2268 1538 0 0 C 1371.71 1345.64 t 0 r /Helvetica-Bold findfont 58.6478 sf 0 0 m (Conversion electrons) show NC gr  0 0.4 0.6 c[ 4 8] 0 sd 1137 1364 m 195 X s black
 gsave  2268 1538 0 0 C 1371.71 1251.15 t 0 r /Helvetica-Bold findfont 58.6478 sf 0 0 m (Isolated electrons ) show NC gr [  ] 0 sd 1137 1272 m 195 X s
 gsave  2268 1538 0 0 C 1371.71 1159.92 t 0 r /Helvetica-Bold findfont 58.6478 sf 0 0 m (Non\255Isolated electrons) show NC gr  0 0 0.6 c[  12 12 ] 0 sd 1137 1179 m 195 X s black
 gsave  2268 1538 0 0 C 1371.71 1065.44 t 0 r /Helvetica-Bold findfont 58.6478 sf 0 0 m (Hadrons) show NC gr  0.6 0 0.2 c[  ] 0 sd 1137 1086 m 195 X s
 gr  gr showpage
end
%%EOF
