%!PS-Adobe-2.0 EPSF-2.0
%%BoundingBox:  0 0 567 319
%%Title: /home/rohin/Analysis/dataAna/2014/July/electron_vars/Reta.eps: c1_n20
%%Creator: ROOT Version 5.34/14
%%CreationDate: Tue Sep  9 00:28:33 2014
%%EndComments
%%BeginProlog
80 dict begin
/s {stroke} def /l {lineto} def /m {moveto} def /t {translate} def
/r {rotate} def /rl {roll}  def /R {repeat} def
/d {rlineto} def /rm {rmoveto} def /gr {grestore} def /f {eofill} def
/c {setrgbcolor} def /black {0 setgray} def /sd {setdash} def
/cl {closepath} def /sf {scalefont setfont} def /lw {setlinewidth} def
/box {m dup 0 exch d exch 0 d 0 exch neg d cl} def
/NC{systemdict begin initclip end}def/C{NC box clip newpath}def
/bl {box s} def /bf {box f} def /Y { 0 exch d} def /X { 0 d} def 
/K {{pop pop 0 moveto} exch kshow} bind def
/ita {/ang 15 def gsave [1 0 ang dup sin exch cos div 1 0 0] concat} def 
/mp {newpath /y exch def /x exch def} def
/side {[w .77 mul w .23 mul] .385 w mul sd w 0 l currentpoint t -144 r} def
/mr {mp x y w2 0 360 arc} def /m24 {mr s} def /m20 {mr f} def
/mb {mp x y w2 add m w2 neg 0 d 0 w neg d w 0 d 0 w d cl} def
/mt {mp x y w2 add m w2 neg w neg d w 0 d cl} def
/m21 {mb f} def /m25 {mb s} def /m22 {mt f} def /m26{mt s} def
/m23 {mp x y w2 sub m w2 w d w neg 0 d cl f} def
/m27 {mp x y w2 add m w3 neg w2 neg d w3 w2 neg d w3 w2 d cl s} def
/m28 {mp x w2 sub y w2 sub w3 add m w3 0 d  0 w3 neg d w3 0 d 0 w3 d w3 0 d  0 w3 d w3 neg 0 d 0 w3 d w3 neg 0 d 0 w3 neg d w3 neg 0 d cl s } def
/m29 {mp gsave x w2 sub y w2 add w3 sub m currentpoint t 4 {side} repeat cl fill gr} def
/m30 {mp gsave x w2 sub y w2 add w3 sub m currentpoint t 4 {side} repeat cl s gr} def
/m31 {mp x y w2 sub m 0 w d x w2 sub y m w 0 d x w2 sub y w2 add m w w neg d x w2 sub y w2 sub m w w d s} def
/m32 {mp x y w2 sub m w2 w d w neg 0 d cl s} def
/m33 {mp x y w2 add m w3 neg w2 neg d w3 w2 neg d w3 w2 d cl f} def
/m34 {mp x w2 sub y w2 sub w3 add m w3 0 d  0 w3 neg d w3 0 d 0 w3 d w3 0 d  0 w3 d w3 neg 0 d 0 w3 d w3 neg 0 d 0 w3 neg d w3 neg 0 d cl f } def
/m2 {mp x y w2 sub m 0 w d x w2 sub y m w 0 d s} def
/m5 {mp x w2 sub y w2 sub m w w d x w2 sub y w2 add m w w neg d s} def
/reEncode {exch findfont dup length dict begin {1 index /FID eq  {pop pop} {def} ifelse } forall /Encoding exch def currentdict end dup /FontName get exch definefont pop } def [/Times-Bold /Times-Italic /Times-BoldItalic /Helvetica /Helvetica-Oblique
 /Helvetica-Bold /Helvetica-BoldOblique /Courier /Courier-Oblique /Courier-Bold /Courier-BoldOblique /Times-Roman /AvantGarde-Book /AvantGarde-BookOblique /AvantGarde-Demi /AvantGarde-DemiOblique /Bookman-Demi /Bookman-DemiItalic /Bookman-Light
 /Bookman-LightItalic /Helvetica-Narrow /Helvetica-Narrow-Bold /Helvetica-Narrow-BoldOblique /Helvetica-Narrow-Oblique /NewCenturySchlbk-Roman /NewCenturySchlbk-Bold /NewCenturySchlbk-BoldItalic /NewCenturySchlbk-Italic /Palatino-Bold
 /Palatino-BoldItalic /Palatino-Italic /Palatino-Roman ] {ISOLatin1Encoding reEncode } forall
%%EndProlog
%%BeginSetup
%%EndSetup
newpath  gsave  .25 .25 scale  gsave  0 0 t black[  ] 0 sd 3 lw 1 1 1 c 2268 1276 0 0 bf black 1 1 1 c 1798 1073 408 178 bf black 1798 1073 408 178 bl 1 1 1 c 1798 1073 408 178 bf black 1798 1073 408 178 bl 0.6 0 0.2 c 6 lw 1 1 1 c black 0.6 0 0.2 c
 408 391 m 18 X -65 Y 36 X 40 Y 18 X -11 Y 18 X 11 Y 18 X 88 Y 18 X 10 Y 18 X -8 Y 18 X 74 Y 18 X 12 Y 18 X 22 Y 18 X 15 Y 18 X 34 Y 18 X 9 Y 18 X 16 Y 18 X 19 Y 18 X 16 Y 18 X 13 Y 18 X 26 Y 18 X 17 Y 18 X 21 Y 18 X 17 Y 18 X 23 Y 18 X 17 Y 17 X 17
 Y 18 X 16 Y 18 X 34 Y 18 X 54 Y 18 X 12 Y 18 X 12 Y 18 X 12 Y 18 X 9 Y 18 X 8 Y 18 X 9 Y 18 X 7 Y 18 X 6 Y 18 X 5 Y 18 X 6 Y 18 X 4 Y 18 X 5 Y 18 X 3 Y 18 X 4 Y 18 X 4 Y 18 X 3 Y 18 X 4 Y 18 X 3 Y 18 X 2 Y 18 X 2 Y 36 X -2 Y 18 X -5 Y 18 X -12 Y 18
 X -34 Y 18 X -64 Y 18 X -67 Y 18 X -54 Y 18 X -47 Y 18 X -43 Y 18 X -40 Y 18 X -21 Y 18 X -41 Y 18 X -28 Y 18 X -21 Y 17 X -23 Y 18 X -32 Y 18 X 1 Y 18 X -25 Y 18 X -8 Y 18 X -35 Y 36 X -6 Y 18 X -37 Y 18 X 40 Y 18 X -15 Y 18 X -45 Y 18 X -42 Y 18 X
 56 Y 18 X -14 Y 18 X -18 Y 18 X 18 Y 18 X 20 Y 18 X -127 Y 36 X 78 Y 18 X 11 Y 18 X -60 Y 36 X -29 Y 18 X -49 Y 18 X 98 Y 18 X -98 Y 18 X -50 Y 18 X 128 Y 18 X -128 Y 18 X 99 Y 36 X 49 Y 18 X -148 Y 36 X s black 3 lw 408 178 m 1798 X s
 gsave  2268 1276 0 0 C 2178.52 27.0288 t 0 r /Symbol findfont 48.6518 sf 0 0 m (h) show NC gr 
 gsave  2268 1276 0 0 C 2129.87 43.2461 t 0 r /Helvetica findfont 70.2749 sf 0 0 m (R) show NC gr  408 209 m -31 Y s 458 194 m -16 Y s 508 194 m -16 Y s 558 194 m -16 Y s 608 209 m -31 Y s 658 194 m -16 Y s 708 194 m -16 Y s 758 194 m -16 Y s 808 209
 m -31 Y s 857 194 m -16 Y s 907 194 m -16 Y s 957 194 m -16 Y s 1007 209 m -31 Y s 1057 194 m -16 Y s 1107 194 m -16 Y s 1157 194 m -16 Y s 1207 209 m -31 Y s 1257 194 m -16 Y s 1307 194 m -16 Y s 1357 194 m -16 Y s 1407 209 m -31 Y s 1457 194 m -16
 Y s 1507 194 m -16 Y s 1556 194 m -16 Y s 1606 209 m -31 Y s 1656 194 m -16 Y s 1706 194 m -16 Y s 1756 194 m -16 Y s 1806 209 m -31 Y s 1856 194 m -16 Y s 1906 194 m -16 Y s 1956 194 m -16 Y s 2006 209 m -31 Y s 2056 194 m -16 Y s 2106 194 m -16 Y
 s 2156 194 m -16 Y s 2206 209 m -31 Y s 2206 209 m -31 Y s
 gsave  2268 1276 0 0 C 389.215 110.818 t 0 r /Helvetica findfont 70.2749 sf 0 0 m (0) show NC gr 
 gsave  2268 1276 0 0 C 556.793 110.818 t 0 r /Helvetica findfont 70.2749 sf 0 0 m (0.2) show NC gr 
 gsave  2268 1276 0 0 C 756.806 110.818 t 0 r /Helvetica findfont 70.2749 sf 0 0 m (0.4) show NC gr 
 gsave  2268 1276 0 0 C 956.82 110.818 t 0 r /Helvetica findfont 70.2749 sf 0 0 m (0.6) show NC gr 
 gsave  2268 1276 0 0 C 1156.83 110.818 t 0 r /Helvetica findfont 70.2749 sf 0 0 m (0.8) show NC gr 
 gsave  2268 1276 0 0 C 1391.98 110.818 t 0 r /Helvetica findfont 70.2749 sf 0 0 m (1) show NC gr 
 gsave  2268 1276 0 0 C 1556.86 110.818 t 0 r /Helvetica findfont 70.2749 sf 0 0 m (1.2) show NC gr 
 gsave  2268 1276 0 0 C 1756.87 110.818 t 0 r /Helvetica findfont 70.2749 sf 0 0 m (1.4) show NC gr 
 gsave  2268 1276 0 0 C 1956.89 110.818 t 0 r /Helvetica findfont 70.2749 sf 0 0 m (1.6) show NC gr 
 gsave  2268 1276 0 0 C 2156.9 110.818 t 0 r /Helvetica findfont 70.2749 sf 0 0 m (1.8) show NC gr  408 1251 m 1798 X s 408 1221 m 30 Y s 458 1236 m 15 Y s 508 1236 m 15 Y s 558 1236 m 15 Y s 608 1221 m 30 Y s 658 1236 m 15 Y s 708 1236 m 15 Y s 758
 1236 m 15 Y s 808 1221 m 30 Y s 857 1236 m 15 Y s 907 1236 m 15 Y s 957 1236 m 15 Y s 1007 1221 m 30 Y s 1057 1236 m 15 Y s 1107 1236 m 15 Y s 1157 1236 m 15 Y s 1207 1221 m 30 Y s 1257 1236 m 15 Y s 1307 1236 m 15 Y s 1357 1236 m 15 Y s 1407 1221 m
 30 Y s 1457 1236 m 15 Y s 1507 1236 m 15 Y s 1556 1236 m 15 Y s 1606 1221 m 30 Y s 1656 1236 m 15 Y s 1706 1236 m 15 Y s 1756 1236 m 15 Y s 1806 1221 m 30 Y s 1856 1236 m 15 Y s 1906 1236 m 15 Y s 1956 1236 m 15 Y s 2006 1221 m 30 Y s 2056 1236 m 15
 Y s 2106 1236 m 15 Y s 2156 1236 m 15 Y s 2206 1221 m 30 Y s 2206 1221 m 30 Y s 408 178 m 1073 Y s 437 184 m -29 X s 437 204 m -29 X s 437 220 m -29 X s 437 233 m -29 X s 437 244 m -29 X s 437 254 m -29 X s 437 262 m -29 X s 465 270 m -57 X s
 gsave  2268 1276 0 0 C 340.563 270.288 t 0 r /Helvetica findfont 48.6518 sf 0 0 m (\2556) show NC gr 
 gsave  2268 1276 0 0 C 264.882 237.853 t 0 r /Helvetica findfont 70.2749 sf 0 0 m (10) show NC gr  437 319 m -29 X s 437 348 m -29 X s 437 368 m -29 X s 437 384 m -29 X s 437 397 m -29 X s 437 408 m -29 X s 437 417 m -29 X s 437 426 m -29 X s 465
 433 m -57 X s
 gsave  2268 1276 0 0 C 340.563 435.164 t 0 r /Helvetica findfont 48.6518 sf 0 0 m (\2555) show NC gr 
 gsave  2268 1276 0 0 C 264.882 402.729 t 0 r /Helvetica findfont 70.2749 sf 0 0 m (10) show NC gr  437 482 m -29 X s 437 511 m -29 X s 437 532 m -29 X s 437 548 m -29 X s 437 561 m -29 X s 437 572 m -29 X s 437 581 m -29 X s 437 589 m -29 X s 465
 597 m -57 X s
 gsave  2268 1276 0 0 C 340.563 594.634 t 0 r /Helvetica findfont 48.6518 sf 0 0 m (\2554) show NC gr 
 gsave  2268 1276 0 0 C 264.882 564.902 t 0 r /Helvetica findfont 70.2749 sf 0 0 m (10) show NC gr  437 646 m -29 X s 437 675 m -29 X s 437 695 m -29 X s 437 711 m -29 X s 437 724 m -29 X s 437 735 m -29 X s 437 745 m -29 X s 437 753 m -29 X s 465
 761 m -57 X s
 gsave  2268 1276 0 0 C 340.563 762.212 t 0 r /Helvetica findfont 48.6518 sf 0 0 m (\2553) show NC gr 
 gsave  2268 1276 0 0 C 264.882 729.778 t 0 r /Helvetica findfont 70.2749 sf 0 0 m (10) show NC gr  437 810 m -29 X s 437 839 m -29 X s 437 859 m -29 X s 437 875 m -29 X s 437 888 m -29 X s 437 899 m -29 X s 437 908 m -29 X s 437 917 m -29 X s 465
 924 m -57 X s
 gsave  2268 1276 0 0 C 340.563 921.682 t 0 r /Helvetica findfont 48.6518 sf 0 0 m (\2552) show NC gr 
 gsave  2268 1276 0 0 C 264.882 891.95 t 0 r /Helvetica findfont 70.2749 sf 0 0 m (10) show NC gr  437 973 m -29 X s 437 1002 m -29 X s 437 1023 m -29 X s 437 1039 m -29 X s 437 1051 m -29 X s 437 1062 m -29 X s 437 1072 m -29 X s 437 1080 m -29 X s
 465 1088 m -57 X s
 gsave  2268 1276 0 0 C 348.672 1086.56 t 0 r /Helvetica findfont 48.6518 sf 0 0 m (\2551) show NC gr 
 gsave  2268 1276 0 0 C 272.991 1056.83 t 0 r /Helvetica findfont 70.2749 sf 0 0 m (10) show NC gr  437 1137 m -29 X s 437 1166 m -29 X s 437 1186 m -29 X s 437 1202 m -29 X s 437 1215 m -29 X s 437 1226 m -29 X s 437 1236 m -29 X s 437 1244 m -29 X
 s 465 1251 m -57 X s
 gsave  2268 1276 0 0 C 385.911 1221.16 t 0 r  -39 0 t /Helvetica findfont 70.2749 sf 0 0 m (1) show NC gr  2206 178 m 1073 Y s 2177 184 m 29 X s 2177 204 m 29 X s 2177 220 m 29 X s 2177 233 m 29 X s 2177 244 m 29 X s 2177 254 m 29 X s 2177 262 m 29
 X s 2148 270 m 58 X s 2177 319 m 29 X s 2177 348 m 29 X s 2177 368 m 29 X s 2177 384 m 29 X s 2177 397 m 29 X s 2177 408 m 29 X s 2177 417 m 29 X s 2177 426 m 29 X s 2148 433 m 58 X s 2177 482 m 29 X s 2177 511 m 29 X s 2177 532 m 29 X s 2177 548 m
 29 X s 2177 561 m 29 X s 2177 572 m 29 X s 2177 581 m 29 X s 2177 589 m 29 X s 2148 597 m 58 X s 2177 646 m 29 X s 2177 675 m 29 X s 2177 695 m 29 X s 2177 711 m 29 X s 2177 724 m 29 X s 2177 735 m 29 X s 2177 745 m 29 X s 2177 753 m 29 X s 2148 761
 m 58 X s 2177 810 m 29 X s 2177 839 m 29 X s 2177 859 m 29 X s 2177 875 m 29 X s 2177 888 m 29 X s 2177 899 m 29 X s 2177 908 m 29 X s 2177 917 m 29 X s 2148 924 m 58 X s 2177 973 m 29 X s 2177 1002 m 29 X s 2177 1023 m 29 X s 2177 1039 m 29 X s
 2177 1051 m 29 X s 2177 1062 m 29 X s 2177 1072 m 29 X s 2177 1080 m 29 X s 2148 1088 m 58 X s 2177 1137 m 29 X s 2177 1166 m 29 X s 2177 1186 m 29 X s 2177 1202 m 29 X s 2177 1215 m 29 X s 2177 1226 m 29 X s 2177 1236 m 29 X s 2177 1244 m 29 X s
 2148 1251 m 58 X s 0 0 0.6 c[  12 12 ] 0 sd 6 lw 1 1 1 c black 0 0 0.6 c 408 178 m 72 X 69 Y 18 X 49 Y 18 X 89 Y 18 X 26 Y 18 X 13 Y 18 X 32 Y 18 X 28 Y 18 X 38 Y 18 X 22 Y 18 X 1 Y 18 X 29 Y 18 X 22 Y 18 X 22 Y 18 X 9 Y 18 X 14 Y 18 X 37 Y 18 X 13
 Y 18 X 17 Y 18 X 22 Y 18 X 15 Y 18 X 17 Y 17 X 18 Y 18 X 16 Y 18 X 26 Y 18 X 29 Y 18 X 16 Y 18 X 9 Y 18 X 15 Y 18 X 10 Y 18 X 11 Y 18 X 8 Y 18 X 9 Y 18 X 9 Y 18 X 7 Y 18 X 8 Y 18 X 7 Y 18 X 8 Y 18 X 8 Y 18 X 8 Y 18 X 10 Y 18 X 9 Y 18 X 12 Y 18 X 11
 Y 18 X 14 Y 18 X 14 Y 18 X 16 Y 18 X 16 Y 18 X 13 Y 18 X -2 Y 18 X -26 Y 18 X -47 Y 18 X -52 Y 18 X -48 Y 18 X -46 Y 18 X -46 Y 18 X -36 Y 18 X -43 Y 18 X -34 Y 18 X -33 Y 18 X -31 Y 17 X -27 Y 18 X -28 Y 18 X -20 Y 18 X -16 Y 18 X -43 Y 18 X -28 Y
 18 X 5 Y 18 X -25 Y 18 X -6 Y 18 X -38 Y 18 X 23 Y 18 X -28 Y 18 X -7 Y 18 X 27 Y 18 X -15 Y 18 X -12 Y 18 X -121 Y 18 X 29 Y 18 X -29 Y 72 X 29 Y 18 X -29 Y 18 X 89 Y 18 X -138 Y 72 X -69 Y 18 X 69 Y 36 X 49 Y 18 X -49 Y 36 X -69 Y 18 X s 0 0.4 0.6
 c[ 4 8] 0 sd 1 1 1 c black 0 0.4 0.6 c 408 383 m 18 X -78 Y 36 X 78 Y 18 X -205 Y 18 X 176 Y 18 X -49 Y 18 X 163 Y 18 X 38 Y 18 X -38 Y 18 X 13 Y 18 X 58 Y 36 X 30 Y 18 X 3 Y 18 X 33 Y 18 X 16 Y 18 X -1 Y 18 X 27 Y 18 X 21 Y 18 X 14 Y 18 X 19 Y 18 X
 23 Y 18 X 12 Y 18 X 23 Y 17 X 14 Y 18 X 9 Y 18 X 36 Y 18 X 60 Y 18 X 11 Y 18 X 12 Y 18 X 10 Y 18 X 7 Y 18 X 9 Y 18 X 9 Y 18 X 6 Y 18 X 7 Y 18 X 6 Y 18 X 5 Y 18 X 6 Y 18 X 4 Y 18 X 4 Y 18 X 5 Y 18 X 6 Y 18 X 4 Y 18 X 6 Y 18 X 6 Y 18 X 8 Y 18 X 10 Y
 18 X 11 Y 18 X 25 Y 18 X 51 Y 18 X 35 Y 18 X -32 Y 18 X -121 Y 18 X -96 Y 18 X -58 Y 18 X -50 Y 18 X -36 Y 18 X -35 Y 18 X -37 Y 18 X -31 Y 18 X -23 Y 18 X -35 Y 17 X -32 Y 18 X -11 Y 18 X -5 Y 18 X -21 Y 18 X -43 Y 18 X -56 Y 18 X 62 Y 18 X 16 Y 18
 X -94 Y 18 X 29 Y 18 X -29 Y 18 X -49 Y 18 X -49 Y 18 X 98 Y 18 X 29 Y 18 X -49 Y 18 X 20 Y 18 X -49 Y 18 X 29 Y 18 X -78 Y 18 X 98 Y 18 X -49 Y 18 X 29 Y 18 X -205 Y 18 X 176 Y 18 X -49 Y 18 X 98 Y 18 X -98 Y 18 X 49 Y 36 X -49 Y 18 X 49 Y 18 X
 -176 Y 18 X 127 Y 36 X -127 Y 18 X s black[  ] 0 sd 1 1 1 c black 408 178 m 162 X 67 Y 18 X -67 Y 72 X 38 Y 90 X 121 Y 18 X -23 Y 18 X 45 Y 18 X 31 Y 18 X 21 Y 18 X 2 Y 17 X 36 Y 18 X 12 Y 18 X 30 Y 18 X 26 Y 18 X 18 Y 18 X 19 Y 18 X 11 Y 18 X 13 Y
 18 X 8 Y 18 X 11 Y 18 X 12 Y 18 X 13 Y 18 X 5 Y 18 X 6 Y 18 X 13 Y 18 X 10 Y 18 X 11 Y 18 X 12 Y 18 X 16 Y 18 X 16 Y 18 X 25 Y 18 X 26 Y 18 X 35 Y 18 X 40 Y 18 X 54 Y 18 X 74 Y 18 X 103 Y 18 X 92 Y 18 X 43 Y 18 X -116 Y 18 X -186 Y 18 X -103 Y 18 X
 -72 Y 18 X -59 Y 18 X -48 Y 18 X -45 Y 18 X -35 Y 18 X -33 Y 18 X -45 Y 17 X -8 Y 18 X -38 Y 18 X -25 Y 18 X -4 Y 18 X -37 Y 18 X 5 Y 18 X -31 Y 18 X -29 Y 36 X -13 Y 18 X -36 Y 18 X -67 Y 36 X 38 Y 36 X 49 Y 18 X -87 Y 90 X 38 Y 18 X -38 Y 90 X 67
 Y 36 X -67 Y 126 X s
 gsave  2268 1276 0 0 C 1673.08 1156.83 t 0 r /Helvetica-Bold findfont 40.5432 sf 0 0 m (Conversion electrons) show NC gr  0 0.4 0.6 c[ 4 8] 0 sd 1508 1173 m 137 X s black
 gsave  2268 1276 0 0 C 1673.08 1075.75 t 0 r /Helvetica-Bold findfont 40.5432 sf 0 0 m (Isolated electrons ) show NC gr [  ] 0 sd 1508 1092 m 137 X s
 gsave  2268 1276 0 0 C 1673.08 994.66 t 0 r /Helvetica-Bold findfont 40.5432 sf 0 0 m (Non\255Isolated electrons) show NC gr  0 0 0.6 c[  12 12 ] 0 sd 1508 1011 m 137 X s black
 gsave  2268 1276 0 0 C 1673.08 913.573 t 0 r /Helvetica-Bold findfont 40.5432 sf 0 0 m (Hadrons) show NC gr  0.6 0 0.2 c[  ] 0 sd 1508 930 m 137 X s
 gr  gr showpage
end
%%EOF
