%!PS-Adobe-2.0 EPSF-2.0
%%BoundingBox:  0 0 567 384
%%Title: /home/rohin/Analysis/dataAna/2014/July/electron_vars/Rhad.eps: c1_n21
%%Creator: ROOT Version 5.34/14
%%CreationDate: Tue Sep  9 00:26:24 2014
%%EndComments
%%BeginProlog
80 dict begin
/s {stroke} def /l {lineto} def /m {moveto} def /t {translate} def
/r {rotate} def /rl {roll}  def /R {repeat} def
/d {rlineto} def /rm {rmoveto} def /gr {grestore} def /f {eofill} def
/c {setrgbcolor} def /black {0 setgray} def /sd {setdash} def
/cl {closepath} def /sf {scalefont setfont} def /lw {setlinewidth} def
/box {m dup 0 exch d exch 0 d 0 exch neg d cl} def
/NC{systemdict begin initclip end}def/C{NC box clip newpath}def
/bl {box s} def /bf {box f} def /Y { 0 exch d} def /X { 0 d} def 
/K {{pop pop 0 moveto} exch kshow} bind def
/ita {/ang 15 def gsave [1 0 ang dup sin exch cos div 1 0 0] concat} def 
/mp {newpath /y exch def /x exch def} def
/side {[w .77 mul w .23 mul] .385 w mul sd w 0 l currentpoint t -144 r} def
/mr {mp x y w2 0 360 arc} def /m24 {mr s} def /m20 {mr f} def
/mb {mp x y w2 add m w2 neg 0 d 0 w neg d w 0 d 0 w d cl} def
/mt {mp x y w2 add m w2 neg w neg d w 0 d cl} def
/m21 {mb f} def /m25 {mb s} def /m22 {mt f} def /m26{mt s} def
/m23 {mp x y w2 sub m w2 w d w neg 0 d cl f} def
/m27 {mp x y w2 add m w3 neg w2 neg d w3 w2 neg d w3 w2 d cl s} def
/m28 {mp x w2 sub y w2 sub w3 add m w3 0 d  0 w3 neg d w3 0 d 0 w3 d w3 0 d  0 w3 d w3 neg 0 d 0 w3 d w3 neg 0 d 0 w3 neg d w3 neg 0 d cl s } def
/m29 {mp gsave x w2 sub y w2 add w3 sub m currentpoint t 4 {side} repeat cl fill gr} def
/m30 {mp gsave x w2 sub y w2 add w3 sub m currentpoint t 4 {side} repeat cl s gr} def
/m31 {mp x y w2 sub m 0 w d x w2 sub y m w 0 d x w2 sub y w2 add m w w neg d x w2 sub y w2 sub m w w d s} def
/m32 {mp x y w2 sub m w2 w d w neg 0 d cl s} def
/m33 {mp x y w2 add m w3 neg w2 neg d w3 w2 neg d w3 w2 d cl f} def
/m34 {mp x w2 sub y w2 sub w3 add m w3 0 d  0 w3 neg d w3 0 d 0 w3 d w3 0 d  0 w3 d w3 neg 0 d 0 w3 d w3 neg 0 d 0 w3 neg d w3 neg 0 d cl f } def
/m2 {mp x y w2 sub m 0 w d x w2 sub y m w 0 d s} def
/m5 {mp x w2 sub y w2 sub m w w d x w2 sub y w2 add m w w neg d s} def
/reEncode {exch findfont dup length dict begin {1 index /FID eq  {pop pop} {def} ifelse } forall /Encoding exch def currentdict end dup /FontName get exch definefont pop } def [/Times-Bold /Times-Italic /Times-BoldItalic /Helvetica /Helvetica-Oblique
 /Helvetica-Bold /Helvetica-BoldOblique /Courier /Courier-Oblique /Courier-Bold /Courier-BoldOblique /Times-Roman /AvantGarde-Book /AvantGarde-BookOblique /AvantGarde-Demi /AvantGarde-DemiOblique /Bookman-Demi /Bookman-DemiItalic /Bookman-Light
 /Bookman-LightItalic /Helvetica-Narrow /Helvetica-Narrow-Bold /Helvetica-Narrow-BoldOblique /Helvetica-Narrow-Oblique /NewCenturySchlbk-Roman /NewCenturySchlbk-Bold /NewCenturySchlbk-BoldItalic /NewCenturySchlbk-Italic /Palatino-Bold
 /Palatino-BoldItalic /Palatino-Italic /Palatino-Roman ] {ISOLatin1Encoding reEncode } forall
%%EndProlog
%%BeginSetup
%%EndSetup
newpath  gsave  .25 .25 scale  gsave  0 0 t black[  ] 0 sd 3 lw 1 1 1 c 2268 1538 0 0 bf black 1 1 1 c 1883 1322 317 185 bf black 1883 1322 317 185 bl 1 1 1 c 1883 1322 317 185 bf black 1883 1322 317 185 bl 0.6 0 0.2 c 6 lw 1 1 1 c black 0.6 0 0.2 c
 317 1366 m 19 X -53 Y 19 X -18 Y 19 X -53 Y 19 X -34 Y 19 X -34 Y 18 X -27 Y 19 X -26 Y 19 X -21 Y 19 X -21 Y 19 X -19 Y 19 X -16 Y 18 X -18 Y 19 X -15 Y 19 X -17 Y 19 X -15 Y 19 X -12 Y 18 X -16 Y 19 X -14 Y 19 X -14 Y 19 X -11 Y 19 X -13 Y 19 X
 -12 Y 18 X -12 Y 19 X -13 Y 19 X -16 Y 19 X -7 Y 19 X -13 Y 18 X -9 Y 19 X -12 Y 19 X -13 Y 19 X -2 Y 19 X -10 Y 19 X -13 Y 18 X -9 Y 19 X -9 Y 19 X -16 Y 19 X -4 Y 19 X -12 Y 19 X -10 Y 18 X -3 Y 19 X -12 Y 19 X -11 Y 19 X -3 Y 19 X -10 Y 18 X -12
 Y 19 X -11 Y 19 X -11 Y 19 X 5 Y 19 X -6 Y 19 X -14 Y 18 X -16 Y 19 X -3 Y 19 X -13 Y 19 X 4 Y 19 X -21 Y 56 X -6 Y 19 X -26 Y 19 X 11 Y 19 X -15 Y 18 X -11 Y 19 X -8 Y 19 X 3 Y 19 X -22 Y 19 X 13 Y 37 X -20 Y 19 X -15 Y 19 X 16 Y 19 X -43 Y 19 X 8
 Y 18 X 13 Y 19 X -8 Y 19 X -32 Y 19 X 15 Y 19 X -21 Y 19 X -14 Y 18 X 30 Y 19 X -28 Y 19 X 18 Y 19 X -39 Y 19 X 4 Y 19 X -18 Y 18 X -3 Y 19 X 21 Y 19 X -49 Y 19 X 40 Y 19 X -34 Y 18 X 6 Y 19 X -3 Y 19 X 6 Y 19 X -18 Y 19 X -41 Y 19 X 50 Y 18 X -32 Y
 19 X -59 Y 19 X 7 Y 19 X 48 Y 19 X s black 3 lw 317 185 m 1883 X s
 gsave  2268 1538 0 0 C 2101.55 3.25821 t 0 r /Helvetica findfont 58.6478 sf 0 0 m (had) show NC gr 
 gsave  2268 1538 0 0 C 2042.9 32.5821 t 0 r /Helvetica findfont 84.7135 sf 0 0 m (R) show NC gr  317 223 m -38 Y s 355 204 m -19 Y s 393 204 m -19 Y s 430 204 m -19 Y s 468 204 m -19 Y s 506 223 m -38 Y s 543 204 m -19 Y s 581 204 m -19 Y s 619 204
 m -19 Y s 656 204 m -19 Y s 694 223 m -38 Y s 732 204 m -19 Y s 769 204 m -19 Y s 807 204 m -19 Y s 844 204 m -19 Y s 882 223 m -38 Y s 920 204 m -19 Y s 957 204 m -19 Y s 995 204 m -19 Y s 1033 204 m -19 Y s 1070 223 m -38 Y s 1108 204 m -19 Y s
 1146 204 m -19 Y s 1183 204 m -19 Y s 1221 204 m -19 Y s 1259 223 m -38 Y s 1296 204 m -19 Y s 1334 204 m -19 Y s 1372 204 m -19 Y s 1409 204 m -19 Y s 1447 223 m -38 Y s 1484 204 m -19 Y s 1522 204 m -19 Y s 1560 204 m -19 Y s 1597 204 m -19 Y s
 1635 223 m -38 Y s 1673 204 m -19 Y s 1710 204 m -19 Y s 1748 204 m -19 Y s 1786 204 m -19 Y s 1823 223 m -38 Y s 1861 204 m -19 Y s 1899 204 m -19 Y s 1936 204 m -19 Y s 1974 204 m -19 Y s 2011 223 m -38 Y s 2049 204 m -19 Y s 2087 204 m -19 Y s
 2124 204 m -19 Y s 2162 204 m -19 Y s 2200 223 m -38 Y s
 gsave  2268 1538 0 0 C 293.239 104.263 t 0 r /Helvetica findfont 84.7135 sf 0 0 m (0) show NC gr 
 gsave  2268 1538 0 0 C 446.375 104.263 t 0 r /Helvetica findfont 84.7135 sf 0 0 m (0.5) show NC gr 
 gsave  2268 1538 0 0 C 674.45 104.263 t 0 r /Helvetica findfont 84.7135 sf 0 0 m (1) show NC gr 
 gsave  2268 1538 0 0 C 821.07 104.263 t 0 r /Helvetica findfont 84.7135 sf 0 0 m (1.5) show NC gr 
 gsave  2268 1538 0 0 C 1045.89 104.263 t 0 r /Helvetica findfont 84.7135 sf 0 0 m (2) show NC gr 
 gsave  2268 1538 0 0 C 1199.02 104.263 t 0 r /Helvetica findfont 84.7135 sf 0 0 m (2.5) show NC gr 
 gsave  2268 1538 0 0 C 1423.84 104.263 t 0 r /Helvetica findfont 84.7135 sf 0 0 m (3) show NC gr 
 gsave  2268 1538 0 0 C 1573.72 104.263 t 0 r /Helvetica findfont 84.7135 sf 0 0 m (3.5) show NC gr 
 gsave  2268 1538 0 0 C 1798.53 104.263 t 0 r /Helvetica findfont 84.7135 sf 0 0 m (4) show NC gr 
 gsave  2268 1538 0 0 C 1951.67 104.263 t 0 r /Helvetica findfont 84.7135 sf 0 0 m (4.5) show NC gr 
 gsave  2268 1538 0 0 C 2176.49 104.263 t 0 r /Helvetica findfont 84.7135 sf 0 0 m (5) show NC gr  317 1507 m 1883 X s 317 1469 m 38 Y s 355 1488 m 19 Y s 393 1488 m 19 Y s 430 1488 m 19 Y s 468 1488 m 19 Y s 506 1469 m 38 Y s 543 1488 m 19 Y s 581
 1488 m 19 Y s 619 1488 m 19 Y s 656 1488 m 19 Y s 694 1469 m 38 Y s 732 1488 m 19 Y s 769 1488 m 19 Y s 807 1488 m 19 Y s 844 1488 m 19 Y s 882 1469 m 38 Y s 920 1488 m 19 Y s 957 1488 m 19 Y s 995 1488 m 19 Y s 1033 1488 m 19 Y s 1070 1469 m 38 Y s
 1108 1488 m 19 Y s 1146 1488 m 19 Y s 1183 1488 m 19 Y s 1221 1488 m 19 Y s 1259 1469 m 38 Y s 1296 1488 m 19 Y s 1334 1488 m 19 Y s 1372 1488 m 19 Y s 1409 1488 m 19 Y s 1447 1469 m 38 Y s 1484 1488 m 19 Y s 1522 1488 m 19 Y s 1560 1488 m 19 Y s
 1597 1488 m 19 Y s 1635 1469 m 38 Y s 1673 1488 m 19 Y s 1710 1488 m 19 Y s 1748 1488 m 19 Y s 1786 1488 m 19 Y s 1823 1469 m 38 Y s 1861 1488 m 19 Y s 1899 1488 m 19 Y s 1936 1488 m 19 Y s 1974 1488 m 19 Y s 2011 1469 m 38 Y s 2049 1488 m 19 Y s
 2087 1488 m 19 Y s 2124 1488 m 19 Y s 2162 1488 m 19 Y s 2200 1469 m 38 Y s 317 185 m 1322 Y s 347 195 m -30 X s 347 214 m -30 X s 347 231 m -30 X s 347 245 m -30 X s 347 258 m -30 X s 376 269 m -59 X s
 gsave  2268 1538 0 0 C 241.108 270.432 t 0 r /Helvetica findfont 58.6478 sf 0 0 m (\2555) show NC gr 
 gsave  2268 1538 0 0 C 149.878 231.333 t 0 r /Helvetica findfont 84.7135 sf 0 0 m (10) show NC gr  347 344 m -30 X s 347 387 m -30 X s 347 418 m -30 X s 347 442 m -30 X s 347 462 m -30 X s 347 479 m -30 X s 347 493 m -30 X s 347 506 m -30 X s 376
 517 m -59 X s
 gsave  2268 1538 0 0 C 241.108 514.798 t 0 r /Helvetica findfont 58.6478 sf 0 0 m (\2554) show NC gr 
 gsave  2268 1538 0 0 C 149.878 478.957 t 0 r /Helvetica findfont 84.7135 sf 0 0 m (10) show NC gr  347 591 m -30 X s 347 635 m -30 X s 347 666 m -30 X s 347 690 m -30 X s 347 710 m -30 X s 347 726 m -30 X s 347 740 m -30 X s 347 753 m -30 X s 376
 764 m -59 X s
 gsave  2268 1538 0 0 C 241.108 765.68 t 0 r /Helvetica findfont 58.6478 sf 0 0 m (\2553) show NC gr 
 gsave  2268 1538 0 0 C 149.878 726.582 t 0 r /Helvetica findfont 84.7135 sf 0 0 m (10) show NC gr  347 839 m -30 X s 347 883 m -30 X s 347 913 m -30 X s 347 937 m -30 X s 347 957 m -30 X s 347 974 m -30 X s 347 988 m -30 X s 347 1001 m -30 X s 376
 1012 m -59 X s
 gsave  2268 1538 0 0 C 241.108 1010.05 t 0 r /Helvetica findfont 58.6478 sf 0 0 m (\2552) show NC gr 
 gsave  2268 1538 0 0 C 149.878 974.206 t 0 r /Helvetica findfont 84.7135 sf 0 0 m (10) show NC gr  347 1087 m -30 X s 347 1130 m -30 X s 347 1161 m -30 X s 347 1185 m -30 X s 347 1205 m -30 X s 347 1221 m -30 X s 347 1236 m -30 X s 347 1248 m -30 X
 s 376 1260 m -59 X s
 gsave  2268 1538 0 0 C 250.882 1257.67 t 0 r /Helvetica findfont 58.6478 sf 0 0 m (\2551) show NC gr 
 gsave  2268 1538 0 0 C 159.652 1221.83 t 0 r /Helvetica findfont 84.7135 sf 0 0 m (10) show NC gr  347 1334 m -30 X s 347 1378 m -30 X s 347 1409 m -30 X s 347 1433 m -30 X s 347 1452 m -30 X s 347 1469 m -30 X s 347 1483 m -30 X s 347 1496 m -30 X
 s 376 1507 m -59 X s
 gsave  2268 1538 0 0 C 295.257 1470.63 t 0 r  -47 0 t /Helvetica findfont 84.7135 sf 0 0 m (1) show NC gr  2200 185 m 1322 Y s 2170 195 m 30 X s 2170 214 m 30 X s 2170 231 m 30 X s 2170 245 m 30 X s 2170 258 m 30 X s 2141 269 m 59 X s 2170 344 m 30
 X s 2170 387 m 30 X s 2170 418 m 30 X s 2170 442 m 30 X s 2170 462 m 30 X s 2170 479 m 30 X s 2170 493 m 30 X s 2170 506 m 30 X s 2141 517 m 59 X s 2170 591 m 30 X s 2170 635 m 30 X s 2170 666 m 30 X s 2170 690 m 30 X s 2170 710 m 30 X s 2170 726 m
 30 X s 2170 740 m 30 X s 2170 753 m 30 X s 2141 764 m 59 X s 2170 839 m 30 X s 2170 883 m 30 X s 2170 913 m 30 X s 2170 937 m 30 X s 2170 957 m 30 X s 2170 974 m 30 X s 2170 988 m 30 X s 2170 1001 m 30 X s 2141 1012 m 59 X s 2170 1087 m 30 X s 2170
 1130 m 30 X s 2170 1161 m 30 X s 2170 1185 m 30 X s 2170 1205 m 30 X s 2170 1221 m 30 X s 2170 1236 m 30 X s 2170 1248 m 30 X s 2141 1260 m 59 X s 2170 1334 m 30 X s 2170 1378 m 30 X s 2170 1409 m 30 X s 2170 1433 m 30 X s 2170 1452 m 30 X s 2170
 1469 m 30 X s 2170 1483 m 30 X s 2170 1496 m 30 X s 2141 1507 m 59 X s 0 0 0.6 c[  12 12 ] 0 sd 6 lw 1 1 1 c black 0 0 0.6 c 317 1427 m 19 X -114 Y 19 X -54 Y 19 X -50 Y 19 X -42 Y 19 X -37 Y 18 X -32 Y 19 X -29 Y 19 X -25 Y 19 X -26 Y 19 X -21 Y 19
 X -22 Y 18 X -20 Y 19 X -19 Y 19 X -17 Y 19 X -20 Y 19 X -16 Y 18 X -13 Y 19 X -19 Y 19 X -16 Y 19 X -13 Y 19 X -17 Y 19 X -14 Y 18 X -9 Y 19 X -16 Y 19 X -14 Y 19 X -13 Y 19 X -4 Y 18 X -10 Y 19 X -24 Y 19 X -5 Y 19 X -13 Y 19 X -20 Y 19 X -4 Y 18
 X -4 Y 19 X -17 Y 19 X -16 Y 19 X -10 Y 38 X -7 Y 18 X -32 Y 38 X -6 Y 19 X -14 Y 19 X -12 Y 18 X -5 Y 19 X -36 Y 19 X 27 Y 19 X -19 Y 19 X -1 Y 19 X -10 Y 18 X -13 Y 19 X -3 Y 19 X -21 Y 19 X -9 Y 19 X -1 Y 19 X -18 Y 18 X -10 Y 19 X 3 Y 19 X -13 Y
 19 X 17 Y 19 X -22 Y 18 X -6 Y 19 X -9 Y 19 X 3 Y 19 X -45 Y 19 X 67 Y 19 X -58 Y 18 X -29 Y 19 X -26 Y 19 X -7 Y 19 X -8 Y 19 X 22 Y 18 X -14 Y 19 X 53 Y 19 X -113 Y 19 X 74 Y 19 X 24 Y 19 X -86 Y 18 X 48 Y 19 X 7 Y 19 X -43 Y 19 X -24 Y 19 X -15 Y
 19 X 67 Y 18 X -83 Y 19 X 65 Y 19 X -65 Y 19 X -20 Y 19 X 51 Y 18 X 12 Y 19 X -43 Y 19 X -20 Y 19 X 20 Y 19 X -20 Y 19 X 51 Y 18 X -52 Y 19 X 52 Y 19 X -52 Y 38 X s 0 0.4 0.6 c[ 4 8] 0 sd 1 1 1 c black 0 0.4 0.6 c 317 1445 m 19 X -150 Y 19 X -45 Y
 19 X -57 Y 19 X -42 Y 19 X -44 Y 18 X -37 Y 19 X -30 Y 19 X -25 Y 19 X -23 Y 19 X -23 Y 19 X -19 Y 18 X -23 Y 19 X -18 Y 19 X -22 Y 19 X -16 Y 19 X -11 Y 18 X -18 Y 19 X -13 Y 19 X -20 Y 19 X -1 Y 19 X -23 Y 19 X -16 Y 18 X -29 Y 19 X 7 Y 19 X -5 Y
 19 X -18 Y 19 X -21 Y 18 X -15 Y 19 X -19 Y 19 X 10 Y 19 X -21 Y 19 X -8 Y 19 X -4 Y 18 X -4 Y 19 X -21 Y 19 X -20 Y 19 X 9 Y 19 X -8 Y 19 X -32 Y 18 X 9 Y 19 X -7 Y 19 X -15 Y 19 X -13 Y 19 X -4 Y 18 X 12 Y 19 X -22 Y 19 X -20 Y 19 X 36 Y 19 X -53
 Y 19 X 20 Y 18 X -62 Y 19 X 4 Y 19 X 20 Y 19 X -29 Y 19 X 14 Y 19 X -63 Y 18 X 105 Y 19 X -90 Y 19 X -31 Y 19 X 31 Y 19 X -31 Y 18 X -31 Y 19 X 11 Y 19 X -11 Y 19 X 11 Y 38 X 10 Y 18 X -21 Y 19 X -13 Y 19 X 34 Y 19 X -48 Y 19 X 38 Y 18 X -98 Y 19 X
 108 Y 19 X -85 Y 19 X 64 Y 19 X -64 Y 19 X -98 Y 18 X 183 Y 19 X -108 Y 19 X -78 Y 19 X 3 Y 19 X 118 Y 37 X -43 Y 57 X -31 Y 37 X -47 Y 19 X 78 Y 19 X -31 Y 19 X 31 Y 19 X -31 Y 19 X -44 Y 18 X 75 Y 38 X -78 Y 38 X s black[  ] 0 sd 1 1 1 c black 317
 1505 m 19 X -453 Y 19 X -178 Y 19 X -120 Y 19 X -83 Y 19 X -62 Y 18 X -54 Y 19 X -35 Y 19 X -38 Y 19 X -38 Y 19 X -15 Y 19 X -7 Y 18 X -43 Y 19 X -42 Y 19 X 14 Y 19 X -27 Y 19 X -39 Y 18 X 4 Y 19 X -8 Y 19 X -67 Y 19 X 39 Y 19 X -18 Y 19 X -37 Y 18
 X 24 Y 19 X -37 Y 19 X 44 Y 19 X -44 Y 19 X 3 Y 18 X -3 Y 57 X 13 Y 19 X -13 Y 1280 X s
 gsave  2268 1538 0 0 C 1309.8 1283.74 t 0 r /Helvetica-Bold findfont 58.6478 sf 0 0 m (Conversion electrons) show NC gr  0 0.4 0.6 c[ 4 8] 0 sd 1072 1302 m 196 X s black
 gsave  2268 1538 0 0 C 1309.8 1195.76 t 0 r /Helvetica-Bold findfont 58.6478 sf 0 0 m (Isolated electrons ) show NC gr [  ] 0 sd 1072 1214 m 196 X s
 gsave  2268 1538 0 0 C 1309.8 1107.79 t 0 r /Helvetica-Bold findfont 58.6478 sf 0 0 m (Non\255Isolated electrons) show NC gr  0 0 0.6 c[  12 12 ] 0 sd 1072 1126 m 196 X s black
 gsave  2268 1538 0 0 C 1309.8 1019.82 t 0 r /Helvetica-Bold findfont 58.6478 sf 0 0 m (Hadrons) show NC gr  0.6 0 0.2 c[  ] 0 sd 1072 1038 m 196 X s
 gr  gr showpage
end
%%EOF
