%!PS-Adobe-2.0 EPSF-2.0
%%BoundingBox:  0 0 567 384
%%Title: /home/rohin/Analysis/dataAna/2014/July/electron_vars/Weta2.eps: c1_n26
%%Creator: ROOT Version 5.34/14
%%CreationDate: Tue Sep  9 00:23:06 2014
%%EndComments
%%BeginProlog
80 dict begin
/s {stroke} def /l {lineto} def /m {moveto} def /t {translate} def
/r {rotate} def /rl {roll}  def /R {repeat} def
/d {rlineto} def /rm {rmoveto} def /gr {grestore} def /f {eofill} def
/c {setrgbcolor} def /black {0 setgray} def /sd {setdash} def
/cl {closepath} def /sf {scalefont setfont} def /lw {setlinewidth} def
/box {m dup 0 exch d exch 0 d 0 exch neg d cl} def
/NC{systemdict begin initclip end}def/C{NC box clip newpath}def
/bl {box s} def /bf {box f} def /Y { 0 exch d} def /X { 0 d} def 
/K {{pop pop 0 moveto} exch kshow} bind def
/ita {/ang 15 def gsave [1 0 ang dup sin exch cos div 1 0 0] concat} def 
/mp {newpath /y exch def /x exch def} def
/side {[w .77 mul w .23 mul] .385 w mul sd w 0 l currentpoint t -144 r} def
/mr {mp x y w2 0 360 arc} def /m24 {mr s} def /m20 {mr f} def
/mb {mp x y w2 add m w2 neg 0 d 0 w neg d w 0 d 0 w d cl} def
/mt {mp x y w2 add m w2 neg w neg d w 0 d cl} def
/m21 {mb f} def /m25 {mb s} def /m22 {mt f} def /m26{mt s} def
/m23 {mp x y w2 sub m w2 w d w neg 0 d cl f} def
/m27 {mp x y w2 add m w3 neg w2 neg d w3 w2 neg d w3 w2 d cl s} def
/m28 {mp x w2 sub y w2 sub w3 add m w3 0 d  0 w3 neg d w3 0 d 0 w3 d w3 0 d  0 w3 d w3 neg 0 d 0 w3 d w3 neg 0 d 0 w3 neg d w3 neg 0 d cl s } def
/m29 {mp gsave x w2 sub y w2 add w3 sub m currentpoint t 4 {side} repeat cl fill gr} def
/m30 {mp gsave x w2 sub y w2 add w3 sub m currentpoint t 4 {side} repeat cl s gr} def
/m31 {mp x y w2 sub m 0 w d x w2 sub y m w 0 d x w2 sub y w2 add m w w neg d x w2 sub y w2 sub m w w d s} def
/m32 {mp x y w2 sub m w2 w d w neg 0 d cl s} def
/m33 {mp x y w2 add m w3 neg w2 neg d w3 w2 neg d w3 w2 d cl f} def
/m34 {mp x w2 sub y w2 sub w3 add m w3 0 d  0 w3 neg d w3 0 d 0 w3 d w3 0 d  0 w3 d w3 neg 0 d 0 w3 d w3 neg 0 d 0 w3 neg d w3 neg 0 d cl f } def
/m2 {mp x y w2 sub m 0 w d x w2 sub y m w 0 d s} def
/m5 {mp x w2 sub y w2 sub m w w d x w2 sub y w2 add m w w neg d s} def
/reEncode {exch findfont dup length dict begin {1 index /FID eq  {pop pop} {def} ifelse } forall /Encoding exch def currentdict end dup /FontName get exch definefont pop } def [/Times-Bold /Times-Italic /Times-BoldItalic /Helvetica /Helvetica-Oblique
 /Helvetica-Bold /Helvetica-BoldOblique /Courier /Courier-Oblique /Courier-Bold /Courier-BoldOblique /Times-Roman /AvantGarde-Book /AvantGarde-BookOblique /AvantGarde-Demi /AvantGarde-DemiOblique /Bookman-Demi /Bookman-DemiItalic /Bookman-Light
 /Bookman-LightItalic /Helvetica-Narrow /Helvetica-Narrow-Bold /Helvetica-Narrow-BoldOblique /Helvetica-Narrow-Oblique /NewCenturySchlbk-Roman /NewCenturySchlbk-Bold /NewCenturySchlbk-BoldItalic /NewCenturySchlbk-Italic /Palatino-Bold
 /Palatino-BoldItalic /Palatino-Italic /Palatino-Roman ] {ISOLatin1Encoding reEncode } forall
%%EndProlog
%%BeginSetup
%%EndSetup
newpath  gsave  .25 .25 scale  gsave  0 0 t black[  ] 0 sd 3 lw 1 1 1 c 2268 1538 0 0 bf black 1 1 1 c 1883 1322 317 185 bf black 1883 1322 317 185 bl 1 1 1 c 1883 1322 317 185 bf black 1883 1322 317 185 bl 0.6 0 0.2 c 6 lw 1 1 1 c black 0.6 0 0.2 c
 317 644 m 19 X -92 Y 19 X -25 Y 19 X 39 Y 19 X 46 Y 19 X 27 Y 18 X 24 Y 19 X 55 Y 19 X 49 Y 19 X 49 Y 19 X 66 Y 19 X 49 Y 18 X 52 Y 19 X 42 Y 19 X 40 Y 19 X 38 Y 19 X 38 Y 18 X 40 Y 19 X 41 Y 19 X 29 Y 19 X 18 Y 19 X 9 Y 19 X 3 Y 18 X -1 Y 19 X -3 Y
 19 X -5 Y 19 X -5 Y 19 X -7 Y 18 X -8 Y 19 X -11 Y 19 X -12 Y 19 X -15 Y 19 X -16 Y 19 X -19 Y 18 X -23 Y 19 X -24 Y 19 X -28 Y 19 X -36 Y 19 X -45 Y 19 X -64 Y 18 X -83 Y 19 X -114 Y 19 X -139 Y 19 X -115 Y 19 X -106 Y 18 X -16 Y 19 X -44 Y 19 X
 -97 Y 19 X -60 Y 19 X 121 Y 19 X -61 Y 18 X -60 Y 57 X 60 Y 19 X 97 Y 19 X -157 Y 56 X 60 Y 19 X -60 Y 19 X 60 Y 18 X -60 Y 95 X 121 Y 18 X -61 Y 19 X -60 Y 132 X 60 Y 19 X -60 Y 37 X 60 Y 19 X -60 Y 76 X 60 Y 18 X 61 Y 19 X -121 Y 75 X 60 Y 19 X
 -60 Y 170 X s black 3 lw 317 185 m 1883 X s
 gsave  2268 1538 0 0 C 2176.49 26.0657 t 0 r /Helvetica findfont 39.0986 sf 0 0 m (2) show NC gr 
 gsave  2268 1538 0 0 C 2143.9 6.51643 t 0 r /Symbol findfont 58.6478 sf 0 0 m (h) show NC gr 
 gsave  2268 1538 0 0 C 2082 35.8403 t 0 r /Helvetica findfont 84.7135 sf 0 0 m (w) show NC gr  317 223 m -38 Y s 393 204 m -19 Y s 468 204 m -19 Y s 543 204 m -19 Y s 619 204 m -19 Y s 694 223 m -38 Y s 769 204 m -19 Y s 844 204 m -19 Y s 920 204 m
 -19 Y s 995 204 m -19 Y s 1070 223 m -38 Y s 1146 204 m -19 Y s 1221 204 m -19 Y s 1296 204 m -19 Y s 1372 204 m -19 Y s 1447 223 m -38 Y s 1522 204 m -19 Y s 1597 204 m -19 Y s 1673 204 m -19 Y s 1748 204 m -19 Y s 1823 223 m -38 Y s 1899 204 m -19
 Y s 1974 204 m -19 Y s 2049 204 m -19 Y s 2124 204 m -19 Y s 2200 223 m -38 Y s 2200 223 m -38 Y s
 gsave  2268 1538 0 0 C 293.239 104.263 t 0 r /Helvetica findfont 84.7135 sf 0 0 m (0) show NC gr 
 gsave  2268 1538 0 0 C 615.802 104.263 t 0 r /Helvetica findfont 84.7135 sf 0 0 m (0.01) show NC gr 
 gsave  2268 1538 0 0 C 987.239 104.263 t 0 r /Helvetica findfont 84.7135 sf 0 0 m (0.02) show NC gr 
 gsave  2268 1538 0 0 C 1365.19 104.263 t 0 r /Helvetica findfont 84.7135 sf 0 0 m (0.03) show NC gr 
 gsave  2268 1538 0 0 C 1739.89 104.263 t 0 r /Helvetica findfont 84.7135 sf 0 0 m (0.04) show NC gr 
 gsave  2268 1538 0 0 C 2117.84 104.263 t 0 r /Helvetica findfont 84.7135 sf 0 0 m (0.05) show NC gr  317 1507 m 1883 X s 317 1469 m 38 Y s 393 1488 m 19 Y s 468 1488 m 19 Y s 543 1488 m 19 Y s 619 1488 m 19 Y s 694 1469 m 38 Y s 769 1488 m 19 Y s
 844 1488 m 19 Y s 920 1488 m 19 Y s 995 1488 m 19 Y s 1070 1469 m 38 Y s 1146 1488 m 19 Y s 1221 1488 m 19 Y s 1296 1488 m 19 Y s 1372 1488 m 19 Y s 1447 1469 m 38 Y s 1522 1488 m 19 Y s 1597 1488 m 19 Y s 1673 1488 m 19 Y s 1748 1488 m 19 Y s 1823
 1469 m 38 Y s 1899 1488 m 19 Y s 1974 1488 m 19 Y s 2049 1488 m 19 Y s 2124 1488 m 19 Y s 2200 1469 m 38 Y s 2200 1469 m 38 Y s 317 185 m 1322 Y s 347 191 m -30 X s 347 217 m -30 X s 347 236 m -30 X s 347 252 m -30 X s 347 266 m -30 X s 347 277 m
 -30 X s 347 288 m -30 X s 376 297 m -59 X s
 gsave  2268 1538 0 0 C 241.108 299.756 t 0 r /Helvetica findfont 58.6478 sf 0 0 m (\2556) show NC gr 
 gsave  2268 1538 0 0 C 149.878 260.657 t 0 r /Helvetica findfont 84.7135 sf 0 0 m (10) show NC gr  347 358 m -30 X s 347 393 m -30 X s 347 418 m -30 X s 347 438 m -30 X s 347 454 m -30 X s 347 467 m -30 X s 347 479 m -30 X s 347 489 m -30 X s 376
 499 m -59 X s
 gsave  2268 1538 0 0 C 241.108 501.765 t 0 r /Helvetica findfont 58.6478 sf 0 0 m (\2555) show NC gr 
 gsave  2268 1538 0 0 C 149.878 462.666 t 0 r /Helvetica findfont 84.7135 sf 0 0 m (10) show NC gr  347 559 m -30 X s 347 595 m -30 X s 347 620 m -30 X s 347 640 m -30 X s 347 656 m -30 X s 347 669 m -30 X s 347 681 m -30 X s 347 691 m -30 X s 376
 700 m -59 X s
 gsave  2268 1538 0 0 C 241.108 697.258 t 0 r /Helvetica findfont 58.6478 sf 0 0 m (\2554) show NC gr 
 gsave  2268 1538 0 0 C 149.878 661.417 t 0 r /Helvetica findfont 84.7135 sf 0 0 m (10) show NC gr  347 761 m -30 X s 347 797 m -30 X s 347 822 m -30 X s 347 841 m -30 X s 347 857 m -30 X s 347 871 m -30 X s 347 882 m -30 X s 347 893 m -30 X s 376
 902 m -59 X s
 gsave  2268 1538 0 0 C 241.108 902.525 t 0 r /Helvetica findfont 58.6478 sf 0 0 m (\2553) show NC gr 
 gsave  2268 1538 0 0 C 149.878 863.427 t 0 r /Helvetica findfont 84.7135 sf 0 0 m (10) show NC gr  347 963 m -30 X s 347 998 m -30 X s 347 1023 m -30 X s 347 1043 m -30 X s 347 1059 m -30 X s 347 1072 m -30 X s 347 1084 m -30 X s 347 1094 m -30 X s
 376 1104 m -59 X s
 gsave  2268 1538 0 0 C 241.108 1101.28 t 0 r /Helvetica findfont 58.6478 sf 0 0 m (\2552) show NC gr 
 gsave  2268 1538 0 0 C 149.878 1065.44 t 0 r /Helvetica findfont 84.7135 sf 0 0 m (10) show NC gr  347 1164 m -30 X s 347 1200 m -30 X s 347 1225 m -30 X s 347 1245 m -30 X s 347 1261 m -30 X s 347 1274 m -30 X s 347 1286 m -30 X s 347 1296 m -30 X
 s 376 1305 m -59 X s
 gsave  2268 1538 0 0 C 250.882 1303.29 t 0 r /Helvetica findfont 58.6478 sf 0 0 m (\2551) show NC gr 
 gsave  2268 1538 0 0 C 159.652 1267.44 t 0 r /Helvetica findfont 84.7135 sf 0 0 m (10) show NC gr  347 1366 m -30 X s 347 1402 m -30 X s 347 1427 m -30 X s 347 1446 m -30 X s 347 1462 m -30 X s 347 1476 m -30 X s 347 1488 m -30 X s 347 1498 m -30 X
 s 376 1507 m -59 X s
 gsave  2268 1538 0 0 C 295.257 1470.63 t 0 r  -47 0 t /Helvetica findfont 84.7135 sf 0 0 m (1) show NC gr  2200 185 m 1322 Y s 2170 191 m 30 X s 2170 217 m 30 X s 2170 236 m 30 X s 2170 252 m 30 X s 2170 266 m 30 X s 2170 277 m 30 X s 2170 288 m 30
 X s 2141 297 m 59 X s 2170 358 m 30 X s 2170 393 m 30 X s 2170 418 m 30 X s 2170 438 m 30 X s 2170 454 m 30 X s 2170 467 m 30 X s 2170 479 m 30 X s 2170 489 m 30 X s 2141 499 m 59 X s 2170 559 m 30 X s 2170 595 m 30 X s 2170 620 m 30 X s 2170 640 m
 30 X s 2170 656 m 30 X s 2170 669 m 30 X s 2170 681 m 30 X s 2170 691 m 30 X s 2141 700 m 59 X s 2170 761 m 30 X s 2170 797 m 30 X s 2170 822 m 30 X s 2170 841 m 30 X s 2170 857 m 30 X s 2170 871 m 30 X s 2170 882 m 30 X s 2170 893 m 30 X s 2141 902
 m 59 X s 2170 963 m 30 X s 2170 998 m 30 X s 2170 1023 m 30 X s 2170 1043 m 30 X s 2170 1059 m 30 X s 2170 1072 m 30 X s 2170 1084 m 30 X s 2170 1094 m 30 X s 2141 1104 m 59 X s 2170 1164 m 30 X s 2170 1200 m 30 X s 2170 1225 m 30 X s 2170 1245 m 30
 X s 2170 1261 m 30 X s 2170 1274 m 30 X s 2170 1286 m 30 X s 2170 1296 m 30 X s 2141 1305 m 59 X s 2170 1366 m 30 X s 2170 1402 m 30 X s 2170 1427 m 30 X s 2170 1446 m 30 X s 2170 1462 m 30 X s 2170 1476 m 30 X s 2170 1488 m 30 X s 2170 1498 m 30 X
 s 2141 1507 m 59 X s 0 0 0.6 c[  12 12 ] 0 sd 6 lw 1 1 1 c black 0 0 0.6 c 317 590 m 19 X -103 Y 19 X 40 Y 19 X 17 Y 19 X 41 Y 19 X 25 Y 18 X 31 Y 19 X 47 Y 19 X 40 Y 19 X 48 Y 19 X 67 Y 19 X 52 Y 18 X 49 Y 19 X 44 Y 19 X 45 Y 19 X 52 Y 19 X 59 Y 18
 X 70 Y 19 X 60 Y 19 X 36 Y 19 X 17 Y 38 X -7 Y 18 X -16 Y 19 X -24 Y 19 X -29 Y 19 X -28 Y 19 X -26 Y 18 X -23 Y 19 X -25 Y 19 X -25 Y 19 X -23 Y 19 X -26 Y 19 X -22 Y 18 X -27 Y 19 X -30 Y 19 X -32 Y 19 X -40 Y 19 X -45 Y 19 X -63 Y 18 X -105 Y 19
 X -93 Y 19 X -147 Y 19 X -61 Y 19 X -225 Y 188 X 84 Y 19 X -84 Y 19 X 84 Y 18 X -84 Y 565 X 84 Y 19 X -84 Y 226 X s 0 0.4 0.6 c[ 4 8] 0 sd 1 1 1 c black 0 0.4 0.6 c 317 629 m 19 X -64 Y 19 X -42 Y 19 X 49 Y 38 X 47 Y 18 X 22 Y 19 X 42 Y 19 X 49 Y 19
 X 37 Y 19 X 46 Y 19 X 66 Y 18 X 44 Y 19 X 38 Y 19 X 42 Y 19 X 43 Y 19 X 45 Y 18 X 71 Y 19 X 84 Y 19 X 55 Y 19 X 19 Y 19 X 4 Y 19 X 1 Y 18 X -20 Y 19 X -33 Y 19 X -29 Y 19 X -19 Y 19 X -13 Y 18 X -14 Y 19 X -18 Y 19 X -16 Y 19 X -19 Y 19 X -22 Y 19 X
 -20 Y 18 X -24 Y 19 X -27 Y 19 X -32 Y 19 X -38 Y 19 X -44 Y 19 X -62 Y 18 X -103 Y 19 X -93 Y 19 X -139 Y 19 X -105 Y 19 X -97 Y 18 X 97 Y 19 X -252 Y 19 X 155 Y 19 X -155 Y 19 X 155 Y 19 X -155 Y 244 X 155 Y 19 X -155 Y 19 X 155 Y 19 X -155 Y 131
 X 155 Y 19 X -155 Y 38 X 155 Y 19 X -155 Y 433 X s black[  ] 0 sd 1 1 1 c black 317 266 m 38 X 25 Y 19 X -106 Y 38 X 106 Y 18 X 36 Y 19 X 105 Y 19 X 16 Y 19 X 79 Y 19 X 51 Y 19 X 66 Y 18 X 28 Y 19 X 53 Y 19 X 52 Y 19 X 82 Y 19 X 176 Y 18 X 246 Y 19
 X 91 Y 19 X 16 Y 19 X -23 Y 19 X -47 Y 19 X -38 Y 18 X -68 Y 19 X -89 Y 19 X -81 Y 19 X -69 Y 19 X -60 Y 18 X -52 Y 19 X -48 Y 19 X -39 Y 19 X -36 Y 19 X -43 Y 19 X -27 Y 18 X -33 Y 19 X -23 Y 19 X -37 Y 19 X -45 Y 19 X -44 Y 19 X -63 Y 18 X -157 Y
 19 X -81 Y 1111 X s
 gsave  2268 1538 0 0 C 1489 1140.37 t 0 r /Helvetica-Bold findfont 48.8732 sf 0 0 m (Conversion electrons) show NC gr  0 0.4 0.6 c[ 4 8] 0 sd 1279 1157 m 175 X s black
 gsave  2268 1538 0 0 C 1489 1065.44 t 0 r /Helvetica-Bold findfont 48.8732 sf 0 0 m (Isolated electrons ) show NC gr [  ] 0 sd 1279 1080 m 175 X s
 gsave  2268 1538 0 0 C 1489 987.239 t 0 r /Helvetica-Bold findfont 48.8732 sf 0 0 m (Non\255Isolated electrons) show NC gr  0 0 0.6 c[  12 12 ] 0 sd 1279 1002 m 175 X s black
 gsave  2268 1538 0 0 C 1489 909.042 t 0 r /Helvetica-Bold findfont 48.8732 sf 0 0 m (Hadrons) show NC gr  0.6 0 0.2 c[  ] 0 sd 1279 925 m 175 X s
 gr  gr showpage
end
%%EOF
