%!PS-Adobe-2.0 EPSF-2.0
%%BoundingBox:  0 0 567 384
%%Title: /home/rohin/l1calo/root_files/12-AUG2011/JetTauEtMiss/finetime_lumi_had.eps: c1_n4
%%Creator: ROOT Version 5.34/14
%%CreationDate: Fri Jun  6 01:13:23 2014
%%EndComments
%%BeginProlog
80 dict begin
/s {stroke} def /l {lineto} def /m {moveto} def /t {translate} def
/r {rotate} def /rl {roll}  def /R {repeat} def
/d {rlineto} def /rm {rmoveto} def /gr {grestore} def /f {eofill} def
/c {setrgbcolor} def /black {0 setgray} def /sd {setdash} def
/cl {closepath} def /sf {scalefont setfont} def /lw {setlinewidth} def
/box {m dup 0 exch d exch 0 d 0 exch neg d cl} def
/NC{systemdict begin initclip end}def/C{NC box clip newpath}def
/bl {box s} def /bf {box f} def /Y { 0 exch d} def /X { 0 d} def 
/K {{pop pop 0 moveto} exch kshow} bind def
/ita {/ang 15 def gsave [1 0 ang dup sin exch cos div 1 0 0] concat} def 
/mp {newpath /y exch def /x exch def} def
/side {[w .77 mul w .23 mul] .385 w mul sd w 0 l currentpoint t -144 r} def
/mr {mp x y w2 0 360 arc} def /m24 {mr s} def /m20 {mr f} def
/mb {mp x y w2 add m w2 neg 0 d 0 w neg d w 0 d 0 w d cl} def
/mt {mp x y w2 add m w2 neg w neg d w 0 d cl} def
/m21 {mb f} def /m25 {mb s} def /m22 {mt f} def /m26{mt s} def
/m23 {mp x y w2 sub m w2 w d w neg 0 d cl f} def
/m27 {mp x y w2 add m w3 neg w2 neg d w3 w2 neg d w3 w2 d cl s} def
/m28 {mp x w2 sub y w2 sub w3 add m w3 0 d  0 w3 neg d w3 0 d 0 w3 d w3 0 d  0 w3 d w3 neg 0 d 0 w3 d w3 neg 0 d 0 w3 neg d w3 neg 0 d cl s } def
/m29 {mp gsave x w2 sub y w2 add w3 sub m currentpoint t 4 {side} repeat cl fill gr} def
/m30 {mp gsave x w2 sub y w2 add w3 sub m currentpoint t 4 {side} repeat cl s gr} def
/m31 {mp x y w2 sub m 0 w d x w2 sub y m w 0 d x w2 sub y w2 add m w w neg d x w2 sub y w2 sub m w w d s} def
/m32 {mp x y w2 sub m w2 w d w neg 0 d cl s} def
/m33 {mp x y w2 add m w3 neg w2 neg d w3 w2 neg d w3 w2 d cl f} def
/m34 {mp x w2 sub y w2 sub w3 add m w3 0 d  0 w3 neg d w3 0 d 0 w3 d w3 0 d  0 w3 d w3 neg 0 d 0 w3 d w3 neg 0 d 0 w3 neg d w3 neg 0 d cl f } def
/m2 {mp x y w2 sub m 0 w d x w2 sub y m w 0 d s} def
/m5 {mp x w2 sub y w2 sub m w w d x w2 sub y w2 add m w w neg d s} def
/reEncode {exch findfont dup length dict begin {1 index /FID eq  {pop pop} {def} ifelse } forall /Encoding exch def currentdict end dup /FontName get exch definefont pop } def [/Times-Bold /Times-Italic /Times-BoldItalic /Helvetica /Helvetica-Oblique
 /Helvetica-Bold /Helvetica-BoldOblique /Courier /Courier-Oblique /Courier-Bold /Courier-BoldOblique /Times-Roman /AvantGarde-Book /AvantGarde-BookOblique /AvantGarde-Demi /AvantGarde-DemiOblique /Bookman-Demi /Bookman-DemiItalic /Bookman-Light
 /Bookman-LightItalic /Helvetica-Narrow /Helvetica-Narrow-Bold /Helvetica-Narrow-BoldOblique /Helvetica-Narrow-Oblique /NewCenturySchlbk-Roman /NewCenturySchlbk-Bold /NewCenturySchlbk-BoldItalic /NewCenturySchlbk-Italic /Palatino-Bold
 /Palatino-BoldItalic /Palatino-Italic /Palatino-Roman ] {ISOLatin1Encoding reEncode } forall
%%EndProlog
%%BeginSetup
%%EndSetup
newpath  gsave  .25 .25 scale  gsave  0 0 t black[  ] 0 sd 3 lw 1 1 1 c 2268 1538 0 0 bf black 1 1 1 c 1883 1322 317 185 bf black 1883 1322 317 185 bl 1 1 1 c 1883 1322 317 185 bf black 1883 1322 317 185 bl 1 1 1 c black 407 919 m 50 Y s 407 982 m 50
 Y s 401 976 m s 414 976 m s /w 13 def /w2 {w 2 div} def /w3 {w 3 div} def 407 976 m20 421 906 m 30 Y s 421 949 m 31 Y s 414 943 m 1 X s 428 943 m s 421 943 m20 435 974 m 32 Y s 435 1019 m 31 Y s 428 1012 m 1 X s 442 1012 m s 435 1012 m20 449 922 m
 39 Y s 449 974 m 39 Y s 442 968 m s 455 968 m 1 X s 449 968 m20 463 1020 m 27 Y s 463 1060 m 26 Y s 456 1053 m s 469 1053 m 1 X s 463 1053 m20 477 973 m 30 Y s 477 1016 m 31 Y s 470 1010 m s 483 1010 m 1 X s 477 1010 m20 490 891 m 43 Y s 490 947 m
 44 Y s 484 941 m s 497 941 m s 490 941 m20 504 921 m 29 Y s 504 963 m 29 Y s 497 957 m 1 X s 511 957 m s 504 957 m20 518 955 m 30 Y s 518 998 m 30 Y s 511 991 m 1 X s 525 991 m s 518 991 m20 532 985 m 33 Y s 532 1031 m 33 Y s 525 1025 m s 539 1025 m
 s 532 1025 m20 546 997 m 33 Y s 546 1043 m 32 Y s 539 1036 m s 552 1036 m 1 X s 546 1036 m20 560 964 m 37 Y s 560 1014 m 37 Y s 553 1008 m s 566 1008 m 1 X s 560 1008 m20 574 973 m 29 Y s 574 1015 m 29 Y s 567 1009 m s 580 1009 m s 574 1009 m20 587
 1021 m 32 Y s 587 1066 m 31 Y s 580 1059 m 1 X s 594 1059 m s 587 1059 m20 601 894 m 28 Y s 601 935 m 28 Y s 594 928 m 1 X s 608 928 m s 601 928 m20 615 960 m 39 Y s 615 1012 m 39 Y s 608 1005 m 1 X s 622 1005 m s 615 1005 m20 629 944 m 27 Y s 629
 984 m 26 Y s 622 977 m s 635 977 m 1 X s 629 977 m20 643 972 m 40 Y s 643 1025 m 40 Y s 636 1019 m s 649 1019 m 1 X s 643 1019 m20 657 966 m 28 Y s 657 1007 m 28 Y s 650 1000 m s 663 1000 m s 657 1000 m20 670 967 m 27 Y s 670 1007 m 26 Y s 663 1000
 m 1 X s 677 1000 m s 670 1000 m20 684 899 m 34 Y s 684 946 m 34 Y s 677 939 m 1 X s 691 939 m s 684 939 m20 698 939 m 30 Y s 698 982 m 30 Y s 691 976 m 1 X s 705 976 m s 698 976 m20 712 988 m 31 Y s 712 1032 m 32 Y s 705 1026 m s 718 1026 m 1 X s
 712 1026 m20 726 931 m 34 Y s 726 978 m 34 Y s 719 972 m s 732 972 m 1 X s 726 972 m20 740 969 m 47 Y s 740 1029 m 46 Y s 733 1022 m s 746 1022 m 1 X s 740 1022 m20 753 1054 m 29 Y s 753 1096 m 29 Y s 747 1089 m s 760 1089 m s 753 1089 m20 767 974 m
 28 Y s 767 1015 m 28 Y s 760 1008 m 1 X s 774 1008 m s 767 1008 m20 781 934 m 29 Y s 781 976 m 30 Y s 774 970 m 1 X s 788 970 m s 781 970 m20 795 865 m 30 Y s 795 908 m 29 Y s 788 901 m s 801 901 m 1 X s 795 901 m20 809 937 m 31 Y s 809 981 m 31 Y s
 802 974 m s 815 974 m 1 X s 809 974 m20 823 879 m 45 Y s 823 937 m 45 Y s 816 931 m s 829 931 m 1 X s 823 931 m20 836 951 m 32 Y s 836 996 m 31 Y s 830 989 m s 843 989 m s 836 989 m20 850 801 m 73 Y s 850 887 m 73 Y s 843 880 m 1 X s 857 880 m s 850
 880 m20 864 903 m 35 Y s 864 951 m 34 Y s 857 944 m 1 X s 871 944 m s 864 944 m20 878 984 m 29 Y s 878 1026 m 28 Y s 871 1019 m s 885 1019 m s 878 1019 m20 892 955 m 29 Y s 892 997 m 28 Y s 885 990 m s 898 990 m 1 X s 892 990 m20 906 968 m 35 Y s
 906 1016 m 35 Y s 899 1010 m s 912 1010 m 1 X s 906 1010 m20 920 971 m 29 Y s 920 1013 m 30 Y s 913 1007 m s 926 1007 m s 920 1007 m20 933 1102 m 30 Y s 933 1146 m 30 Y s 926 1139 m 1 X s 940 1139 m s 933 1139 m20 947 889 m 32 Y s 947 934 m 31 Y s
 940 927 m 1 X s 954 927 m s 947 927 m20 961 927 m 30 Y s 961 970 m 30 Y s 954 964 m 1 X s 968 964 m s 961 964 m20 975 934 m 32 Y s 975 979 m 32 Y s 968 973 m s 981 973 m 1 X s 975 973 m20 989 951 m 31 Y s 989 995 m 31 Y s 982 988 m s 995 988 m 1 X s
 989 988 m20 1003 927 m 29 Y s 1003 969 m 29 Y s 996 963 m s 1009 963 m s 1003 963 m20 1016 966 m 35 Y s 1016 1014 m 34 Y s 1009 1007 m 1 X s 1023 1007 m s 1016 1007 m20 1030 954 m 28 Y s 1030 995 m 29 Y s 1023 989 m 1 X s 1037 989 m s 1030 989 m20
 1044 896 m 34 Y s 1044 943 m 34 Y s 1037 937 m 1 X s 1051 937 m s 1044 937 m20 1058 966 m 33 Y s 1058 1012 m 33 Y s 1051 1006 m s 1064 1006 m 1 X s 1058 1006 m20 1072 954 m 30 Y s 1072 997 m 30 Y s 1065 990 m s 1078 990 m 1 X s 1072 990 m20 1086 963
 m 29 Y s 1086 1005 m 29 Y s 1079 999 m s 1092 999 m 1 X s 1086 999 m20 1099 949 m 32 Y s 1099 994 m 31 Y s 1093 987 m s 1106 987 m s 1099 987 m20 1113 976 m 34 Y s 1113 1023 m 35 Y s 1106 1017 m 1 X s 1120 1017 m s 1113 1017 m20 1127 918 m 28 Y s
 1127 959 m 28 Y s 1120 953 m 1 X s 1134 953 m s 1127 953 m20 1141 943 m 30 Y s 1141 986 m 30 Y s 1134 980 m s 1147 980 m 1 X s 1141 980 m20 1155 972 m 33 Y s 1155 1018 m 33 Y s 1148 1012 m s 1161 1012 m 1 X s 1155 1012 m20 1169 939 m 39 Y s 1169 991
 m 40 Y s 1162 985 m s 1175 985 m 1 X s 1169 985 m20 1182 1006 m 36 Y s 1182 1055 m 35 Y s 1176 1048 m s 1189 1048 m s 1182 1048 m20 1196 933 m 42 Y s 1196 988 m 42 Y s 1189 982 m 1 X s 1203 982 m s 1196 982 m20 1210 965 m 37 Y s 1210 1015 m 36 Y s
 1203 1008 m 1 X s 1217 1008 m s 1210 1008 m20 1224 940 m 31 Y s 1224 984 m 31 Y s 1217 977 m s 1230 977 m 1 X s 1224 977 m20 1238 940 m 31 Y s 1238 984 m 31 Y s 1231 978 m s 1244 978 m 1 X s 1238 978 m20 1252 948 m 33 Y s 1252 994 m 33 Y s 1245 988
 m s 1258 988 m 1 X s 1252 988 m20 1266 881 m 28 Y s 1266 922 m 28 Y s 1259 915 m s 1272 915 m s 1266 915 m20 1279 1047 m 37 Y s 1279 1097 m 38 Y s 1272 1091 m 1 X s 1286 1091 m s 1279 1091 m20 1293 1012 m 35 Y s 1293 1060 m 35 Y s 1286 1053 m 1 X s
 1300 1053 m s 1293 1053 m20 1307 876 m 31 Y s 1307 920 m 31 Y s 1300 913 m 1 X s 1314 913 m s 1307 913 m20 1321 904 m 37 Y s 1321 955 m 37 Y s 1314 948 m s 1327 948 m 1 X s 1321 948 m20 1335 961 m 38 Y s 1335 1012 m 38 Y s 1328 1005 m s 1341 1005 m
 1 X s 1335 1005 m20 1349 974 m 32 Y s 1349 1019 m 33 Y s 1342 1013 m s 1355 1013 m s 1349 1013 m20 1362 977 m 35 Y s 1362 1025 m 36 Y s 1355 1019 m 1 X s 1369 1019 m s 1362 1019 m20 1376 952 m 31 Y s 1376 996 m 31 Y s 1369 989 m 1 X s 1383 989 m s
 1376 989 m20 1390 893 m 34 Y s 1390 940 m 33 Y s 1383 933 m 1 X s 1397 933 m s 1390 933 m20 1404 1095 m 34 Y s 1404 1142 m 34 Y s 1397 1136 m s 1410 1136 m 1 X s 1404 1136 m20 1418 893 m 38 Y s 1418 944 m 38 Y s 1411 938 m s 1424 938 m 1 X s 1418
 938 m20 1432 917 m 29 Y s 1432 959 m 29 Y s 1425 953 m s 1438 953 m s 1432 953 m20 1445 892 m 40 Y s 1445 945 m 41 Y s 1438 939 m 1 X s 1452 939 m s 1445 939 m20 1459 966 m 33 Y s 1459 1012 m 34 Y s 1452 1006 m 1 X s 1466 1006 m s 1459 1006 m20 1473
 879 m 37 Y s 1473 929 m 38 Y s 1466 923 m 1 X s 1480 923 m s 1473 923 m20 1487 1005 m 38 Y s 1487 1056 m 37 Y s 1480 1049 m s 1493 1049 m 1 X s 1487 1049 m20 1501 957 m 34 Y s 1501 1004 m 34 Y s 1494 998 m s 1507 998 m 1 X s 1501 998 m20 1515 985 m
 42 Y s 1515 1040 m 42 Y s 1508 1034 m s 1521 1034 m 1 X s 1515 1034 m20 1528 944 m 38 Y s 1528 995 m 39 Y s 1522 989 m s 1535 989 m s 1528 989 m20 1542 897 m 27 Y s 1542 937 m 28 Y s 1535 931 m 1 X s 1549 931 m s 1542 931 m20 1556 969 m 29 Y s 1556
 1011 m 30 Y s 1549 1005 m 1 X s 1563 1005 m s 1556 1005 m20 1570 1008 m 33 Y s 1570 1054 m 34 Y s 1563 1048 m s 1576 1048 m 1 X s 1570 1048 m20 1584 982 m 33 Y s 1584 1028 m 33 Y s 1577 1021 m s 1590 1021 m 1 X s 1584 1021 m20 1598 940 m 37 Y s 1598
 990 m 37 Y s 1591 984 m s 1604 984 m 1 X s 1598 984 m20 1611 911 m 42 Y s 1611 966 m 42 Y s 1605 959 m s 1618 959 m s 1611 959 m20 1625 907 m 35 Y s 1625 955 m 35 Y s 1618 948 m 1 X s 1632 948 m s 1625 948 m20 1639 907 m 33 Y s 1639 953 m 32 Y s
 1632 946 m 1 X s 1646 946 m s 1639 946 m20 1653 910 m 36 Y s 1653 959 m 36 Y s 1646 952 m s 1660 952 m s 1653 952 m20 1667 916 m 35 Y s 1667 964 m 36 Y s 1660 958 m s 1673 958 m 1 X s 1667 958 m20 1681 899 m 33 Y s 1681 945 m 34 Y s 1674 939 m s
 1687 939 m 1 X s 1681 939 m20 1695 939 m 32 Y s 1695 984 m 32 Y s 1688 978 m s 1701 978 m s 1695 978 m20 1708 998 m 38 Y s 1708 1049 m 39 Y s 1701 1043 m 1 X s 1715 1043 m s 1708 1043 m20 1722 889 m 52 Y s 1722 954 m 52 Y s 1715 947 m 1 X s 1729 947
 m s 1722 947 m20 1736 962 m 13 Y s 1736 988 m 13 Y s 1729 982 m 1 X s 1743 982 m s 1736 982 m20 1750 918 m 14 Y s 1750 945 m 13 Y s 1743 938 m s 1756 938 m 1 X s 1750 938 m20 1764 984 m 16 Y s 1764 1013 m 17 Y s 1757 1007 m s 1770 1007 m 1 X s 1764
 1007 m20 1778 973 m 14 Y s 1778 1000 m 13 Y s 1771 993 m s 1784 993 m s 1778 993 m20 1791 933 m 14 Y s 1791 960 m 14 Y s 1784 954 m 1 X s 1798 954 m s 1791 954 m20 1805 945 m 13 Y s 1805 971 m 14 Y s 1798 965 m 1 X s 1812 965 m s 1805 965 m20 1819
 1010 m 13 Y s 1819 1036 m 12 Y s 1812 1029 m 1 X s 1826 1029 m s 1819 1029 m20 1833 941 m 13 Y s 1833 967 m 13 Y s 1826 960 m s 1839 960 m 1 X s 1833 960 m20 1847 969 m 13 Y s 1847 996 m 13 Y s 1840 989 m s 1853 989 m 1 X s 1847 989 m20 1861 965 m
 13 Y s 1861 991 m 13 Y s 1854 985 m s 1867 985 m 1 X s 1861 985 m20 1874 967 m 14 Y s 1874 994 m 13 Y s 1868 987 m s 1881 987 m s 1874 987 m20 1888 943 m 14 Y s 1888 970 m 13 Y s 1881 963 m 1 X s 1895 963 m s 1888 963 m20 1902 915 m 14 Y s 1902 942
 m 15 Y s 1895 936 m 1 X s 1909 936 m s 1902 936 m20 1916 919 m 16 Y s 1916 948 m 16 Y s 1909 942 m s 1922 942 m 1 X s 1916 942 m20 1930 934 m 18 Y s 1930 965 m 19 Y s 1923 959 m s 1936 959 m 1 X s 1930 959 m20 1944 973 m 14 Y s 1944 1000 m 15 Y s
 1937 994 m s 1950 994 m 1 X s 1944 994 m20 1957 970 m 17 Y s 1957 1000 m 17 Y s 1951 994 m s 1964 994 m s 1957 994 m20 1971 965 m 13 Y s 1971 991 m 12 Y s 1964 984 m 1 X s 1978 984 m s 1971 984 m20 1985 931 m 14 Y s 1985 958 m 14 Y s 1978 951 m 1 X
 s 1992 951 m s 1985 951 m20 317 185 m 1883 X s
 gsave  2268 1538 0 0 C 1808.31 32.5821 t 0 r /Helvetica findfont 71.6807 sf 0 0 m (lumi block id) show NC gr  594 223 m -38 Y s 663 204 m -19 Y s 733 204 m -19 Y s 802 204 m -19 Y s 871 204 m -19 Y s 940 223 m -38 Y s 1009 204 m -19 Y s 1079 204 m
 -19 Y s 1148 204 m -19 Y s 1217 204 m -19 Y s 1286 223 m -38 Y s 1355 204 m -19 Y s 1425 204 m -19 Y s 1494 204 m -19 Y s 1563 204 m -19 Y s 1632 223 m -38 Y s 1701 204 m -19 Y s 1771 204 m -19 Y s 1840 204 m -19 Y s 1909 204 m -19 Y s 1978 223 m
 -38 Y s 594 223 m -38 Y s 525 204 m -19 Y s 456 204 m -19 Y s 387 204 m -19 Y s 1978 223 m -38 Y s 2047 204 m -19 Y s 2117 204 m -19 Y s 2186 204 m -19 Y s
 gsave  2268 1538 0 0 C 534.347 117.296 t 0 r /Helvetica findfont 71.6807 sf 0 0 m (100) show NC gr 
 gsave  2268 1538 0 0 C 879.718 117.296 t 0 r /Helvetica findfont 71.6807 sf 0 0 m (150) show NC gr 
 gsave  2268 1538 0 0 C 1225.09 117.296 t 0 r /Helvetica findfont 71.6807 sf 0 0 m (200) show NC gr 
 gsave  2268 1538 0 0 C 1570.46 117.296 t 0 r /Helvetica findfont 71.6807 sf 0 0 m (250) show NC gr 
 gsave  2268 1538 0 0 C 1919.09 117.296 t 0 r /Helvetica findfont 71.6807 sf 0 0 m (300) show NC gr  317 1507 m 1883 X s 594 1469 m 38 Y s 663 1488 m 19 Y s 733 1488 m 19 Y s 802 1488 m 19 Y s 871 1488 m 19 Y s 940 1469 m 38 Y s 1009 1488 m 19 Y s
 1079 1488 m 19 Y s 1148 1488 m 19 Y s 1217 1488 m 19 Y s 1286 1469 m 38 Y s 1355 1488 m 19 Y s 1425 1488 m 19 Y s 1494 1488 m 19 Y s 1563 1488 m 19 Y s 1632 1469 m 38 Y s 1701 1488 m 19 Y s 1771 1488 m 19 Y s 1840 1488 m 19 Y s 1909 1488 m 19 Y s
 1978 1469 m 38 Y s 594 1469 m 38 Y s 525 1488 m 19 Y s 456 1488 m 19 Y s 387 1488 m 19 Y s 1978 1469 m 38 Y s 2047 1488 m 19 Y s 2117 1488 m 19 Y s 2186 1488 m 19 Y s 317 185 m 1322 Y s
 gsave  2268 1538 0 0 C 153.136 1078.47 t 90 r /Helvetica findfont 71.6807 sf 0 0 m (FineTime [ns]) show NC gr  376 222 m -59 X s 347 262 m -30 X s 347 302 m -30 X s 347 342 m -30 X s 376 382 m -59 X s 347 422 m -30 X s 347 461 m -30 X s 347 501 m
 -30 X s 376 541 m -59 X s 347 581 m -30 X s 347 621 m -30 X s 347 661 m -30 X s 376 701 m -59 X s 347 740 m -30 X s 347 780 m -30 X s 347 820 m -30 X s 376 860 m -59 X s 347 900 m -30 X s 347 940 m -30 X s 347 980 m -30 X s 376 1019 m -59 X s 347
 1059 m -30 X s 347 1099 m -30 X s 347 1139 m -30 X s 376 1179 m -59 X s 347 1219 m -30 X s 347 1259 m -30 X s 347 1299 m -30 X s 376 1338 m -59 X s 347 1378 m -30 X s 347 1418 m -30 X s 347 1458 m -30 X s 376 1498 m -59 X s 376 222 m -59 X s 376
 1498 m -59 X s
 gsave  2268 1538 0 0 C 205.267 195.493 t 0 r /Helvetica findfont 71.6807 sf 0 0 m (2.2) show NC gr 
 gsave  2268 1538 0 0 C 205.267 355.145 t 0 r /Helvetica findfont 71.6807 sf 0 0 m (2.4) show NC gr 
 gsave  2268 1538 0 0 C 205.267 518.056 t 0 r /Helvetica findfont 71.6807 sf 0 0 m (2.6) show NC gr 
 gsave  2268 1538 0 0 C 205.267 677.708 t 0 r /Helvetica findfont 71.6807 sf 0 0 m (2.8) show NC gr 
 gsave  2268 1538 0 0 C 263.915 834.103 t 0 r /Helvetica findfont 71.6807 sf 0 0 m (3) show NC gr 
 gsave  2268 1538 0 0 C 205.267 993.755 t 0 r /Helvetica findfont 71.6807 sf 0 0 m (3.2) show NC gr 
 gsave  2268 1538 0 0 C 205.267 1153.41 t 0 r /Helvetica findfont 71.6807 sf 0 0 m (3.4) show NC gr 
 gsave  2268 1538 0 0 C 205.267 1313.06 t 0 r /Helvetica findfont 71.6807 sf 0 0 m (3.6) show NC gr 
 gsave  2268 1538 0 0 C 205.267 1472.71 t 0 r /Helvetica findfont 71.6807 sf 0 0 m (3.8) show NC gr  2200 185 m 1322 Y s 2141 222 m 59 X s 2170 262 m 30 X s 2170 302 m 30 X s 2170 342 m 30 X s 2141 382 m 59 X s 2170 422 m 30 X s 2170 461 m 30 X s
 2170 501 m 30 X s 2141 541 m 59 X s 2170 581 m 30 X s 2170 621 m 30 X s 2170 661 m 30 X s 2141 701 m 59 X s 2170 740 m 30 X s 2170 780 m 30 X s 2170 820 m 30 X s 2141 860 m 59 X s 2170 900 m 30 X s 2170 940 m 30 X s 2170 980 m 30 X s 2141 1019 m 59
 X s 2170 1059 m 30 X s 2170 1099 m 30 X s 2170 1139 m 30 X s 2141 1179 m 59 X s 2170 1219 m 30 X s 2170 1259 m 30 X s 2170 1299 m 30 X s 2141 1338 m 59 X s 2170 1378 m 30 X s 2170 1418 m 30 X s 2170 1458 m 30 X s 2141 1498 m 59 X s 2141 222 m 59 X s
 2141 1498 m 59 X s
 gsave  2268 1538 0 0 C 1414.06 586.478 t 0 r /Helvetica-Bold findfont 55.3896 sf 0 0 m (Finetime hadronic layer) show NC gr  1 1 1 c 1223 528 m 159 X 322 Y -159 X f black 1223 689 m 159 X s 1302 689 m20
 gr  gr showpage
end
%%EOF
