%!PS-Adobe-2.0 EPSF-2.0
%%BoundingBox:  0 0 567 384
%%Title: /data/tractor/home/users/jhofmann/store/plots4Juraj/had.eps: canvas
%%Creator: ROOT Version 5.34/04
%%CreationDate: Mon Apr 29 13:45:20 2013
%%EndComments
%%BeginProlog
80 dict begin
/s {stroke} def /l {lineto} def /m {moveto} def /t {translate} def
/r {rotate} def /rl {roll}  def /R {repeat} def
/d {rlineto} def /rm {rmoveto} def /gr {grestore} def /f {eofill} def
/c {setrgbcolor} def /black {0 setgray} def /sd {setdash} def
/cl {closepath} def /sf {scalefont setfont} def /lw {setlinewidth} def
/box {m dup 0 exch d exch 0 d 0 exch neg d cl} def
/NC{systemdict begin initclip end}def/C{NC box clip newpath}def
/bl {box s} def /bf {box f} def /Y { 0 exch d} def /X { 0 d} def 
/K {{pop pop 0 moveto} exch kshow} bind def
/ita {/ang 15 def gsave [1 0 ang dup sin exch cos div 1 0 0] concat} def 
/mp {newpath /y exch def /x exch def} def
/side {[w .77 mul w .23 mul] .385 w mul sd w 0 l currentpoint t -144 r} def
/mr {mp x y w2 0 360 arc} def /m24 {mr s} def /m20 {mr f} def
/mb {mp x y w2 add m w2 neg 0 d 0 w neg d w 0 d 0 w d cl} def
/mt {mp x y w2 add m w2 neg w neg d w 0 d cl} def
/m21 {mb f} def /m25 {mb s} def /m22 {mt f} def /m26{mt s} def
/m23 {mp x y w2 sub m w2 w d w neg 0 d cl f} def
/m27 {mp x y w2 add m w3 neg w2 neg d w3 w2 neg d w3 w2 d cl s} def
/m28 {mp x w2 sub y w2 sub w3 add m w3 0 d  0 w3 neg d w3 0 d 0 w3 d w3 0 d  0 w3 d w3 neg 0 d 0 w3 d w3 neg 0 d 0 w3 neg d w3 neg 0 d cl s } def
/m29 {mp gsave x w2 sub y w2 add w3 sub m currentpoint t 4 {side} repeat cl fill gr} def
/m30 {mp gsave x w2 sub y w2 add w3 sub m currentpoint t 4 {side} repeat cl s gr} def
/m31 {mp x y w2 sub m 0 w d x w2 sub y m w 0 d x w2 sub y w2 add m w w neg d x w2 sub y w2 sub m w w d s} def
/m32 {mp x y w2 sub m w2 w d w neg 0 d cl s} def
/m33 {mp x y w2 add m w3 neg w2 neg d w3 w2 neg d w3 w2 d cl f} def
/m34 {mp x w2 sub y w2 sub w3 add m w3 0 d  0 w3 neg d w3 0 d 0 w3 d w3 0 d  0 w3 d w3 neg 0 d 0 w3 d w3 neg 0 d 0 w3 neg d w3 neg 0 d cl f } def
/m2 {mp x y w2 sub m 0 w d x w2 sub y m w 0 d s} def
/m5 {mp x w2 sub y w2 sub m w w d x w2 sub y w2 add m w w neg d s} def
/reEncode {exch findfont dup length dict begin {1 index /FID eq  {pop pop} {def} ifelse } forall /Encoding exch def currentdict end dup /FontName get exch definefont pop } def [/Times-Bold /Times-Italic /Times-BoldItalic /Helvetica /Helvetica-Oblique
 /Helvetica-Bold /Helvetica-BoldOblique /Courier /Courier-Oblique /Courier-Bold /Courier-BoldOblique /Times-Roman /AvantGarde-Book /AvantGarde-BookOblique /AvantGarde-Demi /AvantGarde-DemiOblique /Bookman-Demi /Bookman-DemiItalic /Bookman-Light
 /Bookman-LightItalic /Helvetica-Narrow /Helvetica-Narrow-Bold /Helvetica-Narrow-BoldOblique /Helvetica-Narrow-Oblique /NewCenturySchlbk-Roman /NewCenturySchlbk-Bold /NewCenturySchlbk-BoldItalic /NewCenturySchlbk-Italic /Palatino-Bold
 /Palatino-BoldItalic /Palatino-Italic /Palatino-Roman ] {ISOLatin1Encoding reEncode } forall
%%EndProlog
%%BeginSetup
%%EndSetup
newpath  gsave  .25 .25 scale  gsave  0 0 t black[  ] 0 sd 3 lw 1 1 1 c 2268 1538 0 0 bf black 1 1 1 c 1814 1230 227 154 bf black 1814 1230 227 154 bl 1 1 1 c 1814 1230 227 154 bf black 1814 1230 227 154 bl 6 lw 1 1 1 c black 261 717 m 190 Y s 261
 933 m 190 Y s 3 lw /w 26 def /w2 {w 2 div} def /w3 {w 3 div} def 261 920 m2 6 lw 265 613 m 112 Y s 265 751 m 113 Y s 3 lw 265 738 m2 6 lw 269 380 m 114 Y s 269 520 m 114 Y s 3 lw 269 507 m2 6 lw 273 771 m 154 Y s 273 951 m 153 Y s 3 lw 273 938 m2 6
 lw 277 360 m 143 Y s 277 529 m 143 Y s 3 lw 277 516 m2 6 lw 281 461 m 110 Y s 281 597 m 109 Y s 3 lw 281 584 m2 6 lw 285 546 m 27 Y s 285 599 m 27 Y s 3 lw 285 586 m2 6 lw 289 583 m 23 Y s 289 632 m 22 Y s 3 lw 289 619 m2 6 lw 293 514 m 22 Y s 293
 562 m 23 Y s 3 lw 293 549 m2 6 lw 297 544 m 21 Y s 297 591 m 21 Y s 3 lw 297 578 m2 6 lw 301 586 m 23 Y s 301 635 m 23 Y s 3 lw 301 622 m2 6 lw 305 495 m 20 Y s 305 542 m 20 Y s 3 lw 305 529 m2 6 lw 309 491 m 22 Y s 309 539 m 21 Y s 3 lw 309 526 m2
 6 lw 313 527 m 26 Y s 313 579 m 26 Y s 3 lw 313 566 m2 6 lw 317 535 m 22 Y s 317 583 m 21 Y s 3 lw 317 570 m2 6 lw 321 548 m 22 Y s 321 596 m 22 Y s 3 lw 321 583 m2 6 lw 325 566 m 22 Y s 325 614 m 22 Y s 3 lw 325 601 m2 6 lw 329 527 m 24 Y s 329 577
 m 25 Y s 3 lw 329 564 m2 6 lw 333 564 m 26 Y s 333 616 m 26 Y s 3 lw 333 603 m2 6 lw 337 685 m 22 Y s 337 733 m 22 Y s 3 lw 337 720 m2 6 lw 341 548 m 22 Y s 341 596 m 22 Y s 3 lw 341 583 m2 6 lw 345 510 m 24 Y s 345 560 m 23 Y s 3 lw 345 547 m2 6 lw
 349 606 m 22 Y s 349 654 m 22 Y s 3 lw 349 641 m2 6 lw 353 543 m 26 Y s 353 595 m 26 Y s 3 lw 353 582 m2 6 lw 358 563 m 25 Y s 358 614 m 24 Y s 3 lw 358 601 m2 6 lw 362 613 m 33 Y s 362 672 m 33 Y s 3 lw 362 659 m2 6 lw 366 566 m 34 Y s 366 626 m 34
 Y s 3 lw 366 613 m2 6 lw 370 561 m 25 Y s 370 612 m 24 Y s 3 lw 370 599 m2 6 lw 374 551 m 28 Y s 374 605 m 27 Y s 3 lw 374 592 m2 6 lw 378 624 m 25 Y s 378 675 m 24 Y s 3 lw 378 662 m2 6 lw 382 498 m 25 Y s 382 549 m 24 Y s 3 lw 382 536 m2 6 lw 386
 550 m 26 Y s 386 602 m 25 Y s 3 lw 386 589 m2 6 lw 390 526 m 25 Y s 390 577 m 25 Y s 3 lw 390 564 m2 6 lw 394 611 m 23 Y s 394 660 m 23 Y s 3 lw 394 647 m2 6 lw 398 606 m 24 Y s 398 656 m 24 Y s 3 lw 398 643 m2 6 lw 402 545 m 30 Y s 402 601 m 29 Y s
 3 lw 402 588 m2 6 lw 406 593 m 33 Y s 406 652 m 33 Y s 3 lw 406 639 m2 6 lw 410 601 m 23 Y s 410 650 m 24 Y s 3 lw 410 637 m2 6 lw 414 628 m 24 Y s 414 678 m 24 Y s 3 lw 414 665 m2 6 lw 418 621 m 22 Y s 418 669 m 22 Y s 3 lw 418 656 m2 6 lw 422 612
 m 23 Y s 422 661 m 23 Y s 3 lw 422 648 m2 6 lw 426 504 m 23 Y s 426 553 m 22 Y s 3 lw 426 540 m2 6 lw 430 623 m 22 Y s 430 671 m 22 Y s 3 lw 430 658 m2 6 lw 434 513 m 25 Y s 434 564 m 25 Y s 3 lw 434 551 m2 6 lw 438 575 m 25 Y s 438 627 m 25 Y s 3
 lw 438 614 m2 6 lw 442 575 m 22 Y s 442 623 m 22 Y s 3 lw 442 610 m2 6 lw 446 574 m 25 Y s 446 625 m 26 Y s 3 lw 446 612 m2 6 lw 450 578 m 25 Y s 450 629 m 25 Y s 3 lw 450 616 m2 6 lw 454 598 m 25 Y s 454 649 m 24 Y s 3 lw 454 636 m2 6 lw 458 541 m
 21 Y s 458 588 m 21 Y s 3 lw 458 575 m2 6 lw 462 513 m 22 Y s 462 561 m 23 Y s 3 lw 462 548 m2 6 lw 466 525 m 27 Y s 466 578 m 26 Y s 3 lw 466 565 m2 6 lw 470 598 m 25 Y s 470 649 m 24 Y s 3 lw 470 636 m2 6 lw 474 528 m 23 Y s 474 577 m 22 Y s 3 lw
 474 564 m2 6 lw 478 565 m 24 Y s 478 615 m 24 Y s 3 lw 478 602 m2 6 lw 482 597 m 24 Y s 482 647 m 24 Y s 3 lw 482 634 m2 6 lw 486 593 m 25 Y s 486 644 m 25 Y s 3 lw 486 631 m2 6 lw 490 552 m 22 Y s 490 600 m 22 Y s 3 lw 490 587 m2 6 lw 494 535 m 24
 Y s 494 585 m 23 Y s 3 lw 494 572 m2 6 lw 498 521 m 43 Y s 498 590 m 44 Y s 3 lw 498 577 m2 6 lw 502 654 m 27 Y s 502 707 m 26 Y s 3 lw 502 694 m2 6 lw 506 542 m 24 Y s 506 592 m 23 Y s 3 lw 506 579 m2 6 lw 510 583 m 24 Y s 510 634 m 24 Y s 3 lw 510
 620 m2 6 lw 514 580 m 27 Y s 514 633 m 27 Y s 3 lw 514 620 m2 6 lw 518 482 m 26 Y s 518 534 m 25 Y s 3 lw 518 521 m2 6 lw 522 566 m 22 Y s 522 614 m 22 Y s 3 lw 522 601 m2 6 lw 526 607 m 30 Y s 526 663 m 29 Y s 3 lw 526 650 m2 6 lw 530 655 m 25 Y s
 530 706 m 25 Y s 3 lw 530 693 m2 6 lw 534 591 m 25 Y s 534 642 m 25 Y s 3 lw 534 629 m2 6 lw 539 501 m 27 Y s 539 554 m 27 Y s 3 lw 539 541 m2 6 lw 543 575 m 25 Y s 543 626 m 24 Y s 3 lw 543 613 m2 6 lw 547 590 m 27 Y s 547 643 m 27 Y s 3 lw 547 630
 m2 6 lw 551 545 m 25 Y s 551 596 m 25 Y s 3 lw 551 583 m2 6 lw 555 584 m 29 Y s 555 639 m 30 Y s 3 lw 555 626 m2 6 lw 559 629 m 25 Y s 559 680 m 26 Y s 3 lw 559 667 m2 6 lw 563 713 m 27 Y s 563 766 m 27 Y s 3 lw 563 753 m2 6 lw 567 555 m 26 Y s 567
 607 m 26 Y s 3 lw 567 594 m2 6 lw 571 552 m 30 Y s 571 608 m 29 Y s 3 lw 571 595 m2 6 lw 575 632 m 27 Y s 575 685 m 27 Y s 3 lw 575 672 m2 6 lw 579 594 m 28 Y s 579 648 m 28 Y s 3 lw 579 635 m2 6 lw 583 508 m 24 Y s 583 558 m 23 Y s 3 lw 583 545 m2
 6 lw 587 561 m 31 Y s 587 618 m 31 Y s 3 lw 587 605 m2 6 lw 591 464 m 28 Y s 591 518 m 28 Y s 3 lw 591 505 m2 6 lw 595 631 m 137 Y s 595 794 m 136 Y s 3 lw 595 781 m2 6 lw 611 203 m 187 Y s 611 416 m 187 Y s 3 lw 611 403 m2 6 lw 615 717 m 145 Y s
 615 888 m 145 Y s 3 lw 615 875 m2 6 lw 619 510 m 27 Y s 619 563 m 26 Y s 3 lw 619 550 m2 6 lw 623 566 m 40 Y s 623 632 m 40 Y s 3 lw 623 619 m2 6 lw 627 560 m 25 Y s 627 611 m 25 Y s 3 lw 627 598 m2 6 lw 631 560 m 26 Y s 631 612 m 26 Y s 3 lw 631
 599 m2 6 lw 635 478 m 25 Y s 635 530 m 25 Y s 3 lw 635 516 m2 6 lw 639 514 m 28 Y s 639 568 m 27 Y s 3 lw 639 555 m2 6 lw 643 515 m 26 Y s 643 567 m 25 Y s 3 lw 643 554 m2 6 lw 647 546 m 29 Y s 647 601 m 28 Y s 3 lw 647 588 m2 6 lw 651 514 m 29 Y s
 651 569 m 29 Y s 3 lw 651 556 m2 6 lw 655 618 m 41 Y s 655 685 m 41 Y s 3 lw 655 672 m2 6 lw 659 513 m 26 Y s 659 565 m 25 Y s 3 lw 659 552 m2 6 lw 663 463 m 26 Y s 663 515 m 26 Y s 3 lw 663 502 m2 6 lw 667 497 m 29 Y s 667 552 m 29 Y s 3 lw 667 539
 m2 6 lw 671 531 m 24 Y s 671 581 m 25 Y s 3 lw 671 568 m2 6 lw 675 527 m 25 Y s 675 578 m 25 Y s 3 lw 675 565 m2 6 lw 679 571 m 26 Y s 679 623 m 27 Y s 3 lw 679 610 m2 6 lw 683 506 m 80 Y s 683 612 m 80 Y s 3 lw 683 599 m2 6 lw 687 594 m 27 Y s 687
 647 m 26 Y s 3 lw 687 634 m2 6 lw 691 556 m 27 Y s 691 609 m 28 Y s 3 lw 691 596 m2 6 lw 695 530 m 29 Y s 695 586 m 29 Y s 3 lw 695 573 m2 6 lw 699 478 m 30 Y s 699 534 m 30 Y s 3 lw 699 521 m2 6 lw 703 607 m 30 Y s 703 663 m 29 Y s 3 lw 703 650 m2
 6 lw 707 520 m 27 Y s 707 573 m 28 Y s 3 lw 707 560 m2 6 lw 711 559 m 30 Y s 711 615 m 30 Y s 3 lw 711 602 m2 6 lw 716 538 m 31 Y s 716 595 m 31 Y s 3 lw 716 582 m2 6 lw 720 539 m 28 Y s 720 593 m 29 Y s 3 lw 720 580 m2 6 lw 724 487 m 36 Y s 724 549
 m 36 Y s 3 lw 724 536 m2 6 lw 728 568 m 28 Y s 728 622 m 29 Y s 3 lw 728 609 m2 6 lw 732 613 m 29 Y s 732 668 m 29 Y s 3 lw 732 655 m2 6 lw 736 620 m 33 Y s 736 679 m 33 Y s 3 lw 736 666 m2 6 lw 740 646 m 29 Y s 740 701 m 29 Y s 3 lw 740 688 m2 6 lw
 744 462 m 26 Y s 744 514 m 26 Y s 3 lw 744 501 m2 6 lw 748 561 m 27 Y s 748 614 m 26 Y s 3 lw 748 601 m2 6 lw 752 540 m 27 Y s 752 593 m 27 Y s 3 lw 752 580 m2 6 lw 756 474 m 31 Y s 756 531 m 30 Y s 3 lw 756 518 m2 6 lw 760 541 m 24 Y s 760 591 m 25
 Y s 3 lw 760 578 m2 6 lw 764 486 m 30 Y s 764 542 m 30 Y s 3 lw 764 529 m2 6 lw 768 617 m 34 Y s 768 677 m 34 Y s 3 lw 768 664 m2 6 lw 772 587 m 30 Y s 772 643 m 29 Y s 3 lw 772 630 m2 6 lw 776 558 m 26 Y s 776 610 m 26 Y s 3 lw 776 597 m2 6 lw 780
 587 m 46 Y s 780 659 m 46 Y s 3 lw 780 646 m2 6 lw 784 573 m 27 Y s 784 626 m 27 Y s 3 lw 784 613 m2 6 lw 788 616 m 28 Y s 788 670 m 28 Y s 3 lw 788 657 m2 6 lw 792 490 m 27 Y s 792 543 m 27 Y s 3 lw 792 530 m2 6 lw 796 488 m 30 Y s 796 544 m 30 Y s
 3 lw 796 531 m2 6 lw 800 459 m 29 Y s 800 514 m 29 Y s 3 lw 800 501 m2 6 lw 804 434 m 27 Y s 804 487 m 27 Y s 3 lw 804 474 m2 6 lw 808 575 m 31 Y s 808 632 m 30 Y s 3 lw 808 619 m2 6 lw 812 534 m 40 Y s 812 600 m 40 Y s 3 lw 812 587 m2 6 lw 816 522
 m 29 Y s 816 577 m 29 Y s 3 lw 816 564 m2 6 lw 820 557 m 28 Y s 820 611 m 29 Y s 3 lw 820 598 m2 6 lw 824 589 m 33 Y s 824 648 m 32 Y s 3 lw 824 635 m2 6 lw 828 596 m 31 Y s 828 653 m 30 Y s 3 lw 828 640 m2 6 lw 832 561 m 26 Y s 832 613 m 26 Y s 3
 lw 832 600 m2 6 lw 836 582 m 31 Y s 836 639 m 32 Y s 3 lw 836 626 m2 6 lw 840 652 m 30 Y s 840 708 m 31 Y s 3 lw 840 695 m2 6 lw 844 573 m 27 Y s 844 626 m 27 Y s 3 lw 844 613 m2 6 lw 848 644 m 29 Y s 848 699 m 30 Y s 3 lw 848 686 m2 6 lw 852 610 m
 29 Y s 852 665 m 28 Y s 3 lw 852 652 m2 6 lw 856 493 m 37 Y s 856 556 m 37 Y s 3 lw 856 543 m2 6 lw 860 505 m 37 Y s 860 568 m 36 Y s 3 lw 860 555 m2 6 lw 864 592 m 29 Y s 864 647 m 28 Y s 3 lw 864 634 m2 6 lw 868 550 m 32 Y s 868 608 m 31 Y s 3 lw
 868 595 m2 6 lw 872 570 m 27 Y s 872 624 m 27 Y s 3 lw 872 611 m2 6 lw 876 527 m 29 Y s 876 583 m 29 Y s 3 lw 876 570 m2 6 lw 880 615 m 30 Y s 880 671 m 30 Y s 3 lw 880 658 m2 6 lw 884 584 m 33 Y s 884 643 m 32 Y s 3 lw 884 630 m2 6 lw 888 596 m 59
 Y s 888 681 m 58 Y s 3 lw 888 668 m2 6 lw 893 530 m 28 Y s 893 584 m 28 Y s 3 lw 893 571 m2 6 lw 897 601 m 33 Y s 897 660 m 34 Y s 3 lw 897 647 m2 6 lw 901 611 m 29 Y s 901 666 m 29 Y s 3 lw 901 653 m2 6 lw 905 540 m 31 Y s 905 597 m 31 Y s 3 lw 905
 584 m2 6 lw 909 594 m 29 Y s 909 649 m 28 Y s 3 lw 909 636 m2 6 lw 913 579 m 28 Y s 913 633 m 29 Y s 3 lw 913 620 m2 6 lw 917 603 m 31 Y s 917 660 m 31 Y s 3 lw 917 647 m2 6 lw 921 479 m 34 Y s 921 539 m 34 Y s 3 lw 921 526 m2 6 lw 925 567 m 33 Y s
 925 626 m 32 Y s 3 lw 925 613 m2 6 lw 929 545 m 29 Y s 929 600 m 29 Y s 3 lw 929 587 m2 6 lw 933 589 m 28 Y s 933 643 m 27 Y s 3 lw 933 630 m2 6 lw 937 572 m 44 Y s 937 642 m 44 Y s 3 lw 937 629 m2 6 lw 941 583 m 48 Y s 941 657 m 48 Y s 3 lw 941 644
 m2 6 lw 945 607 m 32 Y s 945 666 m 32 Y s 3 lw 945 652 m2 6 lw 949 625 m 30 Y s 949 681 m 29 Y s 3 lw 949 668 m2 6 lw 953 552 m 30 Y s 953 608 m 30 Y s 3 lw 953 595 m2 6 lw 957 433 m 34 Y s 957 493 m 34 Y s 3 lw 957 480 m2 6 lw 961 542 m 31 Y s 961
 599 m 31 Y s 3 lw 961 586 m2 6 lw 965 545 m 31 Y s 965 602 m 30 Y s 3 lw 965 589 m2 6 lw 969 620 m 27 Y s 969 673 m 28 Y s 3 lw 969 660 m2 6 lw 973 533 m 27 Y s 973 586 m 27 Y s 3 lw 973 573 m2 6 lw 977 492 m 33 Y s 977 551 m 32 Y s 3 lw 977 538 m2
 6 lw 981 551 m 28 Y s 981 605 m 28 Y s 3 lw 981 592 m2 6 lw 985 523 m 29 Y s 985 579 m 29 Y s 3 lw 985 565 m2 6 lw 989 484 m 32 Y s 989 542 m 32 Y s 3 lw 989 529 m2 6 lw 993 501 m 31 Y s 993 558 m 31 Y s 3 lw 993 545 m2 6 lw 997 516 m 32 Y s 997 574
 m 31 Y s 3 lw 997 561 m2 6 lw 1001 628 m 29 Y s 1001 683 m 29 Y s 3 lw 1001 670 m2 6 lw 1005 615 m 29 Y s 1005 670 m 29 Y s 3 lw 1005 657 m2 6 lw 1009 541 m 29 Y s 1009 596 m 30 Y s 3 lw 1009 583 m2 6 lw 1013 517 m 30 Y s 1013 573 m 30 Y s 3 lw 1013
 560 m2 6 lw 1017 622 m 31 Y s 1017 680 m 31 Y s 3 lw 1017 667 m2 6 lw 1021 577 m 33 Y s 1021 636 m 34 Y s 3 lw 1021 623 m2 6 lw 1025 638 m 29 Y s 1025 693 m 29 Y s 3 lw 1025 680 m2 6 lw 1029 544 m 34 Y s 1029 604 m 33 Y s 3 lw 1029 591 m2 6 lw 1033
 534 m 27 Y s 1033 587 m 28 Y s 3 lw 1033 574 m2 6 lw 1037 597 m 33 Y s 1037 656 m 32 Y s 3 lw 1037 643 m2 6 lw 1041 532 m 29 Y s 1041 587 m 30 Y s 3 lw 1041 574 m2 6 lw 1045 538 m 36 Y s 1045 600 m 36 Y s 3 lw 1045 587 m2 6 lw 1049 579 m 29 Y s 1049
 634 m 30 Y s 3 lw 1049 621 m2 6 lw 1053 596 m 33 Y s 1053 655 m 33 Y s 3 lw 1053 642 m2 6 lw 1057 501 m 32 Y s 1057 559 m 33 Y s 3 lw 1057 546 m2 6 lw 1061 506 m 44 Y s 1061 576 m 44 Y s 3 lw 1061 563 m2 6 lw 1065 535 m 32 Y s 1065 593 m 32 Y s 3 lw
 1065 580 m2 6 lw 1069 644 m 32 Y s 1069 703 m 32 Y s 3 lw 1069 689 m2 6 lw 1074 548 m 31 Y s 1074 605 m 30 Y s 3 lw 1074 592 m2 6 lw 1078 489 m 30 Y s 1078 545 m 29 Y s 3 lw 1078 532 m2 6 lw 1082 575 m 35 Y s 1082 636 m 35 Y s 3 lw 1082 623 m2 6 lw
 1086 560 m 35 Y s 1086 621 m 35 Y s 3 lw 1086 608 m2 6 lw 1090 603 m 33 Y s 1090 663 m 33 Y s 3 lw 1090 649 m2 6 lw 1094 578 m 33 Y s 1094 637 m 34 Y s 3 lw 1094 624 m2 6 lw 1098 524 m 31 Y s 1098 581 m 31 Y s 3 lw 1098 568 m2 6 lw 1102 683 m 30 Y s
 1102 739 m 30 Y s 3 lw 1102 726 m2 6 lw 1106 594 m 31 Y s 1106 651 m 32 Y s 3 lw 1106 638 m2 6 lw 1110 540 m 31 Y s 1110 597 m 31 Y s 3 lw 1110 584 m2 6 lw 1114 437 m 32 Y s 1114 495 m 31 Y s 3 lw 1114 482 m2 6 lw 1118 680 m 35 Y s 1118 741 m 35 Y s
 3 lw 1118 728 m2 6 lw 1122 499 m 32 Y s 1122 557 m 33 Y s 3 lw 1122 544 m2 6 lw 1126 605 m 35 Y s 1126 666 m 34 Y s 3 lw 1126 653 m2 6 lw 1130 514 m 29 Y s 1130 569 m 28 Y s 3 lw 1130 556 m2 6 lw 1134 575 m 30 Y s 1134 631 m 30 Y s 3 lw 1134 618 m2
 6 lw 1138 534 m 35 Y s 1138 595 m 35 Y s 3 lw 1138 582 m2 6 lw 1142 567 m 35 Y s 1142 629 m 35 Y s 3 lw 1142 615 m2 6 lw 1146 585 m 33 Y s 1146 644 m 33 Y s 3 lw 1146 631 m2 6 lw 1150 534 m 33 Y s 1150 593 m 33 Y s 3 lw 1150 580 m2 6 lw 1154 455 m
 38 Y s 1154 519 m 38 Y s 3 lw 1154 506 m2 6 lw 1158 514 m 34 Y s 1158 574 m 34 Y s 3 lw 1158 561 m2 6 lw 1162 525 m 55 Y s 1162 606 m 54 Y s 3 lw 1162 593 m2 6 lw 1166 527 m 33 Y s 1166 586 m 33 Y s 3 lw 1166 573 m2 6 lw 1170 600 m 35 Y s 1170 661 m
 34 Y s 3 lw 1170 648 m2 6 lw 1174 581 m 32 Y s 1174 639 m 31 Y s 3 lw 1174 626 m2 6 lw 1178 546 m 33 Y s 1178 605 m 32 Y s 3 lw 1178 592 m2 6 lw 1182 498 m 32 Y s 1182 556 m 32 Y s 3 lw 1182 543 m2 6 lw 1186 532 m 33 Y s 1186 591 m 33 Y s 3 lw 1186
 578 m2 6 lw 1190 557 m 33 Y s 1190 616 m 32 Y s 3 lw 1190 603 m2 6 lw 1194 494 m 31 Y s 1194 551 m 30 Y s 3 lw 1194 538 m2 6 lw 1198 469 m 32 Y s 1198 527 m 32 Y s 3 lw 1198 514 m2 6 lw 1202 556 m 29 Y s 1202 611 m 29 Y s 3 lw 1202 598 m2 6 lw 1206
 594 m 35 Y s 1206 655 m 35 Y s 3 lw 1206 642 m2 6 lw 1210 594 m 33 Y s 1210 654 m 33 Y s 3 lw 1210 641 m2 6 lw 1214 525 m 37 Y s 1214 588 m 37 Y s 3 lw 1214 575 m2 6 lw 1218 554 m 32 Y s 1218 612 m 31 Y s 3 lw 1218 599 m2 6 lw 1222 614 m 38 Y s 1222
 678 m 37 Y s 3 lw 1222 665 m2 6 lw 1226 509 m 30 Y s 1226 565 m 30 Y s 3 lw 1226 552 m2 6 lw 1230 635 m 37 Y s 1230 699 m 37 Y s 3 lw 1230 686 m2 6 lw 1234 610 m 32 Y s 1234 668 m 32 Y s 3 lw 1234 655 m2 6 lw 1238 571 m 35 Y s 1238 632 m 35 Y s 3 lw
 1238 619 m2 6 lw 1242 625 m 40 Y s 1242 691 m 39 Y s 3 lw 1242 678 m2 6 lw 1246 576 m 37 Y s 1246 639 m 36 Y s 3 lw 1246 626 m2 6 lw 1251 456 m 38 Y s 1251 520 m 37 Y s 3 lw 1251 507 m2 6 lw 1255 545 m 35 Y s 1255 606 m 36 Y s 3 lw 1255 593 m2 6 lw
 1259 500 m 32 Y s 1259 558 m 32 Y s 3 lw 1259 545 m2 6 lw 1263 548 m 39 Y s 1263 613 m 40 Y s 3 lw 1263 600 m2 6 lw 1267 521 m 35 Y s 1267 582 m 36 Y s 3 lw 1267 569 m2 6 lw 1271 598 m 32 Y s 1271 656 m 31 Y s 3 lw 1271 643 m2 6 lw 1275 640 m 36 Y s
 1275 702 m 35 Y s 3 lw 1275 689 m2 6 lw 1279 626 m 33 Y s 1279 685 m 33 Y s 3 lw 1279 672 m2 6 lw 1283 587 m 32 Y s 1283 645 m 33 Y s 3 lw 1283 632 m2 6 lw 1287 595 m 41 Y s 1287 662 m 40 Y s 3 lw 1287 649 m2 6 lw 1291 580 m 35 Y s 1291 641 m 34 Y s
 3 lw 1291 628 m2 6 lw 1295 511 m 34 Y s 1295 571 m 33 Y s 3 lw 1295 558 m2 6 lw 1299 639 m 35 Y s 1299 700 m 35 Y s 3 lw 1299 687 m2 6 lw 1303 532 m 28 Y s 1303 586 m 27 Y s 3 lw 1303 573 m2 6 lw 1307 549 m 33 Y s 1307 608 m 32 Y s 3 lw 1307 595 m2
 6 lw 1311 435 m 32 Y s 1311 493 m 33 Y s 3 lw 1311 480 m2 6 lw 1315 556 m 36 Y s 1315 618 m 36 Y s 3 lw 1315 605 m2 6 lw 1319 566 m 37 Y s 1319 629 m 36 Y s 3 lw 1319 616 m2 6 lw 1323 604 m 39 Y s 1323 669 m 38 Y s 3 lw 1323 656 m2 6 lw 1327 570 m
 34 Y s 1327 630 m 35 Y s 3 lw 1327 617 m2 6 lw 1331 537 m 37 Y s 1331 600 m 36 Y s 3 lw 1331 587 m2 6 lw 1335 585 m 36 Y s 1335 647 m 37 Y s 3 lw 1335 634 m2 6 lw 1339 608 m 35 Y s 1339 669 m 35 Y s 3 lw 1339 656 m2 6 lw 1343 605 m 33 Y s 1343 664 m
 32 Y s 3 lw 1343 651 m2 6 lw 1347 595 m 30 Y s 1347 651 m 31 Y s 3 lw 1347 638 m2 6 lw 1351 525 m 34 Y s 1351 585 m 34 Y s 3 lw 1351 572 m2 6 lw 1355 485 m 35 Y s 1355 546 m 35 Y s 3 lw 1355 533 m2 6 lw 1359 601 m 35 Y s 1359 662 m 35 Y s 3 lw 1359
 649 m2 6 lw 1363 572 m 36 Y s 1363 634 m 37 Y s 3 lw 1363 621 m2 6 lw 1367 587 m 33 Y s 1367 646 m 34 Y s 3 lw 1367 633 m2 6 lw 1371 470 m 33 Y s 1371 529 m 33 Y s 3 lw 1371 516 m2 6 lw 1375 501 m 38 Y s 1375 565 m 38 Y s 3 lw 1375 552 m2 6 lw 1379
 592 m 32 Y s 1379 650 m 33 Y s 3 lw 1379 637 m2 6 lw 1383 527 m 37 Y s 1383 590 m 37 Y s 3 lw 1383 577 m2 6 lw 1387 567 m 33 Y s 1387 626 m 33 Y s 3 lw 1387 613 m2 6 lw 1391 521 m 39 Y s 1391 586 m 39 Y s 3 lw 1391 573 m2 6 lw 1395 492 m 31 Y s 1395
 549 m 31 Y s 3 lw 1395 536 m2 6 lw 1399 529 m 35 Y s 1399 590 m 36 Y s 3 lw 1399 577 m2 6 lw 1403 456 m 37 Y s 1403 519 m 36 Y s 3 lw 1403 506 m2 6 lw 1407 614 m 34 Y s 1407 675 m 34 Y s 3 lw 1407 662 m2 6 lw 1411 710 m 62 Y s 1411 798 m 62 Y s 3 lw
 1411 785 m2 6 lw 1415 503 m 30 Y s 1415 559 m 31 Y s 3 lw 1415 546 m2 6 lw 1419 582 m 39 Y s 1419 647 m 40 Y s 3 lw 1419 634 m2 6 lw 1423 558 m 33 Y s 1423 618 m 33 Y s 3 lw 1423 605 m2 6 lw 1428 556 m 32 Y s 1428 614 m 32 Y s 3 lw 1428 601 m2 6 lw
 1432 573 m 35 Y s 1432 634 m 36 Y s 3 lw 1432 621 m2 6 lw 1436 708 m 36 Y s 1436 770 m 36 Y s 3 lw 1436 757 m2 6 lw 1440 503 m 36 Y s 1440 565 m 37 Y s 3 lw 1440 552 m2 6 lw 1444 659 m 37 Y s 1444 722 m 38 Y s 3 lw 1444 709 m2 6 lw 1448 548 m 40 Y s
 1448 614 m 40 Y s 3 lw 1448 601 m2 6 lw 1452 552 m 31 Y s 1452 609 m 31 Y s 3 lw 1452 596 m2 6 lw 1456 647 m 37 Y s 1456 710 m 38 Y s 3 lw 1456 697 m2 6 lw 1460 606 m 41 Y s 1460 673 m 42 Y s 3 lw 1460 660 m2 6 lw 1464 583 m 34 Y s 1464 643 m 34 Y s
 3 lw 1464 630 m2 6 lw 1468 577 m 35 Y s 1468 638 m 36 Y s 3 lw 1468 625 m2 6 lw 1472 514 m 35 Y s 1472 575 m 36 Y s 3 lw 1472 562 m2 6 lw 1476 576 m 35 Y s 1476 637 m 35 Y s 3 lw 1476 624 m2 6 lw 1480 463 m 37 Y s 1480 526 m 38 Y s 3 lw 1480 513 m2
 6 lw 1484 637 m 37 Y s 1484 700 m 36 Y s 3 lw 1484 687 m2 6 lw 1488 519 m 34 Y s 1488 579 m 34 Y s 3 lw 1488 566 m2 6 lw 1492 455 m 31 Y s 1492 512 m 31 Y s 3 lw 1492 499 m2 6 lw 1496 587 m 38 Y s 1496 651 m 37 Y s 3 lw 1496 638 m2 6 lw 1500 506 m
 34 Y s 1500 566 m 34 Y s 3 lw 1500 553 m2 6 lw 1504 629 m 38 Y s 1504 693 m 37 Y s 3 lw 1504 680 m2 6 lw 1508 558 m 41 Y s 1508 625 m 42 Y s 3 lw 1508 612 m2 6 lw 1512 556 m 34 Y s 1512 617 m 34 Y s 3 lw 1512 603 m2 6 lw 1516 542 m 39 Y s 1516 607 m
 39 Y s 3 lw 1516 594 m2 6 lw 1520 654 m 42 Y s 1520 722 m 42 Y s 3 lw 1520 709 m2 6 lw 1524 593 m 38 Y s 1524 657 m 38 Y s 3 lw 1524 644 m2 6 lw 1528 478 m 38 Y s 1528 542 m 38 Y s 3 lw 1528 529 m2 6 lw 1532 492 m 41 Y s 1532 559 m 41 Y s 3 lw 1532
 546 m2 6 lw 1536 521 m 53 Y s 1536 600 m 53 Y s 3 lw 1536 587 m2 6 lw 1540 594 m 36 Y s 1540 656 m 36 Y s 3 lw 1540 643 m2 6 lw 1544 585 m 38 Y s 1544 649 m 39 Y s 3 lw 1544 636 m2 6 lw 1548 577 m 35 Y s 1548 638 m 34 Y s 3 lw 1548 625 m2 6 lw 1552
 629 m 37 Y s 1552 693 m 37 Y s 3 lw 1552 680 m2 6 lw 1556 500 m 37 Y s 1556 563 m 36 Y s 3 lw 1556 550 m2 6 lw 1560 581 m 35 Y s 1560 642 m 35 Y s 3 lw 1560 629 m2 6 lw 1564 641 m 38 Y s 1564 705 m 38 Y s 3 lw 1564 692 m2 6 lw 1568 534 m 34 Y s 1568
 594 m 35 Y s 3 lw 1568 581 m2 6 lw 1572 421 m 37 Y s 1572 484 m 37 Y s 3 lw 1572 471 m2 6 lw 1576 582 m 37 Y s 1576 645 m 37 Y s 3 lw 1576 632 m2 6 lw 1580 515 m 37 Y s 1580 579 m 37 Y s 3 lw 1580 566 m2 6 lw 1584 486 m 31 Y s 1584 543 m 32 Y s 3 lw
 1584 530 m2 6 lw 1588 459 m 36 Y s 1588 521 m 36 Y s 3 lw 1588 508 m2 6 lw 1592 581 m 40 Y s 1592 647 m 39 Y s 3 lw 1592 634 m2 6 lw 1596 523 m 35 Y s 1596 584 m 34 Y s 3 lw 1596 571 m2 6 lw 1600 567 m 35 Y s 1600 628 m 34 Y s 3 lw 1600 615 m2 6 lw
 1604 537 m 38 Y s 1604 601 m 37 Y s 3 lw 1604 588 m2 6 lw 1609 551 m 36 Y s 1609 613 m 35 Y s 3 lw 1609 600 m2 6 lw 1613 586 m 34 Y s 1613 646 m 35 Y s 3 lw 1613 633 m2 6 lw 1617 580 m 57 Y s 1617 663 m 58 Y s 3 lw 1617 650 m2 6 lw 1621 608 m 39 Y s
 1621 673 m 39 Y s 3 lw 1621 660 m2 6 lw 1625 553 m 35 Y s 1625 614 m 35 Y s 3 lw 1625 601 m2 6 lw 1629 539 m 38 Y s 1629 603 m 37 Y s 3 lw 1629 590 m2 6 lw 1633 679 m 44 Y s 1633 749 m 43 Y s 3 lw 1633 736 m2 6 lw 1637 577 m 48 Y s 1637 651 m 49 Y s
 3 lw 1637 638 m2 6 lw 1641 636 m 36 Y s 1641 698 m 35 Y s 3 lw 1641 685 m2 6 lw 1645 447 m 36 Y s 1645 509 m 36 Y s 3 lw 1645 496 m2 6 lw 1649 611 m 38 Y s 1649 675 m 39 Y s 3 lw 1649 662 m2 6 lw 1653 544 m 36 Y s 1653 606 m 35 Y s 3 lw 1653 593 m2
 6 lw 1657 523 m 41 Y s 1657 590 m 40 Y s 3 lw 1657 577 m2 6 lw 1661 612 m 38 Y s 1661 676 m 39 Y s 3 lw 1661 663 m2 6 lw 1665 465 m 37 Y s 1665 528 m 37 Y s 3 lw 1665 515 m2 6 lw 1669 591 m 37 Y s 1669 654 m 38 Y s 3 lw 1669 641 m2 6 lw 1673 601 m
 41 Y s 1673 668 m 40 Y s 3 lw 1673 655 m2 6 lw 1677 626 m 48 Y s 1677 700 m 49 Y s 3 lw 1677 687 m2 6 lw 1681 558 m 38 Y s 1681 622 m 38 Y s 3 lw 1681 609 m2 6 lw 1685 581 m 36 Y s 1685 643 m 37 Y s 3 lw 1685 630 m2 6 lw 1689 460 m 38 Y s 1689 524 m
 37 Y s 3 lw 1689 511 m2 6 lw 1693 482 m 40 Y s 1693 548 m 39 Y s 3 lw 1693 535 m2 6 lw 1697 623 m 39 Y s 1697 688 m 38 Y s 3 lw 1697 675 m2 6 lw 1701 628 m 42 Y s 1701 696 m 43 Y s 3 lw 1701 683 m2 6 lw 1705 624 m 37 Y s 1705 687 m 37 Y s 3 lw 1705
 674 m2 6 lw 1709 594 m 36 Y s 1709 656 m 35 Y s 3 lw 1709 643 m2 6 lw 1713 627 m 37 Y s 1713 690 m 38 Y s 3 lw 1713 677 m2 6 lw 1717 603 m 37 Y s 1717 666 m 37 Y s 3 lw 1717 653 m2 6 lw 1721 626 m 38 Y s 1721 690 m 38 Y s 3 lw 1721 677 m2 6 lw 1725
 639 m 42 Y s 1725 707 m 41 Y s 3 lw 1725 694 m2 6 lw 1729 472 m 48 Y s 1729 546 m 47 Y s 3 lw 1729 533 m2 6 lw 1733 578 m 33 Y s 1733 637 m 33 Y s 3 lw 1733 624 m2 6 lw 1737 612 m 43 Y s 1737 681 m 42 Y s 3 lw 1737 668 m2 6 lw 1741 586 m 44 Y s 1741
 656 m 44 Y s 3 lw 1741 643 m2 6 lw 1745 569 m 35 Y s 1745 630 m 36 Y s 3 lw 1745 617 m2 6 lw 1749 743 m 44 Y s 1749 813 m 44 Y s 3 lw 1749 800 m2 6 lw 1753 588 m 42 Y s 1753 656 m 42 Y s 3 lw 1753 643 m2 6 lw 1757 603 m 39 Y s 1757 668 m 39 Y s 3 lw
 1757 655 m2 6 lw 1761 651 m 35 Y s 1761 712 m 34 Y s 3 lw 1761 699 m2 6 lw 1765 553 m 32 Y s 1765 611 m 33 Y s 3 lw 1765 598 m2 6 lw 1769 603 m 42 Y s 1769 671 m 42 Y s 3 lw 1769 658 m2 6 lw 1773 541 m 39 Y s 1773 606 m 39 Y s 3 lw 1773 593 m2 6 lw
 1777 510 m 38 Y s 1777 574 m 38 Y s 3 lw 1777 561 m2 6 lw 1781 636 m 41 Y s 1781 703 m 41 Y s 3 lw 1781 690 m2 6 lw 1786 537 m 38 Y s 1786 601 m 39 Y s 3 lw 1786 588 m2 6 lw 1790 531 m 35 Y s 1790 592 m 36 Y s 3 lw 1790 579 m2 6 lw 1794 583 m 38 Y s
 1794 647 m 38 Y s 3 lw 1794 634 m2 6 lw 1798 558 m 45 Y s 1798 629 m 44 Y s 3 lw 1798 616 m2 6 lw 1802 509 m 36 Y s 1802 571 m 36 Y s 3 lw 1802 558 m2 6 lw 1806 555 m 46 Y s 1806 627 m 46 Y s 3 lw 1806 614 m2 6 lw 1810 585 m 41 Y s 1810 652 m 41 Y s
 3 lw 1810 639 m2 6 lw 1814 474 m 42 Y s 1814 542 m 42 Y s 3 lw 1814 529 m2 6 lw 1818 776 m 44 Y s 1818 846 m 44 Y s 3 lw 1818 833 m2 6 lw 1822 507 m 40 Y s 1822 573 m 39 Y s 3 lw 1822 560 m2 6 lw 1826 622 m 37 Y s 1826 685 m 36 Y s 3 lw 1826 672 m2
 6 lw 1830 569 m 45 Y s 1830 640 m 44 Y s 3 lw 1830 627 m2 6 lw 1834 609 m 43 Y s 1834 678 m 44 Y s 3 lw 1834 665 m2 6 lw 1838 530 m 40 Y s 1838 596 m 41 Y s 3 lw 1838 583 m2 6 lw 1842 555 m 45 Y s 1842 626 m 44 Y s 3 lw 1842 613 m2 6 lw 1846 527 m
 47 Y s 1846 600 m 48 Y s 3 lw 1846 587 m2 6 lw 1850 642 m 37 Y s 1850 705 m 36 Y s 3 lw 1850 692 m2 6 lw 1854 581 m 42 Y s 1854 649 m 42 Y s 3 lw 1854 636 m2 6 lw 1858 597 m 43 Y s 1858 666 m 42 Y s 3 lw 1858 653 m2 6 lw 1862 640 m 44 Y s 1862 710 m
 44 Y s 3 lw 1862 697 m2 6 lw 1866 657 m 44 Y s 1866 727 m 45 Y s 3 lw 1866 714 m2 6 lw 1870 491 m 41 Y s 1870 558 m 42 Y s 3 lw 1870 545 m2 6 lw 1874 699 m 39 Y s 1874 764 m 38 Y s 3 lw 1874 751 m2 6 lw 1878 662 m 37 Y s 1878 725 m 38 Y s 3 lw 1878
 712 m2 6 lw 1882 600 m 35 Y s 1882 661 m 35 Y s 3 lw 1882 648 m2 6 lw 1886 353 m 52 Y s 1886 431 m 52 Y s 3 lw 1886 418 m2 6 lw 1890 618 m 40 Y s 1890 684 m 40 Y s 3 lw 1890 671 m2 6 lw 1894 616 m 48 Y s 1894 690 m 48 Y s 3 lw 1894 677 m2 6 lw 1898
 518 m 43 Y s 1898 587 m 43 Y s 3 lw 1898 574 m2 6 lw 1902 579 m 37 Y s 1902 642 m 37 Y s 3 lw 1902 629 m2 6 lw 1906 539 m 40 Y s 1906 605 m 41 Y s 3 lw 1906 592 m2 6 lw 1910 614 m 39 Y s 1910 680 m 39 Y s 3 lw 1910 666 m2 6 lw 1914 616 m 56 Y s 1914
 698 m 56 Y s 3 lw 1914 685 m2 6 lw 1918 581 m 42 Y s 1918 649 m 42 Y s 3 lw 1918 636 m2 6 lw 1922 579 m 44 Y s 1922 649 m 44 Y s 3 lw 1922 636 m2 6 lw 1926 723 m 43 Y s 1926 792 m 42 Y s 3 lw 1926 779 m2 6 lw 1930 603 m 38 Y s 1930 667 m 39 Y s 3 lw
 1930 654 m2 6 lw 1934 602 m 40 Y s 1934 668 m 39 Y s 3 lw 1934 655 m2 6 lw 1938 628 m 43 Y s 1938 697 m 43 Y s 3 lw 1938 684 m2 6 lw 1942 641 m 39 Y s 1942 706 m 40 Y s 3 lw 1942 693 m2 6 lw 1946 482 m 40 Y s 1946 548 m 39 Y s 3 lw 1946 535 m2 6 lw
 1950 482 m 38 Y s 1950 546 m 38 Y s 3 lw 1950 533 m2 6 lw 1954 522 m 39 Y s 1954 587 m 39 Y s 3 lw 1954 574 m2 6 lw 1958 683 m 44 Y s 1958 753 m 44 Y s 3 lw 1958 740 m2 6 lw 1963 546 m 41 Y s 1963 613 m 42 Y s 3 lw 1963 600 m2 6 lw 1967 607 m 46 Y s
 1967 679 m 46 Y s 3 lw 1967 666 m2 6 lw 1971 520 m 51 Y s 1971 597 m 51 Y s 3 lw 1971 584 m2 6 lw 1975 599 m 52 Y s 1975 677 m 52 Y s 3 lw 1975 664 m2 6 lw 1979 539 m 36 Y s 1979 601 m 37 Y s 3 lw 1979 588 m2 6 lw 1983 455 m 39 Y s 1983 520 m 39 Y s
 3 lw 1983 507 m2 6 lw 1987 718 m 44 Y s 1987 788 m 45 Y s 3 lw 1987 775 m2 6 lw 1991 585 m 46 Y s 1991 657 m 45 Y s 3 lw 1991 644 m2 6 lw 1995 395 m 80 Y s 1995 501 m 80 Y s 3 lw 1995 488 m2 6 lw 3 lw 227 154 m 1814 X s
 gsave  2268 1538 0 0 C 1922.35 55.3896 t 0 r /Helvetica findfont 48.8732 sf 0 0 m ( [min]) show NC gr 
 gsave  2268 1538 0 0 C 1811.57 55.3896 t 0 r /Helvetica-Oblique findfont 48.8732 sf 0 0 m (Time) show NC gr  279 191 m -37 Y s 319 172 m -18 Y s 360 172 m -18 Y s 400 172 m -18 Y s 440 172 m -18 Y s 480 191 m -37 Y s 520 172 m -18 Y s 561 172 m -18
 Y s 601 172 m -18 Y s 641 172 m -18 Y s 681 191 m -37 Y s 722 172 m -18 Y s 762 172 m -18 Y s 802 172 m -18 Y s 842 172 m -18 Y s 882 191 m -37 Y s 923 172 m -18 Y s 963 172 m -18 Y s 1003 172 m -18 Y s 1043 172 m -18 Y s 1084 191 m -37 Y s 1124 172
 m -18 Y s 1164 172 m -18 Y s 1204 172 m -18 Y s 1244 172 m -18 Y s 1285 191 m -37 Y s 1325 172 m -18 Y s 1365 172 m -18 Y s 1405 172 m -18 Y s 1446 172 m -18 Y s 1486 191 m -37 Y s 1526 172 m -18 Y s 1566 172 m -18 Y s 1607 172 m -18 Y s 1647 172 m
 -18 Y s 1687 191 m -37 Y s 1727 172 m -18 Y s 1767 172 m -18 Y s 1808 172 m -18 Y s 1848 172 m -18 Y s 1888 191 m -37 Y s 279 191 m -37 Y s 239 172 m -18 Y s 1888 191 m -37 Y s 1928 172 m -18 Y s 1969 172 m -18 Y s 2009 172 m -18 Y s
 gsave  2268 1538 0 0 C 234.591 104.263 t 0 r /Helvetica findfont 48.8732 sf 0 0 m (200) show NC gr 
 gsave  2268 1538 0 0 C 436.601 104.263 t 0 r /Helvetica findfont 48.8732 sf 0 0 m (300) show NC gr 
 gsave  2268 1538 0 0 C 638.61 104.263 t 0 r /Helvetica findfont 48.8732 sf 0 0 m (400) show NC gr 
 gsave  2268 1538 0 0 C 837.361 104.263 t 0 r /Helvetica findfont 48.8732 sf 0 0 m (500) show NC gr 
 gsave  2268 1538 0 0 C 1039.37 104.263 t 0 r /Helvetica findfont 48.8732 sf 0 0 m (600) show NC gr 
 gsave  2268 1538 0 0 C 1241.38 104.263 t 0 r /Helvetica findfont 48.8732 sf 0 0 m (700) show NC gr 
 gsave  2268 1538 0 0 C 1443.39 104.263 t 0 r /Helvetica findfont 48.8732 sf 0 0 m (800) show NC gr 
 gsave  2268 1538 0 0 C 1642.14 104.263 t 0 r /Helvetica findfont 48.8732 sf 0 0 m (900) show NC gr 
 gsave  2268 1538 0 0 C 1831.12 104.263 t 0 r /Helvetica findfont 48.8732 sf 0 0 m (1000) show NC gr  227 154 m 1230 Y s
 gsave  2268 1538 0 0 C 110.779 1293.51 t 90 r /Helvetica findfont 48.8732 sf 0 0 m ( [ns]) show NC gr 
 gsave  2268 1538 0 0 C 110.779 1075.21 t 90 r /Helvetica-Oblique findfont 48.8732 sf 0 0 m (Fine Time) show NC gr  281 154 m -54 X s 254 178 m -27 X s 254 203 m -27 X s 254 228 m -27 X s 254 252 m -27 X s 281 277 m -54 X s 254 301 m -27 X s 254 326
 m -27 X s 254 351 m -27 X s 254 375 m -27 X s 281 400 m -54 X s 254 424 m -27 X s 254 449 m -27 X s 254 474 m -27 X s 254 498 m -27 X s 281 523 m -54 X s 254 547 m -27 X s 254 572 m -27 X s 254 597 m -27 X s 254 621 m -27 X s 281 646 m -54 X s 254
 671 m -27 X s 254 695 m -27 X s 254 720 m -27 X s 254 744 m -27 X s 281 769 m -54 X s 254 794 m -27 X s 254 818 m -27 X s 254 843 m -27 X s 254 867 m -27 X s 281 892 m -54 X s 254 917 m -27 X s 254 941 m -27 X s 254 966 m -27 X s 254 990 m -27 X s
 281 1015 m -54 X s 254 1040 m -27 X s 254 1064 m -27 X s 254 1089 m -27 X s 254 1113 m -27 X s 281 1138 m -54 X s 254 1163 m -27 X s 254 1187 m -27 X s 254 1212 m -27 X s 254 1236 m -27 X s 281 1261 m -54 X s 254 1286 m -27 X s 254 1310 m -27 X s
 254 1335 m -27 X s 254 1359 m -27 X s 281 1384 m -54 X s
 gsave  2268 1538 0 0 C 156.394 136.845 t 0 r /Helvetica findfont 48.8732 sf 0 0 m (2.1) show NC gr 
 gsave  2268 1538 0 0 C 146.62 257.399 t 0 r /Helvetica findfont 48.8732 sf 0 0 m (2.2) show NC gr 
 gsave  2268 1538 0 0 C 146.62 381.211 t 0 r /Helvetica findfont 48.8732 sf 0 0 m (2.3) show NC gr 
 gsave  2268 1538 0 0 C 146.62 505.023 t 0 r /Helvetica findfont 48.8732 sf 0 0 m (2.4) show NC gr 
 gsave  2268 1538 0 0 C 146.62 628.835 t 0 r /Helvetica findfont 48.8732 sf 0 0 m (2.5) show NC gr 
 gsave  2268 1538 0 0 C 146.62 749.389 t 0 r /Helvetica findfont 48.8732 sf 0 0 m (2.6) show NC gr 
 gsave  2268 1538 0 0 C 146.62 873.201 t 0 r /Helvetica findfont 48.8732 sf 0 0 m (2.7) show NC gr 
 gsave  2268 1538 0 0 C 146.62 997.013 t 0 r /Helvetica findfont 48.8732 sf 0 0 m (2.8) show NC gr 
 gsave  2268 1538 0 0 C 146.62 1120.83 t 0 r /Helvetica findfont 48.8732 sf 0 0 m (2.9) show NC gr 
 gsave  2268 1538 0 0 C 188.976 1244.64 t 0 r /Helvetica findfont 48.8732 sf 0 0 m (3) show NC gr 
 gsave  2268 1538 0 0 C 156.394 1365.19 t 0 r /Helvetica findfont 48.8732 sf 0 0 m (3.1) show NC gr  0.35 0.33 0.85 c black 0.35 0.33 0.85 c /w 8 def /w2 {w 2 div} def /w3 {w 3 div} def 227 590 229 583 231 585 233 588 235 586 237 585 239 586 241 594
 243 587 245 590 247 588 249 587 251 583 253 575 255 586 257 593 259 594 261 592 263 587 265 589 267 595 269 598 271 596 273 595 275 594 277 593 279 585 281 590 283 589 285 592 287 592 289 591 291 590 293 593 295 596 297 591 299 591 301 591 303 593
 305 591 307 587 309 589 311 594 313 592 315 597 317 596 319 593 321 590 323 593 325 589 327 592 329 590 331 589 333 589 335 591 337 595 339 594 341 591 343 590 345 589 347 589 349 593 351 594 353 593 355 587 358 586 360 590 362 590 364 585 366 586
 368 592 370 589 372 587 374 588 376 590 378 588 380 586 382 585 384 590 386 588 388 590 390 591 392 590 394 589 396 588 398 588 400 588 402 590 404 594 406 599 408 584 410 588 412 590 414 593 416 593 418 592 420 592 422 590 424 593 426 590 100 {
 m20} R 428 592 430 592 432 595 434 590 436 593 438 594 440 594 442 594 444 599 446 589 448 591 450 590 452 589 454 591 456 587 458 594 460 590 462 587 464 592 466 594 468 594 470 596 472 599 474 594 476 597 478 596 480 593 482 593 484 589 486 590
 488 590 490 592 492 586 494 587 496 591 498 585 500 585 502 588 504 586 506 579 508 585 510 587 512 586 514 582 516 583 518 589 520 589 522 590 524 602 526 603 528 597 530 602 532 606 534 593 537 585 539 599 541 601 543 608 545 593 547 580 549 587
 551 588 553 593 555 595 557 594 559 585 561 593 563 591 565 592 567 589 569 590 571 593 573 590 575 593 577 593 579 591 581 587 583 592 585 589 587 589 589 586 591 585 593 590 595 586 597 587 599 590 601 592 603 592 605 591 607 589 609 591 611 589
 613 593 615 597 617 589 619 591 621 592 623 594 625 600 627 590 100 { m20} R 629 591 631 587 633 590 635 591 637 592 639 594 641 594 643 594 645 593 647 596 649 597 651 590 653 588 655 598 657 594 659 596 661 590 663 595 665 596 667 600 669 596 671
 593 673 597 675 593 677 596 679 598 681 591 683 600 685 595 687 597 689 592 691 591 693 592 695 595 697 597 699 592 701 593 703 594 705 595 707 590 709 590 711 591 714 592 716 594 718 590 720 591 722 588 724 588 726 586 728 592 730 589 732 586 734
 586 736 585 738 590 740 592 742 583 744 585 746 582 748 580 750 588 752 586 754 585 756 583 758 588 760 587 762 579 764 582 766 584 768 581 770 581 772 583 774 578 776 578 778 578 780 574 782 579 784 584 786 584 788 576 790 580 792 584 794 584 796
 585 798 581 800 579 802 582 804 581 806 577 808 586 810 580 812 577 814 580 816 582 818 585 820 584 822 580 824 587 826 587 828 586 100 { m20} R 830 582 832 584 834 584 836 585 838 583 840 580 842 577 844 584 846 576 848 580 850 577 852 581 854 577
 856 583 858 585 860 577 862 579 864 581 866 577 868 587 870 583 872 581 874 582 876 584 878 584 880 582 882 581 884 582 886 585 888 588 890 587 893 589 895 593 897 589 899 588 901 583 903 584 905 587 907 579 909 586 911 586 913 584 915 585 917 584
 919 588 921 587 923 585 925 584 927 583 929 584 931 586 933 588 935 593 937 587 939 581 941 584 943 588 945 588 947 595 949 588 951 588 953 586 955 587 957 587 959 581 961 584 963 585 965 584 967 580 969 586 971 586 973 583 975 588 977 578 979 587
 981 579 983 581 985 583 987 585 989 588 991 590 993 588 995 592 997 590 999 595 1001 598 1003 601 1005 602 1007 597 1009 593 1011 594 1013 599 1015 600 1017 600 1019 606 1021 604 1023 600 1025 599 1027 599 1029 599 100 { m20} R 1031 596 1033 599
 1035 600 1037 599 1039 601 1041 595 1043 600 1045 607 1047 604 1049 595 1051 603 1053 598 1055 596 1057 601 1059 597 1061 597 1063 604 1065 598 1067 597 1069 591 1072 596 1074 595 1076 593 1078 596 1080 592 1082 598 1084 598 1086 597 1088 596 1090
 602 1092 597 1094 595 1096 590 1098 597 1100 594 1102 593 1104 598 1106 595 1108 596 1110 598 1112 603 1114 597 1116 599 1118 597 1120 599 1122 594 1124 595 1126 589 1128 586 1130 588 1132 587 1134 590 1136 594 1138 599 1140 601 1142 593 1144 591
 1146 591 1148 596 1150 600 1152 600 1154 599 1156 594 1158 594 1160 589 1162 592 1164 590 1166 591 1168 594 1170 593 1172 592 1174 591 1176 595 1178 605 1180 608 1182 610 1184 611 1186 606 1188 597 1190 599 1192 597 1194 591 1196 591 1198 598 1200
 606 1202 612 1204 618 1206 606 1208 596 1210 595 1212 599 1214 601 1216 601 1218 596 1220 602 1222 600 1224 599 1226 607 1228 597 1230 604 100 { m20} R 1232 604 1234 601 1236 603 1238 599 1240 600 1242 597 1244 595 1246 602 1249 599 1251 600 1253
 599 1255 599 1257 598 1259 601 1261 598 1263 604 1265 601 1267 601 1269 602 1271 603 1273 596 1275 603 1277 605 1279 604 1281 604 1283 607 1285 605 1287 603 1289 603 1291 598 1293 606 1295 604 1297 597 1299 601 1301 603 1303 606 1305 605 1307 599
 1309 605 1311 611 1313 612 1315 611 1317 608 1319 603 1321 603 1323 602 1325 610 1327 610 1329 612 1331 610 1333 607 1335 613 1337 612 1339 607 1341 613 1343 609 1345 613 1347 611 1349 611 1351 614 1353 610 1355 612 1357 621 1359 615 1361 620 1363
 617 1365 614 1367 614 1369 616 1371 617 1373 615 1375 617 1377 614 1379 614 1381 614 1383 614 1385 615 1387 611 1389 613 1391 619 1393 614 1395 617 1397 623 1399 619 1401 615 1403 619 1405 625 1407 623 1409 624 1411 613 1413 621 1415 619 1417 620
 1419 619 1421 621 1423 617 1425 617 1428 622 1430 628 1432 626 100 { m20} R 1434 624 1436 616 1438 620 1440 622 1442 622 1444 624 1446 624 1448 621 1450 624 1452 621 1454 621 1456 623 1458 622 1460 622 1462 622 1464 622 1466 624 1468 623 1470 620
 1472 622 1474 624 1476 629 1478 625 1480 625 1482 628 1484 625 1486 623 1488 626 1490 621 1492 619 1494 625 1496 621 1498 621 1500 621 1502 625 1504 620 1506 610 1508 617 1510 620 1512 619 1514 621 1516 618 1518 620 1520 615 1522 615 1524 620 1526
 618 1528 616 1530 619 1532 614 1534 614 1536 612 1538 614 1540 619 1542 617 1544 614 1546 619 1548 617 1550 618 1552 616 1554 622 1556 617 1558 618 1560 613 1562 619 1564 621 1566 619 1568 621 1570 620 1572 621 1574 618 1576 616 1578 615 1580 619
 1582 617 1584 615 1586 618 1588 618 1590 622 1592 620 1594 624 1596 624 1598 621 1600 621 1602 620 1604 620 1607 622 1609 619 1611 621 1613 622 1615 624 1617 625 1619 626 1621 629 1623 623 1625 627 1627 630 1629 630 1631 627 1633 629 100 { m20} R
 1635 630 1637 627 1639 627 1641 635 1643 631 1645 633 1647 632 1649 634 1651 631 1653 637 1655 634 1657 636 1659 637 1661 641 1663 638 1665 641 1667 641 1669 645 1671 647 1673 642 1675 640 1677 643 1679 636 1681 639 1683 643 1685 646 1687 643 1689
 644 1691 643 1693 644 1695 648 1697 639 1699 642 1701 648 1703 647 1705 644 1707 645 1709 645 1711 640 1713 640 1715 635 1717 637 1719 641 1721 644 1723 644 1725 641 1727 640 1729 642 1731 643 1733 643 1735 643 1737 641 1739 642 1741 635 1743 642
 1745 636 1747 636 1749 637 1751 638 1753 649 1755 639 1757 644 1759 643 1761 645 1763 646 1765 641 1767 649 1769 648 1771 653 1773 648 1775 654 1777 643 1779 641 1781 644 1784 644 1786 642 1788 650 1790 650 1792 644 1794 649 1796 648 1798 649 1800
 646 1802 649 1804 655 1806 651 1808 655 1810 653 1812 649 1814 653 1816 654 1818 654 1820 651 1822 654 1824 654 1826 654 1828 659 1830 654 1832 656 1834 653 100 { m20} R 1836 654 1838 652 1840 657 1842 657 1844 656 1846 650 1848 654 1850 654 1852
 659 1854 657 1856 654 1858 654 1860 661 1862 662 1864 654 1866 656 1868 652 1870 653 1872 655 1874 656 1876 658 1878 662 1880 659 1882 661 1884 660 1886 663 1888 661 1890 656 1892 662 1894 659 1896 661 1898 665 1900 673 1902 666 1904 664 1906 668
 1908 671 1910 670 1912 671 1914 665 1916 669 1918 668 1920 674 1922 675 1924 673 1926 676 1928 672 1930 673 1932 675 1934 671 1936 669 1938 671 1940 676 1942 670 1944 669 1946 670 1948 675 1950 670 1952 674 1954 677 1956 674 1958 673 1960 672 1963
 662 1965 661 1967 660 1969 660 1971 660 1973 659 1975 658 1977 658 1979 667 1981 661 1983 660 1985 661 1987 664 1989 662 1991 663 1993 660 1995 661 80 { m20} R black 1 1 1 c 1111 184 907 1123 bf black
 gsave  2268 1538 0 0 C 1182.73 1244.64 t 0 r /Helvetica-Bold findfont 58.6478 sf 0 0 m (L1Calo Fine Time \(HAD Layer\)) show NC gr  6 lw 949 1261 m 194 X s 3 lw /w 26 def /w2 {w 2 div} def /w3 {w 3 div} def 1046 1261 m2 6 lw
 gsave  2268 1538 0 0 C 1182.73 1150.15 t 0 r /Helvetica-Bold findfont 58.6478 sf 0 0 m (Beam Pickup Phase) show NC gr  0.35 0.33 0.85 c 3 lw 949 1169 m 194 X s /w 8 def /w2 {w 2 div} def /w3 {w 3 div} def 1046 1169 m20 black
 gsave  2268 1538 0 0 C 1358.68 263.915 t 0 r /Helvetica-BoldOblique findfont 71.6807 sf 0 0 m (ATLAS) show NC gr 
 gsave  2268 1538 0 0 C 1619.33 263.915 t 0 r /Helvetica-Oblique findfont 71.6807 sf 0 0 m (Preliminary) show NC gr 
 gsave  2268 1538 0 0 C 338.854 1247.9 t 0 r /Helvetica-Bold findfont 58.6478 sf 0 0 m (October 22, 2011) show NC gr 
 gr  gr showpage
end
%%EOF
