%!PS-Adobe-2.0 EPSF-2.0
%%BoundingBox:  0 0 567 384
%%Title: /home/rohin/l1calo/root_files/12-AUG2011/JetTauEtMiss/finetimeEMB_lumi.eps: c1_n5
%%Creator: ROOT Version 5.34/14
%%CreationDate: Fri Jun  6 01:10:18 2014
%%EndComments
%%BeginProlog
80 dict begin
/s {stroke} def /l {lineto} def /m {moveto} def /t {translate} def
/r {rotate} def /rl {roll}  def /R {repeat} def
/d {rlineto} def /rm {rmoveto} def /gr {grestore} def /f {eofill} def
/c {setrgbcolor} def /black {0 setgray} def /sd {setdash} def
/cl {closepath} def /sf {scalefont setfont} def /lw {setlinewidth} def
/box {m dup 0 exch d exch 0 d 0 exch neg d cl} def
/NC{systemdict begin initclip end}def/C{NC box clip newpath}def
/bl {box s} def /bf {box f} def /Y { 0 exch d} def /X { 0 d} def 
/K {{pop pop 0 moveto} exch kshow} bind def
/ita {/ang 15 def gsave [1 0 ang dup sin exch cos div 1 0 0] concat} def 
/mp {newpath /y exch def /x exch def} def
/side {[w .77 mul w .23 mul] .385 w mul sd w 0 l currentpoint t -144 r} def
/mr {mp x y w2 0 360 arc} def /m24 {mr s} def /m20 {mr f} def
/mb {mp x y w2 add m w2 neg 0 d 0 w neg d w 0 d 0 w d cl} def
/mt {mp x y w2 add m w2 neg w neg d w 0 d cl} def
/m21 {mb f} def /m25 {mb s} def /m22 {mt f} def /m26{mt s} def
/m23 {mp x y w2 sub m w2 w d w neg 0 d cl f} def
/m27 {mp x y w2 add m w3 neg w2 neg d w3 w2 neg d w3 w2 d cl s} def
/m28 {mp x w2 sub y w2 sub w3 add m w3 0 d  0 w3 neg d w3 0 d 0 w3 d w3 0 d  0 w3 d w3 neg 0 d 0 w3 d w3 neg 0 d 0 w3 neg d w3 neg 0 d cl s } def
/m29 {mp gsave x w2 sub y w2 add w3 sub m currentpoint t 4 {side} repeat cl fill gr} def
/m30 {mp gsave x w2 sub y w2 add w3 sub m currentpoint t 4 {side} repeat cl s gr} def
/m31 {mp x y w2 sub m 0 w d x w2 sub y m w 0 d x w2 sub y w2 add m w w neg d x w2 sub y w2 sub m w w d s} def
/m32 {mp x y w2 sub m w2 w d w neg 0 d cl s} def
/m33 {mp x y w2 add m w3 neg w2 neg d w3 w2 neg d w3 w2 d cl f} def
/m34 {mp x w2 sub y w2 sub w3 add m w3 0 d  0 w3 neg d w3 0 d 0 w3 d w3 0 d  0 w3 d w3 neg 0 d 0 w3 d w3 neg 0 d 0 w3 neg d w3 neg 0 d cl f } def
/m2 {mp x y w2 sub m 0 w d x w2 sub y m w 0 d s} def
/m5 {mp x w2 sub y w2 sub m w w d x w2 sub y w2 add m w w neg d s} def
/reEncode {exch findfont dup length dict begin {1 index /FID eq  {pop pop} {def} ifelse } forall /Encoding exch def currentdict end dup /FontName get exch definefont pop } def [/Times-Bold /Times-Italic /Times-BoldItalic /Helvetica /Helvetica-Oblique
 /Helvetica-Bold /Helvetica-BoldOblique /Courier /Courier-Oblique /Courier-Bold /Courier-BoldOblique /Times-Roman /AvantGarde-Book /AvantGarde-BookOblique /AvantGarde-Demi /AvantGarde-DemiOblique /Bookman-Demi /Bookman-DemiItalic /Bookman-Light
 /Bookman-LightItalic /Helvetica-Narrow /Helvetica-Narrow-Bold /Helvetica-Narrow-BoldOblique /Helvetica-Narrow-Oblique /NewCenturySchlbk-Roman /NewCenturySchlbk-Bold /NewCenturySchlbk-BoldItalic /NewCenturySchlbk-Italic /Palatino-Bold
 /Palatino-BoldItalic /Palatino-Italic /Palatino-Roman ] {ISOLatin1Encoding reEncode } forall
%%EndProlog
%%BeginSetup
%%EndSetup
newpath  gsave  .25 .25 scale  gsave  0 0 t black[  ] 0 sd 3 lw 1 1 1 c 2268 1538 0 0 bf black 1 1 1 c 1883 1322 317 185 bf black 1883 1322 317 185 bl 1 1 1 c 1883 1322 317 185 bf black 1883 1322 317 185 bl 1 1 1 c black 399 1115 m 27 Y s 399 1155 m
 26 Y s 392 1148 m s 406 1148 m s /w 13 def /w2 {w 2 div} def /w3 {w 3 div} def 399 1148 m20 414 1045 m 17 Y s 414 1075 m 17 Y s 406 1068 m 1 X s 420 1068 m 1 X s 414 1068 m20 429 1074 m 22 Y s 429 1109 m 22 Y s 421 1103 m 1 X s 435 1103 m 1 X s 429
 1103 m20 443 1058 m 18 Y s 443 1089 m 18 Y s 436 1082 m 1 X s 450 1082 m 1 X s 443 1082 m20 458 1090 m 15 Y s 458 1118 m 14 Y s 451 1111 m 1 X s 465 1111 m 1 X s 458 1111 m20 473 1065 m 16 Y s 473 1094 m 17 Y s 466 1088 m 1 X s 480 1088 m 1 X s 473
 1088 m20 488 1032 m 16 Y s 488 1061 m 16 Y s 481 1055 m s 494 1055 m 1 X s 488 1055 m20 503 1058 m 19 Y s 503 1090 m 20 Y s 495 1084 m 1 X s 509 1084 m 1 X s 503 1084 m20 518 1033 m 20 Y s 518 1066 m 19 Y s 510 1059 m 1 X s 524 1059 m 1 X s 518 1059
 m20 532 1080 m 16 Y s 532 1109 m 16 Y s 525 1102 m 1 X s 539 1102 m 1 X s 532 1102 m20 547 1062 m 18 Y s 547 1093 m 18 Y s 540 1087 m 1 X s 554 1087 m 1 X s 547 1087 m20 562 1039 m 16 Y s 562 1068 m 15 Y s 555 1061 m 1 X s 569 1061 m s 562 1061 m20
 577 1118 m 16 Y s 577 1147 m 17 Y s 569 1141 m 1 X s 583 1141 m 1 X s 577 1141 m20 592 1045 m 16 Y s 592 1074 m 17 Y s 584 1068 m 1 X s 598 1068 m 1 X s 592 1068 m20 606 1076 m 17 Y s 606 1106 m 16 Y s 599 1099 m 1 X s 613 1099 m 1 X s 606 1099 m20
 621 1006 m 20 Y s 621 1039 m 21 Y s 614 1033 m 1 X s 628 1033 m 1 X s 621 1033 m20 636 1038 m 17 Y s 636 1068 m 17 Y s 629 1062 m 1 X s 643 1062 m 1 X s 636 1062 m20 651 1029 m 22 Y s 651 1064 m 22 Y s 644 1058 m s 657 1058 m 1 X s 651 1058 m20 666
 1048 m 18 Y s 666 1079 m 18 Y s 658 1072 m 1 X s 672 1072 m 1 X s 666 1072 m20 681 1089 m 16 Y s 681 1118 m 16 Y s 673 1111 m 1 X s 687 1111 m 1 X s 681 1111 m20 695 1038 m 15 Y s 695 1067 m 15 Y s 688 1060 m 1 X s 702 1060 m 1 X s 695 1060 m20 710
 1032 m 16 Y s 710 1061 m 15 Y s 703 1054 m 1 X s 717 1054 m 1 X s 710 1054 m20 725 1088 m 16 Y s 725 1117 m 17 Y s 718 1111 m 1 X s 732 1111 m s 725 1111 m20 740 1095 m 17 Y s 740 1125 m 16 Y s 732 1118 m 1 X s 746 1118 m 1 X s 740 1118 m20 755 1135
 m 34 Y s 755 1182 m 34 Y s 747 1176 m 1 X s 761 1176 m 1 X s 755 1176 m20 770 1085 m 16 Y s 770 1114 m 16 Y s 762 1108 m 1 X s 776 1108 m 1 X s 770 1108 m20 784 1072 m 15 Y s 784 1100 m 15 Y s 777 1094 m 1 X s 791 1094 m 1 X s 784 1094 m20 799 1007
 m 18 Y s 799 1038 m 18 Y s 792 1032 m 1 X s 806 1032 m 1 X s 799 1032 m20 814 1085 m 16 Y s 814 1114 m 17 Y s 807 1108 m s 820 1108 m 1 X s 814 1108 m20 829 1061 m 17 Y s 829 1091 m 17 Y s 821 1085 m 1 X s 835 1085 m 1 X s 829 1085 m20 844 1049 m 16
 Y s 844 1078 m 15 Y s 836 1071 m 1 X s 850 1071 m 1 X s 844 1071 m20 858 1095 m 16 Y s 858 1124 m 16 Y s 851 1118 m 1 X s 865 1118 m 1 X s 858 1118 m20 873 1017 m 42 Y s 873 1072 m 43 Y s 866 1066 m 1 X s 880 1066 m 1 X s 873 1066 m20 888 1077 m 19
 Y s 888 1109 m 19 Y s 881 1103 m 1 X s 895 1103 m s 888 1103 m20 903 1088 m 15 Y s 903 1116 m 16 Y s 895 1110 m 1 X s 909 1110 m 1 X s 903 1110 m20 918 1028 m 14 Y s 918 1055 m 14 Y s 910 1049 m 1 X s 924 1049 m 1 X s 918 1049 m20 933 1106 m 18 Y s
 933 1137 m 19 Y s 925 1131 m 1 X s 939 1131 m 1 X s 933 1131 m20 947 1055 m 17 Y s 947 1085 m 16 Y s 940 1078 m 1 X s 954 1078 m 1 X s 947 1078 m20 962 1071 m 19 Y s 962 1103 m 19 Y s 955 1097 m 1 X s 969 1097 m 1 X s 962 1097 m20 977 1026 m 17 Y s
 977 1056 m 16 Y s 970 1049 m s 984 1049 m s 977 1049 m20 992 1052 m 18 Y s 992 1083 m 17 Y s 984 1076 m 1 X s 998 1076 m 1 X s 992 1076 m20 1007 1031 m 16 Y s 1007 1060 m 17 Y s 999 1054 m 1 X s 1013 1054 m 1 X s 1007 1054 m20 1021 1032 m 19 Y s
 1021 1064 m 19 Y s 1014 1057 m 1 X s 1028 1057 m 1 X s 1021 1057 m20 1036 953 m 21 Y s 1036 987 m 21 Y s 1029 980 m 1 X s 1043 980 m 1 X s 1036 980 m20 1051 985 m 20 Y s 1051 1018 m 20 Y s 1044 1012 m 1 X s 1058 1012 m 1 X s 1051 1012 m20 1066 1068
 m 16 Y s 1066 1097 m 16 Y s 1059 1091 m s 1072 1091 m 1 X s 1066 1091 m20 1081 1066 m 22 Y s 1081 1101 m 21 Y s 1073 1094 m 1 X s 1087 1094 m 1 X s 1081 1094 m20 1096 1058 m 21 Y s 1096 1092 m 21 Y s 1088 1086 m 1 X s 1102 1086 m 1 X s 1096 1086 m20
 1110 1055 m 20 Y s 1110 1088 m 21 Y s 1103 1082 m 1 X s 1117 1082 m 1 X s 1110 1082 m20 1125 1011 m 17 Y s 1125 1041 m 16 Y s 1118 1034 m 1 X s 1132 1034 m 1 X s 1125 1034 m20 1140 1036 m 14 Y s 1140 1063 m 14 Y s 1133 1056 m 1 X s 1147 1056 m s
 1140 1056 m20 1155 1033 m 17 Y s 1155 1063 m 17 Y s 1147 1056 m 1 X s 1161 1056 m 1 X s 1155 1056 m20 1170 1034 m 16 Y s 1170 1063 m 17 Y s 1162 1057 m 1 X s 1176 1057 m 1 X s 1170 1057 m20 1184 1051 m 19 Y s 1184 1083 m 19 Y s 1177 1076 m 1 X s
 1191 1076 m 1 X s 1184 1076 m20 1199 1042 m 19 Y s 1199 1074 m 18 Y s 1192 1067 m 1 X s 1206 1067 m 1 X s 1199 1067 m20 1214 1003 m 21 Y s 1214 1037 m 21 Y s 1207 1030 m 1 X s 1221 1030 m 1 X s 1214 1030 m20 1229 1066 m 18 Y s 1229 1097 m 18 Y s
 1222 1090 m s 1235 1090 m 1 X s 1229 1090 m20 1244 1010 m 19 Y s 1244 1042 m 18 Y s 1236 1035 m 1 X s 1250 1035 m 1 X s 1244 1035 m20 1259 998 m 19 Y s 1259 1030 m 19 Y s 1251 1023 m 1 X s 1265 1023 m 1 X s 1259 1023 m20 1273 1038 m 16 Y s 1273 1067
 m 15 Y s 1266 1060 m 1 X s 1280 1060 m 1 X s 1273 1060 m20 1288 1090 m 19 Y s 1288 1122 m 18 Y s 1281 1115 m 1 X s 1295 1115 m 1 X s 1288 1115 m20 1303 1086 m 19 Y s 1303 1118 m 19 Y s 1296 1111 m 1 X s 1310 1111 m s 1303 1111 m20 1318 1090 m 15 Y s
 1318 1118 m 14 Y s 1310 1111 m 1 X s 1324 1111 m 1 X s 1318 1111 m20 1333 1079 m 18 Y s 1333 1110 m 17 Y s 1325 1103 m 1 X s 1339 1103 m 1 X s 1333 1103 m20 1348 1078 m 17 Y s 1348 1108 m 18 Y s 1340 1102 m 1 X s 1354 1102 m 1 X s 1348 1102 m20 1362
 1061 m 15 Y s 1362 1089 m 16 Y s 1355 1083 m 1 X s 1369 1083 m 1 X s 1362 1083 m20 1377 1059 m 21 Y s 1377 1093 m 20 Y s 1370 1086 m 1 X s 1384 1086 m 1 X s 1377 1086 m20 1392 1016 m 20 Y s 1392 1049 m 20 Y s 1385 1043 m s 1398 1043 m 1 X s 1392
 1043 m20 1407 1067 m 18 Y s 1407 1098 m 18 Y s 1399 1092 m 1 X s 1413 1092 m 1 X s 1407 1092 m20 1422 1096 m 19 Y s 1422 1128 m 19 Y s 1414 1121 m 1 X s 1428 1121 m 1 X s 1422 1121 m20 1436 1079 m 18 Y s 1436 1110 m 19 Y s 1429 1104 m 1 X s 1443
 1104 m 1 X s 1436 1104 m20 1451 1106 m 17 Y s 1451 1136 m 18 Y s 1444 1130 m 1 X s 1458 1130 m 1 X s 1451 1130 m20 1466 1040 m 19 Y s 1466 1072 m 20 Y s 1459 1066 m 1 X s 1473 1066 m s 1466 1066 m20 1481 1058 m 19 Y s 1481 1090 m 19 Y s 1473 1084 m
 1 X s 1487 1084 m 1 X s 1481 1084 m20 1496 1076 m 17 Y s 1496 1106 m 17 Y s 1488 1100 m 1 X s 1502 1100 m 1 X s 1496 1100 m20 1511 1084 m 19 Y s 1511 1116 m 19 Y s 1503 1109 m 1 X s 1517 1109 m 1 X s 1511 1109 m20 1525 1027 m 16 Y s 1525 1056 m 17 Y
 s 1518 1050 m 1 X s 1532 1050 m 1 X s 1525 1050 m20 1540 1029 m 18 Y s 1540 1060 m 18 Y s 1533 1054 m 1 X s 1547 1054 m 1 X s 1540 1054 m20 1555 1072 m 17 Y s 1555 1102 m 18 Y s 1548 1096 m s 1562 1096 m s 1555 1096 m20 1570 1026 m 16 Y s 1570 1055
 m 17 Y s 1562 1049 m 1 X s 1576 1049 m 1 X s 1570 1049 m20 1585 1029 m 20 Y s 1585 1062 m 19 Y s 1577 1055 m 1 X s 1591 1055 m 1 X s 1585 1055 m20 1599 1059 m 19 Y s 1599 1091 m 19 Y s 1592 1084 m 1 X s 1606 1084 m 1 X s 1599 1084 m20 1614 1094 m 16
 Y s 1614 1123 m 16 Y s 1607 1117 m 1 X s 1621 1117 m 1 X s 1614 1117 m20 1629 1021 m 17 Y s 1629 1051 m 18 Y s 1622 1045 m 1 X s 1636 1045 m 1 X s 1629 1045 m20 1644 1065 m 18 Y s 1644 1096 m 18 Y s 1637 1089 m s 1650 1089 m 1 X s 1644 1089 m20 1659
 1118 m 21 Y s 1659 1152 m 21 Y s 1651 1145 m 1 X s 1665 1145 m 1 X s 1659 1145 m20 1674 1036 m 20 Y s 1674 1069 m 20 Y s 1666 1062 m 1 X s 1680 1062 m 1 X s 1674 1062 m20 1688 1010 m 25 Y s 1688 1048 m 25 Y s 1681 1041 m 1 X s 1695 1041 m 1 X s 1688
 1041 m20 1703 1014 m 22 Y s 1703 1049 m 23 Y s 1696 1043 m 1 X s 1710 1043 m 1 X s 1703 1043 m20 1718 1072 m 17 Y s 1718 1103 m 17 Y s 1711 1096 m 1 X s 1725 1096 m s 1718 1096 m20 1733 1033 m 19 Y s 1733 1065 m 19 Y s 1725 1059 m 1 X s 1739 1059 m
 1 X s 1733 1059 m20 1748 1021 m 17 Y s 1748 1051 m 18 Y s 1740 1045 m 1 X s 1754 1045 m 1 X s 1748 1045 m20 1762 1046 m 23 Y s 1762 1082 m 22 Y s 1755 1075 m 1 X s 1769 1075 m 1 X s 1762 1075 m20 1777 1056 m 18 Y s 1777 1087 m 18 Y s 1770 1081 m 1 X
 s 1784 1081 m 1 X s 1777 1081 m20 1792 1042 m 20 Y s 1792 1075 m 20 Y s 1785 1068 m 1 X s 1799 1068 m 1 X s 1792 1068 m20 1807 1047 m 23 Y s 1807 1083 m 23 Y s 1800 1077 m s 1813 1077 m 1 X s 1807 1077 m20 1822 1051 m 4 Y s 1822 1068 m 5 Y s 1814
 1062 m 1 X s 1828 1062 m 1 X s 1822 1062 m20 1837 1044 m 5 Y s 1837 1062 m 5 Y s 1829 1055 m 1 X s 1843 1055 m 1 X s 1837 1055 m20 1851 1021 m 6 Y s 1851 1040 m 6 Y s 1844 1034 m 1 X s 1858 1034 m 1 X s 1851 1034 m20 1866 1059 m 5 Y s 1866 1077 m 5
 Y s 1859 1070 m 1 X s 1873 1070 m 1 X s 1866 1070 m20 1881 1043 m 5 Y s 1881 1061 m 6 Y s 1874 1055 m 1 X s 1888 1055 m s 1881 1055 m20 1896 1026 m 6 Y s 1896 1045 m 5 Y s 1888 1038 m 1 X s 1902 1038 m 1 X s 1896 1038 m20 1911 1050 m 5 Y s 1911 1068
 m 4 Y s 1903 1061 m 1 X s 1917 1061 m 1 X s 1911 1061 m20 1926 1038 m 5 Y s 1926 1056 m 5 Y s 1918 1049 m 1 X s 1932 1049 m 1 X s 1926 1049 m20 1940 1034 m 5 Y s 1940 1052 m 6 Y s 1933 1046 m 1 X s 1947 1046 m 1 X s 1940 1046 m20 1955 1041 m 5 Y s
 1955 1059 m 5 Y s 1948 1052 m 1 X s 1962 1052 m 1 X s 1955 1052 m20 1970 1018 m 5 Y s 1970 1036 m 5 Y s 1963 1029 m s 1976 1029 m 1 X s 1970 1029 m20 1985 1023 m 6 Y s 1985 1042 m 5 Y s 1977 1035 m 1 X s 1991 1035 m 1 X s 1985 1035 m20 2000 1037 m 6
 Y s 2000 1056 m 7 Y s 1992 1050 m 1 X s 2006 1050 m 1 X s 2000 1050 m20 2014 1045 m 5 Y s 2014 1063 m 5 Y s 2007 1057 m 1 X s 2021 1057 m 1 X s 2014 1057 m20 2029 1032 m 4 Y s 2029 1049 m 5 Y s 2022 1043 m 1 X s 2036 1043 m 1 X s 2029 1043 m20 2044
 1008 m 6 Y s 2044 1027 m 6 Y s 2037 1020 m 1 X s 2051 1020 m s 2044 1020 m20 2059 1044 m 7 Y s 2059 1064 m 6 Y s 2051 1057 m 1 X s 2065 1057 m 1 X s 2059 1057 m20 2074 1023 m 6 Y s 2074 1042 m 5 Y s 2066 1035 m 1 X s 2080 1035 m 1 X s 2074 1035 m20
 2089 1031 m 5 Y s 2089 1049 m 5 Y s 2081 1043 m 1 X s 2095 1043 m 1 X s 2089 1043 m20 317 185 m 1883 X s
 gsave  2268 1538 0 0 C 1847.41 32.5821 t 0 r /Helvetica findfont 71.6807 sf 0 0 m (lumi block id) show NC gr  599 223 m -38 Y s 673 204 m -19 Y s 747 204 m -19 Y s 821 204 m -19 Y s 895 204 m -19 Y s 970 223 m -38 Y s 1044 204 m -19 Y s 1118 204 m -19
 Y s 1192 204 m -19 Y s 1266 204 m -19 Y s 1340 223 m -38 Y s 1414 204 m -19 Y s 1488 204 m -19 Y s 1562 204 m -19 Y s 1637 204 m -19 Y s 1711 223 m -38 Y s 1785 204 m -19 Y s 1859 204 m -19 Y s 1933 204 m -19 Y s 2007 204 m -19 Y s 2081 223 m -38 Y
 s 599 223 m -38 Y s 525 204 m -19 Y s 451 204 m -19 Y s 377 204 m -19 Y s 2081 223 m -38 Y s 2155 204 m -19 Y s
 gsave  2268 1538 0 0 C 537.605 117.296 t 0 r /Helvetica findfont 71.6807 sf 0 0 m (100) show NC gr 
 gsave  2268 1538 0 0 C 909.042 117.296 t 0 r /Helvetica findfont 71.6807 sf 0 0 m (150) show NC gr 
 gsave  2268 1538 0 0 C 1280.48 117.296 t 0 r /Helvetica findfont 71.6807 sf 0 0 m (200) show NC gr 
 gsave  2268 1538 0 0 C 1651.91 117.296 t 0 r /Helvetica findfont 71.6807 sf 0 0 m (250) show NC gr 
 gsave  2268 1538 0 0 C 2020.09 117.296 t 0 r /Helvetica findfont 71.6807 sf 0 0 m (300) show NC gr  317 1507 m 1883 X s 599 1469 m 38 Y s 673 1488 m 19 Y s 747 1488 m 19 Y s 821 1488 m 19 Y s 895 1488 m 19 Y s 970 1469 m 38 Y s 1044 1488 m 19 Y s
 1118 1488 m 19 Y s 1192 1488 m 19 Y s 1266 1488 m 19 Y s 1340 1469 m 38 Y s 1414 1488 m 19 Y s 1488 1488 m 19 Y s 1562 1488 m 19 Y s 1637 1488 m 19 Y s 1711 1469 m 38 Y s 1785 1488 m 19 Y s 1859 1488 m 19 Y s 1933 1488 m 19 Y s 2007 1488 m 19 Y s
 2081 1469 m 38 Y s 599 1469 m 38 Y s 525 1488 m 19 Y s 451 1488 m 19 Y s 377 1488 m 19 Y s 2081 1469 m 38 Y s 2155 1488 m 19 Y s 317 185 m 1322 Y s
 gsave  2268 1538 0 0 C 159.652 1075.21 t 90 r /Helvetica findfont 71.6807 sf 0 0 m ( Fine Time [ns]) show NC gr  376 368 m -59 X s 347 419 m -30 X s 347 470 m -30 X s 347 521 m -30 X s 347 572 m -30 X s 376 623 m -59 X s 347 674 m -30 X s 347 725 m
 -30 X s 347 776 m -30 X s 347 827 m -30 X s 376 878 m -59 X s 347 929 m -30 X s 347 980 m -30 X s 347 1031 m -30 X s 347 1082 m -30 X s 376 1133 m -59 X s 347 1184 m -30 X s 347 1235 m -30 X s 347 1286 m -30 X s 347 1337 m -30 X s 376 1388 m -59 X s
 376 368 m -59 X s 347 317 m -30 X s 347 266 m -30 X s 347 215 m -30 X s 376 1388 m -59 X s 347 1439 m -30 X s 347 1490 m -30 X s
 gsave  2268 1538 0 0 C 205.267 342.112 t 0 r /Helvetica findfont 71.6807 sf 0 0 m (2.5) show NC gr 
 gsave  2268 1538 0 0 C 263.915 599.511 t 0 r /Helvetica findfont 71.6807 sf 0 0 m (3) show NC gr 
 gsave  2268 1538 0 0 C 205.267 853.652 t 0 r /Helvetica findfont 71.6807 sf 0 0 m (3.5) show NC gr 
 gsave  2268 1538 0 0 C 263.915 1104.53 t 0 r /Helvetica findfont 71.6807 sf 0 0 m (4) show NC gr 
 gsave  2268 1538 0 0 C 205.267 1365.19 t 0 r /Helvetica findfont 71.6807 sf 0 0 m (4.5) show NC gr  2200 185 m 1322 Y s 2141 368 m 59 X s 2170 419 m 30 X s 2170 470 m 30 X s 2170 521 m 30 X s 2170 572 m 30 X s 2141 623 m 59 X s 2170 674 m 30 X s
 2170 725 m 30 X s 2170 776 m 30 X s 2170 827 m 30 X s 2141 878 m 59 X s 2170 929 m 30 X s 2170 980 m 30 X s 2170 1031 m 30 X s 2170 1082 m 30 X s 2141 1133 m 59 X s 2170 1184 m 30 X s 2170 1235 m 30 X s 2170 1286 m 30 X s 2170 1337 m 30 X s 2141
 1388 m 59 X s 2141 368 m 59 X s 2170 317 m 30 X s 2170 266 m 30 X s 2170 215 m 30 X s 2141 1388 m 59 X s 2170 1439 m 30 X s 2170 1490 m 30 X s
 gsave  2268 1538 0 0 C 1479.23 781.971 t 0 r /Helvetica-Bold findfont 45.615 sf 0 0 m (Finetime LAr EM barrel) show NC gr  1 1 1 c 1288 724 m 159 X 321 Y -159 X f black 1288 885 m 159 X s 1368 885 m20
 gr  gr showpage
end
%%EOF
