%!PS-Adobe-2.0 EPSF-2.0
%%BoundingBox:  0 0 567 384
%%Title: /data/tractor/home/users/jhofmann/store/plots4Juraj/em.eps: canvas
%%Creator: ROOT Version 5.34/04
%%CreationDate: Mon Apr 29 13:43:54 2013
%%EndComments
%%BeginProlog
80 dict begin
/s {stroke} def /l {lineto} def /m {moveto} def /t {translate} def
/r {rotate} def /rl {roll}  def /R {repeat} def
/d {rlineto} def /rm {rmoveto} def /gr {grestore} def /f {eofill} def
/c {setrgbcolor} def /black {0 setgray} def /sd {setdash} def
/cl {closepath} def /sf {scalefont setfont} def /lw {setlinewidth} def
/box {m dup 0 exch d exch 0 d 0 exch neg d cl} def
/NC{systemdict begin initclip end}def/C{NC box clip newpath}def
/bl {box s} def /bf {box f} def /Y { 0 exch d} def /X { 0 d} def 
/K {{pop pop 0 moveto} exch kshow} bind def
/ita {/ang 15 def gsave [1 0 ang dup sin exch cos div 1 0 0] concat} def 
/mp {newpath /y exch def /x exch def} def
/side {[w .77 mul w .23 mul] .385 w mul sd w 0 l currentpoint t -144 r} def
/mr {mp x y w2 0 360 arc} def /m24 {mr s} def /m20 {mr f} def
/mb {mp x y w2 add m w2 neg 0 d 0 w neg d w 0 d 0 w d cl} def
/mt {mp x y w2 add m w2 neg w neg d w 0 d cl} def
/m21 {mb f} def /m25 {mb s} def /m22 {mt f} def /m26{mt s} def
/m23 {mp x y w2 sub m w2 w d w neg 0 d cl f} def
/m27 {mp x y w2 add m w3 neg w2 neg d w3 w2 neg d w3 w2 d cl s} def
/m28 {mp x w2 sub y w2 sub w3 add m w3 0 d  0 w3 neg d w3 0 d 0 w3 d w3 0 d  0 w3 d w3 neg 0 d 0 w3 d w3 neg 0 d 0 w3 neg d w3 neg 0 d cl s } def
/m29 {mp gsave x w2 sub y w2 add w3 sub m currentpoint t 4 {side} repeat cl fill gr} def
/m30 {mp gsave x w2 sub y w2 add w3 sub m currentpoint t 4 {side} repeat cl s gr} def
/m31 {mp x y w2 sub m 0 w d x w2 sub y m w 0 d x w2 sub y w2 add m w w neg d x w2 sub y w2 sub m w w d s} def
/m32 {mp x y w2 sub m w2 w d w neg 0 d cl s} def
/m33 {mp x y w2 add m w3 neg w2 neg d w3 w2 neg d w3 w2 d cl f} def
/m34 {mp x w2 sub y w2 sub w3 add m w3 0 d  0 w3 neg d w3 0 d 0 w3 d w3 0 d  0 w3 d w3 neg 0 d 0 w3 d w3 neg 0 d 0 w3 neg d w3 neg 0 d cl f } def
/m2 {mp x y w2 sub m 0 w d x w2 sub y m w 0 d s} def
/m5 {mp x w2 sub y w2 sub m w w d x w2 sub y w2 add m w w neg d s} def
/reEncode {exch findfont dup length dict begin {1 index /FID eq  {pop pop} {def} ifelse } forall /Encoding exch def currentdict end dup /FontName get exch definefont pop } def [/Times-Bold /Times-Italic /Times-BoldItalic /Helvetica /Helvetica-Oblique
 /Helvetica-Bold /Helvetica-BoldOblique /Courier /Courier-Oblique /Courier-Bold /Courier-BoldOblique /Times-Roman /AvantGarde-Book /AvantGarde-BookOblique /AvantGarde-Demi /AvantGarde-DemiOblique /Bookman-Demi /Bookman-DemiItalic /Bookman-Light
 /Bookman-LightItalic /Helvetica-Narrow /Helvetica-Narrow-Bold /Helvetica-Narrow-BoldOblique /Helvetica-Narrow-Oblique /NewCenturySchlbk-Roman /NewCenturySchlbk-Bold /NewCenturySchlbk-BoldItalic /NewCenturySchlbk-Italic /Palatino-Bold
 /Palatino-BoldItalic /Palatino-Italic /Palatino-Roman ] {ISOLatin1Encoding reEncode } forall
%%EndProlog
%%BeginSetup
%%EndSetup
newpath  gsave  .25 .25 scale  gsave  0 0 t black[  ] 0 sd 3 lw 1 1 1 c 2268 1538 0 0 bf black 1 1 1 c 1814 1230 227 154 bf black 1814 1230 227 154 bl 1 1 1 c 1814 1230 227 154 bf black 1814 1230 227 154 bl 6 lw 1 1 1 c black 261 452 m 219 Y s 261
 697 m 219 Y s 3 lw /w 26 def /w2 {w 2 div} def /w3 {w 3 div} def 261 684 m2 6 lw 265 283 m 122 Y s 265 431 m 121 Y s 3 lw 265 418 m2 6 lw 269 303 m 100 Y s 269 429 m 101 Y s 3 lw 269 416 m2 6 lw 273 795 m 139 Y s 273 960 m 139 Y s 3 lw 273 947 m2 6
 lw 277 382 m 126 Y s 277 534 m 126 Y s 3 lw 277 521 m2 6 lw 281 733 m 117 Y s 281 876 m 118 Y s 3 lw 281 863 m2 6 lw 285 640 m 28 Y s 285 694 m 28 Y s 3 lw 285 681 m2 6 lw 289 542 m 19 Y s 289 587 m 19 Y s 3 lw 289 574 m2 6 lw 293 591 m 22 Y s 293
 639 m 22 Y s 3 lw 293 626 m2 6 lw 297 548 m 18 Y s 297 593 m 18 Y s 3 lw 297 580 m2 6 lw 301 537 m 20 Y s 301 583 m 20 Y s 3 lw 301 570 m2 6 lw 305 476 m 22 Y s 305 524 m 22 Y s 3 lw 305 511 m2 6 lw 309 530 m 20 Y s 309 576 m 21 Y s 3 lw 309 563 m2
 6 lw 313 521 m 24 Y s 313 571 m 23 Y s 3 lw 313 558 m2 6 lw 317 561 m 19 Y s 317 606 m 20 Y s 3 lw 317 593 m2 6 lw 321 598 m 21 Y s 321 645 m 20 Y s 3 lw 321 632 m2 6 lw 325 609 m 22 Y s 325 657 m 22 Y s 3 lw 325 644 m2 6 lw 329 622 m 20 Y s 329 668
 m 20 Y s 3 lw 329 655 m2 6 lw 333 635 m 23 Y s 333 684 m 23 Y s 3 lw 333 671 m2 6 lw 337 615 m 21 Y s 337 662 m 20 Y s 3 lw 337 649 m2 6 lw 341 576 m 22 Y s 341 624 m 21 Y s 3 lw 341 611 m2 6 lw 345 635 m 21 Y s 345 682 m 21 Y s 3 lw 345 669 m2 6 lw
 349 646 m 21 Y s 349 693 m 20 Y s 3 lw 349 680 m2 6 lw 353 572 m 21 Y s 353 620 m 21 Y s 3 lw 353 607 m2 6 lw 358 618 m 22 Y s 358 666 m 22 Y s 3 lw 358 653 m2 6 lw 362 608 m 35 Y s 362 669 m 35 Y s 3 lw 362 656 m2 6 lw 366 602 m 32 Y s 366 660 m 33
 Y s 3 lw 366 647 m2 6 lw 370 619 m 25 Y s 370 670 m 24 Y s 3 lw 370 657 m2 6 lw 374 566 m 20 Y s 374 612 m 21 Y s 3 lw 374 599 m2 6 lw 378 637 m 23 Y s 378 687 m 23 Y s 3 lw 378 674 m2 6 lw 382 598 m 24 Y s 382 648 m 25 Y s 3 lw 382 635 m2 6 lw 386
 549 m 21 Y s 386 596 m 21 Y s 3 lw 386 583 m2 6 lw 390 659 m 23 Y s 390 708 m 24 Y s 3 lw 390 695 m2 6 lw 394 547 m 20 Y s 394 593 m 20 Y s 3 lw 394 580 m2 6 lw 398 630 m 25 Y s 398 681 m 25 Y s 3 lw 398 668 m2 6 lw 402 601 m 24 Y s 402 651 m 23 Y s
 3 lw 402 638 m2 6 lw 406 647 m 30 Y s 406 703 m 29 Y s 3 lw 406 690 m2 6 lw 410 503 m 20 Y s 410 549 m 20 Y s 3 lw 410 536 m2 6 lw 414 587 m 21 Y s 414 634 m 21 Y s 3 lw 414 621 m2 6 lw 418 590 m 22 Y s 418 638 m 22 Y s 3 lw 418 625 m2 6 lw 422 637
 m 20 Y s 422 683 m 20 Y s 3 lw 422 670 m2 6 lw 426 548 m 21 Y s 426 596 m 21 Y s 3 lw 426 583 m2 6 lw 430 651 m 22 Y s 430 699 m 22 Y s 3 lw 430 686 m2 6 lw 434 670 m 21 Y s 434 717 m 22 Y s 3 lw 434 704 m2 6 lw 438 599 m 25 Y s 438 650 m 24 Y s 3
 lw 438 637 m2 6 lw 442 589 m 21 Y s 442 636 m 21 Y s 3 lw 442 623 m2 6 lw 446 656 m 25 Y s 446 707 m 25 Y s 3 lw 446 694 m2 6 lw 450 567 m 22 Y s 450 615 m 23 Y s 3 lw 450 602 m2 6 lw 454 638 m 21 Y s 454 685 m 21 Y s 3 lw 454 672 m2 6 lw 458 667 m
 22 Y s 458 715 m 21 Y s 3 lw 458 702 m2 6 lw 462 606 m 21 Y s 462 653 m 20 Y s 3 lw 462 640 m2 6 lw 466 575 m 26 Y s 466 627 m 26 Y s 3 lw 466 614 m2 6 lw 470 558 m 21 Y s 470 605 m 20 Y s 3 lw 470 592 m2 6 lw 474 607 m 23 Y s 474 656 m 22 Y s 3 lw
 474 643 m2 6 lw 478 586 m 22 Y s 478 634 m 22 Y s 3 lw 478 621 m2 6 lw 482 569 m 23 Y s 482 618 m 23 Y s 3 lw 482 605 m2 6 lw 486 592 m 23 Y s 486 641 m 24 Y s 3 lw 486 628 m2 6 lw 490 625 m 23 Y s 490 674 m 23 Y s 3 lw 490 661 m2 6 lw 494 560 m 22
 Y s 494 608 m 21 Y s 3 lw 494 595 m2 6 lw 498 603 m 42 Y s 498 671 m 43 Y s 3 lw 498 658 m2 6 lw 502 604 m 23 Y s 502 653 m 22 Y s 3 lw 502 640 m2 6 lw 506 573 m 20 Y s 506 619 m 20 Y s 3 lw 506 606 m2 6 lw 510 611 m 24 Y s 510 661 m 24 Y s 3 lw 510
 648 m2 6 lw 514 584 m 23 Y s 514 633 m 23 Y s 3 lw 514 620 m2 6 lw 518 606 m 25 Y s 518 657 m 25 Y s 3 lw 518 644 m2 6 lw 522 618 m 22 Y s 522 666 m 22 Y s 3 lw 522 653 m2 6 lw 526 632 m 26 Y s 526 684 m 27 Y s 3 lw 526 671 m2 6 lw 530 605 m 23 Y s
 530 654 m 22 Y s 3 lw 530 641 m2 6 lw 534 609 m 23 Y s 534 658 m 23 Y s 3 lw 534 645 m2 6 lw 539 527 m 25 Y s 539 578 m 25 Y s 3 lw 539 565 m2 6 lw 543 620 m 21 Y s 543 667 m 21 Y s 3 lw 543 654 m2 6 lw 547 636 m 23 Y s 547 685 m 23 Y s 3 lw 547 672
 m2 6 lw 551 571 m 24 Y s 551 622 m 24 Y s 3 lw 551 608 m2 6 lw 555 645 m 26 Y s 555 697 m 26 Y s 3 lw 555 684 m2 6 lw 559 644 m 25 Y s 559 695 m 25 Y s 3 lw 559 682 m2 6 lw 563 658 m 24 Y s 563 708 m 24 Y s 3 lw 563 695 m2 6 lw 567 624 m 23 Y s 567
 673 m 22 Y s 3 lw 567 660 m2 6 lw 571 567 m 27 Y s 571 620 m 26 Y s 3 lw 571 607 m2 6 lw 575 604 m 26 Y s 575 656 m 27 Y s 3 lw 575 643 m2 6 lw 579 608 m 24 Y s 579 658 m 24 Y s 3 lw 579 645 m2 6 lw 583 537 m 21 Y s 583 584 m 22 Y s 3 lw 583 571 m2
 6 lw 587 517 m 26 Y s 587 569 m 25 Y s 3 lw 587 556 m2 6 lw 591 605 m 26 Y s 591 657 m 25 Y s 3 lw 591 644 m2 6 lw 595 398 m 194 Y s 595 619 m 194 Y s 3 lw 595 605 m2 6 lw 611 272 m 264 Y s 611 562 m 265 Y s 3 lw 611 549 m2 6 lw 615 281 m 164 Y s
 615 471 m 165 Y s 3 lw 615 458 m2 6 lw 619 551 m 26 Y s 619 603 m 26 Y s 3 lw 619 590 m2 6 lw 623 617 m 40 Y s 623 683 m 40 Y s 3 lw 623 670 m2 6 lw 627 578 m 25 Y s 627 629 m 25 Y s 3 lw 627 616 m2 6 lw 631 559 m 25 Y s 631 610 m 25 Y s 3 lw 631
 597 m2 6 lw 635 603 m 27 Y s 635 656 m 26 Y s 3 lw 635 643 m2 6 lw 639 593 m 25 Y s 639 644 m 24 Y s 3 lw 639 631 m2 6 lw 643 580 m 24 Y s 643 630 m 24 Y s 3 lw 643 617 m2 6 lw 647 565 m 29 Y s 647 620 m 28 Y s 3 lw 647 607 m2 6 lw 651 540 m 26 Y s
 651 592 m 26 Y s 3 lw 651 579 m2 6 lw 655 464 m 45 Y s 655 535 m 45 Y s 3 lw 655 522 m2 6 lw 659 613 m 26 Y s 659 665 m 27 Y s 3 lw 659 652 m2 6 lw 663 548 m 24 Y s 663 598 m 24 Y s 3 lw 663 585 m2 6 lw 667 488 m 27 Y s 667 541 m 27 Y s 3 lw 667 528
 m2 6 lw 671 503 m 24 Y s 671 553 m 24 Y s 3 lw 671 540 m2 6 lw 675 547 m 25 Y s 675 598 m 25 Y s 3 lw 675 585 m2 6 lw 679 571 m 24 Y s 679 621 m 24 Y s 3 lw 679 608 m2 6 lw 683 460 m 68 Y s 683 554 m 69 Y s 3 lw 683 541 m2 6 lw 687 525 m 27 Y s 687
 578 m 27 Y s 3 lw 687 565 m2 6 lw 691 592 m 25 Y s 691 643 m 25 Y s 3 lw 691 630 m2 6 lw 695 651 m 24 Y s 695 701 m 24 Y s 3 lw 695 688 m2 6 lw 699 563 m 28 Y s 699 617 m 28 Y s 3 lw 699 604 m2 6 lw 703 642 m 28 Y s 703 696 m 28 Y s 3 lw 703 683 m2
 6 lw 707 481 m 25 Y s 707 532 m 25 Y s 3 lw 707 519 m2 6 lw 711 566 m 28 Y s 711 621 m 28 Y s 3 lw 711 607 m2 6 lw 716 570 m 25 Y s 716 621 m 26 Y s 3 lw 716 608 m2 6 lw 720 556 m 25 Y s 720 607 m 25 Y s 3 lw 720 594 m2 6 lw 724 581 m 27 Y s 724 634
 m 27 Y s 3 lw 724 621 m2 6 lw 728 561 m 28 Y s 728 615 m 28 Y s 3 lw 728 602 m2 6 lw 732 594 m 27 Y s 732 647 m 27 Y s 3 lw 732 634 m2 6 lw 736 590 m 25 Y s 736 641 m 26 Y s 3 lw 736 628 m2 6 lw 740 688 m 27 Y s 740 741 m 28 Y s 3 lw 740 728 m2 6 lw
 744 494 m 24 Y s 744 544 m 24 Y s 3 lw 744 531 m2 6 lw 748 565 m 26 Y s 748 617 m 26 Y s 3 lw 748 604 m2 6 lw 752 575 m 24 Y s 752 626 m 24 Y s 3 lw 752 612 m2 6 lw 756 546 m 26 Y s 756 598 m 26 Y s 3 lw 756 585 m2 6 lw 760 558 m 29 Y s 760 613 m 28
 Y s 3 lw 760 600 m2 6 lw 764 474 m 27 Y s 764 527 m 27 Y s 3 lw 764 514 m2 6 lw 768 548 m 26 Y s 768 600 m 26 Y s 3 lw 768 587 m2 6 lw 772 513 m 25 Y s 772 564 m 25 Y s 3 lw 772 551 m2 6 lw 776 557 m 24 Y s 776 607 m 24 Y s 3 lw 776 594 m2 6 lw 780
 664 m 42 Y s 780 732 m 41 Y s 3 lw 780 719 m2 6 lw 784 618 m 29 Y s 784 673 m 28 Y s 3 lw 784 660 m2 6 lw 788 532 m 26 Y s 788 585 m 26 Y s 3 lw 788 571 m2 6 lw 792 533 m 24 Y s 792 583 m 24 Y s 3 lw 792 570 m2 6 lw 796 565 m 27 Y s 796 618 m 26 Y s
 3 lw 796 605 m2 6 lw 800 541 m 29 Y s 800 596 m 30 Y s 3 lw 800 583 m2 6 lw 804 600 m 26 Y s 804 652 m 27 Y s 3 lw 804 639 m2 6 lw 808 546 m 28 Y s 808 601 m 28 Y s 3 lw 808 588 m2 6 lw 812 617 m 31 Y s 812 674 m 31 Y s 3 lw 812 661 m2 6 lw 816 595
 m 28 Y s 816 650 m 28 Y s 3 lw 816 636 m2 6 lw 820 537 m 29 Y s 820 592 m 30 Y s 3 lw 820 579 m2 6 lw 824 652 m 26 Y s 824 704 m 26 Y s 3 lw 824 691 m2 6 lw 828 642 m 27 Y s 828 695 m 27 Y s 3 lw 828 682 m2 6 lw 832 669 m 25 Y s 832 720 m 25 Y s 3
 lw 832 707 m2 6 lw 836 553 m 30 Y s 836 609 m 31 Y s 3 lw 836 596 m2 6 lw 840 531 m 27 Y s 840 584 m 26 Y s 3 lw 840 571 m2 6 lw 844 607 m 27 Y s 844 660 m 27 Y s 3 lw 844 647 m2 6 lw 848 574 m 25 Y s 848 625 m 25 Y s 3 lw 848 612 m2 6 lw 852 516 m
 24 Y s 852 566 m 25 Y s 3 lw 852 553 m2 6 lw 856 549 m 31 Y s 856 606 m 32 Y s 3 lw 856 593 m2 6 lw 860 547 m 33 Y s 860 606 m 33 Y s 3 lw 860 593 m2 6 lw 864 586 m 25 Y s 864 637 m 25 Y s 3 lw 864 624 m2 6 lw 868 592 m 27 Y s 868 645 m 27 Y s 3 lw
 868 632 m2 6 lw 872 480 m 28 Y s 872 534 m 29 Y s 3 lw 872 521 m2 6 lw 876 508 m 27 Y s 876 561 m 27 Y s 3 lw 876 548 m2 6 lw 880 630 m 26 Y s 880 683 m 26 Y s 3 lw 880 670 m2 6 lw 884 533 m 25 Y s 884 585 m 25 Y s 3 lw 884 572 m2 6 lw 888 537 m 38
 Y s 888 601 m 38 Y s 3 lw 888 588 m2 6 lw 893 535 m 30 Y s 893 591 m 30 Y s 3 lw 893 578 m2 6 lw 897 603 m 27 Y s 897 657 m 27 Y s 3 lw 897 644 m2 6 lw 901 603 m 26 Y s 901 655 m 26 Y s 3 lw 901 642 m2 6 lw 905 621 m 31 Y s 905 678 m 31 Y s 3 lw 905
 665 m2 6 lw 909 590 m 27 Y s 909 643 m 27 Y s 3 lw 909 630 m2 6 lw 913 685 m 27 Y s 913 738 m 27 Y s 3 lw 913 725 m2 6 lw 917 575 m 32 Y s 917 633 m 31 Y s 3 lw 917 620 m2 6 lw 921 544 m 26 Y s 921 596 m 26 Y s 3 lw 921 583 m2 6 lw 925 608 m 31 Y s
 925 665 m 30 Y s 3 lw 925 652 m2 6 lw 929 584 m 30 Y s 929 640 m 31 Y s 3 lw 929 627 m2 6 lw 933 659 m 24 Y s 933 709 m 25 Y s 3 lw 933 696 m2 6 lw 937 435 m 50 Y s 937 511 m 49 Y s 3 lw 937 498 m2 6 lw 941 598 m 40 Y s 941 664 m 41 Y s 3 lw 941 651
 m2 6 lw 945 703 m 30 Y s 945 759 m 31 Y s 3 lw 945 746 m2 6 lw 949 642 m 29 Y s 949 697 m 28 Y s 3 lw 949 684 m2 6 lw 953 518 m 27 Y s 953 571 m 26 Y s 3 lw 953 558 m2 6 lw 957 561 m 26 Y s 957 613 m 26 Y s 3 lw 957 600 m2 6 lw 961 553 m 28 Y s 961
 607 m 29 Y s 3 lw 961 594 m2 6 lw 965 643 m 30 Y s 965 699 m 30 Y s 3 lw 965 686 m2 6 lw 969 529 m 26 Y s 969 581 m 26 Y s 3 lw 969 568 m2 6 lw 973 564 m 27 Y s 973 617 m 27 Y s 3 lw 973 604 m2 6 lw 977 624 m 30 Y s 977 680 m 31 Y s 3 lw 977 667 m2
 6 lw 981 586 m 26 Y s 981 638 m 26 Y s 3 lw 981 625 m2 6 lw 985 523 m 27 Y s 985 576 m 27 Y s 3 lw 985 563 m2 6 lw 989 567 m 28 Y s 989 621 m 28 Y s 3 lw 989 608 m2 6 lw 993 612 m 30 Y s 993 668 m 30 Y s 3 lw 993 655 m2 6 lw 997 601 m 28 Y s 997 656
 m 28 Y s 3 lw 997 642 m2 6 lw 1001 683 m 28 Y s 1001 737 m 28 Y s 3 lw 1001 724 m2 6 lw 1005 527 m 26 Y s 1005 579 m 26 Y s 3 lw 1005 566 m2 6 lw 1009 545 m 25 Y s 1009 596 m 25 Y s 3 lw 1009 583 m2 6 lw 1013 606 m 29 Y s 1013 661 m 28 Y s 3 lw 1013
 648 m2 6 lw 1017 585 m 31 Y s 1017 642 m 31 Y s 3 lw 1017 629 m2 6 lw 1021 588 m 29 Y s 1021 643 m 28 Y s 3 lw 1021 630 m2 6 lw 1025 596 m 24 Y s 1025 646 m 25 Y s 3 lw 1025 633 m2 6 lw 1029 686 m 29 Y s 1029 741 m 30 Y s 3 lw 1029 728 m2 6 lw 1033
 558 m 25 Y s 1033 609 m 25 Y s 3 lw 1033 596 m2 6 lw 1037 575 m 30 Y s 1037 631 m 31 Y s 3 lw 1037 618 m2 6 lw 1041 507 m 26 Y s 1041 559 m 27 Y s 3 lw 1041 546 m2 6 lw 1045 631 m 31 Y s 1045 688 m 31 Y s 3 lw 1045 675 m2 6 lw 1049 591 m 28 Y s 1049
 645 m 28 Y s 3 lw 1049 632 m2 6 lw 1053 596 m 28 Y s 1053 650 m 29 Y s 3 lw 1053 637 m2 6 lw 1057 554 m 29 Y s 1057 609 m 29 Y s 3 lw 1057 596 m2 6 lw 1061 505 m 41 Y s 1061 572 m 42 Y s 3 lw 1061 559 m2 6 lw 1065 557 m 27 Y s 1065 610 m 26 Y s 3 lw
 1065 597 m2 6 lw 1069 619 m 32 Y s 1069 677 m 32 Y s 3 lw 1069 664 m2 6 lw 1074 668 m 29 Y s 1074 723 m 29 Y s 3 lw 1074 710 m2 6 lw 1078 651 m 30 Y s 1078 707 m 31 Y s 3 lw 1078 694 m2 6 lw 1082 626 m 30 Y s 1082 682 m 30 Y s 3 lw 1082 669 m2 6 lw
 1086 632 m 31 Y s 1086 690 m 31 Y s 3 lw 1086 676 m2 6 lw 1090 624 m 32 Y s 1090 682 m 31 Y s 3 lw 1090 669 m2 6 lw 1094 603 m 28 Y s 1094 657 m 28 Y s 3 lw 1094 644 m2 6 lw 1098 666 m 29 Y s 1098 721 m 29 Y s 3 lw 1098 708 m2 6 lw 1102 553 m 26 Y s
 1102 605 m 27 Y s 3 lw 1102 592 m2 6 lw 1106 541 m 28 Y s 1106 596 m 28 Y s 3 lw 1106 582 m2 6 lw 1110 591 m 29 Y s 1110 646 m 29 Y s 3 lw 1110 633 m2 6 lw 1114 620 m 31 Y s 1114 677 m 32 Y s 3 lw 1114 664 m2 6 lw 1118 628 m 32 Y s 1118 686 m 33 Y s
 3 lw 1118 673 m2 6 lw 1122 575 m 29 Y s 1122 630 m 29 Y s 3 lw 1122 617 m2 6 lw 1126 584 m 29 Y s 1126 639 m 29 Y s 3 lw 1126 626 m2 6 lw 1130 631 m 26 Y s 1130 683 m 26 Y s 3 lw 1130 670 m2 6 lw 1134 538 m 34 Y s 1134 598 m 34 Y s 3 lw 1134 585 m2
 6 lw 1138 547 m 28 Y s 1138 601 m 29 Y s 3 lw 1138 588 m2 6 lw 1142 643 m 30 Y s 1142 699 m 31 Y s 3 lw 1142 686 m2 6 lw 1146 774 m 34 Y s 1146 834 m 34 Y s 3 lw 1146 821 m2 6 lw 1150 614 m 28 Y s 1150 668 m 29 Y s 3 lw 1150 655 m2 6 lw 1154 543 m
 35 Y s 1154 604 m 35 Y s 3 lw 1154 591 m2 6 lw 1158 635 m 32 Y s 1158 693 m 33 Y s 3 lw 1158 680 m2 6 lw 1162 650 m 51 Y s 1162 727 m 52 Y s 3 lw 1162 714 m2 6 lw 1166 581 m 27 Y s 1166 634 m 27 Y s 3 lw 1166 621 m2 6 lw 1170 560 m 30 Y s 1170 616 m
 30 Y s 3 lw 1170 603 m2 6 lw 1174 689 m 34 Y s 1174 749 m 34 Y s 3 lw 1174 736 m2 6 lw 1178 604 m 33 Y s 1178 663 m 33 Y s 3 lw 1178 650 m2 6 lw 1182 578 m 30 Y s 1182 634 m 30 Y s 3 lw 1182 621 m2 6 lw 1186 619 m 30 Y s 1186 675 m 29 Y s 3 lw 1186
 662 m2 6 lw 1190 599 m 31 Y s 1190 656 m 30 Y s 3 lw 1190 643 m2 6 lw 1194 528 m 28 Y s 1194 582 m 27 Y s 3 lw 1194 569 m2 6 lw 1198 564 m 28 Y s 1198 618 m 29 Y s 3 lw 1198 605 m2 6 lw 1202 624 m 28 Y s 1202 678 m 28 Y s 3 lw 1202 665 m2 6 lw 1206
 706 m 29 Y s 1206 761 m 29 Y s 3 lw 1206 748 m2 6 lw 1210 514 m 33 Y s 1210 573 m 33 Y s 3 lw 1210 560 m2 6 lw 1214 600 m 32 Y s 1214 658 m 32 Y s 3 lw 1214 645 m2 6 lw 1218 604 m 29 Y s 1218 659 m 29 Y s 3 lw 1218 646 m2 6 lw 1222 647 m 29 Y s 1222
 702 m 29 Y s 3 lw 1222 689 m2 6 lw 1226 684 m 30 Y s 1226 740 m 29 Y s 3 lw 1226 727 m2 6 lw 1230 631 m 38 Y s 1230 695 m 38 Y s 3 lw 1230 682 m2 6 lw 1234 531 m 31 Y s 1234 588 m 31 Y s 3 lw 1234 575 m2 6 lw 1238 633 m 33 Y s 1238 692 m 33 Y s 3 lw
 1238 679 m2 6 lw 1242 601 m 31 Y s 1242 659 m 31 Y s 3 lw 1242 645 m2 6 lw 1246 685 m 31 Y s 1246 742 m 31 Y s 3 lw 1246 729 m2 6 lw 1251 464 m 28 Y s 1251 519 m 28 Y s 3 lw 1251 505 m2 6 lw 1255 611 m 31 Y s 1255 668 m 32 Y s 3 lw 1255 655 m2 6 lw
 1259 681 m 34 Y s 1259 741 m 34 Y s 3 lw 1259 728 m2 6 lw 1263 682 m 34 Y s 1263 742 m 35 Y s 3 lw 1263 729 m2 6 lw 1267 583 m 32 Y s 1267 641 m 33 Y s 3 lw 1267 628 m2 6 lw 1271 626 m 32 Y s 1271 684 m 31 Y s 3 lw 1271 671 m2 6 lw 1275 574 m 29 Y s
 1275 629 m 29 Y s 3 lw 1275 616 m2 6 lw 1279 634 m 30 Y s 1279 690 m 31 Y s 3 lw 1279 677 m2 6 lw 1283 699 m 32 Y s 1283 758 m 32 Y s 3 lw 1283 744 m2 6 lw 1287 644 m 38 Y s 1287 708 m 39 Y s 3 lw 1287 695 m2 6 lw 1291 571 m 31 Y s 1291 628 m 31 Y s
 3 lw 1291 615 m2 6 lw 1295 528 m 34 Y s 1295 588 m 34 Y s 3 lw 1295 575 m2 6 lw 1299 573 m 30 Y s 1299 629 m 30 Y s 3 lw 1299 616 m2 6 lw 1303 558 m 24 Y s 1303 608 m 25 Y s 3 lw 1303 595 m2 6 lw 1307 576 m 30 Y s 1307 632 m 29 Y s 3 lw 1307 619 m2
 6 lw 1311 635 m 31 Y s 1311 692 m 31 Y s 3 lw 1311 679 m2 6 lw 1315 573 m 32 Y s 1315 631 m 32 Y s 3 lw 1315 618 m2 6 lw 1319 569 m 29 Y s 1319 624 m 29 Y s 3 lw 1319 611 m2 6 lw 1323 669 m 33 Y s 1323 728 m 33 Y s 3 lw 1323 715 m2 6 lw 1327 650 m
 30 Y s 1327 706 m 30 Y s 3 lw 1327 693 m2 6 lw 1331 575 m 32 Y s 1331 633 m 31 Y s 3 lw 1331 620 m2 6 lw 1335 681 m 37 Y s 1335 744 m 38 Y s 3 lw 1335 731 m2 6 lw 1339 565 m 32 Y s 1339 623 m 32 Y s 3 lw 1339 610 m2 6 lw 1343 720 m 35 Y s 1343 781 m
 34 Y s 3 lw 1343 768 m2 6 lw 1347 642 m 28 Y s 1347 696 m 28 Y s 3 lw 1347 683 m2 6 lw 1351 724 m 33 Y s 1351 783 m 32 Y s 3 lw 1351 770 m2 6 lw 1355 609 m 32 Y s 1355 668 m 32 Y s 3 lw 1355 655 m2 6 lw 1359 582 m 33 Y s 1359 641 m 34 Y s 3 lw 1359
 628 m2 6 lw 1363 535 m 32 Y s 1363 593 m 33 Y s 3 lw 1363 580 m2 6 lw 1367 625 m 34 Y s 1367 685 m 34 Y s 3 lw 1367 672 m2 6 lw 1371 522 m 33 Y s 1371 582 m 33 Y s 3 lw 1371 568 m2 6 lw 1375 558 m 33 Y s 1375 617 m 33 Y s 3 lw 1375 604 m2 6 lw 1379
 592 m 29 Y s 1379 648 m 29 Y s 3 lw 1379 634 m2 6 lw 1383 658 m 34 Y s 1383 718 m 34 Y s 3 lw 1383 705 m2 6 lw 1387 516 m 31 Y s 1387 573 m 32 Y s 3 lw 1387 560 m2 6 lw 1391 563 m 34 Y s 1391 624 m 34 Y s 3 lw 1391 610 m2 6 lw 1395 613 m 30 Y s 1395
 669 m 30 Y s 3 lw 1395 656 m2 6 lw 1399 463 m 31 Y s 1399 520 m 31 Y s 3 lw 1399 507 m2 6 lw 1403 636 m 35 Y s 1403 697 m 36 Y s 3 lw 1403 684 m2 6 lw 1407 501 m 37 Y s 1407 564 m 37 Y s 3 lw 1407 551 m2 6 lw 1411 667 m 54 Y s 1411 747 m 54 Y s 3 lw
 1411 734 m2 6 lw 1415 564 m 27 Y s 1415 617 m 27 Y s 3 lw 1415 604 m2 6 lw 1419 493 m 34 Y s 1419 553 m 34 Y s 3 lw 1419 540 m2 6 lw 1423 642 m 35 Y s 1423 703 m 35 Y s 3 lw 1423 690 m2 6 lw 1428 499 m 30 Y s 1428 555 m 29 Y s 3 lw 1428 542 m2 6 lw
 1432 643 m 33 Y s 1432 702 m 33 Y s 3 lw 1432 689 m2 6 lw 1436 616 m 36 Y s 1436 678 m 35 Y s 3 lw 1436 665 m2 6 lw 1440 468 m 33 Y s 1440 527 m 33 Y s 3 lw 1440 514 m2 6 lw 1444 656 m 35 Y s 1444 717 m 34 Y s 3 lw 1444 704 m2 6 lw 1448 546 m 37 Y s
 1448 609 m 36 Y s 3 lw 1448 596 m2 6 lw 1452 503 m 27 Y s 1452 556 m 27 Y s 3 lw 1452 543 m2 6 lw 1456 525 m 35 Y s 1456 586 m 35 Y s 3 lw 1456 573 m2 6 lw 1460 514 m 35 Y s 1460 576 m 35 Y s 3 lw 1460 563 m2 6 lw 1464 606 m 33 Y s 1464 665 m 32 Y s
 3 lw 1464 652 m2 6 lw 1468 631 m 32 Y s 1468 689 m 33 Y s 3 lw 1468 676 m2 6 lw 1472 510 m 29 Y s 1472 565 m 29 Y s 3 lw 1472 552 m2 6 lw 1476 612 m 35 Y s 1476 673 m 35 Y s 3 lw 1476 660 m2 6 lw 1480 600 m 38 Y s 1480 664 m 39 Y s 3 lw 1480 651 m2
 6 lw 1484 628 m 31 Y s 1484 685 m 31 Y s 3 lw 1484 672 m2 6 lw 1488 555 m 32 Y s 1488 613 m 32 Y s 3 lw 1488 600 m2 6 lw 1492 534 m 29 Y s 1492 589 m 29 Y s 3 lw 1492 576 m2 6 lw 1496 611 m 35 Y s 1496 672 m 35 Y s 3 lw 1496 659 m2 6 lw 1500 592 m
 34 Y s 1500 652 m 34 Y s 3 lw 1500 639 m2 6 lw 1504 639 m 37 Y s 1504 702 m 37 Y s 3 lw 1504 689 m2 6 lw 1508 587 m 34 Y s 1508 647 m 34 Y s 3 lw 1508 634 m2 6 lw 1512 652 m 34 Y s 1512 712 m 34 Y s 3 lw 1512 699 m2 6 lw 1516 512 m 32 Y s 1516 570 m
 32 Y s 3 lw 1516 557 m2 6 lw 1520 663 m 39 Y s 1520 729 m 39 Y s 3 lw 1520 715 m2 6 lw 1524 616 m 34 Y s 1524 676 m 34 Y s 3 lw 1524 663 m2 6 lw 1528 548 m 33 Y s 1528 607 m 32 Y s 3 lw 1528 594 m2 6 lw 1532 455 m 42 Y s 1532 523 m 41 Y s 3 lw 1532
 510 m2 6 lw 1536 633 m 50 Y s 1536 709 m 49 Y s 3 lw 1536 696 m2 6 lw 1540 588 m 30 Y s 1540 644 m 29 Y s 3 lw 1540 631 m2 6 lw 1544 648 m 34 Y s 1544 708 m 35 Y s 3 lw 1544 695 m2 6 lw 1548 682 m 29 Y s 1548 737 m 28 Y s 3 lw 1548 724 m2 6 lw 1552
 577 m 34 Y s 1552 637 m 33 Y s 3 lw 1552 624 m2 6 lw 1556 562 m 30 Y s 1556 618 m 29 Y s 3 lw 1556 605 m2 6 lw 1560 621 m 35 Y s 1560 682 m 34 Y s 3 lw 1560 669 m2 6 lw 1564 634 m 38 Y s 1564 698 m 38 Y s 3 lw 1564 685 m2 6 lw 1568 640 m 34 Y s 1568
 700 m 35 Y s 3 lw 1568 687 m2 6 lw 1572 574 m 38 Y s 1572 638 m 37 Y s 3 lw 1572 625 m2 6 lw 1576 571 m 33 Y s 1576 630 m 33 Y s 3 lw 1576 617 m2 6 lw 1580 556 m 37 Y s 1580 619 m 36 Y s 3 lw 1580 606 m2 6 lw 1584 437 m 36 Y s 1584 499 m 37 Y s 3 lw
 1584 486 m2 6 lw 1588 738 m 36 Y s 1588 801 m 36 Y s 3 lw 1588 787 m2 6 lw 1592 614 m 35 Y s 1592 675 m 35 Y s 3 lw 1592 662 m2 6 lw 1596 666 m 34 Y s 1596 726 m 33 Y s 3 lw 1596 713 m2 6 lw 1600 626 m 32 Y s 1600 684 m 32 Y s 3 lw 1600 671 m2 6 lw
 1604 733 m 37 Y s 1604 796 m 38 Y s 3 lw 1604 783 m2 6 lw 1609 589 m 32 Y s 1609 647 m 32 Y s 3 lw 1609 634 m2 6 lw 1613 616 m 36 Y s 1613 678 m 35 Y s 3 lw 1613 665 m2 6 lw 1617 542 m 52 Y s 1617 620 m 52 Y s 3 lw 1617 607 m2 6 lw 1621 504 m 37 Y s
 1621 567 m 37 Y s 3 lw 1621 554 m2 6 lw 1625 564 m 36 Y s 1625 627 m 36 Y s 3 lw 1625 613 m2 6 lw 1629 588 m 38 Y s 1629 652 m 38 Y s 3 lw 1629 639 m2 6 lw 1633 632 m 32 Y s 1633 690 m 32 Y s 3 lw 1633 677 m2 6 lw 1637 698 m 36 Y s 1637 760 m 36 Y s
 3 lw 1637 747 m2 6 lw 1641 619 m 33 Y s 1641 678 m 33 Y s 3 lw 1641 665 m2 6 lw 1645 634 m 36 Y s 1645 696 m 35 Y s 3 lw 1645 683 m2 6 lw 1649 634 m 41 Y s 1649 701 m 41 Y s 3 lw 1649 688 m2 6 lw 1653 559 m 33 Y s 1653 618 m 33 Y s 3 lw 1653 605 m2
 6 lw 1657 644 m 37 Y s 1657 707 m 36 Y s 3 lw 1657 694 m2 6 lw 1661 529 m 32 Y s 1661 587 m 33 Y s 3 lw 1661 574 m2 6 lw 1665 608 m 33 Y s 1665 667 m 34 Y s 3 lw 1665 654 m2 6 lw 1669 582 m 33 Y s 1669 642 m 33 Y s 3 lw 1669 628 m2 6 lw 1673 794 m
 37 Y s 1673 857 m 36 Y s 3 lw 1673 844 m2 6 lw 1677 530 m 39 Y s 1677 595 m 38 Y s 3 lw 1677 582 m2 6 lw 1681 609 m 32 Y s 1681 667 m 33 Y s 3 lw 1681 654 m2 6 lw 1685 631 m 35 Y s 1685 692 m 35 Y s 3 lw 1685 679 m2 6 lw 1689 585 m 33 Y s 1689 644 m
 33 Y s 3 lw 1689 631 m2 6 lw 1693 637 m 34 Y s 1693 697 m 33 Y s 3 lw 1693 684 m2 6 lw 1697 467 m 32 Y s 1697 525 m 32 Y s 3 lw 1697 512 m2 6 lw 1701 660 m 37 Y s 1701 723 m 38 Y s 3 lw 1701 710 m2 6 lw 1705 647 m 35 Y s 1705 708 m 36 Y s 3 lw 1705
 695 m2 6 lw 1709 666 m 34 Y s 1709 726 m 33 Y s 3 lw 1709 713 m2 6 lw 1713 536 m 30 Y s 1713 592 m 30 Y s 3 lw 1713 579 m2 6 lw 1717 633 m 33 Y s 1717 692 m 34 Y s 3 lw 1717 679 m2 6 lw 1721 539 m 31 Y s 1721 596 m 30 Y s 3 lw 1721 583 m2 6 lw 1725
 635 m 40 Y s 1725 701 m 39 Y s 3 lw 1725 688 m2 6 lw 1729 755 m 43 Y s 1729 824 m 43 Y s 3 lw 1729 811 m2 6 lw 1733 565 m 31 Y s 1733 622 m 32 Y s 3 lw 1733 609 m2 6 lw 1737 708 m 40 Y s 1737 774 m 40 Y s 3 lw 1737 761 m2 6 lw 1741 608 m 37 Y s 1741
 672 m 37 Y s 3 lw 1741 658 m2 6 lw 1745 537 m 32 Y s 1745 595 m 31 Y s 3 lw 1745 582 m2 6 lw 1749 748 m 41 Y s 1749 815 m 41 Y s 3 lw 1749 802 m2 6 lw 1753 598 m 39 Y s 1753 663 m 38 Y s 3 lw 1753 650 m2 6 lw 1757 617 m 35 Y s 1757 678 m 35 Y s 3 lw
 1757 665 m2 6 lw 1761 645 m 38 Y s 1761 709 m 37 Y s 3 lw 1761 696 m2 6 lw 1765 644 m 32 Y s 1765 702 m 33 Y s 3 lw 1765 689 m2 6 lw 1769 706 m 35 Y s 1769 767 m 36 Y s 3 lw 1769 754 m2 6 lw 1773 541 m 38 Y s 1773 605 m 38 Y s 3 lw 1773 592 m2 6 lw
 1777 637 m 41 Y s 1777 704 m 40 Y s 3 lw 1777 691 m2 6 lw 1781 612 m 40 Y s 1781 678 m 39 Y s 3 lw 1781 665 m2 6 lw 1786 588 m 37 Y s 1786 651 m 37 Y s 3 lw 1786 638 m2 6 lw 1790 555 m 34 Y s 1790 615 m 34 Y s 3 lw 1790 602 m2 6 lw 1794 762 m 43 Y s
 1794 831 m 42 Y s 3 lw 1794 818 m2 6 lw 1798 550 m 37 Y s 1798 613 m 36 Y s 3 lw 1798 600 m2 6 lw 1802 630 m 34 Y s 1802 691 m 34 Y s 3 lw 1802 677 m2 6 lw 1806 573 m 40 Y s 1806 639 m 41 Y s 3 lw 1806 626 m2 6 lw 1810 651 m 35 Y s 1810 713 m 35 Y s
 3 lw 1810 699 m2 6 lw 1814 461 m 37 Y s 1814 524 m 37 Y s 3 lw 1814 511 m2 6 lw 1818 669 m 39 Y s 1818 734 m 39 Y s 3 lw 1818 721 m2 6 lw 1822 601 m 36 Y s 1822 663 m 37 Y s 3 lw 1822 650 m2 6 lw 1826 599 m 34 Y s 1826 660 m 34 Y s 3 lw 1826 646 m2
 6 lw 1830 532 m 37 Y s 1830 595 m 37 Y s 3 lw 1830 582 m2 6 lw 1834 544 m 40 Y s 1834 610 m 41 Y s 3 lw 1834 597 m2 6 lw 1838 432 m 38 Y s 1838 496 m 37 Y s 3 lw 1838 483 m2 6 lw 1842 462 m 34 Y s 1842 522 m 35 Y s 3 lw 1842 509 m2 6 lw 1846 563 m
 37 Y s 1846 626 m 37 Y s 3 lw 1846 613 m2 6 lw 1850 697 m 33 Y s 1850 756 m 33 Y s 3 lw 1850 743 m2 6 lw 1854 661 m 35 Y s 1854 722 m 35 Y s 3 lw 1854 709 m2 6 lw 1858 667 m 36 Y s 1858 729 m 37 Y s 3 lw 1858 716 m2 6 lw 1862 710 m 37 Y s 1862 773 m
 37 Y s 3 lw 1862 760 m2 6 lw 1866 620 m 33 Y s 1866 680 m 33 Y s 3 lw 1866 666 m2 6 lw 1870 605 m 34 Y s 1870 665 m 34 Y s 3 lw 1870 652 m2 6 lw 1874 749 m 36 Y s 1874 811 m 36 Y s 3 lw 1874 798 m2 6 lw 1878 668 m 37 Y s 1878 731 m 38 Y s 3 lw 1878
 718 m2 6 lw 1882 674 m 36 Y s 1882 736 m 36 Y s 3 lw 1882 723 m2 6 lw 1886 459 m 36 Y s 1886 521 m 36 Y s 3 lw 1886 508 m2 6 lw 1890 559 m 37 Y s 1890 622 m 37 Y s 3 lw 1890 609 m2 6 lw 1894 592 m 45 Y s 1894 663 m 44 Y s 3 lw 1894 650 m2 6 lw 1898
 598 m 40 Y s 1898 664 m 41 Y s 3 lw 1898 651 m2 6 lw 1902 634 m 37 Y s 1902 697 m 36 Y s 3 lw 1902 684 m2 6 lw 1906 608 m 32 Y s 1906 666 m 31 Y s 3 lw 1906 653 m2 6 lw 1910 561 m 32 Y s 1910 620 m 32 Y s 3 lw 1910 607 m2 6 lw 1914 629 m 53 Y s 1914
 708 m 53 Y s 3 lw 1914 695 m2 6 lw 1918 596 m 36 Y s 1918 658 m 36 Y s 3 lw 1918 645 m2 6 lw 1922 716 m 41 Y s 1922 783 m 41 Y s 3 lw 1922 770 m2 6 lw 1926 649 m 35 Y s 1926 710 m 36 Y s 3 lw 1926 697 m2 6 lw 1930 634 m 33 Y s 1930 693 m 32 Y s 3 lw
 1930 680 m2 6 lw 1934 681 m 37 Y s 1934 744 m 37 Y s 3 lw 1934 731 m2 6 lw 1938 611 m 37 Y s 1938 675 m 37 Y s 3 lw 1938 661 m2 6 lw 1942 638 m 37 Y s 1942 701 m 36 Y s 3 lw 1942 688 m2 6 lw 1946 601 m 38 Y s 1946 665 m 38 Y s 3 lw 1946 652 m2 6 lw
 1950 653 m 35 Y s 1950 714 m 35 Y s 3 lw 1950 701 m2 6 lw 1954 536 m 30 Y s 1954 592 m 30 Y s 3 lw 1954 579 m2 6 lw 1958 606 m 34 Y s 1958 666 m 35 Y s 3 lw 1958 653 m2 6 lw 1963 591 m 38 Y s 1963 655 m 38 Y s 3 lw 1963 642 m2 6 lw 1967 613 m 35 Y s
 1967 674 m 35 Y s 3 lw 1967 661 m2 6 lw 1971 617 m 39 Y s 1971 682 m 39 Y s 3 lw 1971 669 m2 6 lw 1975 612 m 41 Y s 1975 679 m 40 Y s 3 lw 1975 666 m2 6 lw 1979 597 m 33 Y s 1979 656 m 34 Y s 3 lw 1979 643 m2 6 lw 1983 542 m 33 Y s 1983 601 m 33 Y s
 3 lw 1983 588 m2 6 lw 1987 754 m 42 Y s 1987 822 m 42 Y s 3 lw 1987 809 m2 6 lw 1991 932 m 47 Y s 1991 1005 m 46 Y s 3 lw 1991 992 m2 6 lw 1995 476 m 72 Y s 1995 574 m 72 Y s 3 lw 1995 561 m2 6 lw 3 lw 227 154 m 1814 X s
 gsave  2268 1538 0 0 C 1922.35 55.3896 t 0 r /Helvetica findfont 48.8732 sf 0 0 m ( [min]) show NC gr 
 gsave  2268 1538 0 0 C 1811.57 55.3896 t 0 r /Helvetica-Oblique findfont 48.8732 sf 0 0 m (Time) show NC gr  279 191 m -37 Y s 319 172 m -18 Y s 360 172 m -18 Y s 400 172 m -18 Y s 440 172 m -18 Y s 480 191 m -37 Y s 520 172 m -18 Y s 561 172 m -18
 Y s 601 172 m -18 Y s 641 172 m -18 Y s 681 191 m -37 Y s 722 172 m -18 Y s 762 172 m -18 Y s 802 172 m -18 Y s 842 172 m -18 Y s 882 191 m -37 Y s 923 172 m -18 Y s 963 172 m -18 Y s 1003 172 m -18 Y s 1043 172 m -18 Y s 1084 191 m -37 Y s 1124 172
 m -18 Y s 1164 172 m -18 Y s 1204 172 m -18 Y s 1244 172 m -18 Y s 1285 191 m -37 Y s 1325 172 m -18 Y s 1365 172 m -18 Y s 1405 172 m -18 Y s 1446 172 m -18 Y s 1486 191 m -37 Y s 1526 172 m -18 Y s 1566 172 m -18 Y s 1607 172 m -18 Y s 1647 172 m
 -18 Y s 1687 191 m -37 Y s 1727 172 m -18 Y s 1767 172 m -18 Y s 1808 172 m -18 Y s 1848 172 m -18 Y s 1888 191 m -37 Y s 279 191 m -37 Y s 239 172 m -18 Y s 1888 191 m -37 Y s 1928 172 m -18 Y s 1969 172 m -18 Y s 2009 172 m -18 Y s
 gsave  2268 1538 0 0 C 234.591 104.263 t 0 r /Helvetica findfont 48.8732 sf 0 0 m (200) show NC gr 
 gsave  2268 1538 0 0 C 436.601 104.263 t 0 r /Helvetica findfont 48.8732 sf 0 0 m (300) show NC gr 
 gsave  2268 1538 0 0 C 638.61 104.263 t 0 r /Helvetica findfont 48.8732 sf 0 0 m (400) show NC gr 
 gsave  2268 1538 0 0 C 837.361 104.263 t 0 r /Helvetica findfont 48.8732 sf 0 0 m (500) show NC gr 
 gsave  2268 1538 0 0 C 1039.37 104.263 t 0 r /Helvetica findfont 48.8732 sf 0 0 m (600) show NC gr 
 gsave  2268 1538 0 0 C 1241.38 104.263 t 0 r /Helvetica findfont 48.8732 sf 0 0 m (700) show NC gr 
 gsave  2268 1538 0 0 C 1443.39 104.263 t 0 r /Helvetica findfont 48.8732 sf 0 0 m (800) show NC gr 
 gsave  2268 1538 0 0 C 1642.14 104.263 t 0 r /Helvetica findfont 48.8732 sf 0 0 m (900) show NC gr 
 gsave  2268 1538 0 0 C 1831.12 104.263 t 0 r /Helvetica findfont 48.8732 sf 0 0 m (1000) show NC gr  227 154 m 1230 Y s
 gsave  2268 1538 0 0 C 110.779 1293.51 t 90 r /Helvetica findfont 48.8732 sf 0 0 m ( [ns]) show NC gr 
 gsave  2268 1538 0 0 C 110.779 1075.21 t 90 r /Helvetica-Oblique findfont 48.8732 sf 0 0 m (Fine Time) show NC gr  281 154 m -54 X s 254 178 m -27 X s 254 203 m -27 X s 254 228 m -27 X s 254 252 m -27 X s 281 277 m -54 X s 254 301 m -27 X s 254 326
 m -27 X s 254 351 m -27 X s 254 375 m -27 X s 281 400 m -54 X s 254 424 m -27 X s 254 449 m -27 X s 254 474 m -27 X s 254 498 m -27 X s 281 523 m -54 X s 254 547 m -27 X s 254 572 m -27 X s 254 597 m -27 X s 254 621 m -27 X s 281 646 m -54 X s 254
 671 m -27 X s 254 695 m -27 X s 254 720 m -27 X s 254 744 m -27 X s 281 769 m -54 X s 254 794 m -27 X s 254 818 m -27 X s 254 843 m -27 X s 254 867 m -27 X s 281 892 m -54 X s 254 917 m -27 X s 254 941 m -27 X s 254 966 m -27 X s 254 990 m -27 X s
 281 1015 m -54 X s 254 1040 m -27 X s 254 1064 m -27 X s 254 1089 m -27 X s 254 1113 m -27 X s 281 1138 m -54 X s 254 1163 m -27 X s 254 1187 m -27 X s 254 1212 m -27 X s 254 1236 m -27 X s 281 1261 m -54 X s 254 1286 m -27 X s 254 1310 m -27 X s
 254 1335 m -27 X s 254 1359 m -27 X s 281 1384 m -54 X s 281 1384 m -54 X s
 gsave  2268 1538 0 0 C 188.976 136.845 t 0 r /Helvetica findfont 48.8732 sf 0 0 m (3) show NC gr 
 gsave  2268 1538 0 0 C 156.394 257.399 t 0 r /Helvetica findfont 48.8732 sf 0 0 m (3.1) show NC gr 
 gsave  2268 1538 0 0 C 146.62 381.211 t 0 r /Helvetica findfont 48.8732 sf 0 0 m (3.2) show NC gr 
 gsave  2268 1538 0 0 C 146.62 505.023 t 0 r /Helvetica findfont 48.8732 sf 0 0 m (3.3) show NC gr 
 gsave  2268 1538 0 0 C 146.62 628.835 t 0 r /Helvetica findfont 48.8732 sf 0 0 m (3.4) show NC gr 
 gsave  2268 1538 0 0 C 146.62 749.389 t 0 r /Helvetica findfont 48.8732 sf 0 0 m (3.5) show NC gr 
 gsave  2268 1538 0 0 C 146.62 873.201 t 0 r /Helvetica findfont 48.8732 sf 0 0 m (3.6) show NC gr 
 gsave  2268 1538 0 0 C 146.62 997.013 t 0 r /Helvetica findfont 48.8732 sf 0 0 m (3.7) show NC gr 
 gsave  2268 1538 0 0 C 146.62 1120.83 t 0 r /Helvetica findfont 48.8732 sf 0 0 m (3.8) show NC gr 
 gsave  2268 1538 0 0 C 146.62 1244.64 t 0 r /Helvetica findfont 48.8732 sf 0 0 m (3.9) show NC gr 
 gsave  2268 1538 0 0 C 188.976 1365.19 t 0 r /Helvetica findfont 48.8732 sf 0 0 m (4) show NC gr  0.35 0.33 0.85 c black 0.35 0.33 0.85 c /w 8 def /w2 {w 2 div} def /w3 {w 3 div} def 227 627 229 619 231 622 233 624 235 623 237 622 239 623 241 631
 243 624 245 627 247 625 249 624 251 620 253 612 255 623 257 630 259 631 261 629 263 624 265 626 267 632 269 635 271 633 273 632 275 631 277 630 279 622 281 627 283 626 285 629 287 629 289 628 291 627 293 630 295 633 297 628 299 628 301 628 303 630
 305 628 307 624 309 626 311 631 313 629 315 634 317 633 319 630 321 627 323 630 325 626 327 629 329 627 331 626 333 626 335 627 337 632 339 630 341 628 343 627 345 625 347 626 349 630 351 631 353 630 355 624 358 623 360 627 362 627 364 622 366 623
 368 629 370 626 372 624 374 625 376 627 378 625 380 623 382 622 384 627 386 625 388 627 390 627 392 627 394 626 396 625 398 625 400 625 402 627 404 631 406 636 408 621 410 625 412 627 414 630 416 630 418 629 420 629 422 627 424 630 426 627 100 {
 m20} R 428 629 430 629 432 632 434 627 436 630 438 631 440 631 442 631 444 636 446 626 448 627 450 627 452 626 454 628 456 624 458 631 460 627 462 624 464 629 466 631 468 631 470 633 472 636 474 631 476 634 478 633 480 630 482 630 484 626 486 627
 488 626 490 628 492 623 494 623 496 628 498 622 500 622 502 625 504 623 506 616 508 622 510 623 512 622 514 619 516 620 518 626 520 626 522 627 524 639 526 640 528 634 530 639 532 643 534 630 537 622 539 636 541 637 543 645 545 630 547 617 549 624
 551 625 553 630 555 632 557 631 559 622 561 630 563 628 565 629 567 626 569 627 571 630 573 626 575 630 577 630 579 628 581 623 583 629 585 626 587 626 589 623 591 622 593 627 595 623 597 624 599 626 601 629 603 628 605 627 607 626 609 628 611 626
 613 630 615 634 617 626 619 628 621 629 623 631 625 636 627 627 100 { m20} R 629 628 631 624 633 627 635 628 637 629 639 630 641 631 643 631 645 630 647 633 649 634 651 627 653 625 655 635 657 631 659 633 661 627 663 632 665 632 667 637 669 633 671
 630 673 634 675 630 677 632 679 635 681 628 683 637 685 632 687 634 689 629 691 628 693 629 695 632 697 634 699 628 701 630 703 631 705 632 707 626 709 627 711 627 714 629 716 631 718 627 720 628 722 625 724 625 726 622 728 629 730 626 732 623 734
 623 736 622 738 627 740 629 742 620 744 622 746 619 748 617 750 625 752 623 754 622 756 620 758 624 760 624 762 616 764 619 766 621 768 618 770 618 772 620 774 614 776 615 778 615 780 611 782 616 784 621 786 621 788 613 790 617 792 621 794 621 796
 622 798 618 800 616 802 619 804 618 806 614 808 622 810 617 812 614 814 617 816 619 818 622 820 621 822 617 824 624 826 623 828 623 100 { m20} R 830 619 832 621 834 621 836 622 838 620 840 617 842 614 844 621 846 613 848 617 850 614 852 618 854 614
 856 620 858 622 860 614 862 616 864 618 866 614 868 624 870 620 872 618 874 619 876 621 878 621 880 619 882 618 884 619 886 622 888 625 890 623 893 625 895 630 897 626 899 625 901 620 903 621 905 624 907 616 909 622 911 623 913 621 915 622 917 621
 919 625 921 624 923 622 925 621 927 619 929 621 931 623 933 625 935 630 937 624 939 617 941 621 943 625 945 625 947 632 949 625 951 625 953 623 955 624 957 624 959 618 961 621 963 622 965 621 967 617 969 622 971 623 973 619 975 625 977 615 979 624
 981 616 983 618 985 620 987 622 989 625 991 627 993 625 995 629 997 627 999 631 1001 635 1003 638 1005 639 1007 634 1009 630 1011 631 1013 636 1015 637 1017 636 1019 642 1021 641 1023 637 1025 636 1027 636 1029 636 100 { m20} R 1031 633 1033 636
 1035 637 1037 636 1039 638 1041 632 1043 637 1045 644 1047 641 1049 632 1051 640 1053 635 1055 633 1057 638 1059 634 1061 634 1063 641 1065 635 1067 633 1069 628 1072 633 1074 632 1076 630 1078 633 1080 629 1082 635 1084 635 1086 634 1088 633 1090
 639 1092 634 1094 632 1096 627 1098 634 1100 631 1102 630 1104 635 1106 632 1108 633 1110 635 1112 640 1114 634 1116 636 1118 634 1120 636 1122 631 1124 632 1126 626 1128 623 1130 625 1132 624 1134 627 1136 631 1138 636 1140 638 1142 630 1144 628
 1146 628 1148 633 1150 636 1152 637 1154 636 1156 631 1158 631 1160 626 1162 629 1164 627 1166 628 1168 631 1170 630 1172 629 1174 628 1176 632 1178 642 1180 645 1182 647 1184 648 1186 643 1188 634 1190 636 1192 634 1194 628 1196 628 1198 635 1200
 642 1202 649 1204 655 1206 643 1208 633 1210 632 1212 636 1214 638 1216 638 1218 633 1220 639 1222 637 1224 636 1226 644 1228 634 1230 641 100 { m20} R 1232 641 1234 638 1236 640 1238 636 1240 637 1242 633 1244 632 1246 638 1249 636 1251 637 1253
 636 1255 636 1257 634 1259 638 1261 635 1263 641 1265 638 1267 638 1269 639 1271 640 1273 633 1275 640 1277 642 1279 641 1281 641 1283 643 1285 642 1287 640 1289 639 1291 635 1293 643 1295 641 1297 634 1299 637 1301 640 1303 643 1305 641 1307 636
 1309 642 1311 648 1313 649 1315 648 1317 645 1319 640 1321 640 1323 639 1325 646 1327 647 1329 649 1331 646 1333 644 1335 650 1337 649 1339 644 1341 649 1343 646 1345 650 1347 648 1349 648 1351 651 1353 647 1355 649 1357 658 1359 652 1361 657 1363
 654 1365 651 1367 650 1369 653 1371 654 1373 652 1375 654 1377 651 1379 651 1381 651 1383 651 1385 652 1387 648 1389 650 1391 656 1393 651 1395 654 1397 660 1399 656 1401 652 1403 656 1405 662 1407 660 1409 661 1411 649 1413 657 1415 656 1417 657
 1419 655 1421 658 1423 654 1425 654 1428 659 1430 665 1432 663 100 { m20} R 1434 661 1436 653 1438 657 1440 659 1442 659 1444 661 1446 661 1448 658 1450 661 1452 658 1454 658 1456 660 1458 659 1460 659 1462 659 1464 659 1466 661 1468 660 1470 657
 1472 659 1474 661 1476 666 1478 662 1480 662 1482 665 1484 662 1486 660 1488 663 1490 658 1492 656 1494 662 1496 658 1498 658 1500 658 1502 662 1504 657 1506 647 1508 654 1510 657 1512 656 1514 658 1516 654 1518 657 1520 651 1522 652 1524 657 1526
 655 1528 653 1530 655 1532 651 1534 651 1536 649 1538 651 1540 656 1542 654 1544 651 1546 656 1548 654 1550 655 1552 653 1554 659 1556 654 1558 655 1560 650 1562 656 1564 657 1566 656 1568 658 1570 657 1572 658 1574 655 1576 653 1578 652 1580 656
 1582 654 1584 652 1586 655 1588 655 1590 658 1592 657 1594 661 1596 661 1598 658 1600 657 1602 657 1604 657 1607 659 1609 656 1611 658 1613 659 1615 661 1617 662 1619 663 1621 666 1623 660 1625 664 1627 667 1629 667 1631 664 1633 665 100 { m20} R
 1635 666 1637 664 1639 664 1641 672 1643 668 1645 670 1647 668 1649 671 1651 668 1653 674 1655 671 1657 673 1659 674 1661 678 1663 675 1665 678 1667 678 1669 682 1671 684 1673 679 1675 677 1677 680 1679 673 1681 675 1683 680 1685 683 1687 679 1689
 681 1691 680 1693 681 1695 685 1697 676 1699 679 1701 685 1703 684 1705 681 1707 682 1709 681 1711 677 1713 677 1715 672 1717 674 1719 678 1721 681 1723 681 1725 678 1727 677 1729 679 1731 680 1733 680 1735 680 1737 677 1739 679 1741 672 1743 679
 1745 673 1747 673 1749 674 1751 675 1753 686 1755 676 1757 681 1759 679 1761 682 1763 683 1765 678 1767 685 1769 685 1771 690 1773 685 1775 691 1777 680 1779 678 1781 681 1784 681 1786 679 1788 687 1790 687 1792 681 1794 686 1796 685 1798 686 1800
 683 1802 686 1804 692 1806 688 1808 692 1810 690 1812 686 1814 690 1816 691 1818 691 1820 688 1822 691 1824 691 1826 691 1828 696 1830 691 1832 693 1834 690 100 { m20} R 1836 691 1838 689 1840 694 1842 694 1844 693 1846 687 1848 691 1850 691 1852
 696 1854 694 1856 691 1858 690 1860 698 1862 699 1864 691 1866 693 1868 689 1870 690 1872 692 1874 693 1876 695 1878 699 1880 696 1882 698 1884 697 1886 700 1888 698 1890 693 1892 699 1894 696 1896 698 1898 702 1900 710 1902 703 1904 701 1906 705
 1908 708 1910 707 1912 708 1914 701 1916 706 1918 705 1920 711 1922 712 1924 710 1926 713 1928 709 1930 710 1932 712 1934 708 1936 706 1938 708 1940 712 1942 707 1944 706 1946 707 1948 712 1950 707 1952 711 1954 714 1956 711 1958 710 1960 709 1963
 699 1965 698 1967 697 1969 697 1971 697 1973 696 1975 695 1977 695 1979 704 1981 698 1983 697 1985 697 1987 701 1989 699 1991 700 1993 697 1995 698 80 { m20} R black 1 1 1 c 1111 184 907 1123 bf black
 gsave  2268 1538 0 0 C 1182.73 1244.64 t 0 r /Helvetica-Bold findfont 58.6478 sf 0 0 m (L1Calo Fine Time \(EM Layer\)) show NC gr  6 lw 949 1261 m 194 X s 3 lw /w 26 def /w2 {w 2 div} def /w3 {w 3 div} def 1046 1261 m2 6 lw
 gsave  2268 1538 0 0 C 1182.73 1150.15 t 0 r /Helvetica-Bold findfont 58.6478 sf 0 0 m (Beam Pickup Phase) show NC gr  0.35 0.33 0.85 c 3 lw 949 1169 m 194 X s /w 8 def /w2 {w 2 div} def /w3 {w 3 div} def 1046 1169 m20 black
 gsave  2268 1538 0 0 C 1358.68 263.915 t 0 r /Helvetica-BoldOblique findfont 71.6807 sf 0 0 m (ATLAS) show NC gr 
 gsave  2268 1538 0 0 C 1619.33 263.915 t 0 r /Helvetica-Oblique findfont 71.6807 sf 0 0 m (Preliminary) show NC gr 
 gsave  2268 1538 0 0 C 338.854 1247.9 t 0 r /Helvetica-Bold findfont 58.6478 sf 0 0 m (October 22, 2011) show NC gr 
 gr  gr showpage
end
%%EOF
