%!PS-Adobe-2.0 EPSF-2.0
%%BoundingBox:  0 0 567 384
%%Title: /home/rohin/l1calo/root_files/12-AUG2011/JetTauEtMiss/finetime_lumi_em.eps: c1_n3
%%Creator: ROOT Version 5.34/14
%%CreationDate: Fri Jun  6 01:14:04 2014
%%EndComments
%%BeginProlog
80 dict begin
/s {stroke} def /l {lineto} def /m {moveto} def /t {translate} def
/r {rotate} def /rl {roll}  def /R {repeat} def
/d {rlineto} def /rm {rmoveto} def /gr {grestore} def /f {eofill} def
/c {setrgbcolor} def /black {0 setgray} def /sd {setdash} def
/cl {closepath} def /sf {scalefont setfont} def /lw {setlinewidth} def
/box {m dup 0 exch d exch 0 d 0 exch neg d cl} def
/NC{systemdict begin initclip end}def/C{NC box clip newpath}def
/bl {box s} def /bf {box f} def /Y { 0 exch d} def /X { 0 d} def 
/K {{pop pop 0 moveto} exch kshow} bind def
/ita {/ang 15 def gsave [1 0 ang dup sin exch cos div 1 0 0] concat} def 
/mp {newpath /y exch def /x exch def} def
/side {[w .77 mul w .23 mul] .385 w mul sd w 0 l currentpoint t -144 r} def
/mr {mp x y w2 0 360 arc} def /m24 {mr s} def /m20 {mr f} def
/mb {mp x y w2 add m w2 neg 0 d 0 w neg d w 0 d 0 w d cl} def
/mt {mp x y w2 add m w2 neg w neg d w 0 d cl} def
/m21 {mb f} def /m25 {mb s} def /m22 {mt f} def /m26{mt s} def
/m23 {mp x y w2 sub m w2 w d w neg 0 d cl f} def
/m27 {mp x y w2 add m w3 neg w2 neg d w3 w2 neg d w3 w2 d cl s} def
/m28 {mp x w2 sub y w2 sub w3 add m w3 0 d  0 w3 neg d w3 0 d 0 w3 d w3 0 d  0 w3 d w3 neg 0 d 0 w3 d w3 neg 0 d 0 w3 neg d w3 neg 0 d cl s } def
/m29 {mp gsave x w2 sub y w2 add w3 sub m currentpoint t 4 {side} repeat cl fill gr} def
/m30 {mp gsave x w2 sub y w2 add w3 sub m currentpoint t 4 {side} repeat cl s gr} def
/m31 {mp x y w2 sub m 0 w d x w2 sub y m w 0 d x w2 sub y w2 add m w w neg d x w2 sub y w2 sub m w w d s} def
/m32 {mp x y w2 sub m w2 w d w neg 0 d cl s} def
/m33 {mp x y w2 add m w3 neg w2 neg d w3 w2 neg d w3 w2 d cl f} def
/m34 {mp x w2 sub y w2 sub w3 add m w3 0 d  0 w3 neg d w3 0 d 0 w3 d w3 0 d  0 w3 d w3 neg 0 d 0 w3 d w3 neg 0 d 0 w3 neg d w3 neg 0 d cl f } def
/m2 {mp x y w2 sub m 0 w d x w2 sub y m w 0 d s} def
/m5 {mp x w2 sub y w2 sub m w w d x w2 sub y w2 add m w w neg d s} def
/reEncode {exch findfont dup length dict begin {1 index /FID eq  {pop pop} {def} ifelse } forall /Encoding exch def currentdict end dup /FontName get exch definefont pop } def [/Times-Bold /Times-Italic /Times-BoldItalic /Helvetica /Helvetica-Oblique
 /Helvetica-Bold /Helvetica-BoldOblique /Courier /Courier-Oblique /Courier-Bold /Courier-BoldOblique /Times-Roman /AvantGarde-Book /AvantGarde-BookOblique /AvantGarde-Demi /AvantGarde-DemiOblique /Bookman-Demi /Bookman-DemiItalic /Bookman-Light
 /Bookman-LightItalic /Helvetica-Narrow /Helvetica-Narrow-Bold /Helvetica-Narrow-BoldOblique /Helvetica-Narrow-Oblique /NewCenturySchlbk-Roman /NewCenturySchlbk-Bold /NewCenturySchlbk-BoldItalic /NewCenturySchlbk-Italic /Palatino-Bold
 /Palatino-BoldItalic /Palatino-Italic /Palatino-Roman ] {ISOLatin1Encoding reEncode } forall
%%EndProlog
%%BeginSetup
%%EndSetup
newpath  gsave  .25 .25 scale  gsave  0 0 t black[  ] 0 sd 3 lw 1 1 1 c 2268 1538 0 0 bf black 1 1 1 c 1883 1322 317 185 bf black 1883 1322 317 185 bl 1 1 1 c 1883 1322 317 185 bf black 1883 1322 317 185 bl 1 1 1 c black 325 1053 m 42 Y s 325 1108 m
 43 Y s 317 1102 m 2 X s 332 1102 m 1 X s /w 13 def /w2 {w 2 div} def /w3 {w 3 div} def 325 1102 m20 341 967 m 31 Y s 341 1011 m 31 Y s 333 1004 m 1 X s 348 1004 m 1 X s 341 1004 m20 357 969 m 37 Y s 357 1019 m 38 Y s 349 1013 m 1 X s 363 1013 m 2 X
 s 357 1013 m20 372 1002 m 31 Y s 372 1046 m 32 Y s 365 1040 m 1 X s 379 1040 m 1 X s 372 1040 m20 388 1085 m 28 Y s 388 1126 m 28 Y s 380 1120 m 2 X s 395 1120 m 1 X s 388 1120 m20 404 1001 m 33 Y s 404 1047 m 32 Y s 396 1040 m 1 X s 410 1040 m 2 X
 s 404 1040 m20 419 976 m 29 Y s 419 1018 m 29 Y s 412 1011 m 1 X s 426 1011 m 1 X s 419 1011 m20 435 1042 m 31 Y s 435 1086 m 31 Y s 427 1079 m 2 X s 442 1079 m 1 X s 435 1079 m20 451 894 m 33 Y s 451 940 m 33 Y s 443 933 m 1 X s 457 933 m 2 X s 451
 933 m20 466 1034 m 29 Y s 466 1076 m 28 Y s 459 1069 m 1 X s 473 1069 m 1 X s 466 1069 m20 482 1003 m 32 Y s 482 1048 m 33 Y s 474 1042 m 2 X s 489 1042 m 1 X s 482 1042 m20 498 895 m 30 Y s 498 938 m 31 Y s 490 932 m 1 X s 504 932 m 2 X s 498 932
 m20 514 1062 m 31 Y s 514 1106 m 31 Y s 506 1100 m 1 X s 520 1100 m 1 X s 514 1100 m20 529 1124 m 40 Y s 529 1177 m 41 Y s 521 1171 m 2 X s 536 1171 m 1 X s 529 1171 m20 545 1029 m 30 Y s 545 1072 m 31 Y s 537 1066 m 1 X s 551 1066 m 2 X s 545 1066
 m20 561 912 m 44 Y s 561 969 m 43 Y s 553 962 m 1 X s 567 962 m 1 X s 561 962 m20 576 992 m 28 Y s 576 1033 m 27 Y s 568 1026 m 2 X s 583 1026 m 1 X s 576 1026 m20 592 939 m 37 Y s 592 989 m 38 Y s 584 983 m 1 X s 598 983 m 2 X s 592 983 m20 608 944
 m 32 Y s 608 990 m 32 Y s 600 983 m 1 X s 614 983 m 1 X s 608 983 m20 623 1000 m 30 Y s 623 1043 m 29 Y s 615 1036 m 2 X s 630 1036 m 1 X s 623 1036 m20 639 962 m 32 Y s 639 1007 m 32 Y s 631 1001 m 2 X s 646 1001 m 1 X s 639 1001 m20 655 967 m 29 Y
 s 655 1009 m 29 Y s 647 1003 m 1 X s 661 1003 m 2 X s 655 1003 m20 670 1020 m 29 Y s 670 1062 m 29 Y s 663 1055 m 1 X s 677 1055 m 1 X s 670 1055 m20 686 967 m 32 Y s 686 1012 m 32 Y s 678 1005 m 2 X s 693 1005 m 1 X s 686 1005 m20 702 1099 m 52 Y s
 702 1164 m 51 Y s 694 1157 m 1 X s 708 1157 m 2 X s 702 1157 m20 717 1004 m 27 Y s 717 1044 m 27 Y s 710 1038 m 1 X s 724 1038 m 1 X s 717 1038 m20 733 1034 m 28 Y s 733 1075 m 28 Y s 725 1068 m 2 X s 740 1068 m 1 X s 733 1068 m20 749 884 m 32 Y s
 749 929 m 32 Y s 741 923 m 1 X s 755 923 m 2 X s 749 923 m20 765 995 m 33 Y s 765 1041 m 33 Y s 757 1034 m 1 X s 771 1034 m 1 X s 765 1034 m20 780 958 m 32 Y s 780 1003 m 31 Y s 772 996 m 2 X s 787 996 m 1 X s 780 996 m20 796 969 m 31 Y s 796 1013 m
 31 Y s 788 1006 m 1 X s 802 1006 m 2 X s 796 1006 m20 812 1006 m 28 Y s 812 1047 m 28 Y s 804 1040 m 1 X s 818 1040 m 1 X s 812 1040 m20 827 960 m 68 Y s 827 1041 m 68 Y s 819 1035 m 2 X s 834 1035 m 1 X s 827 1035 m20 843 944 m 34 Y s 843 991 m 35
 Y s 835 985 m 1 X s 849 985 m 2 X s 843 985 m20 859 986 m 30 Y s 859 1029 m 30 Y s 851 1022 m 1 X s 865 1022 m 1 X s 859 1022 m20 874 957 m 29 Y s 874 999 m 28 Y s 866 992 m 2 X s 881 992 m 1 X s 874 992 m20 890 1020 m 32 Y s 890 1065 m 31 Y s 882
 1058 m 1 X s 897 1058 m 1 X s 890 1058 m20 906 1003 m 28 Y s 906 1044 m 29 Y s 898 1038 m 1 X s 912 1038 m 2 X s 906 1038 m20 921 1027 m 31 Y s 921 1071 m 32 Y s 914 1065 m 1 X s 928 1065 m 1 X s 921 1065 m20 937 928 m 30 Y s 937 971 m 31 Y s 929
 965 m 2 X s 944 965 m 1 X s 937 965 m20 953 969 m 31 Y s 953 1013 m 32 Y s 945 1007 m 1 X s 959 1007 m 2 X s 953 1007 m20 968 928 m 30 Y s 968 971 m 30 Y s 961 965 m 1 X s 975 965 m 1 X s 968 965 m20 984 956 m 33 Y s 984 1002 m 33 Y s 976 995 m 2 X
 s 991 995 m 1 X s 984 995 m20 1000 844 m 31 Y s 1000 888 m 32 Y s 992 882 m 1 X s 1006 882 m 2 X s 1000 882 m20 1015 637 m 94 Y s 1015 744 m 94 Y s 1008 738 m 1 X s 1022 738 m 1 X s 1015 738 m20 1031 984 m 30 Y s 1031 1028 m 30 Y s 1023 1021 m 2 X s
 1038 1021 m 1 X s 1031 1021 m20 1047 996 m 35 Y s 1047 1044 m 35 Y s 1039 1037 m 1 X s 1053 1037 m 2 X s 1047 1037 m20 1063 1002 m 34 Y s 1063 1049 m 33 Y s 1055 1042 m 1 X s 1069 1042 m 1 X s 1063 1042 m20 1078 979 m 34 Y s 1078 1026 m 34 Y s 1070
 1019 m 2 X s 1085 1019 m 1 X s 1078 1019 m20 1094 947 m 30 Y s 1094 990 m 29 Y s 1086 983 m 1 X s 1100 983 m 2 X s 1094 983 m20 1110 952 m 33 Y s 1110 998 m 33 Y s 1102 991 m 1 X s 1116 991 m 1 X s 1110 991 m20 1125 899 m 35 Y s 1125 947 m 34 Y s
 1117 940 m 2 X s 1132 940 m 1 X s 1125 940 m20 1141 1014 m 29 Y s 1141 1056 m 29 Y s 1133 1050 m 1 X s 1147 1050 m 2 X s 1141 1050 m20 1157 1031 m 35 Y s 1157 1079 m 35 Y s 1149 1073 m 1 X s 1163 1073 m 1 X s 1157 1073 m20 1172 979 m 32 Y s 1172
 1024 m 32 Y s 1164 1017 m 2 X s 1179 1017 m 1 X s 1172 1017 m20 1188 939 m 35 Y s 1188 987 m 34 Y s 1180 980 m 1 X s 1195 980 m 1 X s 1188 980 m20 1204 708 m 66 Y s 1204 787 m 66 Y s 1196 780 m 1 X s 1210 780 m 2 X s 1204 780 m20 1219 881 m 33 Y s
 1219 927 m 34 Y s 1212 921 m 1 X s 1226 921 m 1 X s 1219 921 m20 1235 913 m 31 Y s 1235 957 m 32 Y s 1227 951 m 2 X s 1242 951 m 1 X s 1235 951 m20 1251 1024 m 29 Y s 1251 1066 m 28 Y s 1243 1059 m 1 X s 1257 1059 m 2 X s 1251 1059 m20 1266 1044 m
 32 Y s 1266 1089 m 32 Y s 1259 1082 m 1 X s 1273 1082 m 1 X s 1266 1082 m20 1282 967 m 33 Y s 1282 1013 m 32 Y s 1274 1006 m 2 X s 1289 1006 m 1 X s 1282 1006 m20 1298 1025 m 28 Y s 1298 1066 m 28 Y s 1290 1059 m 1 X s 1304 1059 m 2 X s 1298 1059
 m20 1313 1029 m 32 Y s 1313 1074 m 32 Y s 1306 1068 m 1 X s 1320 1068 m 1 X s 1313 1068 m20 1329 949 m 34 Y s 1329 996 m 34 Y s 1321 990 m 2 X s 1336 990 m 1 X s 1329 990 m20 1345 1029 m 29 Y s 1345 1071 m 28 Y s 1337 1064 m 1 X s 1351 1064 m 2 X s
 1345 1064 m20 1361 985 m 38 Y s 1361 1036 m 38 Y s 1353 1030 m 1 X s 1367 1030 m 1 X s 1361 1030 m20 1376 977 m 34 Y s 1376 1024 m 34 Y s 1368 1017 m 2 X s 1383 1017 m 1 X s 1376 1017 m20 1392 974 m 32 Y s 1392 1019 m 32 Y s 1384 1012 m 1 X s 1398
 1012 m 2 X s 1392 1012 m20 1408 1030 m 35 Y s 1408 1078 m 36 Y s 1400 1072 m 1 X s 1414 1072 m 1 X s 1408 1072 m20 1423 1011 m 33 Y s 1423 1057 m 32 Y s 1415 1050 m 2 X s 1430 1050 m 1 X s 1423 1050 m20 1439 999 m 31 Y s 1439 1043 m 31 Y s 1431 1036
 m 1 X s 1445 1036 m 2 X s 1439 1036 m20 1455 971 m 32 Y s 1455 1016 m 33 Y s 1447 1010 m 1 X s 1461 1010 m 1 X s 1455 1010 m20 1470 959 m 34 Y s 1470 1006 m 35 Y s 1462 1000 m 2 X s 1477 1000 m 1 X s 1470 1000 m20 1486 1023 m 30 Y s 1486 1066 m 29 Y
 s 1478 1059 m 1 X s 1493 1059 m 1 X s 1486 1059 m20 1502 990 m 32 Y s 1502 1035 m 33 Y s 1494 1029 m 1 X s 1508 1029 m 2 X s 1502 1029 m20 1517 936 m 32 Y s 1517 981 m 32 Y s 1510 974 m 1 X s 1524 974 m 1 X s 1517 974 m20 1533 947 m 34 Y s 1533 995
 m 34 Y s 1525 988 m 2 X s 1540 988 m 1 X s 1533 988 m20 1549 980 m 34 Y s 1549 1027 m 33 Y s 1541 1020 m 1 X s 1555 1020 m 2 X s 1549 1020 m20 1564 961 m 30 Y s 1564 1004 m 29 Y s 1557 997 m 1 X s 1571 997 m 1 X s 1564 997 m20 1580 266 m 106 Y s
 1580 385 m 106 Y s 1572 378 m 2 X s 1587 378 m 1 X s 1580 378 m20 1596 903 m 117 Y s 1596 1033 m 116 Y s 1588 1026 m 1 X s 1602 1026 m 2 X s 1596 1026 m20 1611 1005 m 30 Y s 1611 1048 m 29 Y s 1604 1041 m 1 X s 1618 1041 m 1 X s 1611 1041 m20 1627
 955 m 31 Y s 1627 999 m 31 Y s 1619 993 m 2 X s 1634 993 m 1 X s 1627 993 m20 1643 984 m 31 Y s 1643 1028 m 31 Y s 1635 1022 m 1 X s 1649 1022 m 2 X s 1643 1022 m20 1659 1074 m 35 Y s 1659 1122 m 36 Y s 1651 1116 m 1 X s 1665 1116 m 1 X s 1659 1116
 m20 1674 990 m 34 Y s 1674 1037 m 34 Y s 1666 1030 m 2 X s 1681 1030 m 1 X s 1674 1030 m20 1690 955 m 36 Y s 1690 1004 m 36 Y s 1682 998 m 1 X s 1696 998 m 2 X s 1690 998 m20 1706 915 m 37 Y s 1706 965 m 38 Y s 1698 959 m 1 X s 1712 959 m 1 X s 1706
 959 m20 1721 995 m 32 Y s 1721 1040 m 31 Y s 1713 1033 m 2 X s 1728 1033 m 1 X s 1721 1033 m20 1737 931 m 34 Y s 1737 978 m 35 Y s 1729 972 m 1 X s 1743 972 m 2 X s 1737 972 m20 1753 958 m 31 Y s 1753 1003 m 31 Y s 1745 996 m 1 X s 1759 996 m 2 X s
 1753 996 m20 1768 1027 m 36 Y s 1768 1076 m 36 Y s 1761 1069 m 1 X s 1775 1069 m 1 X s 1768 1069 m20 1784 1011 m 32 Y s 1784 1056 m 32 Y s 1776 1050 m 2 X s 1791 1050 m 1 X s 1784 1050 m20 1800 862 m 34 Y s 1800 909 m 35 Y s 1792 903 m 1 X s 1806
 903 m 2 X s 1800 903 m20 1815 829 m 51 Y s 1815 893 m 52 Y s 1808 887 m 1 X s 1822 887 m 1 X s 1815 887 m20 1831 1009 m 12 Y s 1831 1034 m 11 Y s 1823 1027 m 2 X s 1838 1027 m 1 X s 1831 1027 m20 1847 1010 m 13 Y s 1847 1036 m 13 Y s 1839 1030 m 1 X
 s 1853 1030 m 2 X s 1847 1030 m20 1862 983 m 15 Y s 1862 1011 m 15 Y s 1855 1005 m 1 X s 1869 1005 m 1 X s 1862 1005 m20 1878 1031 m 12 Y s 1878 1056 m 12 Y s 1870 1050 m 2 X s 1885 1050 m 1 X s 1878 1050 m20 1894 985 m 14 Y s 1894 1012 m 14 Y s
 1886 1006 m 1 X s 1900 1006 m 2 X s 1894 1006 m20 1910 874 m 26 Y s 1910 913 m 25 Y s 1902 906 m 1 X s 1916 906 m 1 X s 1910 906 m20 1925 1011 m 12 Y s 1925 1036 m 12 Y s 1917 1030 m 2 X s 1932 1030 m 1 X s 1925 1030 m20 1941 1033 m 13 Y s 1941 1059
 m 12 Y s 1933 1052 m 1 X s 1947 1052 m 2 X s 1941 1052 m20 1957 995 m 13 Y s 1957 1021 m 12 Y s 1949 1014 m 1 X s 1963 1014 m 1 X s 1957 1014 m20 1972 996 m 13 Y s 1972 1022 m 13 Y s 1964 1015 m 2 X s 1979 1015 m 1 X s 1972 1015 m20 1988 963 m 13 Y
 s 1988 989 m 14 Y s 1980 983 m 1 X s 1994 983 m 2 X s 1988 983 m20 2004 943 m 22 Y s 2004 978 m 22 Y s 1996 972 m 1 X s 2010 972 m 1 X s 2004 972 m20 2019 1009 m 15 Y s 2019 1037 m 15 Y s 2011 1031 m 2 X s 2026 1031 m 1 X s 2019 1031 m20 2035 944 m
 22 Y s 2035 979 m 21 Y s 2027 972 m 1 X s 2042 972 m 1 X s 2035 972 m20 2051 990 m 12 Y s 2051 1015 m 13 Y s 2043 1009 m 1 X s 2057 1009 m 2 X s 2051 1009 m20 2066 912 m 14 Y s 2066 939 m 14 Y s 2059 933 m 1 X s 2073 933 m 1 X s 2066 933 m20 2082
 1001 m 14 Y s 2082 1028 m 14 Y s 2074 1021 m 2 X s 2089 1021 m 1 X s 2082 1021 m20 2098 991 m 12 Y s 2098 1016 m 13 Y s 2090 1010 m 1 X s 2104 1010 m 2 X s 2098 1010 m20 2113 950 m 13 Y s 2113 976 m 14 Y s 2106 970 m 1 X s 2120 970 m 1 X s 2113 970
 m20 317 185 m 1883 X s
 gsave  2268 1538 0 0 C 1808.31 32.5821 t 0 r /Helvetica findfont 71.6807 sf 0 0 m (lumi block id) show NC gr  537 223 m -38 Y s 615 204 m -19 Y s 694 204 m -19 Y s 772 204 m -19 Y s 851 204 m -19 Y s 929 223 m -38 Y s 1008 204 m -19 Y s 1086 204 m
 -19 Y s 1164 204 m -19 Y s 1243 204 m -19 Y s 1321 223 m -38 Y s 1400 204 m -19 Y s 1478 204 m -19 Y s 1557 204 m -19 Y s 1635 204 m -19 Y s 1713 223 m -38 Y s 1792 204 m -19 Y s 1870 204 m -19 Y s 1949 204 m -19 Y s 2027 204 m -19 Y s 2106 223 m
 -38 Y s 537 223 m -38 Y s 459 204 m -19 Y s 380 204 m -19 Y s 2106 223 m -38 Y s 2184 204 m -19 Y s
 gsave  2268 1538 0 0 C 475.699 117.296 t 0 r /Helvetica findfont 71.6807 sf 0 0 m (100) show NC gr 
 gsave  2268 1538 0 0 C 869.943 117.296 t 0 r /Helvetica findfont 71.6807 sf 0 0 m (150) show NC gr 
 gsave  2268 1538 0 0 C 1260.93 117.296 t 0 r /Helvetica findfont 71.6807 sf 0 0 m (200) show NC gr 
 gsave  2268 1538 0 0 C 1651.91 117.296 t 0 r /Helvetica findfont 71.6807 sf 0 0 m (250) show NC gr 
 gsave  2268 1538 0 0 C 2046.16 117.296 t 0 r /Helvetica findfont 71.6807 sf 0 0 m (300) show NC gr  317 1507 m 1883 X s 537 1469 m 38 Y s 615 1488 m 19 Y s 694 1488 m 19 Y s 772 1488 m 19 Y s 851 1488 m 19 Y s 929 1469 m 38 Y s 1008 1488 m 19 Y s
 1086 1488 m 19 Y s 1164 1488 m 19 Y s 1243 1488 m 19 Y s 1321 1469 m 38 Y s 1400 1488 m 19 Y s 1478 1488 m 19 Y s 1557 1488 m 19 Y s 1635 1488 m 19 Y s 1713 1469 m 38 Y s 1792 1488 m 19 Y s 1870 1488 m 19 Y s 1949 1488 m 19 Y s 2027 1488 m 19 Y s
 2106 1469 m 38 Y s 537 1469 m 38 Y s 459 1488 m 19 Y s 380 1488 m 19 Y s 2106 1469 m 38 Y s 2184 1488 m 19 Y s 317 185 m 1322 Y s
 gsave  2268 1538 0 0 C 153.136 1078.47 t 90 r /Helvetica findfont 71.6807 sf 0 0 m (FineTime [ns]) show NC gr  376 327 m -59 X s 347 368 m -30 X s 347 409 m -30 X s 347 450 m -30 X s 376 491 m -59 X s 347 532 m -30 X s 347 573 m -30 X s 347 614 m
 -30 X s 376 655 m -59 X s 347 696 m -30 X s 347 737 m -30 X s 347 778 m -30 X s 376 819 m -59 X s 347 860 m -30 X s 347 901 m -30 X s 347 942 m -30 X s 376 983 m -59 X s 347 1024 m -30 X s 347 1065 m -30 X s 347 1106 m -30 X s 376 1147 m -59 X s 347
 1188 m -30 X s 347 1229 m -30 X s 347 1270 m -30 X s 376 1311 m -59 X s 347 1352 m -30 X s 347 1393 m -30 X s 347 1434 m -30 X s 376 1475 m -59 X s 376 327 m -59 X s 347 286 m -30 X s 347 245 m -30 X s 347 204 m -30 X s 376 1475 m -59 X s
 gsave  2268 1538 0 0 C 205.267 303.014 t 0 r /Helvetica findfont 71.6807 sf 0 0 m (2.8) show NC gr 
 gsave  2268 1538 0 0 C 263.915 465.924 t 0 r /Helvetica findfont 71.6807 sf 0 0 m (3) show NC gr 
 gsave  2268 1538 0 0 C 205.267 628.835 t 0 r /Helvetica findfont 71.6807 sf 0 0 m (3.2) show NC gr 
 gsave  2268 1538 0 0 C 205.267 795.004 t 0 r /Helvetica findfont 71.6807 sf 0 0 m (3.4) show NC gr 
 gsave  2268 1538 0 0 C 205.267 957.915 t 0 r /Helvetica findfont 71.6807 sf 0 0 m (3.6) show NC gr 
 gsave  2268 1538 0 0 C 205.267 1124.08 t 0 r /Helvetica findfont 71.6807 sf 0 0 m (3.8) show NC gr 
 gsave  2268 1538 0 0 C 263.915 1283.74 t 0 r /Helvetica findfont 71.6807 sf 0 0 m (4) show NC gr 
 gsave  2268 1538 0 0 C 205.267 1446.65 t 0 r /Helvetica findfont 71.6807 sf 0 0 m (4.2) show NC gr  2200 185 m 1322 Y s 2141 327 m 59 X s 2170 368 m 30 X s 2170 409 m 30 X s 2170 450 m 30 X s 2141 491 m 59 X s 2170 532 m 30 X s 2170 573 m 30 X s
 2170 614 m 30 X s 2141 655 m 59 X s 2170 696 m 30 X s 2170 737 m 30 X s 2170 778 m 30 X s 2141 819 m 59 X s 2170 860 m 30 X s 2170 901 m 30 X s 2170 942 m 30 X s 2141 983 m 59 X s 2170 1024 m 30 X s 2170 1065 m 30 X s 2170 1106 m 30 X s 2141 1147 m
 59 X s 2170 1188 m 30 X s 2170 1229 m 30 X s 2170 1270 m 30 X s 2141 1311 m 59 X s 2170 1352 m 30 X s 2170 1393 m 30 X s 2170 1434 m 30 X s 2141 1475 m 59 X s 2141 327 m 59 X s 2170 286 m 30 X s 2170 245 m 30 X s 2170 204 m 30 X s 2141 1475 m 59 X s
 gsave  2268 1538 0 0 C 1345.64 544.122 t 0 r /Helvetica-Bold findfont 42.3568 sf 0 0 m (Finetime electromagnetic layer) show NC gr  1 1 1 c 1155 486 m 158 X 322 Y -158 X f black 1155 647 m 158 X s 1234 647 m20
 gr  gr showpage
end
%%EOF
