%!PS-Adobe-2.0 EPSF-2.0
%%BoundingBox:  0 0 567 384
%%Title: /home/rohin/l1calo/root_files/12-AUG2011/JetTauEtMiss/finetimeTileB_lumi.eps: c1_n6
%%Creator: ROOT Version 5.34/14
%%CreationDate: Fri Jun  6 01:09:12 2014
%%EndComments
%%BeginProlog
80 dict begin
/s {stroke} def /l {lineto} def /m {moveto} def /t {translate} def
/r {rotate} def /rl {roll}  def /R {repeat} def
/d {rlineto} def /rm {rmoveto} def /gr {grestore} def /f {eofill} def
/c {setrgbcolor} def /black {0 setgray} def /sd {setdash} def
/cl {closepath} def /sf {scalefont setfont} def /lw {setlinewidth} def
/box {m dup 0 exch d exch 0 d 0 exch neg d cl} def
/NC{systemdict begin initclip end}def/C{NC box clip newpath}def
/bl {box s} def /bf {box f} def /Y { 0 exch d} def /X { 0 d} def 
/K {{pop pop 0 moveto} exch kshow} bind def
/ita {/ang 15 def gsave [1 0 ang dup sin exch cos div 1 0 0] concat} def 
/mp {newpath /y exch def /x exch def} def
/side {[w .77 mul w .23 mul] .385 w mul sd w 0 l currentpoint t -144 r} def
/mr {mp x y w2 0 360 arc} def /m24 {mr s} def /m20 {mr f} def
/mb {mp x y w2 add m w2 neg 0 d 0 w neg d w 0 d 0 w d cl} def
/mt {mp x y w2 add m w2 neg w neg d w 0 d cl} def
/m21 {mb f} def /m25 {mb s} def /m22 {mt f} def /m26{mt s} def
/m23 {mp x y w2 sub m w2 w d w neg 0 d cl f} def
/m27 {mp x y w2 add m w3 neg w2 neg d w3 w2 neg d w3 w2 d cl s} def
/m28 {mp x w2 sub y w2 sub w3 add m w3 0 d  0 w3 neg d w3 0 d 0 w3 d w3 0 d  0 w3 d w3 neg 0 d 0 w3 d w3 neg 0 d 0 w3 neg d w3 neg 0 d cl s } def
/m29 {mp gsave x w2 sub y w2 add w3 sub m currentpoint t 4 {side} repeat cl fill gr} def
/m30 {mp gsave x w2 sub y w2 add w3 sub m currentpoint t 4 {side} repeat cl s gr} def
/m31 {mp x y w2 sub m 0 w d x w2 sub y m w 0 d x w2 sub y w2 add m w w neg d x w2 sub y w2 sub m w w d s} def
/m32 {mp x y w2 sub m w2 w d w neg 0 d cl s} def
/m33 {mp x y w2 add m w3 neg w2 neg d w3 w2 neg d w3 w2 d cl f} def
/m34 {mp x w2 sub y w2 sub w3 add m w3 0 d  0 w3 neg d w3 0 d 0 w3 d w3 0 d  0 w3 d w3 neg 0 d 0 w3 d w3 neg 0 d 0 w3 neg d w3 neg 0 d cl f } def
/m2 {mp x y w2 sub m 0 w d x w2 sub y m w 0 d s} def
/m5 {mp x w2 sub y w2 sub m w w d x w2 sub y w2 add m w w neg d s} def
/reEncode {exch findfont dup length dict begin {1 index /FID eq  {pop pop} {def} ifelse } forall /Encoding exch def currentdict end dup /FontName get exch definefont pop } def [/Times-Bold /Times-Italic /Times-BoldItalic /Helvetica /Helvetica-Oblique
 /Helvetica-Bold /Helvetica-BoldOblique /Courier /Courier-Oblique /Courier-Bold /Courier-BoldOblique /Times-Roman /AvantGarde-Book /AvantGarde-BookOblique /AvantGarde-Demi /AvantGarde-DemiOblique /Bookman-Demi /Bookman-DemiItalic /Bookman-Light
 /Bookman-LightItalic /Helvetica-Narrow /Helvetica-Narrow-Bold /Helvetica-Narrow-BoldOblique /Helvetica-Narrow-Oblique /NewCenturySchlbk-Roman /NewCenturySchlbk-Bold /NewCenturySchlbk-BoldItalic /NewCenturySchlbk-Italic /Palatino-Bold
 /Palatino-BoldItalic /Palatino-Italic /Palatino-Roman ] {ISOLatin1Encoding reEncode } forall
%%EndProlog
%%BeginSetup
%%EndSetup
newpath  gsave  .25 .25 scale  gsave  0 0 t black[  ] 0 sd 3 lw 1 1 1 c 2268 1538 0 0 bf black 1 1 1 c 1883 1322 317 185 bf black 1883 1322 317 185 bl 1 1 1 c 1883 1322 317 185 bf black 1883 1322 317 185 bl 1 1 1 c black 325 694 m 123 Y s 325 830 m
 123 Y s 317 824 m 2 X s 332 824 m 1 X s /w 13 def /w2 {w 2 div} def /w3 {w 3 div} def 325 824 m20 340 880 m 43 Y s 340 936 m 43 Y s 333 929 m 1 X s 347 929 m 1 X s 340 929 m20 356 881 m 62 Y s 356 956 m 63 Y s 348 950 m 1 X s 362 950 m 1 X s 356 950
 m20 371 987 m 59 Y s 371 1059 m 60 Y s 363 1053 m 2 X s 378 1053 m 1 X s 371 1053 m20 386 926 m 49 Y s 386 988 m 49 Y s 379 982 m 1 X s 393 982 m 1 X s 386 982 m20 402 921 m 66 Y s 402 1000 m 66 Y s 394 993 m 1 X s 408 993 m 1 X s 402 993 m20 417
 1020 m 56 Y s 417 1089 m 55 Y s 409 1082 m 1 X s 423 1082 m 2 X s 417 1082 m20 432 1007 m 56 Y s 432 1076 m 56 Y s 425 1070 m 1 X s 439 1070 m 1 X s 432 1070 m20 448 923 m 58 Y s 448 994 m 58 Y s 440 987 m 1 X s 454 987 m 1 X s 448 987 m20 463 1091
 m 66 Y s 463 1170 m 66 Y s 455 1163 m 1 X s 469 1163 m 2 X s 463 1163 m20 478 1069 m 59 Y s 478 1141 m 59 Y s 471 1135 m 1 X s 485 1135 m 1 X s 478 1135 m20 493 905 m 49 Y s 493 967 m 49 Y s 486 960 m 1 X s 500 960 m 1 X s 493 960 m20 509 902 m 70 Y
 s 509 985 m 69 Y s 501 978 m 1 X s 515 978 m 1 X s 509 978 m20 524 1036 m 72 Y s 524 1121 m 71 Y s 516 1114 m 2 X s 531 1114 m 1 X s 524 1114 m20 539 921 m 75 Y s 539 1009 m 75 Y s 532 1002 m 1 X s 546 1002 m 1 X s 539 1002 m20 555 759 m 49 Y s 555
 821 m 48 Y s 547 814 m 1 X s 561 814 m 1 X s 555 814 m20 570 918 m 47 Y s 570 978 m 47 Y s 562 971 m 1 X s 576 971 m 2 X s 570 971 m20 585 717 m 64 Y s 585 794 m 64 Y s 578 788 m 1 X s 592 788 m 1 X s 585 788 m20 601 966 m 47 Y s 601 1027 m 47 Y s
 593 1020 m 1 X s 607 1020 m 1 X s 601 1020 m20 616 997 m 60 Y s 616 1070 m 59 Y s 608 1063 m 1 X s 622 1063 m 2 X s 616 1063 m20 631 1063 m 63 Y s 631 1139 m 62 Y s 624 1132 m 1 X s 638 1132 m 1 X s 631 1132 m20 646 871 m 111 Y s 646 995 m 110 Y s
 639 988 m 1 X s 653 988 m 1 X s 646 988 m20 662 994 m 66 Y s 662 1073 m 66 Y s 654 1066 m 1 X s 668 1066 m 1 X s 662 1066 m20 677 953 m 41 Y s 677 1007 m 41 Y s 669 1000 m 2 X s 684 1000 m 1 X s 677 1000 m20 692 932 m 52 Y s 692 997 m 52 Y s 685 990
 m 1 X s 699 990 m 1 X s 692 990 m20 708 829 m 53 Y s 708 895 m 54 Y s 700 889 m 1 X s 714 889 m 1 X s 708 889 m20 723 961 m 50 Y s 723 1024 m 51 Y s 715 1018 m 1 X s 730 1018 m 1 X s 723 1018 m20 738 897 m 49 Y s 738 959 m 50 Y s 731 953 m 1 X s 745
 953 m 1 X s 738 953 m20 754 784 m 59 Y s 754 856 m 59 Y s 746 850 m 1 X s 760 850 m 1 X s 754 850 m20 769 803 m 132 Y s 769 948 m 133 Y s 761 942 m 1 X s 775 942 m 2 X s 769 942 m20 784 888 m 62 Y s 784 963 m 62 Y s 777 957 m 1 X s 791 957 m 1 X s
 784 957 m20 800 958 m 60 Y s 800 1031 m 61 Y s 792 1025 m 1 X s 806 1025 m 1 X s 800 1025 m20 815 950 m 41 Y s 815 1004 m 41 Y s 807 997 m 1 X s 821 997 m 1 X s 815 997 m20 830 1031 m 93 Y s 830 1137 m 94 Y s 822 1131 m 2 X s 837 1131 m 1 X s 830
 1131 m20 845 965 m 76 Y s 845 1054 m 76 Y s 838 1048 m 1 X s 852 1048 m 1 X s 845 1048 m20 861 1002 m 53 Y s 861 1068 m 53 Y s 853 1062 m 1 X s 867 1062 m 1 X s 861 1062 m20 876 906 m 57 Y s 876 976 m 57 Y s 868 969 m 2 X s 883 969 m 1 X s 876 969
 m20 891 1034 m 55 Y s 891 1102 m 55 Y s 884 1095 m 1 X s 898 1095 m 1 X s 891 1095 m20 907 866 m 52 Y s 907 931 m 52 Y s 899 925 m 1 X s 913 925 m 1 X s 907 925 m20 922 1109 m 46 Y s 922 1168 m 46 Y s 914 1162 m 1 X s 928 1162 m 2 X s 922 1162 m20
 937 865 m 43 Y s 937 921 m 43 Y s 930 914 m 1 X s 944 914 m 1 X s 937 914 m20 953 874 m 56 Y s 953 944 m 56 Y s 945 937 m 1 X s 959 937 m 1 X s 953 937 m20 968 999 m 51 Y s 968 1063 m 50 Y s 960 1056 m 1 X s 974 1056 m 1 X s 968 1056 m20 983 880 m
 53 Y s 983 946 m 54 Y s 975 940 m 2 X s 990 940 m 1 X s 983 940 m20 998 944 m 74 Y s 998 1031 m 73 Y s 991 1024 m 1 X s 1005 1024 m 1 X s 998 1024 m20 1014 1026 m 54 Y s 1014 1093 m 55 Y s 1006 1087 m 1 X s 1020 1087 m 1 X s 1014 1087 m20 1029 965 m
 48 Y s 1029 1026 m 49 Y s 1021 1020 m 2 X s 1036 1020 m 1 X s 1029 1020 m20 1044 937 m 55 Y s 1044 1005 m 56 Y s 1037 999 m 1 X s 1051 999 m 1 X s 1044 999 m20 1060 930 m 49 Y s 1060 992 m 49 Y s 1052 985 m 1 X s 1066 985 m 1 X s 1060 985 m20 1075
 893 m 47 Y s 1075 953 m 48 Y s 1067 947 m 1 X s 1081 947 m 2 X s 1075 947 m20 1090 837 m 55 Y s 1090 905 m 56 Y s 1083 899 m 1 X s 1097 899 m 1 X s 1090 899 m20 1106 947 m 68 Y s 1106 1028 m 67 Y s 1098 1021 m 1 X s 1112 1021 m 1 X s 1106 1021 m20
 1121 1001 m 53 Y s 1121 1067 m 53 Y s 1113 1060 m 1 X s 1127 1060 m 2 X s 1121 1060 m20 1136 927 m 57 Y s 1136 997 m 58 Y s 1129 991 m 1 X s 1143 991 m 1 X s 1136 991 m20 1151 1076 m 76 Y s 1151 1165 m 76 Y s 1144 1158 m 1 X s 1158 1158 m 1 X s 1151
 1158 m20 1167 942 m 89 Y s 1167 1044 m 90 Y s 1159 1038 m 1 X s 1173 1038 m 1 X s 1167 1038 m20 1182 913 m 61 Y s 1182 987 m 61 Y s 1174 980 m 2 X s 1189 980 m 1 X s 1182 980 m20 1197 850 m 76 Y s 1197 939 m 75 Y s 1190 932 m 1 X s 1204 932 m 1 X s
 1197 932 m20 1213 995 m 56 Y s 1213 1064 m 56 Y s 1205 1058 m 1 X s 1219 1058 m 1 X s 1213 1058 m20 1228 848 m 54 Y s 1228 915 m 54 Y s 1220 908 m 1 X s 1234 908 m 2 X s 1228 908 m20 1243 988 m 70 Y s 1243 1071 m 69 Y s 1236 1064 m 1 X s 1250 1064 m
 1 X s 1243 1064 m20 1259 965 m 55 Y s 1259 1033 m 55 Y s 1251 1026 m 1 X s 1265 1026 m 1 X s 1259 1026 m20 1274 981 m 69 Y s 1274 1063 m 69 Y s 1266 1057 m 1 X s 1280 1057 m 2 X s 1274 1057 m20 1289 818 m 117 Y s 1289 948 m 116 Y s 1282 941 m 1 X s
 1296 941 m 1 X s 1289 941 m20 1304 977 m 75 Y s 1304 1065 m 75 Y s 1297 1058 m 1 X s 1311 1058 m 1 X s 1304 1058 m20 1320 979 m 75 Y s 1320 1067 m 75 Y s 1312 1061 m 1 X s 1326 1061 m 1 X s 1320 1061 m20 1335 877 m 51 Y s 1335 941 m 50 Y s 1327 934
 m 2 X s 1342 934 m 1 X s 1335 934 m20 1350 872 m 65 Y s 1350 950 m 66 Y s 1343 944 m 1 X s 1357 944 m 1 X s 1350 944 m20 1366 956 m 67 Y s 1366 1036 m 66 Y s 1358 1029 m 1 X s 1372 1029 m 1 X s 1366 1029 m20 1381 1037 m 69 Y s 1381 1119 m 69 Y s
 1373 1112 m 1 X s 1388 1112 m 1 X s 1381 1112 m20 1396 1002 m 72 Y s 1396 1087 m 71 Y s 1389 1080 m 1 X s 1403 1080 m 1 X s 1396 1080 m20 1412 847 m 43 Y s 1412 903 m 43 Y s 1404 896 m 1 X s 1418 896 m 1 X s 1412 896 m20 1427 870 m 60 Y s 1427 944 m
 60 Y s 1419 937 m 1 X s 1433 937 m 2 X s 1427 937 m20 1442 935 m 57 Y s 1442 1005 m 57 Y s 1435 998 m 1 X s 1449 998 m 1 X s 1442 998 m20 1458 860 m 59 Y s 1458 932 m 60 Y s 1450 926 m 1 X s 1464 926 m 1 X s 1458 926 m20 1473 1019 m 89 Y s 1473 1121
 m 89 Y s 1465 1114 m 1 X s 1479 1114 m 1 X s 1473 1114 m20 1488 817 m 83 Y s 1488 913 m 82 Y s 1480 906 m 2 X s 1495 906 m 1 X s 1488 906 m20 1503 985 m 90 Y s 1503 1088 m 90 Y s 1496 1081 m 1 X s 1510 1081 m 1 X s 1503 1081 m20 1519 792 m 57 Y s
 1519 862 m 57 Y s 1511 856 m 1 X s 1525 856 m 1 X s 1519 856 m20 1534 879 m 42 Y s 1534 934 m 42 Y s 1526 928 m 2 X s 1541 928 m 1 X s 1534 928 m20 1549 978 m 84 Y s 1549 1075 m 84 Y s 1542 1068 m 1 X s 1556 1068 m 1 X s 1549 1068 m20 1565 946 m 43
 Y s 1565 1003 m 43 Y s 1557 996 m 1 X s 1571 996 m 1 X s 1565 996 m20 1580 891 m 74 Y s 1580 978 m 74 Y s 1572 972 m 1 X s 1586 972 m 2 X s 1580 972 m20 1595 939 m 62 Y s 1595 1014 m 62 Y s 1588 1008 m 1 X s 1602 1008 m 1 X s 1595 1008 m20 1611 1001
 m 72 Y s 1611 1087 m 72 Y s 1603 1080 m 1 X s 1617 1080 m 1 X s 1611 1080 m20 1626 834 m 66 Y s 1626 913 m 66 Y s 1618 907 m 1 X s 1632 907 m 1 X s 1626 907 m20 1641 949 m 58 Y s 1641 1020 m 58 Y s 1633 1014 m 2 X s 1648 1014 m 1 X s 1641 1014 m20
 1656 961 m 72 Y s 1656 1046 m 71 Y s 1649 1039 m 1 X s 1663 1039 m 1 X s 1656 1039 m20 1672 926 m 72 Y s 1672 1011 m 71 Y s 1664 1004 m 1 X s 1678 1004 m 1 X s 1672 1004 m20 1687 931 m 60 Y s 1687 1004 m 60 Y s 1679 997 m 2 X s 1694 997 m 1 X s 1687
 997 m20 1702 925 m 55 Y s 1702 993 m 56 Y s 1695 987 m 1 X s 1709 987 m 1 X s 1702 987 m20 1718 989 m 68 Y s 1718 1070 m 68 Y s 1710 1064 m 1 X s 1724 1064 m 1 X s 1718 1064 m20 1733 959 m 100 Y s 1733 1072 m 101 Y s 1725 1066 m 1 X s 1739 1066 m 2
 X s 1733 1066 m20 1748 918 m 34 Y s 1748 965 m 34 Y s 1741 959 m 1 X s 1755 959 m 1 X s 1748 959 m20 1764 885 m 24 Y s 1764 922 m 25 Y s 1756 916 m 1 X s 1770 916 m 1 X s 1764 916 m20 1779 1025 m 37 Y s 1779 1075 m 38 Y s 1771 1069 m 1 X s 1785 1069
 m 2 X s 1779 1069 m20 1794 941 m 30 Y s 1794 984 m 31 Y s 1787 978 m 1 X s 1801 978 m 1 X s 1794 978 m20 1809 934 m 34 Y s 1809 981 m 34 Y s 1802 975 m 1 X s 1816 975 m 1 X s 1809 975 m20 1825 984 m 29 Y s 1825 1026 m 29 Y s 1817 1019 m 1 X s 1831
 1019 m 1 X s 1825 1019 m20 1840 982 m 22 Y s 1840 1017 m 21 Y s 1832 1010 m 2 X s 1847 1010 m 1 X s 1840 1010 m20 1855 894 m 23 Y s 1855 930 m 23 Y s 1848 924 m 1 X s 1862 924 m 1 X s 1855 924 m20 1871 967 m 27 Y s 1871 1007 m 26 Y s 1863 1000 m 1 X
 s 1877 1000 m 1 X s 1871 1000 m20 1886 921 m 26 Y s 1886 960 m 26 Y s 1878 953 m 1 X s 1893 953 m 1 X s 1886 953 m20 1901 959 m 24 Y s 1901 996 m 24 Y s 1894 989 m 1 X s 1908 989 m 1 X s 1901 989 m20 1917 994 m 26 Y s 1917 1033 m 27 Y s 1909 1027 m
 1 X s 1923 1027 m 1 X s 1917 1027 m20 1932 911 m 31 Y s 1932 955 m 32 Y s 1924 949 m 1 X s 1938 949 m 2 X s 1932 949 m20 1947 955 m 30 Y s 1947 998 m 29 Y s 1940 991 m 1 X s 1954 991 m 1 X s 1947 991 m20 1962 912 m 45 Y s 1962 970 m 45 Y s 1955 963
 m 1 X s 1969 963 m 1 X s 1962 963 m20 1978 914 m 34 Y s 1978 961 m 35 Y s 1970 955 m 1 X s 1984 955 m 1 X s 1978 955 m20 1993 942 m 37 Y s 1993 992 m 37 Y s 1985 986 m 2 X s 2000 986 m 1 X s 1993 986 m20 2008 939 m 31 Y s 2008 983 m 30 Y s 2001 976
 m 1 X s 2015 976 m 1 X s 2008 976 m20 2024 937 m 33 Y s 2024 983 m 34 Y s 2016 977 m 1 X s 2030 977 m 1 X s 2024 977 m20 317 185 m 1883 X s
 gsave  2268 1538 0 0 C 1847.41 32.5821 t 0 r /Helvetica findfont 71.6807 sf 0 0 m (lumi block id) show NC gr  486 223 m -38 Y s 562 204 m -19 Y s 639 204 m -19 Y s 715 204 m -19 Y s 792 204 m -19 Y s 868 223 m -38 Y s 945 204 m -19 Y s 1021 204 m -19 Y
 s 1098 204 m -19 Y s 1174 204 m -19 Y s 1251 223 m -38 Y s 1327 204 m -19 Y s 1404 204 m -19 Y s 1480 204 m -19 Y s 1557 204 m -19 Y s 1633 223 m -38 Y s 1710 204 m -19 Y s 1787 204 m -19 Y s 1863 204 m -19 Y s 1940 204 m -19 Y s 2016 223 m -38 Y s
 486 223 m -38 Y s 409 204 m -19 Y s 333 204 m -19 Y s 2016 223 m -38 Y s 2093 204 m -19 Y s 2169 204 m -19 Y s
 gsave  2268 1538 0 0 C 426.826 117.296 t 0 r /Helvetica findfont 71.6807 sf 0 0 m (100) show NC gr 
 gsave  2268 1538 0 0 C 808.037 117.296 t 0 r /Helvetica findfont 71.6807 sf 0 0 m (150) show NC gr 
 gsave  2268 1538 0 0 C 1189.25 117.296 t 0 r /Helvetica findfont 71.6807 sf 0 0 m (200) show NC gr 
 gsave  2268 1538 0 0 C 1573.72 117.296 t 0 r /Helvetica findfont 71.6807 sf 0 0 m (250) show NC gr 
 gsave  2268 1538 0 0 C 1954.93 117.296 t 0 r /Helvetica findfont 71.6807 sf 0 0 m (300) show NC gr  317 1507 m 1883 X s 486 1469 m 38 Y s 562 1488 m 19 Y s 639 1488 m 19 Y s 715 1488 m 19 Y s 792 1488 m 19 Y s 868 1469 m 38 Y s 945 1488 m 19 Y s
 1021 1488 m 19 Y s 1098 1488 m 19 Y s 1174 1488 m 19 Y s 1251 1469 m 38 Y s 1327 1488 m 19 Y s 1404 1488 m 19 Y s 1480 1488 m 19 Y s 1557 1488 m 19 Y s 1633 1469 m 38 Y s 1710 1488 m 19 Y s 1787 1488 m 19 Y s 1863 1488 m 19 Y s 1940 1488 m 19 Y s
 2016 1469 m 38 Y s 486 1469 m 38 Y s 409 1488 m 19 Y s 333 1488 m 19 Y s 2016 1469 m 38 Y s 2093 1488 m 19 Y s 2169 1488 m 19 Y s 317 185 m 1322 Y s
 gsave  2268 1538 0 0 C 159.652 1075.21 t 90 r /Helvetica findfont 71.6807 sf 0 0 m ( Fine Time [ns]) show NC gr  376 222 m -59 X s 347 274 m -30 X s 347 325 m -30 X s 347 376 m -30 X s 347 427 m -30 X s 376 479 m -59 X s 347 530 m -30 X s 347 581 m
 -30 X s 347 633 m -30 X s 347 684 m -30 X s 376 735 m -59 X s 347 786 m -30 X s 347 838 m -30 X s 347 889 m -30 X s 347 940 m -30 X s 376 992 m -59 X s 347 1043 m -30 X s 347 1094 m -30 X s 347 1146 m -30 X s 347 1197 m -30 X s 376 1248 m -59 X s
 347 1299 m -30 X s 347 1351 m -30 X s 347 1402 m -30 X s 347 1453 m -30 X s 376 1505 m -59 X s 376 222 m -59 X s 376 1505 m -59 X s
 gsave  2268 1538 0 0 C 263.915 195.493 t 0 r /Helvetica findfont 71.6807 sf 0 0 m (2) show NC gr 
 gsave  2268 1538 0 0 C 205.267 452.892 t 0 r /Helvetica findfont 71.6807 sf 0 0 m (2.5) show NC gr 
 gsave  2268 1538 0 0 C 263.915 710.291 t 0 r /Helvetica findfont 71.6807 sf 0 0 m (3) show NC gr 
 gsave  2268 1538 0 0 C 205.267 967.689 t 0 r /Helvetica findfont 71.6807 sf 0 0 m (3.5) show NC gr 
 gsave  2268 1538 0 0 C 263.915 1221.83 t 0 r /Helvetica findfont 71.6807 sf 0 0 m (4) show NC gr 
 gsave  2268 1538 0 0 C 205.267 1479.23 t 0 r /Helvetica findfont 71.6807 sf 0 0 m (4.5) show NC gr  2200 185 m 1322 Y s 2141 222 m 59 X s 2170 274 m 30 X s 2170 325 m 30 X s 2170 376 m 30 X s 2170 427 m 30 X s 2141 479 m 59 X s 2170 530 m 30 X s
 2170 581 m 30 X s 2170 633 m 30 X s 2170 684 m 30 X s 2141 735 m 59 X s 2170 786 m 30 X s 2170 838 m 30 X s 2170 889 m 30 X s 2170 940 m 30 X s 2141 992 m 59 X s 2170 1043 m 30 X s 2170 1094 m 30 X s 2170 1146 m 30 X s 2170 1197 m 30 X s 2141 1248 m
 59 X s 2170 1299 m 30 X s 2170 1351 m 30 X s 2170 1402 m 30 X s 2170 1453 m 30 X s 2141 1505 m 59 X s 2141 222 m 59 X s 2141 1505 m 59 X s
 gsave  2268 1538 0 0 C 1472.71 534.347 t 0 r /Helvetica-Bold findfont 52.1314 sf 0 0 m (Finetime Tile barrel) show NC gr  1 1 1 c 1282 476 m 158 X 322 Y -158 X f black 1282 637 m 158 X s 1361 637 m20
 gr  gr showpage
end
%%EOF
