%!PS-Adobe-2.0 EPSF-2.0
%%BoundingBox:  0 0 567 544
%%Title: PS_stdDev_hi.eps: c1
%%Creator: ROOT Version 5.26/00
%%CreationDate: Thu Jul 22 11:22:54 2010
%%EndComments
%%BeginProlog
80 dict begin
/s {stroke} def /l {lineto} def /m {moveto} def /t {translate} def
/sw {stringwidth} def /r {rotate} def /rl {roll}  def /R {repeat} def
/d {rlineto} def /rm {rmoveto} def /gr {grestore} def /f {eofill} def
/c {setrgbcolor} def /black {0 setgray} def /sd {setdash} def
/cl {closepath} def /sf {scalefont setfont} def /lw {setlinewidth} def
/box {m dup 0 exch d exch 0 d 0 exch neg d cl} def
/NC{systemdict begin initclip end}def/C{NC box clip newpath}def
/bl {box s} def /bf {box f} def /Y { 0 exch d} def /X { 0 d} def 
/mp {newpath /y exch def /x exch def} def
/side {[w .77 mul w .23 mul] .385 w mul sd w 0 l currentpoint t -144 r} def
/mr {mp x y w2 0 360 arc} def /m24 {mr s} def /m20 {mr f} def
/mb {mp x y w2 add m w2 neg 0 d 0 w neg d w 0 d 0 w d cl} def
/mt {mp x y w2 add m w2 neg w neg d w 0 d cl} def
/m21 {mb f} def /m25 {mb s} def /m22 {mt f} def /m26{mt s} def
/m23 {mp x y w2 sub m w2 w d w neg 0 d cl f} def
/m27 {mp x y w2 add m w3 neg w2 neg d w3 w2 neg d w3 w2 d cl s} def
/m28 {mp x w2 sub y w2 sub w3 add m w3 0 d  0 w3 neg d w3 0 d 0 w3 d w3 0 d  0 w3 d w3 neg 0 d 0 w3 d w3 neg 0 d
 0 w3 neg d w3 neg 0 d cl s } def
/m29 {mp gsave x w2 sub y w2 add w3 sub m currentpoint t
 4 {side} repeat cl fill gr} def
/m30 {mp gsave x w2 sub y w2 add w3 sub m currentpoint t
 4 {side} repeat cl s gr} def
/m31 {mp x y w2 sub m 0 w d x w2 sub y m w 0 d x w2 sub y w2 add m w w neg d x w2 sub y w2
 sub m w w d s} def
/m2 {mp x y w2 sub m 0 w d x w2 sub y m w 0 d s} def
/m5 {mp x w2 sub y w2 sub m w w d x w2 sub y w2 add m w w neg d s} def
/reEncode {exch findfont dup length dict begin {1 index /FID eq  {pop pop} {def} ifelse } forall /Encoding exch def currentdict end dup /FontName get exch definefont pop } def [/Times-Bold /Times-Italic /Times-BoldItalic /Helvetica
 /Helvetica-Oblique /Helvetica-Bold /Helvetica-BoldOblique /Courier /Courier-Oblique /Courier-Bold /Courier-BoldOblique /Times-Roman /AvantGarde-Book /AvantGarde-BookOblique /AvantGarde-Demi /AvantGarde-DemiOblique /Bookman-Demi
 /Bookman-DemiItalic /Bookman-Light /Bookman-LightItalic /Helvetica-Narrow /Helvetica-Narrow-Bold /Helvetica-Narrow-BoldOblique /Helvetica-Narrow-Oblique /NewCenturySchlbk-Roman /NewCenturySchlbk-Bold
 /NewCenturySchlbk-BoldItalic /NewCenturySchlbk-Italic /Palatino-Bold /Palatino-BoldItalic /Palatino-Italic /Palatino-Roman ] {ISOLatin1Encoding reEncode } forall
/oshow {gsave [] 0 sd true charpath stroke gr} def
/stwn { /fs exch def /fn exch def /text exch def fn findfont fs sf
 text sw pop xs add /xs exch def} def
/stwb { /fs exch def /fn exch def /nbas exch def /textf exch deftextf length /tlen exch def nbas tlen gt {/nbas tlendef} iffn findfont fs sf textf dup length nbas sub nbas getinterval sw
pop neg xs add /xs exch def} def
%%EndProlog
%%BeginSetup
%%EndSetup
newpath  gsave  .25 .25 scale  gsave  0 0 t black[  ] 0 sd 3 lw 1 1 1 c 2268 2176 0 0 bf black 1 1 1 c 2137 962 0 1158 bf black 1 1 1 c 1696 962 384 1158 bf black 1696 962 384 1158 bl 1 1 1 c 1696 962 384 1158 bf black 1696 962 384 1158 bl 6 lw 1 1
 1 c black 408 1224 m 13 Y s 408 1237 m 12 Y s 384 1237 m 24 X s 408 1237 m 25 X s 3 lw /w 2 def /w2 {w 2 div} def /w3 {w 3 div} def 408 1237 m20 6 lw 457 1225 m 18 Y s 457 1243 m 18 Y s 433 1243 m 24 X s 457 1243 m 24 X s 3 lw 457 1243 m20 6 lw 505
 1222 m 25 Y s 505 1247 m 25 Y s 481 1247 m 24 X s 505 1247 m 25 X s 3 lw 505 1247 m20 6 lw 554 1213 m 24 Y s 554 1237 m 24 Y s 530 1237 m 24 X s 554 1237 m 24 X s 3 lw 554 1237 m20 6 lw 602 1234 m 18 Y s 602 1252 m 18 Y s 578 1252 m 24 X s 602 1252
 m 24 X s 3 lw 602 1252 m20 6 lw 651 1256 m 15 Y s 651 1271 m 15 Y s 626 1271 m 25 X s 651 1271 m 24 X s 3 lw 651 1271 m20 6 lw 699 1254 m 39 Y s 699 1293 m 39 Y s 675 1293 m 24 X s 699 1293 m 24 X s 3 lw 699 1293 m20 6 lw 748 1308 m 63 Y s 748 1371
 m 63 Y s 723 1371 m 25 X s 748 1371 m 24 X s 3 lw 748 1371 m20 6 lw 796 1464 m 57 Y s 796 1521 m 57 Y s 772 1521 m 24 X s 796 1521 m 24 X s 3 lw 796 1521 m20 6 lw 844 1575 m 61 Y s 844 1636 m 60 Y s 820 1636 m 24 X s 844 1636 m 25 X s 3 lw 844 1636
 m20 6 lw 893 1681 m 49 Y s 893 1730 m 48 Y s 869 1730 m 24 X s 893 1730 m 24 X s 3 lw 893 1730 m20 6 lw 941 1718 m 89 Y s 941 1807 m 88 Y s 917 1807 m 24 X s 941 1807 m 25 X s 3 lw 941 1807 m20 6 lw 990 1892 m 50 Y s 990 1942 m 50 Y s 966 1942 m 24
 X s 990 1942 m 24 X s 3 lw 990 1942 m20 6 lw 1038 1966 m 43 Y s 1038 2009 m 43 Y s 1014 2009 m 24 X s 1038 2009 m 24 X s 3 lw 1038 2009 m20 6 lw 1087 2008 m 21 Y s 1087 2029 m 20 Y s 1062 2029 m 25 X s 1087 2029 m 24 X s 3 lw 1087 2029 m20 6 lw
 1135 2002 m 16 Y s 1135 2018 m 16 Y s 1111 2018 m 24 X s 1135 2018 m 24 X s 3 lw 1135 2018 m20 6 lw 1184 1948 m 43 Y s 1184 1991 m 43 Y s 1159 1991 m 25 X s 1184 1991 m 24 X s 3 lw 1184 1991 m20 6 lw 1232 1849 m 53 Y s 1232 1902 m 54 Y s 1208 1902
 m 24 X s 1232 1902 m 24 X s 3 lw 1232 1902 m20 6 lw 1280 1711 m 66 Y s 1280 1777 m 66 Y s 1256 1777 m 24 X s 1280 1777 m 25 X s 3 lw 1280 1777 m20 6 lw 1329 1618 m 56 Y s 1329 1674 m 55 Y s 1305 1674 m 24 X s 1329 1674 m 24 X s 3 lw 1329 1674 m20 6
 lw 1377 1546 m 45 Y s 1377 1591 m 44 Y s 1353 1591 m 24 X s 1377 1591 m 25 X s 3 lw 1377 1591 m20 6 lw 1426 1460 m 65 Y s 1426 1525 m 66 Y s 1402 1525 m 24 X s 1426 1525 m 24 X s 3 lw 1426 1525 m20 6 lw 1474 1366 m 50 Y s 1474 1416 m 50 Y s 1450
 1416 m 24 X s 1474 1416 m 24 X s 3 lw 1474 1416 m20 6 lw 1523 1358 m 46 Y s 1523 1404 m 46 Y s 1498 1404 m 25 X s 1523 1404 m 24 X s 3 lw 1523 1404 m20 6 lw 1571 1323 m 38 Y s 1571 1361 m 39 Y s 1547 1361 m 24 X s 1571 1361 m 24 X s 3 lw 1571 1361
 m20 6 lw 1620 1309 m 25 Y s 1620 1334 m 25 Y s 1595 1334 m 25 X s 1620 1334 m 24 X s 3 lw 1620 1334 m20 6 lw 1668 1286 m 30 Y s 1668 1316 m 31 Y s 1644 1316 m 24 X s 1668 1316 m 24 X s 3 lw 1668 1316 m20 6 lw 1716 1270 m 28 Y s 1716 1298 m 27 Y s
 1692 1298 m 24 X s 1716 1298 m 25 X s 3 lw 1716 1298 m20 6 lw 1765 1253 m 26 Y s 1765 1279 m 27 Y s 1741 1279 m 24 X s 1765 1279 m 24 X s 3 lw 1765 1279 m20 6 lw 1813 1250 m 26 Y s 1813 1276 m 25 Y s 1789 1276 m 24 X s 1813 1276 m 25 X s 3 lw 1813
 1276 m20 6 lw 1862 1231 m 32 Y s 1862 1263 m 32 Y s 1838 1263 m 24 X s 1862 1263 m 24 X s 3 lw 1862 1263 m20 6 lw 1910 1205 m 28 Y s 1910 1233 m 28 Y s 1886 1233 m 24 X s 1910 1233 m 24 X s 3 lw 1910 1233 m20 6 lw 1959 1266 m 31 Y s 1959 1297 m 32
 Y s 1934 1297 m 25 X s 1959 1297 m 24 X s 3 lw 1959 1297 m20 6 lw 2007 1203 m 48 Y s 2007 1251 m 47 Y s 1983 1251 m 24 X s 2007 1251 m 24 X s 3 lw 2007 1251 m20 6 lw 3 lw 384 1158 m 1696 X s
 gsave  2137 962 0 1158 C 1784 1012 t 0 r /Helvetica findfont 72.5354 sf 0 0 m (Time [ns]) show NC gr  505 1181 m -23 Y s 554 1169 m -11 Y s 602 1169 m -11 Y s 651 1169 m -11 Y s 699 1181 m -23 Y s 748 1169 m -11 Y s 796 1169 m -11 Y s 844 1169 m
 -11 Y s 893 1181 m -23 Y s 941 1169 m -11 Y s 990 1169 m -11 Y s 1038 1169 m -11 Y s 1087 1181 m -23 Y s 1135 1169 m -11 Y s 1184 1169 m -11 Y s 1232 1169 m -11 Y s 1280 1181 m -23 Y s 1329 1169 m -11 Y s 1377 1169 m -11 Y s 1426 1169 m -11 Y s
 1474 1181 m -23 Y s 1523 1169 m -11 Y s 1571 1169 m -11 Y s 1620 1169 m -11 Y s 1668 1181 m -23 Y s 1716 1169 m -11 Y s 1765 1169 m -11 Y s 1813 1169 m -11 Y s 1862 1181 m -23 Y s 1910 1169 m -11 Y s 1959 1169 m -11 Y s 2007 1169 m -11 Y s 2055
 1181 m -23 Y s 505 1181 m -23 Y s 457 1169 m -11 Y s 408 1169 m -11 Y s 2055 1181 m -23 Y s
 gsave  2137 962 0 1158 C 449 1092 t 0 r /Helvetica findfont 72.5354 sf 0 0 m (\25560) show NC gr 
 gsave  2137 962 0 1158 C 643 1092 t 0 r /Helvetica findfont 72.5354 sf 0 0 m (\25540) show NC gr 
 gsave  2137 962 0 1158 C 837 1092 t 0 r /Helvetica findfont 72.5354 sf 0 0 m (\25520) show NC gr 
 gsave  2137 962 0 1158 C 1065 1092 t 0 r /Helvetica findfont 72.5354 sf 0 0 m (0) show NC gr 
 gsave  2137 962 0 1158 C 1237 1092 t 0 r /Helvetica findfont 72.5354 sf 0 0 m (20) show NC gr 
 gsave  2137 962 0 1158 C 1431 1092 t 0 r /Helvetica findfont 72.5354 sf 0 0 m (40) show NC gr 
 gsave  2137 962 0 1158 C 1625 1092 t 0 r /Helvetica findfont 72.5354 sf 0 0 m (60) show NC gr 
 gsave  2137 962 0 1158 C 1819 1092 t 0 r /Helvetica findfont 72.5354 sf 0 0 m (80) show NC gr 
 gsave  2137 962 0 1158 C 1994 1092 t 0 r /Helvetica findfont 72.5354 sf 0 0 m (100) show NC gr  384 2120 m 1696 X s 505 2097 m 23 Y s 554 2108 m 12 Y s 602 2108 m 12 Y s 651 2108 m 12 Y s 699 2097 m 23 Y s 748 2108 m 12 Y s 796 2108 m 12 Y s 844
 2108 m 12 Y s 893 2097 m 23 Y s 941 2108 m 12 Y s 990 2108 m 12 Y s 1038 2108 m 12 Y s 1087 2097 m 23 Y s 1135 2108 m 12 Y s 1184 2108 m 12 Y s 1232 2108 m 12 Y s 1280 2097 m 23 Y s 1329 2108 m 12 Y s 1377 2108 m 12 Y s 1426 2108 m 12 Y s 1474 2097
 m 23 Y s 1523 2108 m 12 Y s 1571 2108 m 12 Y s 1620 2108 m 12 Y s 1668 2097 m 23 Y s 1716 2108 m 12 Y s 1765 2108 m 12 Y s 1813 2108 m 12 Y s 1862 2097 m 23 Y s 1910 2108 m 12 Y s 1959 2108 m 12 Y s 2007 2108 m 12 Y s 2055 2097 m 23 Y s 505 2097 m
 23 Y s 457 2108 m 12 Y s 408 2108 m 12 Y s 2055 2097 m 23 Y s 384 1158 m 962 Y s
 gsave  2137 962 0 1158 C 129 1229 t 90 r /Helvetica findfont 72.5354 sf 0 0 m (Normalized amplitude [a.u.] ) show NC gr  448 1237 m -64 X s 416 1277 m -32 X s 416 1317 m -32 X s 416 1357 m -32 X s 448 1397 m -64 X s 416 1437 m -32 X s 416 1477 m
 -32 X s 416 1518 m -32 X s 448 1558 m -64 X s 416 1598 m -32 X s 416 1638 m -32 X s 416 1678 m -32 X s 448 1718 m -64 X s 416 1758 m -32 X s 416 1799 m -32 X s 416 1839 m -32 X s 448 1879 m -64 X s 416 1919 m -32 X s 416 1959 m -32 X s 416 1999 m
 -32 X s 448 2039 m -64 X s 448 1237 m -64 X s 416 1196 m -32 X s 448 2039 m -64 X s 416 2080 m -32 X s
 gsave  2137 962 0 1158 C 335 1210 t 0 r /Helvetica findfont 72.5354 sf 0 0 m (0) show NC gr 
 gsave  2137 962 0 1158 C 274 1374 t 0 r /Helvetica findfont 72.5354 sf 0 0 m (0.2) show NC gr 
 gsave  2137 962 0 1158 C 274 1533 t 0 r /Helvetica findfont 72.5354 sf 0 0 m (0.4) show NC gr 
 gsave  2137 962 0 1158 C 274 1693 t 0 r /Helvetica findfont 72.5354 sf 0 0 m (0.6) show NC gr 
 gsave  2137 962 0 1158 C 274 1853 t 0 r /Helvetica findfont 72.5354 sf 0 0 m (0.8) show NC gr 
 gsave  2137 962 0 1158 C 342 2013 t 0 r /Helvetica findfont 72.5354 sf 0 0 m (1) show NC gr  2080 1158 m 962 Y s 2016 1237 m 64 X s 2048 1277 m 32 X s 2048 1317 m 32 X s 2048 1357 m 32 X s 2016 1397 m 64 X s 2048 1437 m 32 X s 2048 1477 m 32 X s
 2048 1518 m 32 X s 2016 1558 m 64 X s 2048 1598 m 32 X s 2048 1638 m 32 X s 2048 1678 m 32 X s 2016 1718 m 64 X s 2048 1758 m 32 X s 2048 1799 m 32 X s 2048 1839 m 32 X s 2016 1879 m 64 X s 2048 1919 m 32 X s 2048 1959 m 32 X s 2048 1999 m 32 X s
 2016 2039 m 64 X s 2016 1237 m 64 X s 2048 1196 m 32 X s 2016 2039 m 64 X s 2048 2080 m 32 X s
 gsave  2137 962 0 1158 C 468 2017 t 0 r /Helvetica-BoldOblique findfont 53.4472 sf 0 0 m (ATLAS) show NC gr 
 gsave  2137 962 0 1158 C 681 2017 t 0 r /Helvetica findfont 53.4472 sf 0 0 m (Preliminary) show NC gr  1 0 0 c 6 lw 1 1 1 c black 1 0 0 c 387 1158 m 79 Y 67 X 1 Y 59 X 1 Y 19 X 1 Y 15 X 1 Y 9 X 1 Y 10 X 1 Y 5 X 1 Y 5 X 1 Y 9 X 2 Y 5 X 1 Y 5 X 1 Y 5
 X 1 Y 5 X 2 Y 5 X 2 Y 4 X 1 Y 5 X 2 Y 5 X 3 Y 5 X 2 Y 5 X 3 Y 5 X 2 Y 4 X 3 Y 5 X 3 Y 5 X 4 Y 5 X 3 Y 5 X 4 Y 5 X 4 Y 4 X 4 Y 5 X 5 Y 5 X 4 Y 5 X 5 Y 5 X 6 Y 5 X 5 Y 5 X 6 Y 4 X 6 Y 5 X 6 Y 5 X 7 Y 5 X 7 Y 5 X 7 Y 5 X 7 Y 4 X 8 Y 5 X 8 Y 5 X 8 Y 5
 X 8 Y 5 X 9 Y 5 X 9 Y 5 X 9 Y 4 X 10 Y 5 X 10 Y 5 X 10 Y 5 X 10 Y 5 X 10 Y 5 X 11 Y 4 X 11 Y 5 X 11 Y 5 X 11 Y 5 X 12 Y 5 X 11 Y 5 X 12 Y 4 X 12 Y 5 X 12 Y 5 X 12 Y 5 X 13 Y 5 X 12 Y 5 X 13 Y 5 X 13 Y 4 X 13 Y 5 X 12 Y 5 X 13 Y 5 X 13 Y 5 X 13 Y 5
 X 13 Y 4 X 13 Y 5 X 13 Y 5 X 12 Y 5 X 13 Y 5 X 13 Y 5 X 12 Y 5 X 12 Y 4 X 13 Y 5 X 12 Y 5 X 11 Y 5 X 12 Y 5 X 11 Y 5 X 11 Y 4 X 11 Y 5 X 11 Y 5 X 10 Y 5 X 10 Y 5 X 10 Y 5 X 9 Y 5 X 10 Y 4 X 8 Y 5 X 9 Y 5 X 7 Y 5 X 8 Y 5 X 7 Y 5 X 7 Y 4 X 6 Y 5 X 6
 Y 5 X 6 Y 5 X 5 Y 5 X 4 Y 5 X 5 Y 4 X 3 Y 5 X 4 Y 5 X 3 Y 5 X 2 Y 5 X 2 Y 5 X 1 Y 5 X 2 Y 24 X -1 Y 5 X -2 Y 4 X -2 Y 5 X -2 Y 5 X -3 Y 5 X -3 Y 5 X -3 Y 5 X -4 Y 5 X -4 Y 4 X -5 Y 5 X -5 Y 5 X -5 Y 5 X -6 Y 5 X -6 Y 5 X -6 Y 4 X -6 Y 5 X -7 Y 5 X
 -7 Y 5 X -7 Y 5 X -8 Y 5 X -7 Y 4 X -8 Y 5 X -8 Y 5 X -8 Y 5 X -9 Y 5 X -8 Y 5 X -9 Y 5 X -9 Y 4 X -9 Y 5 X -9 Y 5 X -9 Y 5 X -9 Y 5 X -10 Y 5 X -9 Y 4 X -10 Y 5 X -9 Y 5 X -10 Y 5 X -10 Y 5 X -10 Y 5 X -9 Y 5 X -10 Y 4 X -10 Y 5 X -10 Y 5 X -10 Y
 5 X -10 Y 5 X -10 Y 5 X -9 Y 4 X -10 Y 5 X -10 Y 5 X -10 Y 5 X -9 Y 5 X -10 Y 5 X -9 Y 5 X -10 Y 4 X -9 Y 5 X -9 Y 5 X -10 Y 5 X -9 Y 5 X -9 Y 5 X -8 Y 4 X -9 Y 5 X -9 Y 5 X -8 Y 5 X -8 Y 5 X -8 Y 5 X -8 Y 4 X -8 Y 5 X -8 Y 5 X -7 Y 5 X -7 Y 5 X -7
 Y 5 X -7 Y 5 X -7 Y 4 X -6 Y 5 X -7 Y 5 X -6 Y 5 X -6 Y 5 X -6 Y 5 X -6 Y 4 X -5 Y 5 X -6 Y 5 X -5 Y 5 X -5 Y 5 X -5 Y 5 X -5 Y 5 X -5 Y 4 X -4 Y 5 X -5 Y 5 X -4 Y 5 X -4 Y 5 X -4 Y 5 X -4 Y 4 X -4 Y 5 X -4 Y 5 X -3 Y 5 X -4 Y 5 X -3 Y 5 X -4 Y 4 X
 -3 Y 5 X -3 Y 5 X -3 Y 5 X -3 Y 5 X -2 Y 5 X -3 Y 5 X -3 Y 4 X -2 Y 5 X -3 Y 5 X -2 Y 5 X -2 Y 5 X -3 Y 5 X -2 Y 4 X -2 Y 5 X -2 Y 5 X -2 Y 5 X -2 Y 5 X -2 Y 5 X -2 Y 5 X -2 Y 4 X -1 Y 5 X -2 Y 5 X -2 Y 5 X -1 Y 5 X -2 Y 5 X -1 Y 4 X -2 Y 5 X -1 Y
 5 X -2 Y 5 X -1 Y 5 X -1 Y 5 X -2 Y 5 X -1 Y 4 X -1 Y 5 X -1 Y 5 X -2 Y 5 X -1 Y 5 X -1 Y 5 X -1 Y 4 X -1 Y 5 X -1 Y 5 X -1 Y 5 X -1 Y 5 X -1 Y 5 X -1 Y 4 X -1 Y 5 X -1 Y 5 X -1 Y 5 X -1 Y 5 X -1 Y 5 X -1 Y 5 X -1 Y 4 X -1 Y 5 X -1 Y 5 X -1 Y 5 X
 -1 Y 5 X -1 Y 5 X -1 Y 4 X -1 Y 5 X -1 Y 10 X -1 Y 5 X -1 Y 5 X -1 Y 5 X -1 Y 9 X -1 Y 5 X -1 Y 5 X -1 Y 10 X -1 Y 4 X -1 Y 10 X -1 Y 5 X -1 Y 10 X -1 Y 9 X -1 Y 10 X -1 Y 10 X -1 Y 9 X -1 Y 10 X -1 Y 15 X -1 Y 14 X -1 Y 15 X -1 Y 19 X -1 Y 27 X s
 black
 gsave  2137 962 0 1158 C 1446 2001 t 0 r /Helvetica findfont 57.2648 sf 0 0 m (Run 152345) show NC gr 
 gsave  2137 962 0 1158 C 1632 1925 t 0 r /Helvetica findfont 57.2648 sf 0 0 m ( = 7 TeV Data) show NC gr 
 gsave  2137 962 0 1158 C 1606 1925 t 0 r /Helvetica findfont 57.2648 sf 0 0 m (s) show NC gr  1571 1956 m 23 -35 d s 0 lw 1594 1921 m 8 50 d s 1602 1971 m 30 X s 6 lw 1455 1947 m 104 X s
 gsave  2137 962 0 1158 C 1579 1853 t 0 r /Helvetica findfont 57.2648 sf 0 0 m (Ref. pulse\255shape) show NC gr  1 0 0 c 1455 1870 m 104 X s black 3 lw 1 1 1 c 2137 1158 0 0 bf black 1 1 1 c 1696 950 384 208 bf black 1696 950 384 208 bl 1 1 1 c 1696
 950 384 208 bf black 1696 950 384 208 bl 6 lw 1 1 1 c black 384 527 m 49 X 121 Y 48 X 21 Y 49 X -190 Y 48 X 122 Y 48 X -42 Y 49 X -202 Y 48 X 130 Y 49 X 362 Y 48 X -19 Y 49 X -185 Y 48 X -248 Y 49 X 127 Y 48 X -23 Y 48 X -164 Y 49 X 83 Y 48 X 304 Y
 49 X -105 Y 48 X -197 Y 49 X -55 Y 48 X 63 Y 49 X 139 Y 48 X -293 Y 48 X 301 Y 49 X -27 Y 48 X 24 Y 49 X 36 Y 48 X -33 Y 49 X -80 Y 48 X 95 Y 49 X -45 Y 48 X -296 Y 48 X 861 Y 49 X -523 Y 48 X -55 Y 49 X s 3 lw 384 208 m 1696 X s
 gsave  2137 1158 0 0 C 1769 57 t 0 r /Helvetica findfont 76.1632 sf 0 0 m (Time [ns]) show NC gr  505 236 m -28 Y s 554 222 m -14 Y s 602 222 m -14 Y s 651 222 m -14 Y s 699 236 m -28 Y s 748 222 m -14 Y s 796 222 m -14 Y s 844 222 m -14 Y s 893
 236 m -28 Y s 941 222 m -14 Y s 990 222 m -14 Y s 1038 222 m -14 Y s 1087 236 m -28 Y s 1135 222 m -14 Y s 1184 222 m -14 Y s 1232 222 m -14 Y s 1280 236 m -28 Y s 1329 222 m -14 Y s 1377 222 m -14 Y s 1426 222 m -14 Y s 1474 236 m -28 Y s 1523 222
 m -14 Y s 1571 222 m -14 Y s 1620 222 m -14 Y s 1668 236 m -28 Y s 1716 222 m -14 Y s 1765 222 m -14 Y s 1813 222 m -14 Y s 1862 236 m -28 Y s 1910 222 m -14 Y s 1959 222 m -14 Y s 2007 222 m -14 Y s 2055 236 m -28 Y s 505 236 m -28 Y s 457 222 m
 -14 Y s 408 222 m -14 Y s 2055 236 m -28 Y s
 gsave  2137 1158 0 0 C 449 141 t 0 r /Helvetica findfont 76.1632 sf 0 0 m (\25560) show NC gr 
 gsave  2137 1158 0 0 C 643 141 t 0 r /Helvetica findfont 76.1632 sf 0 0 m (\25540) show NC gr 
 gsave  2137 1158 0 0 C 837 141 t 0 r /Helvetica findfont 76.1632 sf 0 0 m (\25520) show NC gr 
 gsave  2137 1158 0 0 C 1062 141 t 0 r /Helvetica findfont 76.1632 sf 0 0 m (0) show NC gr 
 gsave  2137 1158 0 0 C 1237 141 t 0 r /Helvetica findfont 76.1632 sf 0 0 m (20) show NC gr 
 gsave  2137 1158 0 0 C 1431 141 t 0 r /Helvetica findfont 76.1632 sf 0 0 m (40) show NC gr 
 gsave  2137 1158 0 0 C 1625 141 t 0 r /Helvetica findfont 76.1632 sf 0 0 m (60) show NC gr 
 gsave  2137 1158 0 0 C 1819 141 t 0 r /Helvetica findfont 76.1632 sf 0 0 m (80) show NC gr 
 gsave  2137 1158 0 0 C 1990 141 t 0 r /Helvetica findfont 76.1632 sf 0 0 m (100) show NC gr  384 1158 m 1696 X s 505 1130 m 28 Y s 554 1144 m 14 Y s 602 1144 m 14 Y s 651 1144 m 14 Y s 699 1130 m 28 Y s 748 1144 m 14 Y s 796 1144 m 14 Y s 844 1144
 m 14 Y s 893 1130 m 28 Y s 941 1144 m 14 Y s 990 1144 m 14 Y s 1038 1144 m 14 Y s 1087 1130 m 28 Y s 1135 1144 m 14 Y s 1184 1144 m 14 Y s 1232 1144 m 14 Y s 1280 1130 m 28 Y s 1329 1144 m 14 Y s 1377 1144 m 14 Y s 1426 1144 m 14 Y s 1474 1130 m 28
 Y s 1523 1144 m 14 Y s 1571 1144 m 14 Y s 1620 1144 m 14 Y s 1668 1130 m 28 Y s 1716 1144 m 14 Y s 1765 1144 m 14 Y s 1813 1144 m 14 Y s 1862 1130 m 28 Y s 1910 1144 m 14 Y s 1959 1144 m 14 Y s 2007 1144 m 14 Y s 2055 1130 m 28 Y s 505 1130 m 28 Y
 s 457 1144 m 14 Y s 408 1144 m 14 Y s 2055 1130 m 28 Y s 384 208 m 950 Y s
 gsave  2137 1158 0 0 C 137 799 t 90 r /Helvetica findfont 76.1632 sf 0 0 m ( [std. dev.] ) show NC gr 
 gsave  2137 1158 0 0 C 137 753 t 90 r /Symbol findfont 76.1632 sf 0 0 m (s) show NC gr 
 gsave  2137 1158 0 0 C 137 110 t 90 r /Helvetica findfont 76.1632 sf 0 0 m (\(Data \255 Ref. pulse\)/) show NC gr  437 348 m -53 X s 411 385 m -27 X s 411 422 m -27 X s 411 459 m -27 X s 411 496 m -27 X s 437 534 m -53 X s 411 571 m -27 X s 411 608
 m -27 X s 411 645 m -27 X s 411 682 m -27 X s 437 719 m -53 X s 411 756 m -27 X s 411 793 m -27 X s 411 830 m -27 X s 411 867 m -27 X s 437 904 m -53 X s 411 941 m -27 X s 411 978 m -27 X s 411 1015 m -27 X s 411 1052 m -27 X s 437 1089 m -53 X s
 437 348 m -53 X s 411 311 m -27 X s 411 274 m -27 X s 411 237 m -27 X s 437 1089 m -53 X s 411 1126 m -27 X s
 gsave  2137 1158 0 0 C 244 320 t 0 r /Helvetica findfont 76.1632 sf 0 0 m (\2550.5) show NC gr 
 gsave  2137 1158 0 0 C 331 506 t 0 r /Helvetica findfont 76.1632 sf 0 0 m (0) show NC gr 
 gsave  2137 1158 0 0 C 266 689 t 0 r /Helvetica findfont 76.1632 sf 0 0 m (0.5) show NC gr 
 gsave  2137 1158 0 0 C 342 875 t 0 r /Helvetica findfont 76.1632 sf 0 0 m (1) show NC gr 
 gsave  2137 1158 0 0 C 266 1062 t 0 r /Helvetica findfont 76.1632 sf 0 0 m (1.5) show NC gr  2080 208 m 950 Y s 2027 348 m 53 X s 2053 385 m 27 X s 2053 422 m 27 X s 2053 459 m 27 X s 2053 496 m 27 X s 2027 534 m 53 X s 2053 571 m 27 X s 2053 608 m
 27 X s 2053 645 m 27 X s 2053 682 m 27 X s 2027 719 m 53 X s 2053 756 m 27 X s 2053 793 m 27 X s 2053 830 m 27 X s 2053 867 m 27 X s 2027 904 m 53 X s 2053 941 m 27 X s 2053 978 m 27 X s 2053 1015 m 27 X s 2053 1052 m 27 X s 2027 1089 m 53 X s 2027
 348 m 53 X s 2053 311 m 27 X s 2053 274 m 27 X s 2053 237 m 27 X s 2027 1089 m 53 X s 2053 1126 m 27 X s
 gr  gr 
showpage
end
%%EOF
