%!PS-Adobe-2.0 EPSF-2.0
%%BoundingBox:  0 0 567 388
%%Title: : front
%%Creator: ROOT Version 5.16/00
%%CreationDate: Fri Jul 24 18:39:51 2009
%%EndComments
%%BeginProlog
80 dict begin
/s {stroke} def /l {lineto} def /m {moveto} def /t {translate} def
/sw {stringwidth} def /r {rotate} def /rl {roll}  def /R {repeat} def
/d {rlineto} def /rm {rmoveto} def /gr {grestore} def /f {eofill} def
/c {setrgbcolor} def /black {0 setgray} def /sd {setdash} def
/cl {closepath} def /sf {scalefont setfont} def /lw {setlinewidth} def
/box {m dup 0 exch d exch 0 d 0 exch neg d cl} def
/NC{systemdict begin initclip end}def/C{NC box clip newpath}def
/bl {box s} def /bf {box f} def /Y { 0 exch d} def /X { 0 d} def 
/mp {newpath /y exch def /x exch def} def
/side {[w .77 mul w .23 mul] .385 w mul sd w 0 l currentpoint t -144 r} def
/mr {mp x y w2 0 360 arc} def /m24 {mr s} def /m20 {mr f} def
/mb {mp x y w2 add m w2 neg 0 d 0 w neg d w 0 d 0 w d cl} def
/mt {mp x y w2 add m w2 neg w neg d w 0 d cl} def
/m21 {mb f} def /m25 {mb s} def /m22 {mt f} def /m26{mt s} def
/m23 {mp x y w2 sub m w2 w d w neg 0 d cl f} def
/m27 {mp x y w2 add m w3 neg w2 neg d w3 w2 neg d w3 w2 d cl s} def
/m28 {mp x w2 sub y w2 sub w3 add m w3 0 d  0 w3 neg d w3 0 d 0 w3 d w3 0 d  0 w3 d w3 neg 0 d 0 w3 d w3 neg 0 d
 0 w3 neg d w3 neg 0 d cl s } def
/m29 {mp gsave x w2 sub y w2 add w3 sub m currentpoint t
 4 {side} repeat cl fill gr} def
/m30 {mp gsave x w2 sub y w2 add w3 sub m currentpoint t
 4 {side} repeat cl s gr} def
/m31 {mp x y w2 sub m 0 w d x w2 sub y m w 0 d x w2 sub y w2 add m w w neg d x w2 sub y w2
 sub m w w d s} def
/m2 {mp x y w2 sub m 0 w d x w2 sub y m w 0 d s} def
/m5 {mp x w2 sub y w2 sub m w w d x w2 sub y w2 add m w w neg d s} def
/reencdict 24 dict def /ReEncode {reencdict begin /nco&na exch def
/nfnam exch def /basefontname exch def /basefontdict basefontname findfont def
/newfont basefontdict maxlength dict def basefontdict {exch dup /FID ne
{dup /Encoding eq {exch dup length array copy newfont 3 1 roll put} {exch 
newfont 3 1 roll put} ifelse} {pop pop} ifelse } forall newfont
/FontName nfnam put nco&na aload pop nco&na length 2 idiv {newfont
/Encoding get 3 1 roll put} repeat nfnam newfont definefont pop end } def
/accvec [ 176 /agrave 181 /Agrave 190 /acircumflex 192 /Acircumflex
201 /adieresis 204 /Adieresis 209 /ccedilla 210 /Ccedilla 211 /eacute
212 /Eacute 213 /egrave 214 /Egrave 215 /ecircumflex 216 /Ecircumflex
217 /edieresis 218 /Edieresis 219 /icircumflex 220 /Icircumflex
221 /idieresis 222 /Idieresis 223 /ntilde 224 /Ntilde 226 /ocircumflex
228 /Ocircumflex 230 /Odieresis 231 /ucircumflex 236 /Ucircumflex
237 /udieresis 238 /Udieresis 239 /aring 240 /odieresis 242 /Aring 243 /ydieresis
244 /Ydieresis 246 /aacute 247 /Aacute 252 /ugrave 253 /Ugrave
127 /atilde 128 /Atilde 129 /oacute 130 /Oacute 131 /iacute
132 /Iacute 133 /igrave 134 /Igrave 135 /otilde 136 /Otilde
137 /uacute 138 /Uacute] def
/Times-Roman /Times-Roman accvec ReEncode
/Times-Italic /Times-Italic accvec ReEncode
/Times-Bold /Times-Bold accvec ReEncode
/Times-BoldItalic /Times-BoldItalic accvec ReEncode
/Helvetica /Helvetica accvec ReEncode
/Helvetica-Oblique /Helvetica-Oblique accvec ReEncode
/Helvetica-Bold /Helvetica-Bold accvec ReEncode
/Helvetica-BoldOblique /Helvetica-BoldOblique  accvec ReEncode
/Courier /Courier accvec ReEncode
/Courier-Oblique /Courier-Oblique accvec ReEncode
/Courier-Bold /Courier-Bold accvec ReEncode
/Courier-BoldOblique /Courier-BoldOblique accvec ReEncode
/oshow {gsave [] 0 sd true charpath stroke gr} def
/stwn { /fs exch def /fn exch def /text exch def fn findfont fs sf
 text sw pop xs add /xs exch def} def
/stwb { /fs exch def /fn exch def /nbas exch def /textf exch deftextf length /tlen exch def nbas tlen gt {/nbas tlendef} iffn findfont fs sf textf dup length nbas sub nbas getinterval sw
pop neg xs add /xs exch def} def
/accspe [ 65 /plusminus  66 /bar  67 /existential  68 /universal 
69 /exclam  70 /numbersign 71 /greater  72 /question  73 /integral 
74 /colon  75 /semicolon  76 /less  77 /bracketleft  78 /bracketright
79 /greaterequal 80 /braceleft 81 /braceright 82 /radical
83 /spade 84 /heart 85 /diamond 86 /club 87 /lessequal
88 /multiply 89 /percent 90 /infinity 48 /circlemultiply 49 /circleplus
50 /emptyset  51 /lozenge 52 /bullet 53 /arrowright 54 /arrowup
55 /arrowleft 56 /arrowdown 57 /arrowboth 48 /degree 44 /comma 43 /plus 45 /angle 42 /angleleft 47 /divide 61 /notequal 40 /equivalence 41 /second 97 /approxequal 98 /congruent 99 /perpendicular 100 /partialdiff 101 /florin 102 /intersection
 103 /union 104 /propersuperset 105 /reflexsuperset 106 /notsubset 107 /propersubset 108 /reflexsubset 109 /element 110 /notelement 111 /gradient 112 /logicaland 113 /logicalor 114 /arrowdblboth 115 /arrowdblleft 116 /arrowdblup 117 /arrowdblright
 118 /arrowdbldown 119 /ampersand 120 /omega1 121 /similar 122 /aleph ] def
/Symbol /Special accspe ReEncode
%%EndProlog
%%BeginSetup
%%EndSetup
newpath  gsave  .25 .25 scale  gsave  0 0 t black[  ] 0 sd 3 lw 1 1 1 c 2268 1553 0 0 bf black 1 1 1 c 1819 1232 270 252 bf black 1819 1232 270 252 bl 1 1 1 c 1819 1232 270 252 bf black 1819 1232 270 252 bl 270 252 m 1819 X s
 gsave  2268 1553 0 0 C 1810 106 t 0 r /Helvetica findfont 71.445 sf 0 0 m (time \(ns\)) show NC gr  270 289 m -37 Y s 315 271 m -19 Y s 360 271 m -19 Y s 405 271 m -19 Y s 450 271 m -19 Y s 496 289 m -37 Y s 541 271 m -19 Y s 586 271 m -19 Y s 631
 271 m -19 Y s 676 271 m -19 Y s 721 289 m -37 Y s 766 271 m -19 Y s 811 271 m -19 Y s 856 271 m -19 Y s 901 271 m -19 Y s 946 289 m -37 Y s 991 271 m -19 Y s 1036 271 m -19 Y s 1081 271 m -19 Y s 1126 271 m -19 Y s 1171 289 m -37 Y s 1216 271 m -19
 Y s 1261 271 m -19 Y s 1307 271 m -19 Y s 1352 271 m -19 Y s 1397 289 m -37 Y s 1442 271 m -19 Y s 1487 271 m -19 Y s 1532 271 m -19 Y s 1577 271 m -19 Y s 1622 289 m -37 Y s 1667 271 m -19 Y s 1712 271 m -19 Y s 1757 271 m -19 Y s 1802 271 m -19 Y
 s 1847 289 m -37 Y s 1892 271 m -19 Y s 1937 271 m -19 Y s 1982 271 m -19 Y s 2027 271 m -19 Y s 2073 289 m -37 Y s 2073 289 m -37 Y s
 gsave  2268 1553 0 0 C 251 183 t 0 r /Helvetica findfont 71.445 sf 0 0 m (0) show NC gr 
 gsave  2268 1553 0 0 C 437 183 t 0 r /Helvetica findfont 71.445 sf 0 0 m (100) show NC gr 
 gsave  2268 1553 0 0 C 662 183 t 0 r /Helvetica findfont 71.445 sf 0 0 m (200) show NC gr 
 gsave  2268 1553 0 0 C 886 183 t 0 r /Helvetica findfont 71.445 sf 0 0 m (300) show NC gr 
 gsave  2268 1553 0 0 C 1111 183 t 0 r /Helvetica findfont 71.445 sf 0 0 m (400) show NC gr 
 gsave  2268 1553 0 0 C 1336 183 t 0 r /Helvetica findfont 71.445 sf 0 0 m (500) show NC gr 
 gsave  2268 1553 0 0 C 1561 183 t 0 r /Helvetica findfont 71.445 sf 0 0 m (600) show NC gr 
 gsave  2268 1553 0 0 C 1789 183 t 0 r /Helvetica findfont 71.445 sf 0 0 m (700) show NC gr 
 gsave  2268 1553 0 0 C 2014 183 t 0 r /Helvetica findfont 71.445 sf 0 0 m (800) show NC gr  270 1484 m 1819 X s 270 1446 m 38 Y s 315 1465 m 19 Y s 360 1465 m 19 Y s 405 1465 m 19 Y s 450 1465 m 19 Y s 496 1446 m 38 Y s 541 1465 m 19 Y s 586 1465 m
 19 Y s 631 1465 m 19 Y s 676 1465 m 19 Y s 721 1446 m 38 Y s 766 1465 m 19 Y s 811 1465 m 19 Y s 856 1465 m 19 Y s 901 1465 m 19 Y s 946 1446 m 38 Y s 991 1465 m 19 Y s 1036 1465 m 19 Y s 1081 1465 m 19 Y s 1126 1465 m 19 Y s 1171 1446 m 38 Y s
 1216 1465 m 19 Y s 1261 1465 m 19 Y s 1307 1465 m 19 Y s 1352 1465 m 19 Y s 1397 1446 m 38 Y s 1442 1465 m 19 Y s 1487 1465 m 19 Y s 1532 1465 m 19 Y s 1577 1465 m 19 Y s 1622 1446 m 38 Y s 1667 1465 m 19 Y s 1712 1465 m 19 Y s 1757 1465 m 19 Y s
 1802 1465 m 19 Y s 1847 1446 m 38 Y s 1892 1465 m 19 Y s 1937 1465 m 19 Y s 1982 1465 m 19 Y s 2027 1465 m 19 Y s 2073 1446 m 38 Y s 2073 1446 m 38 Y s 270 252 m 1232 Y s
 gsave  2268 1553 0 0 C 64 1101 t 90 r /Helvetica findfont 71.445 sf 0 0 m (ADC counts) show NC gr  324 252 m -54 X s 297 280 m -27 X s 297 308 m -27 X s 297 336 m -27 X s 324 364 m -54 X s 297 392 m -27 X s 297 420 m -27 X s 297 448 m -27 X s 324
 476 m -54 X s 297 504 m -27 X s 297 532 m -27 X s 297 560 m -27 X s 324 588 m -54 X s 297 616 m -27 X s 297 644 m -27 X s 297 672 m -27 X s 324 700 m -54 X s 297 728 m -27 X s 297 756 m -27 X s 297 784 m -27 X s 324 812 m -54 X s 297 840 m -27 X s
 297 868 m -27 X s 297 896 m -27 X s 324 924 m -54 X s 297 952 m -27 X s 297 980 m -27 X s 297 1008 m -27 X s 324 1036 m -54 X s 297 1064 m -27 X s 297 1092 m -27 X s 297 1120 m -27 X s 324 1148 m -54 X s 297 1176 m -27 X s 297 1204 m -27 X s 297
 1232 m -27 X s 324 1260 m -54 X s 297 1288 m -27 X s 297 1316 m -27 X s 297 1344 m -27 X s 324 1372 m -54 X s 297 1400 m -27 X s 297 1428 m -27 X s 297 1456 m -27 X s 324 1484 m -54 X s
 gsave  2268 1553 0 0 C 116 222 t 0 r /Helvetica findfont 71.445 sf 0 0 m (-400) show NC gr 
 gsave  2268 1553 0 0 C 116 333 t 0 r /Helvetica findfont 71.445 sf 0 0 m (-200) show NC gr 
 gsave  2268 1553 0 0 C 220 445 t 0 r /Helvetica findfont 71.445 sf 0 0 m (0) show NC gr 
 gsave  2268 1553 0 0 C 140 558 t 0 r /Helvetica findfont 71.445 sf 0 0 m (200) show NC gr 
 gsave  2268 1553 0 0 C 140 669 t 0 r /Helvetica findfont 71.445 sf 0 0 m (400) show NC gr 
 gsave  2268 1553 0 0 C 140 781 t 0 r /Helvetica findfont 71.445 sf 0 0 m (600) show NC gr 
 gsave  2268 1553 0 0 C 140 894 t 0 r /Helvetica findfont 71.445 sf 0 0 m (800) show NC gr 
 gsave  2268 1553 0 0 C 101 1006 t 0 r /Helvetica findfont 71.445 sf 0 0 m (1000) show NC gr 
 gsave  2268 1553 0 0 C 101 1117 t 0 r /Helvetica findfont 71.445 sf 0 0 m (1200) show NC gr 
 gsave  2268 1553 0 0 C 101 1230 t 0 r /Helvetica findfont 71.445 sf 0 0 m (1400) show NC gr 
 gsave  2268 1553 0 0 C 101 1342 t 0 r /Helvetica findfont 71.445 sf 0 0 m (1600) show NC gr 
 gsave  2268 1553 0 0 C 101 1453 t 0 r /Helvetica findfont 71.445 sf 0 0 m (1800) show NC gr  2089 252 m 1232 Y s 2035 252 m 54 X s 2062 280 m 27 X s 2062 308 m 27 X s 2062 336 m 27 X s 2035 364 m 54 X s 2062 392 m 27 X s 2062 420 m 27 X s 2062 448
 m 27 X s 2035 476 m 54 X s 2062 504 m 27 X s 2062 532 m 27 X s 2062 560 m 27 X s 2035 588 m 54 X s 2062 616 m 27 X s 2062 644 m 27 X s 2062 672 m 27 X s 2035 700 m 54 X s 2062 728 m 27 X s 2062 756 m 27 X s 2062 784 m 27 X s 2035 812 m 54 X s 2062
 840 m 27 X s 2062 868 m 27 X s 2062 896 m 27 X s 2035 924 m 54 X s 2062 952 m 27 X s 2062 980 m 27 X s 2062 1008 m 27 X s 2035 1036 m 54 X s 2062 1064 m 27 X s 2062 1092 m 27 X s 2062 1120 m 27 X s 2035 1148 m 54 X s 2062 1176 m 27 X s 2062 1204 m
 27 X s 2062 1232 m 27 X s 2035 1260 m 54 X s 2062 1288 m 27 X s 2062 1316 m 27 X s 2062 1344 m 27 X s 2035 1372 m 54 X s 2062 1400 m 27 X s 2062 1428 m 27 X s 2062 1456 m 27 X s 2035 1484 m 54 X s 1 1 1 c 0 0 1 c /w 8
 def /w2 {w 2 div} def /w3 {w 3 div} def 270 476 273 476 275 476 277 476 280 476 282 476 284 476 287 476 289 476 291 476 294 476 296 476 298 476 301 476 303 476 305 476 308 476 310 476 312 476 315 476 317 476 320 476 322 476 324 476 327 476 329 476
 331 476 334 476 336 476 338 476 341 476 343 476 345 476 348 476 350 476 352 476 355 475 357 476 359 477 362 478 364 479 366 479 369 479 371 479 373 478 376 477 378 476 381 475 383 473 385 471 388 469 390 467 392 465 395 463 397 462 399 461 402 461
 404 462 406 464 409 467 411 471 413 477 416 484 418 494 420 505 423 518 425 534 427 551 430 571 432 593 435 617 437 643 439 671 442 701 444 732 446 765 449 800 451 835 453 871 456 908 458 945 460 983 463 1020 465 1057 467 1092 470 1127 472 1161 474
 1194 477 1224 479 1253 481 1280 484 1305 486 1328 488 1348 491 1366 493 1382 496 1395 498 1406 500 1414 503 1421 100 { m20} R 505 1425 507 1426 510 1426 512 1424 514 1420 517 1415 519 1407 521 1399 524 1389 526 1377 528 1365 531 1351 533 1337 535
 1322 538 1306 540 1290 542 1273 545 1255 547 1238 549 1220 552 1201 554 1183 557 1165 559 1146 561 1128 564 1110 566 1091 568 1074 571 1056 573 1038 575 1021 578 1004 580 988 582 971 585 956 587 940 589 925 592 911 594 897 596 883 599 869 601 856
 603 844 606 831 608 819 611 807 613 796 615 784 618 773 620 762 622 751 625 740 627 729 629 719 632 708 634 697 636 687 639 676 641 665 643 655 646 644 648 634 650 624 653 613 655 603 657 593 660 584 662 574 664 565 667 556 669 547 672 538 674 530
 676 522 679 514 681 507 683 500 686 493 688 486 690 480 693 474 695 468 697 462 700 457 702 452 704 447 707 442 709 438 711 433 714 429 716 425 718 421 721 417 723 413 725 410 728 406 730 403 733 400 735 397 737 394 100 { m20} R 740 391 742 388 744
 386 747 384 749 381 751 379 754 377 756 375 758 374 761 372 763 371 765 369 768 368 770 367 772 365 775 364 777 363 779 362 782 361 784 360 787 358 789 357 791 356 794 355 796 354 798 353 801 352 803 351 805 350 808 349 810 348 812 347 815 346 817
 345 819 344 822 343 824 343 826 342 829 341 831 341 833 340 836 340 838 340 840 339 843 339 845 339 848 338 850 338 852 338 855 337 857 337 859 337 862 336 864 336 866 336 869 335 871 335 873 334 876 334 878 333 880 333 883 333 885 332 887 332 890
 331 892 331 894 331 897 330 899 330 902 330 904 330 906 330 909 329 911 329 913 329 916 329 918 329 920 329 923 330 925 330 927 330 930 330 932 330 934 329 937 329 939 329 941 329 944 329 946 329 948 329 951 328 953 328 955 328 958 328 960 328 963
 327 965 327 967 327 970 327 972 327 100 { m20} R 974 327 977 327 979 326 981 326 984 326 986 326 988 326 991 327 993 327 995 327 998 327 1000 327 1002 327 1005 327 1007 327 1009 327 1012 327 1014 327 1016 327 1019 326 1021 326 1024 326 1026 326
 1028 326 1031 326 1033 325 1035 325 1038 325 1040 325 1042 325 1045 324 1047 324 1049 324 1052 324 1054 324 1056 324 1059 324 1061 324 1063 324 1066 324 1068 324 1070 324 1073 324 1075 324 1078 325 1080 325 1082 325 1085 325 1087 325 1089 324 1092
 324 1094 324 1096 324 1099 324 1101 324 1103 324 1106 324 1108 323 1110 323 1113 323 1115 323 1117 323 1120 323 1122 323 1124 322 1127 322 1129 322 1131 322 1134 322 1136 322 1139 322 1141 323 1143 323 1146 323 1148 323 1150 323 1153 323 1155 323
 1157 323 1160 323 1162 323 1164 323 1167 323 1169 323 1171 323 1174 323 1176 322 1178 322 1181 322 1183 322 1185 322 1188 322 1190 322 1192 321 1195 321 1197 321 1200 321 1202 321 1204 321 1207 321 100 { m20} R 1209 321 1211 321 1214 321 1216 321
 1218 321 1221 321 1223 321 1225 322 1228 322 1230 322 1232 322 1235 322 1237 322 1239 322 1242 322 1244 321 1246 321 1249 321 1251 321 1254 321 1256 321 1258 321 1261 321 1263 320 1265 320 1268 320 1270 320 1272 320 1275 320 1277 320 1279 320 1282
 320 1284 320 1286 320 1289 320 1291 320 1293 320 1296 320 1298 320 1300 320 1303 320 1305 320 1307 320 1310 320 1312 320 1315 320 1317 320 1319 320 1322 320 1324 320 1326 320 1329 320 1331 320 1333 319 1336 319 1338 319 1340 319 1343 319 1345 319
 1347 319 1350 319 1352 319 1354 320 1357 320 1359 320 1361 320 1364 321 1366 321 1369 322 1371 322 1373 323 1376 323 1378 324 1380 325 1383 326 1385 326 1387 327 1390 328 1392 329 1394 330 1397 331 1399 332 1401 333 1404 333 1406 334 1408 335 1411
 337 1413 338 1415 339 1418 340 1420 341 1422 342 1425 343 1427 344 1430 346 1432 347 1434 348 1437 349 1439 350 1441 352 100 { m20} R 1444 353 1446 354 1448 355 1451 356 1453 358 1455 359 1458 360 1460 361 1462 362 1465 363 1467 364 1469 365 1472
 366 1474 367 1476 368 1479 369 1481 370 1483 372 1486 373 1488 374 1491 375 1493 376 1495 377 1498 378 1500 380 1502 381 1505 382 1507 384 1509 385 1512 387 1514 388 1516 389 1519 391 1521 393 1523 394 1526 396 1528 397 1530 399 1533 400 1535 402
 1537 403 1540 405 1542 406 1545 408 1547 409 1549 411 1552 412 1554 413 1556 415 1559 416 1561 417 1563 419 1566 420 1568 421 1570 422 1573 424 1575 425 1577 426 1580 427 1582 429 1584 430 1587 431 1589 432 1591 433 1594 434 1596 435 1598 436 1601
 437 1603 438 1606 439 1608 440 1610 441 1613 442 1615 443 1617 444 1620 444 1622 445 1624 446 1627 446 1629 447 1631 448 1634 448 1636 449 1638 449 1641 450 1643 451 1645 451 1648 452 1650 452 1652 453 1655 453 1657 454 1659 454 1662 455 1664 455
 1667 456 1669 456 1671 457 1674 457 1676 458 100 { m20} R 1678 458 1681 459 1683 459 1685 459 1688 460 1690 460 1692 460 1695 461 1697 461 1699 461 1702 461 1704 462 1706 462 1709 462 1711 462 1713 462 1716 463 1718 463 1721 463 1723 463 1725 463
 1728 463 1730 464 1732 464 1735 464 1737 464 1739 464 1742 464 1744 465 1746 465 1749 465 1751 465 1753 465 1756 466 1758 466 1760 466 1763 466 1765 466 1767 466 1770 466 1772 466 1774 466 1777 466 1779 466 1782 466 1784 466 1786 466 1789 466 1791
 466 1793 466 1796 467 1798 467 1800 467 1803 467 1805 467 1807 467 1810 467 1812 467 1814 467 1817 467 1819 467 1821 467 1824 467 1826 467 1828 468 1831 468 1833 468 1836 468 1838 468 1840 468 1843 468 1845 468 1847 468 1850 468 1852 468 1854 468
 1857 468 1859 468 1861 468 1864 468 1866 468 1868 468 1871 468 1873 468 1875 468 1878 468 1880 468 1882 468 1885 468 1887 468 1889 468 1892 468 1894 468 1897 468 1899 468 1901 468 1904 468 1906 468 1908 468 1911 469 100 { m20} R 1913 469 1915 469
 1918 469 1920 469 1922 469 1925 469 1927 469 1929 469 1932 469 1934 468 1936 468 1939 468 1941 468 1943 468 1946 468 1948 468 1950 468 1953 468 1955 468 1958 468 1960 468 1962 468 1965 468 1967 469 1969 469 1972 469 1974 469 1976 469 1979 469 1981
 469 1983 469 1986 469 1988 469 1990 469 1993 469 1995 469 1997 469 2000 469 2002 469 2004 469 2007 469 2009 469 2012 469 2014 469 2016 469 2019 469 2021 469 2023 469 2026 469 2028 469 2030 469 2033 469 2035 469 2037 469 2040 469 2042 469 2044 469
 2047 469 2049 469 2051 469 2054 469 2056 469 2058 469 2061 469 2063 471 2065 469 2068 469 2070 469 270 476 270 476 270 476 270 476 270 476 270 476 270 476 270 476 270 476 270 476 270 476 270 476 270 476 270 476 270 476 270 476 270 476 270 476 270
 476 270 476 270 476 270 476 270 476 270 476 270 476 270 476 270 476 270 476 270 476 270 476 270 476 270 476 100 { m20} R 1 1 1 c 1 0 0 c /w 19 def /w2 {w 2 div} def /w3 {w 3 div} def 325 468 381 480 437 685 495 1375 550 1219 606 819 664 552 720 399
 775 338 831 320 889 329 945 323 1000 323 1056 323 1114 335 1170 332 1226 329 1281 320 1340 326 1395 338 1451 347 1509 381 1565 416 1620 445 1676 454 1734 465 1790 468 1846 468 1901 465 1960 465 2015 471 31 { m20} R 1 1 1 c 0.35 0.83 0.33 c 270 483
 327 450 383 493 439 510 492 415 552 522 608 475 664 437 721 410 777 397 833 413 890 463 946 456 1002 459 1059 468 1115 512 1171 497 1228 491 1284 476 1340 492 1397 491 1453 441 1509 456 1566 461 1622 471 1678 455 1735 479 1791 480 1847 472 1904 465
 1960 465 2016 483 270 476 270 476 270 476 270 476 270 476 270 476 270 476 270 476 270 476 270 476 270 476 270 476 270 476 270 476 270 476 270 476 270 476 270 476 270 476 270 476 270 476 270 476 270 476 270 476 270 476 270 476 270 476 270 476 270
 476 270 476 270 476 270 476 64 { m20} R 2089 361 m 226 Y s 2080 361 m 9 X s 2080 418 m 9 X s 2080 474 m 9 X s 2080 531 m 9 X s 2080 587 m 9 X s 2080 361 m 9 X s 2080 587 m 9 X s
 gsave  2268 1553 0 0 C 2098 336 t 0 r /Helvetica-Bold findfont 58.2144 sf 0 0 m (-0.04) show NC gr 
 gsave  2268 1553 0 0 C 2098 392 t 0 r /Helvetica-Bold findfont 58.2144 sf 0 0 m (-0.02) show NC gr 
 gsave  2268 1553 0 0 C 2098 450 t 0 r /Helvetica-Bold findfont 58.2144 sf 0 0 m (0) show NC gr 
 gsave  2268 1553 0 0 C 2098 505 t 0 r /Helvetica-Bold findfont 58.2144 sf 0 0 m (0.02) show NC gr 
 gsave  2268 1553 0 0 C 2098 561 t 0 r /Helvetica-Bold findfont 58.2144 sf 0 0 m (0.04) show NC gr  black
 gsave  2268 1553 0 0 C 998 1368 t 0 r /Helvetica findfont 71.445 sf 0 0 m (FRONT LAYER EM BARREL) show NC gr 
 gsave  2268 1553 0 0 C 603 1273 t 0 r /Helvetica findfont 71.445 sf 0 0 m (2008 ATLAS cosmic muons) show NC gr 
 gsave  2268 1553 0 0 C 598 1180 t 0 r /Helvetica-BoldOblique findfont 71.445 sf 0 0 m (ATLAS) show NC gr 
 gsave  2268 1553 0 0 C 871 1178 t 0 r /Helvetica findfont 71.445 sf 0 0 m (Preliminary) show NC gr  1 1 1 c 387 103 925 923 bf 937 923 m -8 Y 383 X 99 Y -8 X -91 Y f 925 923 m 103 Y 387 X -103 Y -387 X cl s 0 0 1 c
 gsave  2268 1553 0 0 C 937 942 t 0 r /Helvetica-Bold findfont 74.0911 sf 0 0 m (Prediction) show NC gr  1 1 1 c 535 92 744 836 bf 756 836 m -8 Y 531 X 88 Y -8 X -80 Y f 744 836 m 92 Y 535 X -92 Y -535 X cl s 1 0 0 c
 gsave  2268 1553 0 0 C 929 849 t 0 r /Helvetica-Bold findfont 76.7372 sf 0 0 m (Data) show NC gr  1 1 1 c 492 101 1180 725 bf 1192 725 m -8 Y 488 X 97 Y -8 X -89 Y f 1180 725 m 101 Y 492 X -101 Y -492 X cl s 0.35 0.83 0.33 c
 gsave  2268 1553 0 0 C 923 749 t 0 r /Helvetica-Bold findfont 76.7372 sf 0 0 m (\(Data-Prediction\)/Max\(Data\)) show NC gr  1 1 1 c 55 327 850 707 bf 850 707 m 55 X s 905 707 m 327 Y s 905 1034 m -55 X s 850 1034 m -327 Y s black 1 1 1 c
 gsave  2268 1553 0 0 C 863 982 t 0 r /Helvetica-Bold findfont 2.64611 sf 0 0 m (Graph) show NC gr  852 941 m 10 X 76 Y -10 X f 852 979 m 10 X s 0 0 1 c /w 8 def /w2 {w 2 div} def /w3 {w 3 div} def 857 979 m20 1 1 1 c
 gsave  2268 1553 0 0 C 863 871 t 0 r /Helvetica-Bold findfont 2.64611 sf 0 0 m (Graph) show NC gr  852 832 m 10 X 77 Y -10 X f 852 870 m 10 X s 1 0 0 c /w 19 def /w2 {w 2 div} def /w3 {w 3 div} def 857 870 m20 1 1 1 c
 gsave  2268 1553 0 0 C 863 762 t 0 r /Helvetica-Bold findfont 2.64611 sf 0 0 m (Graph) show NC gr  852 724 m 10 X 76 Y -10 X f 852 762 m 10 X s 0.35 0.83 0.33 c 857 762 m20
 gr  gr 
showpage
end
%%EOF
