%!PS-Adobe-2.0 EPSF-2.0
%%BoundingBox:  0 0 567 384
%%Title: Corr_cl_E.eps: c1
%%Creator: ROOT Version 5.34/14
%%CreationDate: Mon Sep  8 03:26:20 2014
%%EndComments
%%BeginProlog
80 dict begin
/s {stroke} def /l {lineto} def /m {moveto} def /t {translate} def
/r {rotate} def /rl {roll}  def /R {repeat} def
/d {rlineto} def /rm {rmoveto} def /gr {grestore} def /f {eofill} def
/c {setrgbcolor} def /black {0 setgray} def /sd {setdash} def
/cl {closepath} def /sf {scalefont setfont} def /lw {setlinewidth} def
/box {m dup 0 exch d exch 0 d 0 exch neg d cl} def
/NC{systemdict begin initclip end}def/C{NC box clip newpath}def
/bl {box s} def /bf {box f} def /Y { 0 exch d} def /X { 0 d} def 
/K {{pop pop 0 moveto} exch kshow} bind def
/ita {/ang 15 def gsave [1 0 ang dup sin exch cos div 1 0 0] concat} def 
/mp {newpath /y exch def /x exch def} def
/side {[w .77 mul w .23 mul] .385 w mul sd w 0 l currentpoint t -144 r} def
/mr {mp x y w2 0 360 arc} def /m24 {mr s} def /m20 {mr f} def
/mb {mp x y w2 add m w2 neg 0 d 0 w neg d w 0 d 0 w d cl} def
/mt {mp x y w2 add m w2 neg w neg d w 0 d cl} def
/m21 {mb f} def /m25 {mb s} def /m22 {mt f} def /m26{mt s} def
/m23 {mp x y w2 sub m w2 w d w neg 0 d cl f} def
/m27 {mp x y w2 add m w3 neg w2 neg d w3 w2 neg d w3 w2 d cl s} def
/m28 {mp x w2 sub y w2 sub w3 add m w3 0 d  0 w3 neg d w3 0 d 0 w3 d w3 0 d  0 w3 d w3 neg 0 d 0 w3 d w3 neg 0 d 0 w3 neg d w3 neg 0 d cl s } def
/m29 {mp gsave x w2 sub y w2 add w3 sub m currentpoint t 4 {side} repeat cl fill gr} def
/m30 {mp gsave x w2 sub y w2 add w3 sub m currentpoint t 4 {side} repeat cl s gr} def
/m31 {mp x y w2 sub m 0 w d x w2 sub y m w 0 d x w2 sub y w2 add m w w neg d x w2 sub y w2 sub m w w d s} def
/m32 {mp x y w2 sub m w2 w d w neg 0 d cl s} def
/m33 {mp x y w2 add m w3 neg w2 neg d w3 w2 neg d w3 w2 d cl f} def
/m34 {mp x w2 sub y w2 sub w3 add m w3 0 d  0 w3 neg d w3 0 d 0 w3 d w3 0 d  0 w3 d w3 neg 0 d 0 w3 d w3 neg 0 d 0 w3 neg d w3 neg 0 d cl f } def
/m2 {mp x y w2 sub m 0 w d x w2 sub y m w 0 d s} def
/m5 {mp x w2 sub y w2 sub m w w d x w2 sub y w2 add m w w neg d s} def
/reEncode {exch findfont dup length dict begin {1 index /FID eq  {pop pop} {def} ifelse } forall /Encoding exch def currentdict end dup /FontName get exch definefont pop } def [/Times-Bold /Times-Italic /Times-BoldItalic /Helvetica /Helvetica-Oblique
 /Helvetica-Bold /Helvetica-BoldOblique /Courier /Courier-Oblique /Courier-Bold /Courier-BoldOblique /Times-Roman /AvantGarde-Book /AvantGarde-BookOblique /AvantGarde-Demi /AvantGarde-DemiOblique /Bookman-Demi /Bookman-DemiItalic /Bookman-Light
 /Bookman-LightItalic /Helvetica-Narrow /Helvetica-Narrow-Bold /Helvetica-Narrow-BoldOblique /Helvetica-Narrow-Oblique /NewCenturySchlbk-Roman /NewCenturySchlbk-Bold /NewCenturySchlbk-BoldItalic /NewCenturySchlbk-Italic /Palatino-Bold
 /Palatino-BoldItalic /Palatino-Italic /Palatino-Roman ] {ISOLatin1Encoding reEncode } forall
%%EndProlog
%%BeginSetup
%%EndSetup
newpath  gsave  .25 .25 scale  gsave  0 0 t black[  ] 0 sd 3 lw 1 1 1 c 2268 1538 0 0 bf black 1 1 1 c 1883 1322 317 185 bf black 1883 1322 317 185 bl 1 1 1 c 1883 1322 317 185 bf black 1883 1322 317 185 bl 6 lw 1 1 1 c black 506 1372 m 12 X s 531
 1372 m 12 X s 3 lw /w 13 def /w2 {w 2 div} def /w3 {w 3 div} def 525 1372 m20 6 lw 543 1419 m 13 X s 569 1419 m 12 X s 3 lw 562 1419 m20 6 lw 581 1414 m 12 X s 606 1414 m 13 X s 3 lw 600 1414 m20 6 lw 619 1312 m 12 X s 644 1312 m 12 X s 3 lw 637
 1312 m20 6 lw 656 1246 m 13 X s 682 1246 m 12 X s 3 lw 675 1246 m20 6 lw 694 1183 m 12 X s 719 1183 m 13 X s 3 lw 713 1183 m20 6 lw 750 1125 m 1 Y s 750 1139 m s 732 1132 m 12 X s 757 1132 m 12 X s 3 lw 750 1132 m20 6 lw 788 1069 m 3 Y s 788 1085 m
 2 Y s 769 1078 m 13 X s 795 1078 m 12 X s 3 lw 788 1078 m20 6 lw 826 1023 m 4 Y s 826 1040 m 4 Y s 807 1034 m 12 X s 832 1034 m 12 X s 3 lw 826 1034 m20 6 lw 863 966 m 7 Y s 863 986 m 5 Y s 844 979 m 13 X s 870 979 m 12 X s 3 lw 863 979 m20 6 lw 901
 922 m 9 Y s 901 944 m 8 Y s 882 938 m 12 X s 907 938 m 13 X s 3 lw 901 938 m20 6 lw 939 976 m 6 Y s 939 995 m 5 Y s 920 989 m 12 X s 945 989 m 12 X s 3 lw 939 989 m20 6 lw 976 979 m 6 Y s 976 998 m 5 Y s 957 992 m 13 X s 983 992 m 12 X s 3 lw 976
 992 m20 6 lw 1014 1002 m 5 Y s 1014 1020 m 5 Y s 995 1014 m 12 X s 1020 1014 m 13 X s 3 lw 1014 1014 m20 6 lw 1052 1007 m 5 Y s 1052 1025 m 4 Y s 1033 1018 m 12 X s 1058 1018 m 12 X s 3 lw 1052 1018 m20 6 lw 1089 987 m 6 Y s 1089 1006 m 5 Y s 1070
 999 m 13 X s 1096 999 m 12 X s 3 lw 1089 999 m20 6 lw 1127 986 m 6 Y s 1127 1005 m 5 Y s 1108 998 m 12 X s 1133 998 m 13 X s 3 lw 1127 998 m20 6 lw 1164 990 m 6 Y s 1164 1009 m 4 Y s 1146 1002 m 12 X s 1171 1002 m 12 X s 3 lw 1164 1002 m20 6 lw 1202
 915 m 10 Y s 1202 938 m 7 Y s 1183 931 m 13 X s 1209 931 m 12 X s 3 lw 1202 931 m20 6 lw 1240 873 m 12 Y s 1240 898 m 10 Y s 1221 891 m 12 X s 1246 891 m 13 X s 3 lw 1240 891 m20 6 lw 1277 857 m 13 Y s 1277 883 m 11 Y s 1259 877 m 12 X s 1284 877 m
 12 X s 3 lw 1277 877 m20 6 lw 1315 811 m 17 Y s 1315 841 m 14 Y s 1296 835 m 13 X s 1322 835 m 12 X s 3 lw 1315 835 m20 6 lw 1353 786 m 19 Y s 1353 818 m 16 Y s 1334 812 m 12 X s 1359 812 m 13 X s 3 lw 1353 812 m20 6 lw 1390 648 m 37 Y s 1390 698 m
 26 Y s 1372 692 m 12 X s 1397 692 m 12 X s 3 lw 1390 692 m20 6 lw 1428 606 m 44 Y s 1428 663 m 30 Y s 1409 656 m 12 X s 1434 656 m 13 X s 3 lw 1428 656 m20 6 lw 1466 277 m 158 Y s 1466 448 m 65 Y s 1447 441 m 12 X s 1472 441 m 12 X s 3 lw 1466 441
 m20 6 lw 3 lw 317 185 m 1883 X s
 gsave  2268 1538 0 0 C 1404.29 13.0329 t 0 r /Helvetica findfont 84.7135 sf 0 0 m (Corrected cl_E [GeV]) show NC gr  317 223 m -38 Y s 355 204 m -19 Y s 393 204 m -19 Y s 430 204 m -19 Y s 468 204 m -19 Y s 506 223 m -38 Y s 543 204 m -19 Y s 581
 204 m -19 Y s 619 204 m -19 Y s 656 204 m -19 Y s 694 223 m -38 Y s 732 204 m -19 Y s 769 204 m -19 Y s 807 204 m -19 Y s 844 204 m -19 Y s 882 223 m -38 Y s 920 204 m -19 Y s 957 204 m -19 Y s 995 204 m -19 Y s 1033 204 m -19 Y s 1070 223 m -38 Y s
 1108 204 m -19 Y s 1146 204 m -19 Y s 1183 204 m -19 Y s 1221 204 m -19 Y s 1259 223 m -38 Y s 1296 204 m -19 Y s 1334 204 m -19 Y s 1372 204 m -19 Y s 1409 204 m -19 Y s 1447 223 m -38 Y s 1484 204 m -19 Y s 1522 204 m -19 Y s 1560 204 m -19 Y s
 1597 204 m -19 Y s 1635 223 m -38 Y s 1673 204 m -19 Y s 1710 204 m -19 Y s 1748 204 m -19 Y s 1786 204 m -19 Y s 1823 223 m -38 Y s 1861 204 m -19 Y s 1899 204 m -19 Y s 1936 204 m -19 Y s 1974 204 m -19 Y s 2011 223 m -38 Y s 2049 204 m -19 Y s
 2087 204 m -19 Y s 2124 204 m -19 Y s 2162 204 m -19 Y s 2200 223 m -38 Y s
 gsave  2268 1538 0 0 C 293.239 104.263 t 0 r /Helvetica findfont 84.7135 sf 0 0 m (0) show NC gr 
 gsave  2268 1538 0 0 C 459.408 104.263 t 0 r /Helvetica findfont 84.7135 sf 0 0 m (10) show NC gr 
 gsave  2268 1538 0 0 C 645.126 104.263 t 0 r /Helvetica findfont 84.7135 sf 0 0 m (20) show NC gr 
 gsave  2268 1538 0 0 C 834.103 104.263 t 0 r /Helvetica findfont 84.7135 sf 0 0 m (30) show NC gr 
 gsave  2268 1538 0 0 C 1023.08 104.263 t 0 r /Helvetica findfont 84.7135 sf 0 0 m (40) show NC gr 
 gsave  2268 1538 0 0 C 1212.06 104.263 t 0 r /Helvetica findfont 84.7135 sf 0 0 m (50) show NC gr 
 gsave  2268 1538 0 0 C 1401.03 104.263 t 0 r /Helvetica findfont 84.7135 sf 0 0 m (60) show NC gr 
 gsave  2268 1538 0 0 C 1586.75 104.263 t 0 r /Helvetica findfont 84.7135 sf 0 0 m (70) show NC gr 
 gsave  2268 1538 0 0 C 1775.73 104.263 t 0 r /Helvetica findfont 84.7135 sf 0 0 m (80) show NC gr 
 gsave  2268 1538 0 0 C 1964.7 104.263 t 0 r /Helvetica findfont 84.7135 sf 0 0 m (90) show NC gr 
 gsave  2268 1538 0 0 C 2127.61 104.263 t 0 r /Helvetica findfont 84.7135 sf 0 0 m (100) show NC gr  317 1507 m 1883 X s 317 1469 m 38 Y s 355 1488 m 19 Y s 393 1488 m 19 Y s 430 1488 m 19 Y s 468 1488 m 19 Y s 506 1469 m 38 Y s 543 1488 m 19 Y s 581
 1488 m 19 Y s 619 1488 m 19 Y s 656 1488 m 19 Y s 694 1469 m 38 Y s 732 1488 m 19 Y s 769 1488 m 19 Y s 807 1488 m 19 Y s 844 1488 m 19 Y s 882 1469 m 38 Y s 920 1488 m 19 Y s 957 1488 m 19 Y s 995 1488 m 19 Y s 1033 1488 m 19 Y s 1070 1469 m 38 Y s
 1108 1488 m 19 Y s 1146 1488 m 19 Y s 1183 1488 m 19 Y s 1221 1488 m 19 Y s 1259 1469 m 38 Y s 1296 1488 m 19 Y s 1334 1488 m 19 Y s 1372 1488 m 19 Y s 1409 1488 m 19 Y s 1447 1469 m 38 Y s 1484 1488 m 19 Y s 1522 1488 m 19 Y s 1560 1488 m 19 Y s
 1597 1488 m 19 Y s 1635 1469 m 38 Y s 1673 1488 m 19 Y s 1710 1488 m 19 Y s 1748 1488 m 19 Y s 1786 1488 m 19 Y s 1823 1469 m 38 Y s 1861 1488 m 19 Y s 1899 1488 m 19 Y s 1936 1488 m 19 Y s 1974 1488 m 19 Y s 2011 1469 m 38 Y s 2049 1488 m 19 Y s
 2087 1488 m 19 Y s 2124 1488 m 19 Y s 2162 1488 m 19 Y s 2200 1469 m 38 Y s 317 185 m 1322 Y s
 gsave  2268 1538 0 0 C 127.07 1111.05 t 90 r /Helvetica findfont 84.7135 sf 0 0 m (Events/2.0) show NC gr  347 188 m -30 X s 347 226 m -30 X s 347 256 m -30 X s 347 280 m -30 X s 347 301 m -30 X s 347 319 m -30 X s 347 335 m -30 X s 376 349 m -59 X
 s
 gsave  2268 1538 0 0 C 295.257 312.191 t 0 r  -47 0 t /Helvetica findfont 84.7135 sf 0 0 m (1) show NC gr  347 441 m -30 X s 347 496 m -30 X s 347 534 m -30 X s 347 564 m -30 X s 347 588 m -30 X s 347 609 m -30 X s 347 627 m -30 X s 347 642 m -30 X
 s 376 656 m -59 X s
 gsave  2268 1538 0 0 C 295.257 619.973 t 0 r  -95 0 t /Helvetica findfont 84.7135 sf 0 0 m (10) show NC gr  347 749 m -30 X s 347 803 m -30 X s 347 842 m -30 X s 347 872 m -30 X s 347 896 m -30 X s 347 917 m -30 X s 347 934 m -30 X s 347 950 m -30 X
 s 376 964 m -59 X s
 gsave  2268 1538 0 0 C 260.657 961.173 t 0 r /Helvetica findfont 58.6478 sf 0 0 m (2) show NC gr 
 gsave  2268 1538 0 0 C 169.427 925.333 t 0 r /Helvetica findfont 84.7135 sf 0 0 m (10) show NC gr  347 1057 m -30 X s 347 1111 m -30 X s 347 1150 m -30 X s 347 1179 m -30 X s 347 1204 m -30 X s 347 1224 m -30 X s 347 1242 m -30 X s 347 1258 m -30 X
 s 376 1272 m -59 X s
 gsave  2268 1538 0 0 C 260.657 1273.96 t 0 r /Helvetica findfont 58.6478 sf 0 0 m (3) show NC gr 
 gsave  2268 1538 0 0 C 169.427 1234.86 t 0 r /Helvetica findfont 84.7135 sf 0 0 m (10) show NC gr  347 1365 m -30 X s 347 1419 m -30 X s 347 1457 m -30 X s 347 1487 m -30 X s 2200 185 m 1322 Y s 2170 188 m 30 X s 2170 226 m 30 X s 2170 256 m 30 X s
 2170 280 m 30 X s 2170 301 m 30 X s 2170 319 m 30 X s 2170 335 m 30 X s 2141 349 m 59 X s 2170 441 m 30 X s 2170 496 m 30 X s 2170 534 m 30 X s 2170 564 m 30 X s 2170 588 m 30 X s 2170 609 m 30 X s 2170 627 m 30 X s 2170 642 m 30 X s 2141 656 m 59 X
 s 2170 749 m 30 X s 2170 803 m 30 X s 2170 842 m 30 X s 2170 872 m 30 X s 2170 896 m 30 X s 2170 917 m 30 X s 2170 934 m 30 X s 2170 950 m 30 X s 2141 964 m 59 X s 2170 1057 m 30 X s 2170 1111 m 30 X s 2170 1150 m 30 X s 2170 1179 m 30 X s 2170 1204
 m 30 X s 2170 1224 m 30 X s 2170 1242 m 30 X s 2170 1258 m 30 X s 2141 1272 m 59 X s 2170 1365 m 30 X s 2170 1419 m 30 X s 2170 1457 m 30 X s 2170 1487 m 30 X s 0 0.6 0 c 9 lw 1 1 1 c black 0 0.6 0 c 317 185 m 151 X 100 Y 38 X 1024 Y 37 X 61 Y 38 X
 -9 Y 38 X -63 Y 37 X -51 Y 38 X -51 Y 38 X -59 Y 37 X -46 Y 38 X -8 Y 37 X 9 Y 38 X 22 Y 38 X 15 Y 37 X 15 Y 38 X 11 Y 38 X -2 Y 37 X -5 Y 38 X -17 Y 38 X -28 Y 37 X -20 Y 38 X -31 Y 38 X -29 Y 37 X -38 Y 38 X -43 Y 38 X -56 Y 37 X -102 Y 38 X -206
 Y 37 X -336 Y 38 X -57 Y 678 X s 0.6 0 0 c 1 1 1 c black 0.6 0 0 c 317 185 m 151 X 343 Y 38 X 820 Y 37 X 47 Y 38 X -14 Y 38 X -79 Y 37 X -50 Y 38 X -39 Y 38 X -33 Y 37 X -46 Y 38 X -32 Y 37 X -21 Y 38 X -4 Y 38 X -4 Y 37 X 24 Y 38 X 8 Y 38 X -23 Y
 37 X -25 Y 38 X -3 Y 38 X -27 Y 37 X -54 Y 38 X -35 Y 38 X -54 Y 37 X -32 Y 38 X -62 Y 38 X -3 Y 37 X -102 Y 38 X -195 Y 37 X -305 Y 716 X s black
 gsave  2268 1538 0 0 C 1772.47 1309.8 t 0 r /Helvetica-Bold findfont 42.3568 sf 0 0 m ( probe \(data\)) show NC gr 
 gsave  2268 1538 0 0 C 1736.63 1309.8 t 0 r /Symbol findfont 42.3568 sf 0 0 m (Y) show NC gr 
 gsave  2268 1538 0 0 C 1700.79 1309.8 t 0 r /Helvetica-Bold findfont 42.3568 sf 0 0 m (J/) show NC gr  1 1 1 c 3 lw 1604 1297 m 80 X 72 Y -80 X f 9 lw black 1604 1333 m 80 X s 3 lw 1644 1333 m20 9 lw
 gsave  2268 1538 0 0 C 1700.79 1208.8 t 0 r /Helvetica-Bold findfont 42.3568 sf 0 0 m (B\255el \(MC\)) show NC gr  0.6 0 0 c 6 lw 1604 1230 m 80 X s black
 gsave  2268 1538 0 0 C 1700.79 1107.79 t 0 r /Helvetica-Bold findfont 42.3568 sf 0 0 m (uds el \(qcd \)) show NC gr  1 1 1 c 3 lw 1604 1092 m 80 X 72 Y -80 X f 6 lw 0 0.6 0 c 1604 1128 m 80 X s black 3 lw 1644 1128 m20 6 lw
 gr  gr showpage
end
%%EOF
