%!PS-Adobe-2.0 EPSF-2.0
%%BoundingBox:  0 0 567 384
%%Title: /home/rohin/Analysis/thesis/images/softel/validated_vars/deltaPhiRescaled.eps: c1_n6
%%Creator: ROOT Version 5.34/14
%%CreationDate: Mon Sep  8 03:55:44 2014
%%EndComments
%%BeginProlog
80 dict begin
/s {stroke} def /l {lineto} def /m {moveto} def /t {translate} def
/r {rotate} def /rl {roll}  def /R {repeat} def
/d {rlineto} def /rm {rmoveto} def /gr {grestore} def /f {eofill} def
/c {setrgbcolor} def /black {0 setgray} def /sd {setdash} def
/cl {closepath} def /sf {scalefont setfont} def /lw {setlinewidth} def
/box {m dup 0 exch d exch 0 d 0 exch neg d cl} def
/NC{systemdict begin initclip end}def/C{NC box clip newpath}def
/bl {box s} def /bf {box f} def /Y { 0 exch d} def /X { 0 d} def 
/K {{pop pop 0 moveto} exch kshow} bind def
/ita {/ang 15 def gsave [1 0 ang dup sin exch cos div 1 0 0] concat} def 
/mp {newpath /y exch def /x exch def} def
/side {[w .77 mul w .23 mul] .385 w mul sd w 0 l currentpoint t -144 r} def
/mr {mp x y w2 0 360 arc} def /m24 {mr s} def /m20 {mr f} def
/mb {mp x y w2 add m w2 neg 0 d 0 w neg d w 0 d 0 w d cl} def
/mt {mp x y w2 add m w2 neg w neg d w 0 d cl} def
/m21 {mb f} def /m25 {mb s} def /m22 {mt f} def /m26{mt s} def
/m23 {mp x y w2 sub m w2 w d w neg 0 d cl f} def
/m27 {mp x y w2 add m w3 neg w2 neg d w3 w2 neg d w3 w2 d cl s} def
/m28 {mp x w2 sub y w2 sub w3 add m w3 0 d  0 w3 neg d w3 0 d 0 w3 d w3 0 d  0 w3 d w3 neg 0 d 0 w3 d w3 neg 0 d 0 w3 neg d w3 neg 0 d cl s } def
/m29 {mp gsave x w2 sub y w2 add w3 sub m currentpoint t 4 {side} repeat cl fill gr} def
/m30 {mp gsave x w2 sub y w2 add w3 sub m currentpoint t 4 {side} repeat cl s gr} def
/m31 {mp x y w2 sub m 0 w d x w2 sub y m w 0 d x w2 sub y w2 add m w w neg d x w2 sub y w2 sub m w w d s} def
/m32 {mp x y w2 sub m w2 w d w neg 0 d cl s} def
/m33 {mp x y w2 add m w3 neg w2 neg d w3 w2 neg d w3 w2 d cl f} def
/m34 {mp x w2 sub y w2 sub w3 add m w3 0 d  0 w3 neg d w3 0 d 0 w3 d w3 0 d  0 w3 d w3 neg 0 d 0 w3 d w3 neg 0 d 0 w3 neg d w3 neg 0 d cl f } def
/m2 {mp x y w2 sub m 0 w d x w2 sub y m w 0 d s} def
/m5 {mp x w2 sub y w2 sub m w w d x w2 sub y w2 add m w w neg d s} def
/reEncode {exch findfont dup length dict begin {1 index /FID eq  {pop pop} {def} ifelse } forall /Encoding exch def currentdict end dup /FontName get exch definefont pop } def [/Times-Bold /Times-Italic /Times-BoldItalic /Helvetica /Helvetica-Oblique
 /Helvetica-Bold /Helvetica-BoldOblique /Courier /Courier-Oblique /Courier-Bold /Courier-BoldOblique /Times-Roman /AvantGarde-Book /AvantGarde-BookOblique /AvantGarde-Demi /AvantGarde-DemiOblique /Bookman-Demi /Bookman-DemiItalic /Bookman-Light
 /Bookman-LightItalic /Helvetica-Narrow /Helvetica-Narrow-Bold /Helvetica-Narrow-BoldOblique /Helvetica-Narrow-Oblique /NewCenturySchlbk-Roman /NewCenturySchlbk-Bold /NewCenturySchlbk-BoldItalic /NewCenturySchlbk-Italic /Palatino-Bold
 /Palatino-BoldItalic /Palatino-Italic /Palatino-Roman ] {ISOLatin1Encoding reEncode } forall
%%EndProlog
%%BeginSetup
%%EndSetup
newpath  gsave  .25 .25 scale  gsave  0 0 t black[  ] 0 sd 3 lw 1 1 1 c 2268 1538 0 0 bf black 1 1 1 c 1883 1322 317 185 bf black 1883 1322 317 185 bl 1 1 1 c 1883 1322 317 185 bf black 1883 1322 317 185 bl 6 lw 1 1 1 c black 562 185 m 145 Y s 562
 343 m 80 Y s 543 337 m 13 X s 569 337 m 12 X s 3 lw /w 13 def /w2 {w 2 div} def /w3 {w 3 div} def 562 337 m20 6 lw 637 366 m 100 Y s 637 479 m 50 Y s 619 473 m 12 X s 644 473 m 12 X s 3 lw 637 473 m20 6 lw 713 185 m 281 Y s 713 479 m 80 Y s 694 473
 m 12 X s 719 473 m 13 X s 3 lw 713 473 m20 6 lw 750 463 m 67 Y s 750 543 m 39 Y s 732 536 m 12 X s 757 536 m 12 X s 3 lw 750 536 m20 6 lw 826 303 m 163 Y s 826 479 m 63 Y s 807 473 m 12 X s 832 473 m 12 X s 3 lw 826 473 m20 6 lw 863 185 m 231 Y s
 863 429 m 103 Y s 844 423 m 13 X s 870 423 m 12 X s 3 lw 863 423 m20 6 lw 901 608 m 49 Y s 901 670 m 32 Y s 882 664 m 12 X s 907 664 m 13 X s 3 lw 901 664 m20 6 lw 939 829 m 11 Y s 939 853 m 8 Y s 920 846 m 12 X s 945 846 m 12 X s 3 lw 939 846 m20 6
 lw 976 893 m 7 Y s 976 913 m 5 Y s 957 906 m 13 X s 983 906 m 12 X s 3 lw 976 906 m20 6 lw 1014 983 m 2 Y s 1014 998 m 2 Y s 995 992 m 12 X s 1020 992 m 13 X s 3 lw 1014 992 m20 6 lw 1033 1100 m 12 X s 1058 1100 m 12 X s 3 lw 1052 1100 m20 6 lw 1070
 1162 m 13 X s 1096 1162 m 12 X s 3 lw 1089 1162 m20 6 lw 1108 1293 m 12 X s 1133 1293 m 13 X s 3 lw 1127 1293 m20 6 lw 1146 1426 m 12 X s 1171 1426 m 12 X s 3 lw 1164 1426 m20 6 lw 1183 1260 m 13 X s 1209 1260 m 12 X s 3 lw 1202 1260 m20 6 lw 1221
 1080 m 12 X s 1246 1080 m 13 X s 3 lw 1240 1080 m20 6 lw 1277 938 m 4 Y s 1277 956 m 3 Y s 1259 949 m 12 X s 1284 949 m 12 X s 3 lw 1277 949 m20 6 lw 1315 803 m 12 Y s 1315 828 m 10 Y s 1296 821 m 13 X s 1322 821 m 12 X s 3 lw 1315 821 m20 6 lw 1353
 713 m 21 Y s 1353 747 m 16 Y s 1334 740 m 12 X s 1359 740 m 13 X s 3 lw 1353 740 m20 6 lw 1390 480 m 72 Y s 1390 565 m 42 Y s 1372 559 m 12 X s 1397 559 m 12 X s 3 lw 1390 559 m20 6 lw 1466 185 m 231 Y s 1466 429 m 79 Y s 1447 423 m 12 X s 1472 423
 m 12 X s 3 lw 1466 423 m20 6 lw 1503 270 m 146 Y s 1503 429 m 60 Y s 1484 423 m 13 X s 1510 423 m 12 X s 3 lw 1503 423 m20 6 lw 3 lw 317 185 m 1883 X s
 gsave  2268 1538 0 0 C 2016.83 16.2911 t 0 r /Helvetica findfont 48.8732 sf 0 0 m (rescaled) show NC gr 
 gsave  2268 1538 0 0 C 1980.99 55.3896 t 0 r /Symbol findfont 71.6807 sf 0 0 m (f) show NC gr 
 gsave  2268 1538 0 0 C 1935.38 55.3896 t 0 r /Symbol findfont 71.6807 sf 0 0 m (D) show NC gr  370 223 m -38 Y s 422 204 m -19 Y s 474 204 m -19 Y s 527 204 m -19 Y s 579 204 m -19 Y s 631 223 m -38 Y s 683 204 m -19 Y s 736 204 m -19 Y s 788 204 m
 -19 Y s 840 204 m -19 Y s 893 223 m -38 Y s 945 204 m -19 Y s 997 204 m -19 Y s 1049 204 m -19 Y s 1102 204 m -19 Y s 1154 223 m -38 Y s 1206 204 m -19 Y s 1259 204 m -19 Y s 1311 204 m -19 Y s 1363 204 m -19 Y s 1415 223 m -38 Y s 1468 204 m -19 Y
 s 1520 204 m -19 Y s 1572 204 m -19 Y s 1625 204 m -19 Y s 1677 223 m -38 Y s 1729 204 m -19 Y s 1781 204 m -19 Y s 1834 204 m -19 Y s 1886 204 m -19 Y s 1938 223 m -38 Y s 1991 204 m -19 Y s 2043 204 m -19 Y s 2095 204 m -19 Y s 2147 204 m -19 Y s
 2200 223 m -38 Y s 370 223 m -38 Y s
 gsave  2268 1538 0 0 C 286.723 117.296 t 0 r /Helvetica findfont 71.6807 sf 0 0 m (\2550.15) show NC gr 
 gsave  2268 1538 0 0 C 573.446 117.296 t 0 r /Helvetica findfont 71.6807 sf 0 0 m (\2550.1) show NC gr 
 gsave  2268 1538 0 0 C 808.037 117.296 t 0 r /Helvetica findfont 71.6807 sf 0 0 m (\2550.05) show NC gr 
 gsave  2268 1538 0 0 C 1133.86 117.296 t 0 r /Helvetica findfont 71.6807 sf 0 0 m (0) show NC gr 
 gsave  2268 1538 0 0 C 1345.64 117.296 t 0 r /Helvetica findfont 71.6807 sf 0 0 m (0.05) show NC gr 
 gsave  2268 1538 0 0 C 1629.11 117.296 t 0 r /Helvetica findfont 71.6807 sf 0 0 m (0.1) show NC gr 
 gsave  2268 1538 0 0 C 1866.96 117.296 t 0 r /Helvetica findfont 71.6807 sf 0 0 m (0.15) show NC gr 
 gsave  2268 1538 0 0 C 2150.42 117.296 t 0 r /Helvetica findfont 71.6807 sf 0 0 m (0.2) show NC gr  317 1507 m 1883 X s 370 1469 m 38 Y s 422 1488 m 19 Y s 474 1488 m 19 Y s 527 1488 m 19 Y s 579 1488 m 19 Y s 631 1469 m 38 Y s 683 1488 m 19 Y s 736
 1488 m 19 Y s 788 1488 m 19 Y s 840 1488 m 19 Y s 893 1469 m 38 Y s 945 1488 m 19 Y s 997 1488 m 19 Y s 1049 1488 m 19 Y s 1102 1488 m 19 Y s 1154 1469 m 38 Y s 1206 1488 m 19 Y s 1259 1488 m 19 Y s 1311 1488 m 19 Y s 1363 1488 m 19 Y s 1415 1469 m
 38 Y s 1468 1488 m 19 Y s 1520 1488 m 19 Y s 1572 1488 m 19 Y s 1625 1488 m 19 Y s 1677 1469 m 38 Y s 1729 1488 m 19 Y s 1781 1488 m 19 Y s 1834 1488 m 19 Y s 1886 1488 m 19 Y s 1938 1469 m 38 Y s 1991 1488 m 19 Y s 2043 1488 m 19 Y s 2095 1488 m 19
 Y s 2147 1488 m 19 Y s 2200 1469 m 38 Y s 370 1469 m 38 Y s 317 185 m 1322 Y s
 gsave  2268 1538 0 0 C 127.07 1078.47 t 90 r /Helvetica findfont 84.7135 sf 0 0 m (Events/0.01) show NC gr  347 188 m -30 X s 347 223 m -30 X s 347 251 m -30 X s 347 273 m -30 X s 347 293 m -30 X s 347 309 m -30 X s 347 324 m -30 X s 376 337 m -59 X
 s
 gsave  2268 1538 0 0 C 295.257 300.202 t 0 r  -47 0 t /Helvetica findfont 84.7135 sf 0 0 m (1) show NC gr  347 423 m -30 X s 347 473 m -30 X s 347 508 m -30 X s 347 536 m -30 X s 347 559 m -30 X s 347 578 m -30 X s 347 594 m -30 X s 347 609 m -30 X
 s 376 622 m -59 X s
 gsave  2268 1538 0 0 C 295.257 585.504 t 0 r  -95 0 t /Helvetica findfont 84.7135 sf 0 0 m (10) show NC gr  347 708 m -30 X s 347 758 m -30 X s 347 794 m -30 X s 347 821 m -30 X s 347 844 m -30 X s 347 863 m -30 X s 347 880 m -30 X s 347 894 m -30 X
 s 376 907 m -59 X s
 gsave  2268 1538 0 0 C 260.657 905.783 t 0 r /Helvetica findfont 58.6478 sf 0 0 m (2) show NC gr 
 gsave  2268 1538 0 0 C 169.427 869.943 t 0 r /Helvetica findfont 84.7135 sf 0 0 m (10) show NC gr  347 993 m -30 X s 347 1043 m -30 X s 347 1079 m -30 X s 347 1107 m -30 X s 347 1129 m -30 X s 347 1148 m -30 X s 347 1165 m -30 X s 347 1180 m -30 X s
 376 1193 m -59 X s
 gsave  2268 1538 0 0 C 260.657 1195.76 t 0 r /Helvetica findfont 58.6478 sf 0 0 m (3) show NC gr 
 gsave  2268 1538 0 0 C 169.427 1156.67 t 0 r /Helvetica findfont 84.7135 sf 0 0 m (10) show NC gr  347 1278 m -30 X s 347 1329 m -30 X s 347 1364 m -30 X s 347 1392 m -30 X s 347 1415 m -30 X s 347 1434 m -30 X s 347 1450 m -30 X s 347 1465 m -30 X
 s 376 1478 m -59 X s
 gsave  2268 1538 0 0 C 260.657 1475.97 t 0 r /Helvetica findfont 58.6478 sf 0 0 m (4) show NC gr 
 gsave  2268 1538 0 0 C 169.427 1440.13 t 0 r /Helvetica findfont 84.7135 sf 0 0 m (10) show NC gr  2200 185 m 1322 Y s 2170 188 m 30 X s 2170 223 m 30 X s 2170 251 m 30 X s 2170 273 m 30 X s 2170 293 m 30 X s 2170 309 m 30 X s 2170 324 m 30 X s 2141
 337 m 59 X s 2170 423 m 30 X s 2170 473 m 30 X s 2170 508 m 30 X s 2170 536 m 30 X s 2170 559 m 30 X s 2170 578 m 30 X s 2170 594 m 30 X s 2170 609 m 30 X s 2141 622 m 59 X s 2170 708 m 30 X s 2170 758 m 30 X s 2170 794 m 30 X s 2170 821 m 30 X s
 2170 844 m 30 X s 2170 863 m 30 X s 2170 880 m 30 X s 2170 894 m 30 X s 2141 907 m 59 X s 2170 993 m 30 X s 2170 1043 m 30 X s 2170 1079 m 30 X s 2170 1107 m 30 X s 2170 1129 m 30 X s 2170 1148 m 30 X s 2170 1165 m 30 X s 2170 1180 m 30 X s 2141
 1193 m 59 X s 2170 1278 m 30 X s 2170 1329 m 30 X s 2170 1364 m 30 X s 2170 1392 m 30 X s 2170 1415 m 30 X s 2170 1434 m 30 X s 2170 1450 m 30 X s 2170 1465 m 30 X s 2141 1478 m 59 X s 0 0.6 0 c 9 lw 1 1 1 c black 0 0.6 0 c 317 185 m 151 X 84 Y 38 X
 147 Y 37 X 127 Y 38 X 99 Y 38 X 170 Y 37 X 53 Y 38 X 23 Y 38 X 16 Y 37 X 24 Y 38 X 25 Y 37 X 35 Y 38 X 38 Y 38 X 47 Y 37 X 44 Y 38 X 49 Y 38 X 45 Y 37 X 34 Y 38 X 25 Y 38 X 20 Y 37 X -59 Y 38 X -67 Y 38 X -59 Y 37 X -61 Y 38 X -58 Y 38 X -63 Y 37 X
 -95 Y 38 X -120 Y 37 X -155 Y 38 X -162 Y 38 X -206 Y 640 X s 0.6 0 0 c 1 1 1 c black 0.6 0 0 c 317 185 m 151 X 152 Y 38 X -152 Y 113 X 235 Y 37 X -235 Y 38 X 182 Y 38 X 124 Y 37 X -257 Y 38 X 365 Y 37 X -54 Y 38 X 33 Y 38 X 171 Y 37 X 80 Y 38 X 104
 Y 38 X 100 Y 37 X 100 Y 38 X 185 Y 38 X 114 Y 37 X -192 Y 38 X -170 Y 38 X -137 Y 37 X -127 Y 38 X -96 Y 38 X -61 Y 37 X -45 Y 38 X -104 Y 37 X -133 Y 38 X -18 Y 38 X -164 Y 640 X s black
 gsave  2268 1538 0 0 C 1730.11 1319.58 t 0 r /Helvetica-Bold findfont 61.9061 sf 0 0 m ( probe \(data\)) show NC gr 
 gsave  2268 1538 0 0 C 1681.24 1319.58 t 0 r /Symbol findfont 61.9061 sf 0 0 m (Y) show NC gr 
 gsave  2268 1538 0 0 C 1629.11 1319.58 t 0 r /Helvetica-Bold findfont 61.9061 sf 0 0 m (J/) show NC gr  1 1 1 c 3 lw 1485 1304 m 119 X 72 Y -119 X f 9 lw black 1485 1340 m 119 X s 3 lw 1545 1340 m20 9 lw
 gsave  2268 1538 0 0 C 1629.11 1215.31 t 0 r /Helvetica-Bold findfont 61.9061 sf 0 0 m (B\255el \(MC\)) show NC gr  0.6 0 0 c 6 lw 1485 1238 m 119 X s black
 gsave  2268 1538 0 0 C 1629.11 1114.31 t 0 r /Helvetica-Bold findfont 61.9061 sf 0 0 m (uds el \(qcd \)) show NC gr  1 1 1 c 3 lw 1485 1100 m 119 X 72 Y -119 X f 6 lw 0 0.6 0 c 1485 1136 m 119 X s black 3 lw 1545 1136 m20 6 lw
 gr  gr showpage
end
%%EOF
