%!PS-Adobe-2.0 EPSF-2.0
%%BoundingBox:  0 0 567 384
%%Title: /home/rohin/Analysis/thesis/images/softel/validated_vars/deltaEta1.eps: c1_n5
%%Creator: ROOT Version 5.34/14
%%CreationDate: Mon Sep  8 03:56:54 2014
%%EndComments
%%BeginProlog
80 dict begin
/s {stroke} def /l {lineto} def /m {moveto} def /t {translate} def
/r {rotate} def /rl {roll}  def /R {repeat} def
/d {rlineto} def /rm {rmoveto} def /gr {grestore} def /f {eofill} def
/c {setrgbcolor} def /black {0 setgray} def /sd {setdash} def
/cl {closepath} def /sf {scalefont setfont} def /lw {setlinewidth} def
/box {m dup 0 exch d exch 0 d 0 exch neg d cl} def
/NC{systemdict begin initclip end}def/C{NC box clip newpath}def
/bl {box s} def /bf {box f} def /Y { 0 exch d} def /X { 0 d} def 
/K {{pop pop 0 moveto} exch kshow} bind def
/ita {/ang 15 def gsave [1 0 ang dup sin exch cos div 1 0 0] concat} def 
/mp {newpath /y exch def /x exch def} def
/side {[w .77 mul w .23 mul] .385 w mul sd w 0 l currentpoint t -144 r} def
/mr {mp x y w2 0 360 arc} def /m24 {mr s} def /m20 {mr f} def
/mb {mp x y w2 add m w2 neg 0 d 0 w neg d w 0 d 0 w d cl} def
/mt {mp x y w2 add m w2 neg w neg d w 0 d cl} def
/m21 {mb f} def /m25 {mb s} def /m22 {mt f} def /m26{mt s} def
/m23 {mp x y w2 sub m w2 w d w neg 0 d cl f} def
/m27 {mp x y w2 add m w3 neg w2 neg d w3 w2 neg d w3 w2 d cl s} def
/m28 {mp x w2 sub y w2 sub w3 add m w3 0 d  0 w3 neg d w3 0 d 0 w3 d w3 0 d  0 w3 d w3 neg 0 d 0 w3 d w3 neg 0 d 0 w3 neg d w3 neg 0 d cl s } def
/m29 {mp gsave x w2 sub y w2 add w3 sub m currentpoint t 4 {side} repeat cl fill gr} def
/m30 {mp gsave x w2 sub y w2 add w3 sub m currentpoint t 4 {side} repeat cl s gr} def
/m31 {mp x y w2 sub m 0 w d x w2 sub y m w 0 d x w2 sub y w2 add m w w neg d x w2 sub y w2 sub m w w d s} def
/m32 {mp x y w2 sub m w2 w d w neg 0 d cl s} def
/m33 {mp x y w2 add m w3 neg w2 neg d w3 w2 neg d w3 w2 d cl f} def
/m34 {mp x w2 sub y w2 sub w3 add m w3 0 d  0 w3 neg d w3 0 d 0 w3 d w3 0 d  0 w3 d w3 neg 0 d 0 w3 d w3 neg 0 d 0 w3 neg d w3 neg 0 d cl f } def
/m2 {mp x y w2 sub m 0 w d x w2 sub y m w 0 d s} def
/m5 {mp x w2 sub y w2 sub m w w d x w2 sub y w2 add m w w neg d s} def
/reEncode {exch findfont dup length dict begin {1 index /FID eq  {pop pop} {def} ifelse } forall /Encoding exch def currentdict end dup /FontName get exch definefont pop } def [/Times-Bold /Times-Italic /Times-BoldItalic /Helvetica /Helvetica-Oblique
 /Helvetica-Bold /Helvetica-BoldOblique /Courier /Courier-Oblique /Courier-Bold /Courier-BoldOblique /Times-Roman /AvantGarde-Book /AvantGarde-BookOblique /AvantGarde-Demi /AvantGarde-DemiOblique /Bookman-Demi /Bookman-DemiItalic /Bookman-Light
 /Bookman-LightItalic /Helvetica-Narrow /Helvetica-Narrow-Bold /Helvetica-Narrow-BoldOblique /Helvetica-Narrow-Oblique /NewCenturySchlbk-Roman /NewCenturySchlbk-Bold /NewCenturySchlbk-BoldItalic /NewCenturySchlbk-Italic /Palatino-Bold
 /Palatino-BoldItalic /Palatino-Italic /Palatino-Roman ] {ISOLatin1Encoding reEncode } forall
%%EndProlog
%%BeginSetup
%%EndSetup
newpath  gsave  .25 .25 scale  gsave  0 0 t black[  ] 0 sd 3 lw 1 1 1 c 2268 1538 0 0 bf black 1 1 1 c 1883 1322 317 185 bf black 1883 1322 317 185 bl 1 1 1 c 1883 1322 317 185 bf black 1883 1322 317 185 bl 6 lw 1 1 1 c black 600 185 m 251 Y s 600
 449 m 72 Y s 581 443 m 12 X s 606 443 m 13 X s 3 lw /w 13 def /w2 {w 2 div} def /w3 {w 3 div} def 600 443 m20 6 lw 788 492 m 101 Y s 788 606 m 48 Y s 769 600 m 13 X s 795 600 m 12 X s 3 lw 788 600 m20 6 lw 1014 621 m 50 Y s 1014 685 m 31 Y s 995 678
 m 12 X s 1020 678 m 13 X s 3 lw 1014 678 m20 6 lw 1089 521 m 97 Y s 1089 631 m 47 Y s 1070 625 m 13 X s 1096 625 m 12 X s 3 lw 1089 625 m20 6 lw 1127 682 m 35 Y s 1127 730 m 25 Y s 1108 724 m 12 X s 1133 724 m 13 X s 3 lw 1127 724 m20 6 lw 1202 968
 m 5 Y s 1202 986 m 4 Y s 1183 980 m 13 X s 1209 980 m 12 X s 3 lw 1202 980 m20 6 lw 1221 1433 m 12 X s 1246 1433 m 13 X s 3 lw 1240 1433 m20 6 lw 1259 1431 m 12 X s 1284 1431 m 12 X s 3 lw 1277 1431 m20 6 lw 1315 941 m 6 Y s 1315 960 m 4 Y s 1296
 953 m 13 X s 1322 953 m 12 X s 3 lw 1315 953 m20 6 lw 1353 650 m 47 Y s 1353 710 m 29 Y s 1334 703 m 12 X s 1359 703 m 13 X s 3 lw 1353 703 m20 6 lw 1390 639 m 46 Y s 1390 698 m 29 Y s 1372 691 m 12 X s 1397 691 m 12 X s 3 lw 1390 691 m20 6 lw 1466
 263 m 355 Y s 1466 631 m 70 Y s 1447 625 m 12 X s 1472 625 m 12 X s 3 lw 1466 625 m20 6 lw 1503 581 m 75 Y s 1503 669 m 41 Y s 1484 663 m 13 X s 1510 663 m 12 X s 3 lw 1503 663 m20 6 lw 1541 719 m 31 Y s 1541 763 m 21 Y s 1522 756 m 12 X s 1547 756
 m 13 X s 3 lw 1541 756 m20 6 lw 1616 185 m 330 Y s 1616 528 m 93 Y s 1597 521 m 13 X s 1623 521 m 12 X s 3 lw 1616 521 m20 6 lw 1654 412 m 149 Y s 1654 574 m 56 Y s 1635 567 m 12 X s 1660 567 m 13 X s 3 lw 1654 567 m20 6 lw 1691 639 m 46 Y s 1691
 698 m 29 Y s 1673 691 m 12 X s 1698 691 m 12 X s 3 lw 1691 691 m20 6 lw 1729 382 m 133 Y s 1729 528 m 54 Y s 1710 521 m 13 X s 1736 521 m 12 X s 3 lw 1729 521 m20 6 lw 1767 185 m 330 Y s 1767 528 m 84 Y s 1748 521 m 12 X s 1773 521 m 13 X s 3 lw
 1767 521 m20 6 lw 1880 185 m 251 Y s 1880 449 m 72 Y s 1861 443 m 12 X s 1886 443 m 13 X s 3 lw 1880 443 m20 6 lw 1955 185 m 251 Y s 1955 449 m 72 Y s 1936 443 m 12 X s 1962 443 m 12 X s 3 lw 1955 443 m20 6 lw 3 lw 317 185 m 1883 X s
 gsave  2268 1538 0 0 C 2176.49 -13.0329 t 0 r /Helvetica findfont 58.6478 sf 0 0 m (1) show NC gr 
 gsave  2268 1538 0 0 C 2130.87 29.3239 t 0 r /Symbol findfont 84.7135 sf 0 0 m (h) show NC gr 
 gsave  2268 1538 0 0 C 2078.74 29.3239 t 0 r /Symbol findfont 84.7135 sf 0 0 m (D) show NC gr  317 223 m -38 Y s 365 204 m -19 Y s 412 204 m -19 Y s 459 204 m -19 Y s 506 223 m -38 Y s 553 204 m -19 Y s 600 204 m -19 Y s 647 204 m -19 Y s 694 223 m
 -38 Y s 741 204 m -19 Y s 788 204 m -19 Y s 835 204 m -19 Y s 882 223 m -38 Y s 929 204 m -19 Y s 976 204 m -19 Y s 1023 204 m -19 Y s 1070 223 m -38 Y s 1117 204 m -19 Y s 1164 204 m -19 Y s 1212 204 m -19 Y s 1259 223 m -38 Y s 1306 204 m -19 Y s
 1353 204 m -19 Y s 1400 204 m -19 Y s 1447 223 m -38 Y s 1494 204 m -19 Y s 1541 204 m -19 Y s 1588 204 m -19 Y s 1635 223 m -38 Y s 1682 204 m -19 Y s 1729 204 m -19 Y s 1776 204 m -19 Y s 1823 223 m -38 Y s 1870 204 m -19 Y s 1917 204 m -19 Y s
 1964 204 m -19 Y s 2011 223 m -38 Y s 2059 204 m -19 Y s 2106 204 m -19 Y s 2153 204 m -19 Y s 2200 223 m -38 Y s 317 223 m -38 Y s 2200 223 m -38 Y s
 gsave  2268 1538 0 0 C 260.657 117.296 t 0 r /Helvetica findfont 71.6807 sf 0 0 m (\2550.1) show NC gr 
 gsave  2268 1538 0 0 C 423.568 117.296 t 0 r /Helvetica findfont 71.6807 sf 0 0 m (\2550.08) show NC gr 
 gsave  2268 1538 0 0 C 609.286 117.296 t 0 r /Helvetica findfont 71.6807 sf 0 0 m (\2550.06) show NC gr 
 gsave  2268 1538 0 0 C 798.262 117.296 t 0 r /Helvetica findfont 71.6807 sf 0 0 m (\2550.04) show NC gr 
 gsave  2268 1538 0 0 C 987.239 117.296 t 0 r /Helvetica findfont 71.6807 sf 0 0 m (\2550.02) show NC gr 
 gsave  2268 1538 0 0 C 1238.12 117.296 t 0 r /Helvetica findfont 71.6807 sf 0 0 m (0) show NC gr 
 gsave  2268 1538 0 0 C 1378.22 117.296 t 0 r /Helvetica findfont 71.6807 sf 0 0 m (0.02) show NC gr 
 gsave  2268 1538 0 0 C 1560.68 117.296 t 0 r /Helvetica findfont 71.6807 sf 0 0 m (0.04) show NC gr 
 gsave  2268 1538 0 0 C 1752.92 117.296 t 0 r /Helvetica findfont 71.6807 sf 0 0 m (0.06) show NC gr 
 gsave  2268 1538 0 0 C 1941.9 117.296 t 0 r /Helvetica findfont 71.6807 sf 0 0 m (0.08) show NC gr 
 gsave  2268 1538 0 0 C 2153.68 117.296 t 0 r /Helvetica findfont 71.6807 sf 0 0 m (0.1) show NC gr  317 1507 m 1883 X s 317 1469 m 38 Y s 365 1488 m 19 Y s 412 1488 m 19 Y s 459 1488 m 19 Y s 506 1469 m 38 Y s 553 1488 m 19 Y s 600 1488 m 19 Y s 647
 1488 m 19 Y s 694 1469 m 38 Y s 741 1488 m 19 Y s 788 1488 m 19 Y s 835 1488 m 19 Y s 882 1469 m 38 Y s 929 1488 m 19 Y s 976 1488 m 19 Y s 1023 1488 m 19 Y s 1070 1469 m 38 Y s 1117 1488 m 19 Y s 1164 1488 m 19 Y s 1212 1488 m 19 Y s 1259 1469 m 38
 Y s 1306 1488 m 19 Y s 1353 1488 m 19 Y s 1400 1488 m 19 Y s 1447 1469 m 38 Y s 1494 1488 m 19 Y s 1541 1488 m 19 Y s 1588 1488 m 19 Y s 1635 1469 m 38 Y s 1682 1488 m 19 Y s 1729 1488 m 19 Y s 1776 1488 m 19 Y s 1823 1469 m 38 Y s 1870 1488 m 19 Y
 s 1917 1488 m 19 Y s 1964 1488 m 19 Y s 2011 1469 m 38 Y s 2059 1488 m 19 Y s 2106 1488 m 19 Y s 2153 1488 m 19 Y s 2200 1469 m 38 Y s 317 1469 m 38 Y s 2200 1469 m 38 Y s 317 185 m 1322 Y s
 gsave  2268 1538 0 0 C 127.07 1111.05 t 90 r /Helvetica findfont 84.7135 sf 0 0 m (Events/0.0) show NC gr  347 261 m -30 X s 347 307 m -30 X s 347 339 m -30 X s 347 364 m -30 X s 347 385 m -30 X s 347 402 m -30 X s 347 417 m -30 X s 347 431 m -30 X
 s 376 443 m -59 X s
 gsave  2268 1538 0 0 C 295.257 406.234 t 0 r  -47 0 t /Helvetica findfont 84.7135 sf 0 0 m (1) show NC gr  347 521 m -30 X s 347 567 m -30 X s 347 600 m -30 X s 347 625 m -30 X s 347 645 m -30 X s 347 663 m -30 X s 347 678 m -30 X s 347 691 m -30 X
 s 376 703 m -59 X s
 gsave  2268 1538 0 0 C 295.257 666.748 t 0 r  -95 0 t /Helvetica findfont 84.7135 sf 0 0 m (10) show NC gr  347 782 m -30 X s 347 828 m -30 X s 347 860 m -30 X s 347 885 m -30 X s 347 906 m -30 X s 347 923 m -30 X s 347 939 m -30 X s 347 952 m -30 X
 s 376 964 m -59 X s
 gsave  2268 1538 0 0 C 260.657 961.173 t 0 r /Helvetica findfont 58.6478 sf 0 0 m (2) show NC gr 
 gsave  2268 1538 0 0 C 169.427 925.333 t 0 r /Helvetica findfont 84.7135 sf 0 0 m (10) show NC gr  347 1042 m -30 X s 347 1088 m -30 X s 347 1121 m -30 X s 347 1146 m -30 X s 347 1166 m -30 X s 347 1184 m -30 X s 347 1199 m -30 X s 347 1212 m -30 X
 s 376 1224 m -59 X s
 gsave  2268 1538 0 0 C 260.657 1225.09 t 0 r /Helvetica findfont 58.6478 sf 0 0 m (3) show NC gr 
 gsave  2268 1538 0 0 C 169.427 1185.99 t 0 r /Helvetica findfont 84.7135 sf 0 0 m (10) show NC gr  347 1303 m -30 X s 347 1349 m -30 X s 347 1381 m -30 X s 347 1406 m -30 X s 347 1427 m -30 X s 347 1444 m -30 X s 347 1460 m -30 X s 347 1473 m -30 X
 s 376 1485 m -59 X s
 gsave  2268 1538 0 0 C 260.657 1482.49 t 0 r /Helvetica findfont 58.6478 sf 0 0 m (4) show NC gr 
 gsave  2268 1538 0 0 C 169.427 1446.65 t 0 r /Helvetica findfont 84.7135 sf 0 0 m (10) show NC gr  2200 185 m 1322 Y s 2170 261 m 30 X s 2170 307 m 30 X s 2170 339 m 30 X s 2170 364 m 30 X s 2170 385 m 30 X s 2170 402 m 30 X s 2170 417 m 30 X s 2170
 431 m 30 X s 2141 443 m 59 X s 2170 521 m 30 X s 2170 567 m 30 X s 2170 600 m 30 X s 2170 625 m 30 X s 2170 645 m 30 X s 2170 663 m 30 X s 2170 678 m 30 X s 2170 691 m 30 X s 2141 703 m 59 X s 2170 782 m 30 X s 2170 828 m 30 X s 2170 860 m 30 X s
 2170 885 m 30 X s 2170 906 m 30 X s 2170 923 m 30 X s 2170 939 m 30 X s 2170 952 m 30 X s 2141 964 m 59 X s 2170 1042 m 30 X s 2170 1088 m 30 X s 2170 1121 m 30 X s 2170 1146 m 30 X s 2170 1166 m 30 X s 2170 1184 m 30 X s 2170 1199 m 30 X s 2170
 1212 m 30 X s 2141 1224 m 59 X s 2170 1303 m 30 X s 2170 1349 m 30 X s 2170 1381 m 30 X s 2170 1406 m 30 X s 2170 1427 m 30 X s 2170 1444 m 30 X s 2170 1460 m 30 X s 2170 1473 m 30 X s 2141 1485 m 59 X s 0 0.6 0 c 9 lw 1 1 1 c black 0 0.6 0 c 317
 185 m 113 X 86 Y 38 X 184 Y 38 X 72 Y 37 X 98 Y 38 X 79 Y 38 X 80 Y 37 X 64 Y 38 X 47 Y 38 X 47 Y 37 X 43 Y 38 X 34 Y 37 X 21 Y 38 X 16 Y 38 X 14 Y 37 X 12 Y 38 X 10 Y 38 X 11 Y 37 X 12 Y 38 X 16 Y 38 X 19 Y 37 X 27 Y 38 X 136 Y 38 X 10 Y 37 X -142
 Y 38 X -35 Y 38 X -15 Y 37 X -14 Y 38 X -11 Y 37 X -12 Y 38 X -13 Y 38 X -11 Y 37 X -13 Y 38 X -15 Y 38 X -19 Y 37 X -33 Y 38 X -43 Y 38 X -50 Y 37 X -49 Y 38 X -60 Y 38 X -74 Y 37 X -72 Y 38 X -95 Y 37 X -95 Y 38 X -213 Y 38 X -54 Y 113 X s 0.6 0 0
 c 1 1 1 c black 0.6 0 0 c 317 185 m 264 X 294 Y 38 X -294 Y 37 X 294 Y 38 X 3 Y 38 X -297 Y 37 X 394 Y 38 X -72 Y 37 X 64 Y 38 X -55 Y 38 X -12 Y 37 X -256 Y 38 X 345 Y 38 X 40 Y 37 X 13 Y 38 X -2 Y 38 X 35 Y 37 X 136 Y 38 X 576 Y 38 X 72 Y 37 X
 -523 Y 38 X -239 Y 38 X -129 Y 37 X 125 Y 38 X -189 Y 37 X -323 Y 38 X 397 Y 38 X -88 Y 37 X 144 Y 38 X -55 Y 38 X -48 Y 37 X 1 Y 38 X -77 Y 38 X -274 Y 37 X 348 Y 38 X -82 Y 38 X -266 Y 301 X s black
 gsave  2268 1538 0 0 C 1772.47 1309.8 t 0 r /Helvetica-Bold findfont 42.3568 sf 0 0 m ( probe \(data\)) show NC gr 
 gsave  2268 1538 0 0 C 1736.63 1309.8 t 0 r /Symbol findfont 42.3568 sf 0 0 m (Y) show NC gr 
 gsave  2268 1538 0 0 C 1700.79 1309.8 t 0 r /Helvetica-Bold findfont 42.3568 sf 0 0 m (J/) show NC gr  1 1 1 c 3 lw 1604 1297 m 80 X 72 Y -80 X f 9 lw black 1604 1333 m 80 X s 3 lw 1644 1333 m20 9 lw
 gsave  2268 1538 0 0 C 1700.79 1208.8 t 0 r /Helvetica-Bold findfont 42.3568 sf 0 0 m (B\255el \(MC\)) show NC gr  0.6 0 0 c 6 lw 1604 1230 m 80 X s black
 gsave  2268 1538 0 0 C 1700.79 1107.79 t 0 r /Helvetica-Bold findfont 42.3568 sf 0 0 m (uds el \(qcd \)) show NC gr  1 1 1 c 3 lw 1604 1092 m 80 X 72 Y -80 X f 6 lw 0 0.6 0 c 1604 1128 m 80 X s black 3 lw 1644 1128 m20 6 lw
 gr  gr showpage
end
%%EOF
