%!PS-Adobe-2.0 EPSF-2.0
%%BoundingBox:  0 0 567 384
%%Title: /home/rohin/Analysis/thesis/images/softel/validated_vars/depth.eps: c1_n7
%%Creator: ROOT Version 5.34/14
%%CreationDate: Mon Sep  8 03:54:20 2014
%%EndComments
%%BeginProlog
80 dict begin
/s {stroke} def /l {lineto} def /m {moveto} def /t {translate} def
/r {rotate} def /rl {roll}  def /R {repeat} def
/d {rlineto} def /rm {rmoveto} def /gr {grestore} def /f {eofill} def
/c {setrgbcolor} def /black {0 setgray} def /sd {setdash} def
/cl {closepath} def /sf {scalefont setfont} def /lw {setlinewidth} def
/box {m dup 0 exch d exch 0 d 0 exch neg d cl} def
/NC{systemdict begin initclip end}def/C{NC box clip newpath}def
/bl {box s} def /bf {box f} def /Y { 0 exch d} def /X { 0 d} def 
/K {{pop pop 0 moveto} exch kshow} bind def
/ita {/ang 15 def gsave [1 0 ang dup sin exch cos div 1 0 0] concat} def 
/mp {newpath /y exch def /x exch def} def
/side {[w .77 mul w .23 mul] .385 w mul sd w 0 l currentpoint t -144 r} def
/mr {mp x y w2 0 360 arc} def /m24 {mr s} def /m20 {mr f} def
/mb {mp x y w2 add m w2 neg 0 d 0 w neg d w 0 d 0 w d cl} def
/mt {mp x y w2 add m w2 neg w neg d w 0 d cl} def
/m21 {mb f} def /m25 {mb s} def /m22 {mt f} def /m26{mt s} def
/m23 {mp x y w2 sub m w2 w d w neg 0 d cl f} def
/m27 {mp x y w2 add m w3 neg w2 neg d w3 w2 neg d w3 w2 d cl s} def
/m28 {mp x w2 sub y w2 sub w3 add m w3 0 d  0 w3 neg d w3 0 d 0 w3 d w3 0 d  0 w3 d w3 neg 0 d 0 w3 d w3 neg 0 d 0 w3 neg d w3 neg 0 d cl s } def
/m29 {mp gsave x w2 sub y w2 add w3 sub m currentpoint t 4 {side} repeat cl fill gr} def
/m30 {mp gsave x w2 sub y w2 add w3 sub m currentpoint t 4 {side} repeat cl s gr} def
/m31 {mp x y w2 sub m 0 w d x w2 sub y m w 0 d x w2 sub y w2 add m w w neg d x w2 sub y w2 sub m w w d s} def
/m32 {mp x y w2 sub m w2 w d w neg 0 d cl s} def
/m33 {mp x y w2 add m w3 neg w2 neg d w3 w2 neg d w3 w2 d cl f} def
/m34 {mp x w2 sub y w2 sub w3 add m w3 0 d  0 w3 neg d w3 0 d 0 w3 d w3 0 d  0 w3 d w3 neg 0 d 0 w3 d w3 neg 0 d 0 w3 neg d w3 neg 0 d cl f } def
/m2 {mp x y w2 sub m 0 w d x w2 sub y m w 0 d s} def
/m5 {mp x w2 sub y w2 sub m w w d x w2 sub y w2 add m w w neg d s} def
/reEncode {exch findfont dup length dict begin {1 index /FID eq  {pop pop} {def} ifelse } forall /Encoding exch def currentdict end dup /FontName get exch definefont pop } def [/Times-Bold /Times-Italic /Times-BoldItalic /Helvetica /Helvetica-Oblique
 /Helvetica-Bold /Helvetica-BoldOblique /Courier /Courier-Oblique /Courier-Bold /Courier-BoldOblique /Times-Roman /AvantGarde-Book /AvantGarde-BookOblique /AvantGarde-Demi /AvantGarde-DemiOblique /Bookman-Demi /Bookman-DemiItalic /Bookman-Light
 /Bookman-LightItalic /Helvetica-Narrow /Helvetica-Narrow-Bold /Helvetica-Narrow-BoldOblique /Helvetica-Narrow-Oblique /NewCenturySchlbk-Roman /NewCenturySchlbk-Bold /NewCenturySchlbk-BoldItalic /NewCenturySchlbk-Italic /Palatino-Bold
 /Palatino-BoldItalic /Palatino-Italic /Palatino-Roman ] {ISOLatin1Encoding reEncode } forall
%%EndProlog
%%BeginSetup
%%EndSetup
newpath  gsave  .25 .25 scale  gsave  0 0 t black[  ] 0 sd 3 lw 1 1 1 c 2268 1538 0 0 bf black 1 1 1 c 1883 1322 317 185 bf black 1883 1322 317 185 bl 1 1 1 c 1883 1322 317 185 bf black 1883 1322 317 185 bl 6 lw 1 1 1 c black 722 185 m 204 Y s 722
 402 m 99 Y s 713 396 m 3 X s 729 396 m 3 X s 3 lw /w 13 def /w2 {w 2 div} def /w3 {w 3 div} def 722 396 m20 6 lw 741 798 m 22 Y s 741 833 m 18 Y s 732 827 m 2 X s 747 827 m 3 X s 3 lw 741 827 m20 6 lw 760 869 m 16 Y s 760 898 m 13 Y s 750 891 m 3 X
 s 766 891 m 3 X s 3 lw 760 891 m20 6 lw 779 976 m 10 Y s 779 999 m 8 Y s 769 992 m 3 X s 785 992 m 3 X s 3 lw 779 992 m20 6 lw 797 954 m 11 Y s 797 978 m 9 Y s 788 971 m 3 X s 804 971 m 3 X s 3 lw 797 971 m20 6 lw 816 960 m 10 Y s 816 983 m 9 Y s
 807 977 m 3 X s 823 977 m 3 X s 3 lw 816 977 m20 6 lw 835 986 m 9 Y s 835 1008 m 7 Y s 826 1001 m 3 X s 842 1001 m 2 X s 3 lw 835 1001 m20 6 lw 854 992 m 8 Y s 854 1013 m 8 Y s 844 1007 m 3 X s 860 1007 m 3 X s 3 lw 854 1007 m20 6 lw 873 1057 m 5 Y
 s 873 1075 m 5 Y s 863 1069 m 3 X s 879 1069 m 3 X s 3 lw 873 1069 m20 6 lw 892 1128 m 3 Y s 892 1144 m 3 Y s 882 1137 m 3 X s 898 1137 m 3 X s 3 lw 892 1137 m20 6 lw 910 1245 m s 901 1251 m 3 X s 917 1251 m 3 X s 3 lw 910 1251 m20 6 lw 920 1333 m 3
 X s 936 1333 m 3 X s 3 lw 929 1333 m20 6 lw 939 1372 m 3 X s 955 1372 m 2 X s 3 lw 948 1372 m20 6 lw 957 1404 m 3 X s 973 1404 m 3 X s 3 lw 967 1404 m20 6 lw 976 1406 m 3 X s 992 1406 m 3 X s 3 lw 986 1406 m20 6 lw 995 1404 m 3 X s 1011 1404 m 3 X s
 3 lw 1004 1404 m20 6 lw 1014 1387 m 3 X s 1030 1387 m 3 X s 3 lw 1023 1387 m20 6 lw 1033 1352 m 3 X s 1049 1352 m 3 X s 3 lw 1042 1352 m20 6 lw 1052 1314 m 2 X s 1067 1314 m 3 X s 3 lw 1061 1314 m20 6 lw 1070 1273 m 3 X s 1086 1273 m 3 X s 3 lw 1080
 1273 m20 6 lw 1099 1181 m 1 Y s 1099 1195 m 1 Y s 1089 1189 m 3 X s 1105 1189 m 3 X s 3 lw 1099 1189 m20 6 lw 1117 1081 m 5 Y s 1117 1099 m 4 Y s 1108 1093 m 3 X s 1124 1093 m 3 X s 3 lw 1117 1093 m20 6 lw 1136 903 m 13 Y s 1136 929 m 12 Y s 1127
 923 m 3 X s 1143 923 m 3 X s 3 lw 1136 923 m20 6 lw 1155 723 m 38 Y s 1155 774 m 27 Y s 1146 767 m 3 X s 1162 767 m 2 X s 3 lw 1155 767 m20 6 lw 1174 445 m 83 Y s 1174 541 m 50 Y s 1164 535 m 3 X s 1180 535 m 3 X s 3 lw 1174 535 m20 6 lw 1193 185 m
 266 Y s 1193 464 m 99 Y s 1183 457 m 3 X s 1199 457 m 3 X s 3 lw 1193 457 m20 6 lw 1230 420 m 108 Y s 1230 541 m 59 Y s 1221 535 m 3 X s 1237 535 m 3 X s 3 lw 1230 535 m20 6 lw 1249 357 m 137 Y s 1249 508 m 66 Y s 1240 501 m 3 X s 1256 501 m 3 X s 3
 lw 1249 501 m20 6 lw 1287 185 m 99 Y s 1287 297 m 146 Y s 1277 290 m 3 X s 1293 290 m 3 X s 3 lw 1287 290 m20 6 lw 1324 185 m 99 Y s 1324 297 m 146 Y s 1315 290 m 3 X s 1331 290 m 3 X s 3 lw 1324 290 m20 6 lw 1437 185 m 99 Y s 1437 297 m 99 Y s 1428
 290 m 3 X s 1444 290 m 3 X s 3 lw 1437 290 m20 6 lw 1513 185 m 99 Y s 1513 297 m 99 Y s 1503 290 m 3 X s 1519 290 m 3 X s 3 lw 1513 290 m20 6 lw 1550 185 m 99 Y s 1550 297 m 99 Y s 1541 290 m 3 X s 1557 290 m 3 X s 3 lw 1550 290 m20 6 lw 3 lw 317
 185 m 1883 X s
 gsave  2268 1538 0 0 C 1778.98 16.2911 t 0 r /Helvetica findfont 84.7135 sf 0 0 m (depth [mm]) show NC gr  317 223 m -38 Y s 365 204 m -19 Y s 412 204 m -19 Y s 459 204 m -19 Y s 506 204 m -19 Y s 553 223 m -38 Y s 600 204 m -19 Y s 647 204 m -19 Y
 s 694 204 m -19 Y s 741 204 m -19 Y s 788 223 m -38 Y s 835 204 m -19 Y s 882 204 m -19 Y s 929 204 m -19 Y s 976 204 m -19 Y s 1023 223 m -38 Y s 1070 204 m -19 Y s 1117 204 m -19 Y s 1164 204 m -19 Y s 1212 204 m -19 Y s 1259 223 m -38 Y s 1306
 204 m -19 Y s 1353 204 m -19 Y s 1400 204 m -19 Y s 1447 204 m -19 Y s 1494 223 m -38 Y s 1541 204 m -19 Y s 1588 204 m -19 Y s 1635 204 m -19 Y s 1682 204 m -19 Y s 1729 223 m -38 Y s 1776 204 m -19 Y s 1823 204 m -19 Y s 1870 204 m -19 Y s 1917
 204 m -19 Y s 1964 223 m -38 Y s 2011 204 m -19 Y s 2059 204 m -19 Y s 2106 204 m -19 Y s 2153 204 m -19 Y s 2200 223 m -38 Y s
 gsave  2268 1538 0 0 C 221.559 104.263 t 0 r /Helvetica findfont 84.7135 sf 0 0 m (1400) show NC gr 
 gsave  2268 1538 0 0 C 456.15 104.263 t 0 r /Helvetica findfont 84.7135 sf 0 0 m (1450) show NC gr 
 gsave  2268 1538 0 0 C 690.741 104.263 t 0 r /Helvetica findfont 84.7135 sf 0 0 m (1500) show NC gr 
 gsave  2268 1538 0 0 C 928.591 104.263 t 0 r /Helvetica findfont 84.7135 sf 0 0 m (1550) show NC gr 
 gsave  2268 1538 0 0 C 1163.18 104.263 t 0 r /Helvetica findfont 84.7135 sf 0 0 m (1600) show NC gr 
 gsave  2268 1538 0 0 C 1397.77 104.263 t 0 r /Helvetica findfont 84.7135 sf 0 0 m (1650) show NC gr 
 gsave  2268 1538 0 0 C 1632.36 104.263 t 0 r /Helvetica findfont 84.7135 sf 0 0 m (1700) show NC gr 
 gsave  2268 1538 0 0 C 1866.96 104.263 t 0 r /Helvetica findfont 84.7135 sf 0 0 m (1750) show NC gr 
 gsave  2268 1538 0 0 C 2104.81 104.263 t 0 r /Helvetica findfont 84.7135 sf 0 0 m (1800) show NC gr  317 1507 m 1883 X s 317 1469 m 38 Y s 365 1488 m 19 Y s 412 1488 m 19 Y s 459 1488 m 19 Y s 506 1488 m 19 Y s 553 1469 m 38 Y s 600 1488 m 19 Y s
 647 1488 m 19 Y s 694 1488 m 19 Y s 741 1488 m 19 Y s 788 1469 m 38 Y s 835 1488 m 19 Y s 882 1488 m 19 Y s 929 1488 m 19 Y s 976 1488 m 19 Y s 1023 1469 m 38 Y s 1070 1488 m 19 Y s 1117 1488 m 19 Y s 1164 1488 m 19 Y s 1212 1488 m 19 Y s 1259 1469
 m 38 Y s 1306 1488 m 19 Y s 1353 1488 m 19 Y s 1400 1488 m 19 Y s 1447 1488 m 19 Y s 1494 1469 m 38 Y s 1541 1488 m 19 Y s 1588 1488 m 19 Y s 1635 1488 m 19 Y s 1682 1488 m 19 Y s 1729 1469 m 38 Y s 1776 1488 m 19 Y s 1823 1488 m 19 Y s 1870 1488 m
 19 Y s 1917 1488 m 19 Y s 1964 1469 m 38 Y s 2011 1488 m 19 Y s 2059 1488 m 19 Y s 2106 1488 m 19 Y s 2153 1488 m 19 Y s 2200 1469 m 38 Y s 317 185 m 1322 Y s
 gsave  2268 1538 0 0 C 127.07 1111.05 t 90 r /Helvetica findfont 84.7135 sf 0 0 m (Events/4.0) show NC gr  347 185 m -30 X s 347 212 m -30 X s 347 236 m -30 X s 347 256 m -30 X s 347 274 m -30 X s 376 290 m -59 X s
 gsave  2268 1538 0 0 C 295.257 253.541 t 0 r  -47 0 t /Helvetica findfont 84.7135 sf 0 0 m (1) show NC gr  347 396 m -30 X s 347 457 m -30 X s 347 501 m -30 X s 347 535 m -30 X s 347 563 m -30 X s 347 586 m -30 X s 347 606 m -30 X s 347 624 m -30 X
 s 376 640 m -59 X s
 gsave  2268 1538 0 0 C 295.257 603.963 t 0 r  -95 0 t /Helvetica findfont 84.7135 sf 0 0 m (10) show NC gr  347 746 m -30 X s 347 808 m -30 X s 347 851 m -30 X s 347 885 m -30 X s 347 913 m -30 X s 347 937 m -30 X s 347 957 m -30 X s 347 975 m -30 X
 s 376 991 m -59 X s
 gsave  2268 1538 0 0 C 260.657 990.497 t 0 r /Helvetica findfont 58.6478 sf 0 0 m (2) show NC gr 
 gsave  2268 1538 0 0 C 169.427 954.656 t 0 r /Helvetica findfont 84.7135 sf 0 0 m (10) show NC gr  347 1096 m -30 X s 347 1158 m -30 X s 347 1202 m -30 X s 347 1236 m -30 X s 347 1264 m -30 X s 347 1287 m -30 X s 347 1307 m -30 X s 347 1325 m -30 X
 s 376 1341 m -59 X s
 gsave  2268 1538 0 0 C 260.657 1342.38 t 0 r /Helvetica findfont 58.6478 sf 0 0 m (3) show NC gr 
 gsave  2268 1538 0 0 C 169.427 1303.29 t 0 r /Helvetica findfont 84.7135 sf 0 0 m (10) show NC gr  347 1447 m -30 X s 2200 185 m 1322 Y s 2170 185 m 30 X s 2170 212 m 30 X s 2170 236 m 30 X s 2170 256 m 30 X s 2170 274 m 30 X s 2141 290 m 59 X s
 2170 396 m 30 X s 2170 457 m 30 X s 2170 501 m 30 X s 2170 535 m 30 X s 2170 563 m 30 X s 2170 586 m 30 X s 2170 606 m 30 X s 2170 624 m 30 X s 2141 640 m 59 X s 2170 746 m 30 X s 2170 808 m 30 X s 2170 851 m 30 X s 2170 885 m 30 X s 2170 913 m 30 X
 s 2170 937 m 30 X s 2170 957 m 30 X s 2170 975 m 30 X s 2141 991 m 59 X s 2170 1096 m 30 X s 2170 1158 m 30 X s 2170 1202 m 30 X s 2170 1236 m 30 X s 2170 1264 m 30 X s 2170 1287 m 30 X s 2170 1307 m 30 X s 2170 1325 m 30 X s 2141 1341 m 59 X s 2170
 1447 m 30 X s 0 0.6 0 c 9 lw 1 1 1 c black 0 0.6 0 c 317 185 m 377 X 214 Y 19 X 344 Y 19 X 222 Y 18 X 135 Y 19 X 49 Y 19 X -4 Y 19 X -11 Y 37 X -8 Y 19 X 12 Y 19 X 52 Y 19 X 65 Y 19 X 45 Y 19 X 35 Y 18 X 20 Y 19 X 1 Y 19 X -9 Y 19 X -12 Y 19 X -15 Y
 19 X -24 Y 18 X -30 Y 19 X -35 Y 19 X -37 Y 19 X -51 Y 19 X -53 Y 18 X -59 Y 19 X -47 Y 19 X -42 Y 19 X -48 Y 19 X -38 Y 19 X -40 Y 18 X -41 Y 19 X -37 Y 19 X -27 Y 19 X -46 Y 19 X -27 Y 19 X -30 Y 18 X -39 Y 19 X -40 Y 19 X 2 Y 19 X -72 Y 19 X 1 Y
 18 X -25 Y 19 X -62 Y 19 X -3 Y 19 X -40 Y 19 X -47 Y 19 X -76 Y 18 X -7 Y 19 X -15 Y 584 X s 0.6 0 0 c 1 1 1 c black 0.6 0 0 c 317 185 m 396 X 348 Y 19 X 302 Y 18 X 145 Y 19 X 1 Y 38 X 29 Y 19 X 36 Y 18 X 23 Y 19 X 26 Y 19 X 107 Y 19 X 93 Y 19 X 78
 Y 19 X 33 Y 18 X 6 Y 19 X -10 Y 19 X -21 Y 19 X -21 Y 19 X -34 Y 19 X -49 Y 18 X -65 Y 19 X -84 Y 19 X -89 Y 19 X -84 Y 19 X -256 Y 18 X -5 Y 19 X -96 Y 19 X -287 Y 19 X 169 Y 19 X -295 Y 19 X 214 Y 18 X -214 Y 923 X s black
 gsave  2268 1538 0 0 C 1642.14 1316.32 t 0 r /Helvetica-Bold findfont 61.9061 sf 0 0 m ( probe \(data\)) show NC gr 
 gsave  2268 1538 0 0 C 1593.27 1316.32 t 0 r /Symbol findfont 61.9061 sf 0 0 m (Y) show NC gr 
 gsave  2268 1538 0 0 C 1541.13 1316.32 t 0 r /Helvetica-Bold findfont 61.9061 sf 0 0 m (J/) show NC gr  1 1 1 c 3 lw 1400 1301 m 116 X 69 Y -116 X f 9 lw black 1400 1335 m 116 X s 3 lw 1458 1335 m20 9 lw
 gsave  2268 1538 0 0 C 1541.13 1215.31 t 0 r /Helvetica-Bold findfont 61.9061 sf 0 0 m (B\255el \(MC\)) show NC gr  0.6 0 0 c 6 lw 1400 1236 m 116 X s black
 gsave  2268 1538 0 0 C 1541.13 1117.57 t 0 r /Helvetica-Bold findfont 61.9061 sf 0 0 m (uds el \(qcd \)) show NC gr  1 1 1 c 3 lw 1400 1103 m 116 X 69 Y -116 X f 6 lw 0 0.6 0 c 1400 1138 m 116 X s black 3 lw 1458 1138 m20 6 lw
 gr  gr showpage
end
%%EOF
