%!PS-Adobe-2.0 EPSF-2.0
%%BoundingBox:  0 0 567 384
%%Title: /home/rohin/Analysis/thesis/images/softel/validated_vars/Eratio.eps: c1_n3
%%Creator: ROOT Version 5.34/14
%%CreationDate: Mon Sep  8 03:59:13 2014
%%EndComments
%%BeginProlog
80 dict begin
/s {stroke} def /l {lineto} def /m {moveto} def /t {translate} def
/r {rotate} def /rl {roll}  def /R {repeat} def
/d {rlineto} def /rm {rmoveto} def /gr {grestore} def /f {eofill} def
/c {setrgbcolor} def /black {0 setgray} def /sd {setdash} def
/cl {closepath} def /sf {scalefont setfont} def /lw {setlinewidth} def
/box {m dup 0 exch d exch 0 d 0 exch neg d cl} def
/NC{systemdict begin initclip end}def/C{NC box clip newpath}def
/bl {box s} def /bf {box f} def /Y { 0 exch d} def /X { 0 d} def 
/K {{pop pop 0 moveto} exch kshow} bind def
/ita {/ang 15 def gsave [1 0 ang dup sin exch cos div 1 0 0] concat} def 
/mp {newpath /y exch def /x exch def} def
/side {[w .77 mul w .23 mul] .385 w mul sd w 0 l currentpoint t -144 r} def
/mr {mp x y w2 0 360 arc} def /m24 {mr s} def /m20 {mr f} def
/mb {mp x y w2 add m w2 neg 0 d 0 w neg d w 0 d 0 w d cl} def
/mt {mp x y w2 add m w2 neg w neg d w 0 d cl} def
/m21 {mb f} def /m25 {mb s} def /m22 {mt f} def /m26{mt s} def
/m23 {mp x y w2 sub m w2 w d w neg 0 d cl f} def
/m27 {mp x y w2 add m w3 neg w2 neg d w3 w2 neg d w3 w2 d cl s} def
/m28 {mp x w2 sub y w2 sub w3 add m w3 0 d  0 w3 neg d w3 0 d 0 w3 d w3 0 d  0 w3 d w3 neg 0 d 0 w3 d w3 neg 0 d 0 w3 neg d w3 neg 0 d cl s } def
/m29 {mp gsave x w2 sub y w2 add w3 sub m currentpoint t 4 {side} repeat cl fill gr} def
/m30 {mp gsave x w2 sub y w2 add w3 sub m currentpoint t 4 {side} repeat cl s gr} def
/m31 {mp x y w2 sub m 0 w d x w2 sub y m w 0 d x w2 sub y w2 add m w w neg d x w2 sub y w2 sub m w w d s} def
/m32 {mp x y w2 sub m w2 w d w neg 0 d cl s} def
/m33 {mp x y w2 add m w3 neg w2 neg d w3 w2 neg d w3 w2 d cl f} def
/m34 {mp x w2 sub y w2 sub w3 add m w3 0 d  0 w3 neg d w3 0 d 0 w3 d w3 0 d  0 w3 d w3 neg 0 d 0 w3 d w3 neg 0 d 0 w3 neg d w3 neg 0 d cl f } def
/m2 {mp x y w2 sub m 0 w d x w2 sub y m w 0 d s} def
/m5 {mp x w2 sub y w2 sub m w w d x w2 sub y w2 add m w w neg d s} def
/reEncode {exch findfont dup length dict begin {1 index /FID eq  {pop pop} {def} ifelse } forall /Encoding exch def currentdict end dup /FontName get exch definefont pop } def [/Times-Bold /Times-Italic /Times-BoldItalic /Helvetica /Helvetica-Oblique
 /Helvetica-Bold /Helvetica-BoldOblique /Courier /Courier-Oblique /Courier-Bold /Courier-BoldOblique /Times-Roman /AvantGarde-Book /AvantGarde-BookOblique /AvantGarde-Demi /AvantGarde-DemiOblique /Bookman-Demi /Bookman-DemiItalic /Bookman-Light
 /Bookman-LightItalic /Helvetica-Narrow /Helvetica-Narrow-Bold /Helvetica-Narrow-BoldOblique /Helvetica-Narrow-Oblique /NewCenturySchlbk-Roman /NewCenturySchlbk-Bold /NewCenturySchlbk-BoldItalic /NewCenturySchlbk-Italic /Palatino-Bold
 /Palatino-BoldItalic /Palatino-Italic /Palatino-Roman ] {ISOLatin1Encoding reEncode } forall
%%EndProlog
%%BeginSetup
%%EndSetup
newpath  gsave  .25 .25 scale  gsave  0 0 t black[  ] 0 sd 3 lw 1 1 1 c 2268 1538 0 0 bf black 1 1 1 c 1883 1322 317 185 bf black 1883 1322 317 185 bl 1 1 1 c 1883 1322 317 185 bf black 1883 1322 317 185 bl 6 lw 1 1 1 c black 490 322 m 73 Y s 490 408
 m 49 Y s 474 402 m 9 X s 497 402 m 9 X s 3 lw /w 13 def /w2 {w 2 div} def /w3 {w 3 div} def 490 402 m20 6 lw 521 457 m 52 Y s 521 522 m 38 Y s 506 516 m 9 X s 528 516 m 9 X s 3 lw 521 516 m20 6 lw 553 321 m 95 Y s 553 430 m 58 Y s 537 423 m 9 X s
 559 423 m 9 X s 3 lw 553 423 m20 6 lw 584 310 m 85 Y s 584 408 m 54 Y s 568 402 m 10 X s 591 402 m 9 X s 3 lw 584 402 m20 6 lw 615 522 m 39 Y s 615 574 m 31 Y s 600 568 m 9 X s 622 568 m 9 X s 3 lw 615 568 m20 6 lw 647 330 m 86 Y s 647 430 m 54 Y s
 631 423 m 9 X s 653 423 m 10 X s 3 lw 647 423 m20 6 lw 678 532 m 38 Y s 678 583 m 30 Y s 663 577 m 9 X s 685 577 m 9 X s 3 lw 678 577 m20 6 lw 710 522 m 39 Y s 710 574 m 31 Y s 694 568 m 9 X s 716 568 m 9 X s 3 lw 710 568 m20 6 lw 741 310 m 85 Y s
 741 408 m 54 Y s 725 402 m 9 X s 747 402 m 10 X s 3 lw 741 402 m20 6 lw 772 551 m 36 Y s 772 600 m 28 Y s 757 593 m 9 X s 779 593 m 9 X s 3 lw 772 593 m20 6 lw 804 522 m 39 Y s 804 574 m 31 Y s 788 568 m 9 X s 810 568 m 9 X s 3 lw 804 568 m20 6 lw
 835 340 m 76 Y s 835 430 m 50 Y s 819 423 m 10 X s 842 423 m 9 X s 3 lw 835 423 m20 6 lw 866 551 m 36 Y s 866 600 m 28 Y s 851 593 m 9 X s 873 593 m 9 X s 3 lw 866 593 m20 6 lw 898 387 m 66 Y s 898 466 m 45 Y s 882 459 m 9 X s 904 459 m 10 X s 3 lw
 898 459 m20 6 lw 929 462 m 47 Y s 929 522 m 35 Y s 914 516 m 9 X s 936 516 m 9 X s 3 lw 929 516 m20 6 lw 961 556 m 39 Y s 961 608 m 29 Y s 945 601 m 9 X s 967 601 m 9 X s 3 lw 961 601 m20 6 lw 992 598 m 31 Y s 992 642 m 24 Y s 976 635 m 9 X s 998
 635 m 10 X s 3 lw 992 635 m20 6 lw 1023 560 m 35 Y s 1023 608 m 27 Y s 1008 601 m 9 X s 1030 601 m 9 X s 3 lw 1023 601 m20 6 lw 1055 584 m 32 Y s 1055 629 m 25 Y s 1039 622 m 9 X s 1061 622 m 9 X s 3 lw 1055 622 m20 6 lw 1086 475 m 46 Y s 1086 534 m
 34 Y s 1070 527 m 10 X s 1093 527 m 9 X s 3 lw 1086 527 m20 6 lw 1117 624 m 28 Y s 1117 665 m 23 Y s 1102 659 m 9 X s 1124 659 m 9 X s 3 lw 1117 659 m20 6 lw 1149 630 m 28 Y s 1149 671 m 22 Y s 1133 664 m 9 X s 1155 664 m 9 X s 3 lw 1149 664 m20 6
 lw 1180 686 m 23 Y s 1180 722 m 18 Y s 1164 715 m 10 X s 1187 715 m 9 X s 3 lw 1180 715 m20 6 lw 1212 677 m 23 Y s 1212 713 m 20 Y s 1196 707 m 9 X s 1218 707 m 9 X s 3 lw 1212 707 m20 6 lw 1243 686 m 23 Y s 1243 722 m 18 Y s 1227 715 m 9 X s 1249
 715 m 10 X s 3 lw 1243 715 m20 6 lw 1274 646 m 27 Y s 1274 686 m 22 Y s 1259 680 m 9 X s 1281 680 m 9 X s 3 lw 1274 680 m20 6 lw 1306 732 m 20 Y s 1306 765 m 16 Y s 1290 758 m 9 X s 1312 758 m 9 X s 3 lw 1306 758 m20 6 lw 1337 725 m 20 Y s 1337 758
 m 16 Y s 1321 752 m 9 X s 1344 752 m 9 X s 3 lw 1337 752 m20 6 lw 1368 783 m 16 Y s 1368 812 m 13 Y s 1353 805 m 9 X s 1375 805 m 9 X s 3 lw 1368 805 m20 6 lw 1400 859 m 12 Y s 1400 884 m 10 Y s 1384 877 m 9 X s 1406 877 m 9 X s 3 lw 1400 877 m20 6
 lw 1431 823 m 13 Y s 1431 849 m 12 Y s 1415 843 m 10 X s 1438 843 m 9 X s 3 lw 1431 843 m20 6 lw 1462 887 m 10 Y s 1462 910 m 9 Y s 1447 903 m 9 X s 1469 903 m 9 X s 3 lw 1462 903 m20 6 lw 1494 864 m 12 Y s 1494 889 m 10 Y s 1478 882 m 9 X s 1500
 882 m 10 X s 3 lw 1494 882 m20 6 lw 1525 941 m 8 Y s 1525 962 m 7 Y s 1510 955 m 9 X s 1532 955 m 9 X s 3 lw 1525 955 m20 6 lw 1557 885 m 10 Y s 1557 909 m 8 Y s 1541 902 m 9 X s 1563 902 m 9 X s 3 lw 1557 902 m20 6 lw 1588 941 m 8 Y s 1588 962 m 7
 Y s 1572 955 m 9 X s 1594 955 m 10 X s 3 lw 1588 955 m20 6 lw 1619 967 m 7 Y s 1619 987 m 6 Y s 1604 980 m 9 X s 1626 980 m 9 X s 3 lw 1619 980 m20 6 lw 1651 1003 m 6 Y s 1651 1022 m 5 Y s 1635 1015 m 9 X s 1657 1015 m 9 X s 3 lw 1651 1015 m20 6 lw
 1682 1060 m 3 Y s 1682 1077 m 3 Y s 1666 1070 m 10 X s 1689 1070 m 9 X s 3 lw 1682 1070 m20 6 lw 1713 1097 m 3 Y s 1713 1113 m 2 Y s 1698 1106 m 9 X s 1720 1106 m 9 X s 3 lw 1713 1106 m20 6 lw 1745 1148 m 2 Y s 1745 1163 m 1 Y s 1729 1156 m 9 X s
 1751 1156 m 10 X s 3 lw 1745 1156 m20 6 lw 1776 1145 m 2 Y s 1776 1160 m 1 Y s 1761 1154 m 9 X s 1783 1154 m 9 X s 3 lw 1776 1154 m20 6 lw 1808 1205 m 1 Y s 1808 1219 m s 1792 1212 m 9 X s 1814 1212 m 9 X s 3 lw 1808 1212 m20 6 lw 1823 1259 m 9 X s
 1845 1259 m 10 X s 3 lw 1839 1259 m20 6 lw 1855 1295 m 9 X s 1877 1295 m 9 X s 3 lw 1870 1295 m20 6 lw 1886 1337 m 9 X s 1908 1337 m 9 X s 3 lw 1902 1337 m20 6 lw 1917 1379 m 10 X s 1940 1379 m 9 X s 3 lw 1933 1379 m20 6 lw 1949 1387 m 9 X s 1971
 1387 m 9 X s 3 lw 1964 1387 m20 6 lw 1980 1304 m 9 X s 2002 1304 m 9 X s 3 lw 1996 1304 m20 6 lw 2027 989 m 6 Y s 2027 1008 m 5 Y s 2011 1001 m 10 X s 2034 1001 m 9 X s 3 lw 2027 1001 m20 6 lw 3 lw 317 185 m 1883 X s
 gsave  2268 1538 0 0 C 2085.26 9.77464 t 0 r /Helvetica findfont 58.6478 sf 0 0 m (ratio) show NC gr 
 gsave  2268 1538 0 0 C 2029.87 39.0986 t 0 r /Helvetica findfont 84.7135 sf 0 0 m (E) show NC gr  474 223 m -38 Y s 553 204 m -19 Y s 631 204 m -19 Y s 710 204 m -19 Y s 788 223 m -38 Y s 866 204 m -19 Y s 945 204 m -19 Y s 1023 204 m -19 Y s 1102
 223 m -38 Y s 1180 204 m -19 Y s 1259 204 m -19 Y s 1337 204 m -19 Y s 1415 223 m -38 Y s 1494 204 m -19 Y s 1572 204 m -19 Y s 1651 204 m -19 Y s 1729 223 m -38 Y s 1808 204 m -19 Y s 1886 204 m -19 Y s 1964 204 m -19 Y s 2043 223 m -38 Y s 474 223
 m -38 Y s 396 204 m -19 Y s 317 204 m -19 Y s 2043 223 m -38 Y s 2121 204 m -19 Y s
 gsave  2268 1538 0 0 C 449.633 104.263 t 0 r /Helvetica findfont 84.7135 sf 0 0 m (0) show NC gr 
 gsave  2268 1538 0 0 C 726.582 104.263 t 0 r /Helvetica findfont 84.7135 sf 0 0 m (0.2) show NC gr 
 gsave  2268 1538 0 0 C 1042.63 104.263 t 0 r /Helvetica findfont 84.7135 sf 0 0 m (0.4) show NC gr 
 gsave  2268 1538 0 0 C 1355.42 104.263 t 0 r /Helvetica findfont 84.7135 sf 0 0 m (0.6) show NC gr 
 gsave  2268 1538 0 0 C 1668.21 104.263 t 0 r /Helvetica findfont 84.7135 sf 0 0 m (0.8) show NC gr 
 gsave  2268 1538 0 0 C 2023.35 104.263 t 0 r /Helvetica findfont 84.7135 sf 0 0 m (1) show NC gr  317 1507 m 1883 X s 474 1469 m 38 Y s 553 1488 m 19 Y s 631 1488 m 19 Y s 710 1488 m 19 Y s 788 1469 m 38 Y s 866 1488 m 19 Y s 945 1488 m 19 Y s 1023
 1488 m 19 Y s 1102 1469 m 38 Y s 1180 1488 m 19 Y s 1259 1488 m 19 Y s 1337 1488 m 19 Y s 1415 1469 m 38 Y s 1494 1488 m 19 Y s 1572 1488 m 19 Y s 1651 1488 m 19 Y s 1729 1469 m 38 Y s 1808 1488 m 19 Y s 1886 1488 m 19 Y s 1964 1488 m 19 Y s 2043
 1469 m 38 Y s 474 1469 m 38 Y s 396 1488 m 19 Y s 317 1488 m 19 Y s 2043 1469 m 38 Y s 2121 1488 m 19 Y s 317 185 m 1322 Y s
 gsave  2268 1538 0 0 C 127.07 1062.18 t 90 r /Helvetica findfont 84.7135 sf 0 0 m (Events/0.02) show NC gr  347 224 m -30 X s 347 276 m -30 X s 347 316 m -30 X s 347 349 m -30 X s 347 377 m -30 X s 347 402 m -30 X s 347 423 m -30 X s 376 442 m -59 X
 s
 gsave  2268 1538 0 0 C 295.257 405.644 t 0 r  -95 0 t /Helvetica findfont 84.7135 sf 0 0 m (10) show NC gr  347 568 m -30 X s 347 642 m -30 X s 347 694 m -30 X s 347 734 m -30 X s 347 767 m -30 X s 347 795 m -30 X s 347 820 m -30 X s 347 841 m -30 X
 s 376 860 m -59 X s
 gsave  2268 1538 0 0 C 260.657 856.91 t 0 r /Helvetica findfont 58.6478 sf 0 0 m (2) show NC gr 
 gsave  2268 1538 0 0 C 169.427 821.07 t 0 r /Helvetica findfont 84.7135 sf 0 0 m (10) show NC gr  347 986 m -30 X s 347 1059 m -30 X s 347 1112 m -30 X s 347 1152 m -30 X s 347 1185 m -30 X s 347 1213 m -30 X s 347 1237 m -30 X s 347 1259 m -30 X s
 376 1278 m -59 X s
 gsave  2268 1538 0 0 C 260.657 1280.48 t 0 r /Helvetica findfont 58.6478 sf 0 0 m (3) show NC gr 
 gsave  2268 1538 0 0 C 169.427 1241.38 t 0 r /Helvetica findfont 84.7135 sf 0 0 m (10) show NC gr  347 1404 m -30 X s 347 1477 m -30 X s 2200 185 m 1322 Y s 2170 224 m 30 X s 2170 276 m 30 X s 2170 316 m 30 X s 2170 349 m 30 X s 2170 377 m 30 X s
 2170 402 m 30 X s 2170 423 m 30 X s 2141 442 m 59 X s 2170 568 m 30 X s 2170 642 m 30 X s 2170 694 m 30 X s 2170 734 m 30 X s 2170 767 m 30 X s 2170 795 m 30 X s 2170 820 m 30 X s 2170 841 m 30 X s 2141 860 m 59 X s 2170 986 m 30 X s 2170 1059 m 30
 X s 2170 1112 m 30 X s 2170 1152 m 30 X s 2170 1185 m 30 X s 2170 1213 m 30 X s 2170 1237 m 30 X s 2170 1259 m 30 X s 2141 1278 m 59 X s 2170 1404 m 30 X s 2170 1477 m 30 X s 0 0.6 0 c 9 lw 1 1 1 c black 0 0.6 0 c 317 185 m 157 X 900 Y 32 X -4 Y 31
 X -5 Y 31 X -3 Y 32 X -7 Y 31 X -4 Y 32 X -2 Y 31 X -11 Y 31 X -2 Y 32 X -5 Y 31 X -2 Y 31 X -6 Y 32 X -5 Y 31 X -1 Y 32 X -2 Y 31 X -6 Y 63 X -4 Y 31 X -9 Y 31 X -3 Y 32 X -1 Y 31 X -3 Y 31 X -1 Y 32 X -2 Y 31 X -4 Y 63 X -6 Y 31 X -1 Y 32 X -8 Y
 31 X 3 Y 31 X 2 Y 32 X -5 Y 31 X 1 Y 32 X 4 Y 31 X 3 Y 31 X 4 Y 32 X 1 Y 31 X 3 Y 31 X 7 Y 32 X 9 Y 31 X 12 Y 32 X 12 Y 31 X 22 Y 31 X 19 Y 32 X 24 Y 31 X 24 Y 31 X 10 Y 32 X -4 Y 31 X -72 Y 31 X -243 Y 32 X -629 Y 157 X s 0.6 0 0 c 1 1 1 c black
 0.6 0 0 c 317 185 m 157 X 292 Y 32 X -82 Y 31 X 169 Y 31 X -93 Y 32 X -79 Y 31 X -44 Y 32 X 102 Y 31 X 55 Y 31 X -49 Y 32 X -43 Y 31 X 114 Y 31 X -18 Y 32 X -61 Y 31 X 4 Y 32 X -45 Y 31 X 63 Y 31 X 26 Y 32 X -109 Y 31 X 84 Y 31 X 91 Y 32 X 36 Y 31 X
 -13 Y 31 X 34 Y 32 X -5 Y 31 X 49 Y 32 X -50 Y 31 X 57 Y 31 X 14 Y 32 X -48 Y 31 X 114 Y 31 X -28 Y 32 X 83 Y 31 X 13 Y 32 X -4 Y 31 X 82 Y 31 X 25 Y 63 X 62 Y 31 X 30 Y 32 X 52 Y 31 X 51 Y 32 X 42 Y 31 X 57 Y 31 X 54 Y 32 X 49 Y 31 X 48 Y 31 X 30 Y
 32 X 5 Y 31 X -90 Y 31 X -233 Y 32 X -893 Y 157 X s black
 gsave  2268 1538 0 0 C 1052.4 1371.71 t 0 r /Helvetica-Bold findfont 65.1643 sf 0 0 m ( probe \(data\)) show NC gr 
 gsave  2268 1538 0 0 C 1000.27 1371.71 t 0 r /Symbol findfont 65.1643 sf 0 0 m (Y) show NC gr 
 gsave  2268 1538 0 0 C 944.882 1371.71 t 0 r /Helvetica-Bold findfont 65.1643 sf 0 0 m (J/) show NC gr  1 1 1 c 3 lw 793 1357 m 125 X 71 Y -125 X f 9 lw black 793 1392 m 125 X s 3 lw 855 1392 m20 9 lw
 gsave  2268 1538 0 0 C 944.882 1267.44 t 0 r /Helvetica-Bold findfont 65.1643 sf 0 0 m (B\255el \(MC\)) show NC gr  0.6 0 0 c 6 lw 793 1290 m 125 X s black
 gsave  2268 1538 0 0 C 944.882 1166.44 t 0 r /Helvetica-Bold findfont 65.1643 sf 0 0 m (uds el \(qcd \)) show NC gr  1 1 1 c 3 lw 793 1152 m 125 X 72 Y -125 X f 6 lw 0 0.6 0 c 793 1188 m 125 X s black 3 lw 855 1188 m20 6 lw
 gr  gr showpage
end
%%EOF
