%!PS-Adobe-2.0 EPSF-2.0
%%BoundingBox:  0 0 567 384
%%Title: /home/rohin/Analysis/thesis/images/softel/validated_vars/f1.eps: c1_n8
%%Creator: ROOT Version 5.34/14
%%CreationDate: Mon Sep  8 03:53:18 2014
%%EndComments
%%BeginProlog
80 dict begin
/s {stroke} def /l {lineto} def /m {moveto} def /t {translate} def
/r {rotate} def /rl {roll}  def /R {repeat} def
/d {rlineto} def /rm {rmoveto} def /gr {grestore} def /f {eofill} def
/c {setrgbcolor} def /black {0 setgray} def /sd {setdash} def
/cl {closepath} def /sf {scalefont setfont} def /lw {setlinewidth} def
/box {m dup 0 exch d exch 0 d 0 exch neg d cl} def
/NC{systemdict begin initclip end}def/C{NC box clip newpath}def
/bl {box s} def /bf {box f} def /Y { 0 exch d} def /X { 0 d} def 
/K {{pop pop 0 moveto} exch kshow} bind def
/ita {/ang 15 def gsave [1 0 ang dup sin exch cos div 1 0 0] concat} def 
/mp {newpath /y exch def /x exch def} def
/side {[w .77 mul w .23 mul] .385 w mul sd w 0 l currentpoint t -144 r} def
/mr {mp x y w2 0 360 arc} def /m24 {mr s} def /m20 {mr f} def
/mb {mp x y w2 add m w2 neg 0 d 0 w neg d w 0 d 0 w d cl} def
/mt {mp x y w2 add m w2 neg w neg d w 0 d cl} def
/m21 {mb f} def /m25 {mb s} def /m22 {mt f} def /m26{mt s} def
/m23 {mp x y w2 sub m w2 w d w neg 0 d cl f} def
/m27 {mp x y w2 add m w3 neg w2 neg d w3 w2 neg d w3 w2 d cl s} def
/m28 {mp x w2 sub y w2 sub w3 add m w3 0 d  0 w3 neg d w3 0 d 0 w3 d w3 0 d  0 w3 d w3 neg 0 d 0 w3 d w3 neg 0 d 0 w3 neg d w3 neg 0 d cl s } def
/m29 {mp gsave x w2 sub y w2 add w3 sub m currentpoint t 4 {side} repeat cl fill gr} def
/m30 {mp gsave x w2 sub y w2 add w3 sub m currentpoint t 4 {side} repeat cl s gr} def
/m31 {mp x y w2 sub m 0 w d x w2 sub y m w 0 d x w2 sub y w2 add m w w neg d x w2 sub y w2 sub m w w d s} def
/m32 {mp x y w2 sub m w2 w d w neg 0 d cl s} def
/m33 {mp x y w2 add m w3 neg w2 neg d w3 w2 neg d w3 w2 d cl f} def
/m34 {mp x w2 sub y w2 sub w3 add m w3 0 d  0 w3 neg d w3 0 d 0 w3 d w3 0 d  0 w3 d w3 neg 0 d 0 w3 d w3 neg 0 d 0 w3 neg d w3 neg 0 d cl f } def
/m2 {mp x y w2 sub m 0 w d x w2 sub y m w 0 d s} def
/m5 {mp x w2 sub y w2 sub m w w d x w2 sub y w2 add m w w neg d s} def
/reEncode {exch findfont dup length dict begin {1 index /FID eq  {pop pop} {def} ifelse } forall /Encoding exch def currentdict end dup /FontName get exch definefont pop } def [/Times-Bold /Times-Italic /Times-BoldItalic /Helvetica /Helvetica-Oblique
 /Helvetica-Bold /Helvetica-BoldOblique /Courier /Courier-Oblique /Courier-Bold /Courier-BoldOblique /Times-Roman /AvantGarde-Book /AvantGarde-BookOblique /AvantGarde-Demi /AvantGarde-DemiOblique /Bookman-Demi /Bookman-DemiItalic /Bookman-Light
 /Bookman-LightItalic /Helvetica-Narrow /Helvetica-Narrow-Bold /Helvetica-Narrow-BoldOblique /Helvetica-Narrow-Oblique /NewCenturySchlbk-Roman /NewCenturySchlbk-Bold /NewCenturySchlbk-BoldItalic /NewCenturySchlbk-Italic /Palatino-Bold
 /Palatino-BoldItalic /Palatino-Italic /Palatino-Roman ] {ISOLatin1Encoding reEncode } forall
%%EndProlog
%%BeginSetup
%%EndSetup
newpath  gsave  .25 .25 scale  gsave  0 0 t black[  ] 0 sd 3 lw 1 1 1 c 2268 1538 0 0 bf black 1 1 1 c 1883 1322 317 185 bf black 1883 1322 317 185 bl 1 1 1 c 1883 1322 317 185 bf black 1883 1322 317 185 bl 6 lw 1 1 1 c black 571 1081 m 7 Y s 571
 1101 m 5 Y s 535 1094 m 29 X s 577 1094 m 30 X s 3 lw /w 13 def /w2 {w 2 div} def /w3 {w 3 div} def 571 1094 m20 6 lw 607 1302 m 30 X s 650 1302 m 29 X s 3 lw 643 1302 m20 6 lw 679 1347 m 30 X s 722 1347 m 30 X s 3 lw 716 1347 m20 6 lw 752 1365 m 30
 X s 795 1365 m 29 X s 3 lw 788 1365 m20 6 lw 824 1383 m 30 X s 867 1383 m 30 X s 3 lw 860 1383 m20 6 lw 897 1390 m 29 X s 939 1390 m 30 X s 3 lw 933 1390 m20 6 lw 969 1396 m 30 X s 1012 1396 m 29 X s 3 lw 1005 1396 m20 6 lw 1041 1395 m 30 X s 1084
 1395 m 30 X s 3 lw 1078 1395 m20 6 lw 1114 1403 m 29 X s 1157 1403 m 29 X s 3 lw 1150 1403 m20 6 lw 1186 1407 m 30 X s 1229 1407 m 30 X s 3 lw 1222 1407 m20 6 lw 1259 1408 m 29 X s 1301 1408 m 30 X s 3 lw 1295 1408 m20 6 lw 1331 1384 m 30 X s 1374
 1384 m 29 X s 3 lw 1367 1384 m20 6 lw 1403 1359 m 30 X s 1446 1359 m 30 X s 3 lw 1440 1359 m20 6 lw 1476 1311 m 29 X s 1518 1311 m 30 X s 3 lw 1512 1311 m20 6 lw 1584 1237 m 2 Y s 1584 1252 m 1 Y s 1548 1245 m 30 X s 1591 1245 m 30 X s 3 lw 1584
 1245 m20 6 lw 1657 1148 m 4 Y s 1657 1165 m 4 Y s 1621 1159 m 29 X s 1663 1159 m 30 X s 3 lw 1657 1159 m20 6 lw 1729 974 m 12 Y s 1729 999 m 11 Y s 1693 993 m 30 X s 1736 993 m 29 X s 3 lw 1729 993 m20 6 lw 1802 845 m 23 Y s 1802 881 m 18 Y s 1765
 874 m 30 X s 1808 874 m 30 X s 3 lw 1802 874 m20 6 lw 1874 584 m 64 Y s 1874 661 m 41 Y s 1838 654 m 29 X s 1880 654 m 30 X s 3 lw 1874 654 m20 6 lw 1946 287 m 175 Y s 1946 475 m 73 Y s 1910 469 m 30 X s 1953 469 m 30 X s 3 lw 1946 469 m20 6 lw 2019
 287 m 175 Y s 2019 475 m 73 Y s 1983 469 m 29 X s 2025 469 m 30 X s 3 lw 2019 469 m20 6 lw 3 lw 317 185 m 1883 X s
 gsave  2268 1538 0 0 C 2143.9 3.25821 t 0 r /Helvetica findfont 84.7135 sf 0 0 m (f1) show NC gr  581 223 m -38 Y s 647 204 m -19 Y s 712 204 m -19 Y s 778 204 m -19 Y s 844 204 m -19 Y s 910 223 m -38 Y s 976 204 m -19 Y s 1041 204 m -19 Y s 1107
 204 m -19 Y s 1173 204 m -19 Y s 1239 223 m -38 Y s 1305 204 m -19 Y s 1370 204 m -19 Y s 1436 204 m -19 Y s 1502 204 m -19 Y s 1568 223 m -38 Y s 1634 204 m -19 Y s 1700 204 m -19 Y s 1765 204 m -19 Y s 1831 204 m -19 Y s 1897 223 m -38 Y s 581 223
 m -38 Y s 515 204 m -19 Y s 449 204 m -19 Y s 383 204 m -19 Y s 317 204 m -19 Y s 1897 223 m -38 Y s 1963 204 m -19 Y s 2029 204 m -19 Y s 2094 204 m -19 Y s 2160 204 m -19 Y s
 gsave  2268 1538 0 0 C 521.314 104.263 t 0 r /Helvetica findfont 84.7135 sf 0 0 m (0.2) show NC gr 
 gsave  2268 1538 0 0 C 850.394 104.263 t 0 r /Helvetica findfont 84.7135 sf 0 0 m (0.3) show NC gr 
 gsave  2268 1538 0 0 C 1179.47 104.263 t 0 r /Helvetica findfont 84.7135 sf 0 0 m (0.4) show NC gr 
 gsave  2268 1538 0 0 C 1508.55 104.263 t 0 r /Helvetica findfont 84.7135 sf 0 0 m (0.5) show NC gr 
 gsave  2268 1538 0 0 C 1837.63 104.263 t 0 r /Helvetica findfont 84.7135 sf 0 0 m (0.6) show NC gr  317 1507 m 1883 X s 581 1469 m 38 Y s 647 1488 m 19 Y s 712 1488 m 19 Y s 778 1488 m 19 Y s 844 1488 m 19 Y s 910 1469 m 38 Y s 976 1488 m 19 Y s
 1041 1488 m 19 Y s 1107 1488 m 19 Y s 1173 1488 m 19 Y s 1239 1469 m 38 Y s 1305 1488 m 19 Y s 1370 1488 m 19 Y s 1436 1488 m 19 Y s 1502 1488 m 19 Y s 1568 1469 m 38 Y s 1634 1488 m 19 Y s 1700 1488 m 19 Y s 1765 1488 m 19 Y s 1831 1488 m 19 Y s
 1897 1469 m 38 Y s 581 1469 m 38 Y s 515 1488 m 19 Y s 449 1488 m 19 Y s 383 1488 m 19 Y s 317 1488 m 19 Y s 1897 1469 m 38 Y s 1963 1488 m 19 Y s 2029 1488 m 19 Y s 2094 1488 m 19 Y s 2160 1488 m 19 Y s 317 185 m 1322 Y s
 gsave  2268 1538 0 0 C 127.07 1062.18 t 90 r /Helvetica findfont 84.7135 sf 0 0 m (Events/0.02) show NC gr  347 188 m -30 X s 347 231 m -30 X s 347 264 m -30 X s 347 291 m -30 X s 347 313 m -30 X s 347 333 m -30 X s 347 351 m -30 X s 376 366 m -59 X
 s
 gsave  2268 1538 0 0 C 295.257 329.764 t 0 r  -47 0 t /Helvetica findfont 84.7135 sf 0 0 m (1) show NC gr  347 469 m -30 X s 347 529 m -30 X s 347 571 m -30 X s 347 604 m -30 X s 347 631 m -30 X s 347 654 m -30 X s 347 674 m -30 X s 347 691 m -30 X
 s 376 707 m -59 X s
 gsave  2268 1538 0 0 C 295.257 670.497 t 0 r  -95 0 t /Helvetica findfont 84.7135 sf 0 0 m (10) show NC gr  347 810 m -30 X s 347 870 m -30 X s 347 912 m -30 X s 347 945 m -30 X s 347 972 m -30 X s 347 995 m -30 X s 347 1015 m -30 X s 347 1032 m -30
 X s 376 1048 m -59 X s
 gsave  2268 1538 0 0 C 260.657 1045.89 t 0 r /Helvetica findfont 58.6478 sf 0 0 m (2) show NC gr 
 gsave  2268 1538 0 0 C 169.427 1010.05 t 0 r /Helvetica findfont 84.7135 sf 0 0 m (10) show NC gr  347 1150 m -30 X s 347 1210 m -30 X s 347 1253 m -30 X s 347 1286 m -30 X s 347 1313 m -30 X s 347 1336 m -30 X s 347 1355 m -30 X s 347 1373 m -30 X
 s 376 1388 m -59 X s
 gsave  2268 1538 0 0 C 260.657 1391.26 t 0 r /Helvetica findfont 58.6478 sf 0 0 m (3) show NC gr 
 gsave  2268 1538 0 0 C 169.427 1352.16 t 0 r /Helvetica findfont 84.7135 sf 0 0 m (10) show NC gr  347 1491 m -30 X s 2200 185 m 1322 Y s 2170 188 m 30 X s 2170 231 m 30 X s 2170 264 m 30 X s 2170 291 m 30 X s 2170 313 m 30 X s 2170 333 m 30 X s
 2170 351 m 30 X s 2141 366 m 59 X s 2170 469 m 30 X s 2170 529 m 30 X s 2170 571 m 30 X s 2170 604 m 30 X s 2170 631 m 30 X s 2170 654 m 30 X s 2170 674 m 30 X s 2170 691 m 30 X s 2141 707 m 59 X s 2170 810 m 30 X s 2170 870 m 30 X s 2170 912 m 30 X
 s 2170 945 m 30 X s 2170 972 m 30 X s 2170 995 m 30 X s 2170 1015 m 30 X s 2170 1032 m 30 X s 2141 1048 m 59 X s 2170 1150 m 30 X s 2170 1210 m 30 X s 2170 1253 m 30 X s 2170 1286 m 30 X s 2170 1313 m 30 X s 2170 1336 m 30 X s 2170 1355 m 30 X s
 2170 1373 m 30 X s 2141 1388 m 59 X s 2170 1491 m 30 X s 0 0.6 0 c 9 lw 1 1 1 c black 0 0.6 0 c 317 185 m 218 X 1094 Y 72 X 156 Y 72 X 6 Y 73 X -3 Y 72 X -7 Y 73 X -13 Y 72 X -14 Y 72 X -17 Y 73 X -20 Y 72 X -27 Y 73 X -29 Y 72 X -33 Y 72 X -48 Y 73
 X -59 Y 72 X -63 Y 73 X -108 Y 72 X -98 Y 72 X -91 Y 73 X -184 Y 72 X -162 Y 73 X -159 Y 72 X -121 Y 145 X s 0.6 0 0 c 1 1 1 c black 0.6 0 0 c 317 185 m 218 X 929 Y 72 X 211 Y 72 X 36 Y 73 X 34 Y 72 X 9 Y 73 X 2 Y 72 X -14 Y 72 X 2 Y 73 X 10 Y 72 X
 2 Y 73 X -31 Y 72 X -6 Y 72 X -35 Y 73 X -48 Y 72 X -67 Y 73 X -89 Y 72 X -83 Y 72 X -167 Y 73 X -144 Y 72 X -115 Y 73 X -136 Y 72 X -300 Y 145 X s black
 gsave  2268 1538 0 0 C 1192.51 899.267 t 0 r /Helvetica-Bold findfont 65.1643 sf 0 0 m ( probe \(data\)) show NC gr 
 gsave  2268 1538 0 0 C 1140.37 899.267 t 0 r /Symbol findfont 65.1643 sf 0 0 m (Y) show NC gr 
 gsave  2268 1538 0 0 C 1084.99 899.267 t 0 r /Helvetica-Bold findfont 65.1643 sf 0 0 m (J/) show NC gr  1 1 1 c 3 lw 930 886 m 128 X 57 Y -128 X f 9 lw black 930 914 m 128 X s 3 lw 994 914 m20 9 lw
 gsave  2268 1538 0 0 C 1084.99 817.812 t 0 r /Helvetica-Bold findfont 65.1643 sf 0 0 m (B\255el \(MC\)) show NC gr  0.6 0 0 c 6 lw 930 834 m 128 X s black
 gsave  2268 1538 0 0 C 1084.99 736.356 t 0 r /Helvetica-Bold findfont 65.1643 sf 0 0 m (uds el \(qcd \)) show NC gr  1 1 1 c 3 lw 930 726 m 128 X 56 Y -128 X f 6 lw 0 0.6 0 c 930 754 m 128 X s black 3 lw 994 754 m20 6 lw
 gr  gr showpage
end
%%EOF
