%!PS-Adobe-2.0 EPSF-2.0
%%BoundingBox:  0 0 567 384
%%Title: /home/rohin/Analysis/thesis/images/softel/validated_vars/f1core.eps: c1_n9
%%Creator: ROOT Version 5.34/14
%%CreationDate: Mon Sep  8 03:52:50 2014
%%EndComments
%%BeginProlog
80 dict begin
/s {stroke} def /l {lineto} def /m {moveto} def /t {translate} def
/r {rotate} def /rl {roll}  def /R {repeat} def
/d {rlineto} def /rm {rmoveto} def /gr {grestore} def /f {eofill} def
/c {setrgbcolor} def /black {0 setgray} def /sd {setdash} def
/cl {closepath} def /sf {scalefont setfont} def /lw {setlinewidth} def
/box {m dup 0 exch d exch 0 d 0 exch neg d cl} def
/NC{systemdict begin initclip end}def/C{NC box clip newpath}def
/bl {box s} def /bf {box f} def /Y { 0 exch d} def /X { 0 d} def 
/K {{pop pop 0 moveto} exch kshow} bind def
/ita {/ang 15 def gsave [1 0 ang dup sin exch cos div 1 0 0] concat} def 
/mp {newpath /y exch def /x exch def} def
/side {[w .77 mul w .23 mul] .385 w mul sd w 0 l currentpoint t -144 r} def
/mr {mp x y w2 0 360 arc} def /m24 {mr s} def /m20 {mr f} def
/mb {mp x y w2 add m w2 neg 0 d 0 w neg d w 0 d 0 w d cl} def
/mt {mp x y w2 add m w2 neg w neg d w 0 d cl} def
/m21 {mb f} def /m25 {mb s} def /m22 {mt f} def /m26{mt s} def
/m23 {mp x y w2 sub m w2 w d w neg 0 d cl f} def
/m27 {mp x y w2 add m w3 neg w2 neg d w3 w2 neg d w3 w2 d cl s} def
/m28 {mp x w2 sub y w2 sub w3 add m w3 0 d  0 w3 neg d w3 0 d 0 w3 d w3 0 d  0 w3 d w3 neg 0 d 0 w3 d w3 neg 0 d 0 w3 neg d w3 neg 0 d cl s } def
/m29 {mp gsave x w2 sub y w2 add w3 sub m currentpoint t 4 {side} repeat cl fill gr} def
/m30 {mp gsave x w2 sub y w2 add w3 sub m currentpoint t 4 {side} repeat cl s gr} def
/m31 {mp x y w2 sub m 0 w d x w2 sub y m w 0 d x w2 sub y w2 add m w w neg d x w2 sub y w2 sub m w w d s} def
/m32 {mp x y w2 sub m w2 w d w neg 0 d cl s} def
/m33 {mp x y w2 add m w3 neg w2 neg d w3 w2 neg d w3 w2 d cl f} def
/m34 {mp x w2 sub y w2 sub w3 add m w3 0 d  0 w3 neg d w3 0 d 0 w3 d w3 0 d  0 w3 d w3 neg 0 d 0 w3 d w3 neg 0 d 0 w3 neg d w3 neg 0 d cl f } def
/m2 {mp x y w2 sub m 0 w d x w2 sub y m w 0 d s} def
/m5 {mp x w2 sub y w2 sub m w w d x w2 sub y w2 add m w w neg d s} def
/reEncode {exch findfont dup length dict begin {1 index /FID eq  {pop pop} {def} ifelse } forall /Encoding exch def currentdict end dup /FontName get exch definefont pop } def [/Times-Bold /Times-Italic /Times-BoldItalic /Helvetica /Helvetica-Oblique
 /Helvetica-Bold /Helvetica-BoldOblique /Courier /Courier-Oblique /Courier-Bold /Courier-BoldOblique /Times-Roman /AvantGarde-Book /AvantGarde-BookOblique /AvantGarde-Demi /AvantGarde-DemiOblique /Bookman-Demi /Bookman-DemiItalic /Bookman-Light
 /Bookman-LightItalic /Helvetica-Narrow /Helvetica-Narrow-Bold /Helvetica-Narrow-BoldOblique /Helvetica-Narrow-Oblique /NewCenturySchlbk-Roman /NewCenturySchlbk-Bold /NewCenturySchlbk-BoldItalic /NewCenturySchlbk-Italic /Palatino-Bold
 /Palatino-BoldItalic /Palatino-Italic /Palatino-Roman ] {ISOLatin1Encoding reEncode } forall
%%EndProlog
%%BeginSetup
%%EndSetup
newpath  gsave  .25 .25 scale  gsave  0 0 t black[  ] 0 sd 3 lw 1 1 1 c 2268 1538 0 0 bf black 1 1 1 c 1883 1322 317 185 bf black 1883 1322 317 185 bl 1 1 1 c 1883 1322 317 185 bf black 1883 1322 317 185 bl 6 lw 1 1 1 c black 422 296 m 168 Y s 422
 477 m 70 Y s 387 471 m 29 X s 429 471 m 28 X s 3 lw /w 13 def /w2 {w 2 div} def /w3 {w 3 div} def 422 471 m20 6 lw 561 283 m 280 Y s 561 576 m 82 Y s 527 570 m 28 X s 568 570 m 28 X s 3 lw 561 570 m20 6 lw 631 898 m 16 Y s 631 927 m 13 Y s 596 921 m
 29 X s 638 921 m 28 X s 3 lw 631 921 m20 6 lw 701 1125 m 4 Y s 701 1142 m 3 Y s 666 1135 m 28 X s 707 1135 m 29 X s 3 lw 701 1135 m20 6 lw 736 1287 m 28 X s 777 1287 m 28 X s 3 lw 771 1287 m20 6 lw 805 1341 m 29 X s 847 1341 m 28 X s 3 lw 840 1341
 m20 6 lw 875 1369 m 29 X s 917 1369 m 28 X s 3 lw 910 1369 m20 6 lw 945 1350 m 28 X s 986 1350 m 29 X s 3 lw 980 1350 m20 6 lw 1015 1362 m 28 X s 1056 1362 m 28 X s 3 lw 1049 1362 m20 6 lw 1084 1391 m 29 X s 1126 1391 m 28 X s 3 lw 1119 1391 m20 6
 lw 1154 1412 m 28 X s 1195 1412 m 29 X s 3 lw 1189 1412 m20 6 lw 1224 1411 m 28 X s 1265 1411 m 28 X s 3 lw 1259 1411 m20 6 lw 1293 1404 m 29 X s 1335 1404 m 28 X s 3 lw 1328 1404 m20 6 lw 1363 1369 m 28 X s 1405 1369 m 28 X s 3 lw 1398 1369 m20 6
 lw 1433 1298 m 28 X s 1474 1298 m 29 X s 3 lw 1468 1298 m20 6 lw 1537 1213 m 1 Y s 1537 1227 m s 1503 1220 m 28 X s 1544 1220 m 28 X s 3 lw 1537 1220 m20 6 lw 1607 1086 m 5 Y s 1607 1104 m 4 Y s 1572 1098 m 29 X s 1614 1098 m 28 X s 3 lw 1607 1098
 m20 6 lw 1677 833 m 22 Y s 1677 868 m 17 Y s 1642 861 m 28 X s 1683 861 m 29 X s 3 lw 1677 861 m20 6 lw 1747 663 m 44 Y s 1747 720 m 31 Y s 1712 714 m 28 X s 1753 714 m 28 X s 3 lw 1747 714 m20 6 lw 3 lw 317 185 m 1883 X s
 gsave  2268 1538 0 0 C 1964.7 6.51643 t 0 r /Helvetica findfont 84.7135 sf 0 0 m (f1core) show NC gr  387 223 m -38 Y s 457 204 m -19 Y s 527 204 m -19 Y s 596 204 m -19 Y s 666 204 m -19 Y s 736 223 m -38 Y s 805 204 m -19 Y s 875 204 m -19 Y s 945
 204 m -19 Y s 1015 204 m -19 Y s 1084 223 m -38 Y s 1154 204 m -19 Y s 1224 204 m -19 Y s 1293 204 m -19 Y s 1363 204 m -19 Y s 1433 223 m -38 Y s 1503 204 m -19 Y s 1572 204 m -19 Y s 1642 204 m -19 Y s 1712 204 m -19 Y s 1781 223 m -38 Y s 1851
 204 m -19 Y s 1921 204 m -19 Y s 1991 204 m -19 Y s 2060 204 m -19 Y s 2130 223 m -38 Y s 387 223 m -38 Y s 2130 223 m -38 Y s
 gsave  2268 1538 0 0 C 361.662 104.263 t 0 r /Helvetica findfont 84.7135 sf 0 0 m (0) show NC gr 
 gsave  2268 1538 0 0 C 680.967 104.263 t 0 r /Helvetica findfont 84.7135 sf 0 0 m (0.1) show NC gr 
 gsave  2268 1538 0 0 C 1023.08 104.263 t 0 r /Helvetica findfont 84.7135 sf 0 0 m (0.2) show NC gr 
 gsave  2268 1538 0 0 C 1371.71 104.263 t 0 r /Helvetica findfont 84.7135 sf 0 0 m (0.3) show NC gr 
 gsave  2268 1538 0 0 C 1720.34 104.263 t 0 r /Helvetica findfont 84.7135 sf 0 0 m (0.4) show NC gr 
 gsave  2268 1538 0 0 C 2068.97 104.263 t 0 r /Helvetica findfont 84.7135 sf 0 0 m (0.5) show NC gr  317 1507 m 1883 X s 387 1469 m 38 Y s 457 1488 m 19 Y s 527 1488 m 19 Y s 596 1488 m 19 Y s 666 1488 m 19 Y s 736 1469 m 38 Y s 805 1488 m 19 Y s 875
 1488 m 19 Y s 945 1488 m 19 Y s 1015 1488 m 19 Y s 1084 1469 m 38 Y s 1154 1488 m 19 Y s 1224 1488 m 19 Y s 1293 1488 m 19 Y s 1363 1488 m 19 Y s 1433 1469 m 38 Y s 1503 1488 m 19 Y s 1572 1488 m 19 Y s 1642 1488 m 19 Y s 1712 1488 m 19 Y s 1781
 1469 m 38 Y s 1851 1488 m 19 Y s 1921 1488 m 19 Y s 1991 1488 m 19 Y s 2060 1488 m 19 Y s 2130 1469 m 38 Y s 387 1469 m 38 Y s 2130 1469 m 38 Y s 317 185 m 1322 Y s
 gsave  2268 1538 0 0 C 127.07 1062.18 t 90 r /Helvetica findfont 84.7135 sf 0 0 m (Events/0.02) show NC gr  347 201 m -30 X s 347 242 m -30 X s 347 273 m -30 X s 347 299 m -30 X s 347 321 m -30 X s 347 340 m -30 X s 347 357 m -30 X s 376 372 m -59 X
 s
 gsave  2268 1538 0 0 C 295.257 335.647 t 0 r  -47 0 t /Helvetica findfont 84.7135 sf 0 0 m (1) show NC gr  347 471 m -30 X s 347 529 m -30 X s 347 570 m -30 X s 347 601 m -30 X s 347 627 m -30 X s 347 649 m -30 X s 347 668 m -30 X s 347 685 m -30 X
 s 376 700 m -59 X s
 gsave  2268 1538 0 0 C 295.257 663.638 t 0 r  -95 0 t /Helvetica findfont 84.7135 sf 0 0 m (10) show NC gr  347 799 m -30 X s 347 857 m -30 X s 347 898 m -30 X s 347 929 m -30 X s 347 955 m -30 X s 347 977 m -30 X s 347 996 m -30 X s 347 1013 m -30
 X s 376 1028 m -59 X s
 gsave  2268 1538 0 0 C 260.657 1026.34 t 0 r /Helvetica findfont 58.6478 sf 0 0 m (2) show NC gr 
 gsave  2268 1538 0 0 C 169.427 990.497 t 0 r /Helvetica findfont 84.7135 sf 0 0 m (10) show NC gr  347 1127 m -30 X s 347 1185 m -30 X s 347 1226 m -30 X s 347 1257 m -30 X s 347 1283 m -30 X s 347 1305 m -30 X s 347 1324 m -30 X s 347 1341 m -30 X
 s 376 1356 m -59 X s
 gsave  2268 1538 0 0 C 260.657 1358.67 t 0 r /Helvetica findfont 58.6478 sf 0 0 m (3) show NC gr 
 gsave  2268 1538 0 0 C 169.427 1319.58 t 0 r /Helvetica findfont 84.7135 sf 0 0 m (10) show NC gr  347 1455 m -30 X s 2200 185 m 1322 Y s 2170 201 m 30 X s 2170 242 m 30 X s 2170 273 m 30 X s 2170 299 m 30 X s 2170 321 m 30 X s 2170 340 m 30 X s
 2170 357 m 30 X s 2141 372 m 59 X s 2170 471 m 30 X s 2170 529 m 30 X s 2170 570 m 30 X s 2170 601 m 30 X s 2170 627 m 30 X s 2170 649 m 30 X s 2170 668 m 30 X s 2170 685 m 30 X s 2141 700 m 59 X s 2170 799 m 30 X s 2170 857 m 30 X s 2170 898 m 30 X
 s 2170 929 m 30 X s 2170 955 m 30 X s 2170 977 m 30 X s 2170 996 m 30 X s 2170 1013 m 30 X s 2141 1028 m 59 X s 2170 1127 m 30 X s 2170 1185 m 30 X s 2170 1226 m 30 X s 2170 1257 m 30 X s 2170 1283 m 30 X s 2170 1305 m 30 X s 2170 1324 m 30 X s 2170
 1341 m 30 X s 2141 1356 m 59 X s 2170 1455 m 30 X s 0 0.6 0 c 9 lw 1 1 1 c black 0 0.6 0 c 317 185 m 70 X 654 Y 70 X 237 Y 70 X 218 Y 69 X 107 Y 70 X 36 Y 70 X 4 Y 69 X -13 Y 70 X -26 Y 70 X -36 Y 70 X -39 Y 69 X -44 Y 70 X -33 Y 70 X -40 Y 69 X -38
 Y 70 X -47 Y 70 X -59 Y 70 X -77 Y 69 X -100 Y 70 X -117 Y 70 X -221 Y 69 X -311 Y 70 X -55 Y 349 X s 0.6 0 0 c 1 1 1 c black 0.6 0 0 c 317 185 m 70 X 317 Y 70 X 166 Y 70 X 183 Y 69 X 185 Y 70 X 110 Y 70 X 134 Y 69 X 83 Y 70 X 31 Y 70 X -8 Y 70 X
 -19 Y 69 X -1 Y 70 X 20 Y 70 X 3 Y 69 X -5 Y 70 X -31 Y 70 X -51 Y 70 X -63 Y 69 X -108 Y 70 X -150 Y 70 X -92 Y 69 X -281 Y 70 X -423 Y 349 X s black
 gsave  2268 1538 0 0 C 1071.95 863.427 t 0 r /Helvetica-Bold findfont 65.1643 sf 0 0 m ( probe \(data\)) show NC gr 
 gsave  2268 1538 0 0 C 1019.82 863.427 t 0 r /Symbol findfont 65.1643 sf 0 0 m (Y) show NC gr 
 gsave  2268 1538 0 0 C 964.431 863.427 t 0 r /Helvetica-Bold findfont 65.1643 sf 0 0 m (J/) show NC gr  1 1 1 c 3 lw 812 848 m 126 X 72 Y -126 X f 9 lw black 812 884 m 126 X s 3 lw 875 884 m20 9 lw
 gsave  2268 1538 0 0 C 964.431 759.164 t 0 r /Helvetica-Bold findfont 65.1643 sf 0 0 m (B\255el \(MC\)) show NC gr  0.6 0 0 c 6 lw 812 782 m 126 X s black
 gsave  2268 1538 0 0 C 964.431 658.159 t 0 r /Helvetica-Bold findfont 65.1643 sf 0 0 m (uds el \(qcd \)) show NC gr  1 1 1 c 3 lw 812 644 m 126 X 72 Y -126 X f 6 lw 0 0.6 0 c 812 680 m 126 X s black 3 lw 875 680 m20 6 lw
 gr  gr showpage
end
%%EOF
