%!PS-Adobe-2.0 EPSF-2.0
%%BoundingBox:  0 0 567 384
%%Title: /home/rohin/Analysis/thesis/images/softel/validated_vars/f3.eps: c1_n10
%%Creator: ROOT Version 5.34/14
%%CreationDate: Mon Sep  8 03:52:28 2014
%%EndComments
%%BeginProlog
80 dict begin
/s {stroke} def /l {lineto} def /m {moveto} def /t {translate} def
/r {rotate} def /rl {roll}  def /R {repeat} def
/d {rlineto} def /rm {rmoveto} def /gr {grestore} def /f {eofill} def
/c {setrgbcolor} def /black {0 setgray} def /sd {setdash} def
/cl {closepath} def /sf {scalefont setfont} def /lw {setlinewidth} def
/box {m dup 0 exch d exch 0 d 0 exch neg d cl} def
/NC{systemdict begin initclip end}def/C{NC box clip newpath}def
/bl {box s} def /bf {box f} def /Y { 0 exch d} def /X { 0 d} def 
/K {{pop pop 0 moveto} exch kshow} bind def
/ita {/ang 15 def gsave [1 0 ang dup sin exch cos div 1 0 0] concat} def 
/mp {newpath /y exch def /x exch def} def
/side {[w .77 mul w .23 mul] .385 w mul sd w 0 l currentpoint t -144 r} def
/mr {mp x y w2 0 360 arc} def /m24 {mr s} def /m20 {mr f} def
/mb {mp x y w2 add m w2 neg 0 d 0 w neg d w 0 d 0 w d cl} def
/mt {mp x y w2 add m w2 neg w neg d w 0 d cl} def
/m21 {mb f} def /m25 {mb s} def /m22 {mt f} def /m26{mt s} def
/m23 {mp x y w2 sub m w2 w d w neg 0 d cl f} def
/m27 {mp x y w2 add m w3 neg w2 neg d w3 w2 neg d w3 w2 d cl s} def
/m28 {mp x w2 sub y w2 sub w3 add m w3 0 d  0 w3 neg d w3 0 d 0 w3 d w3 0 d  0 w3 d w3 neg 0 d 0 w3 d w3 neg 0 d 0 w3 neg d w3 neg 0 d cl s } def
/m29 {mp gsave x w2 sub y w2 add w3 sub m currentpoint t 4 {side} repeat cl fill gr} def
/m30 {mp gsave x w2 sub y w2 add w3 sub m currentpoint t 4 {side} repeat cl s gr} def
/m31 {mp x y w2 sub m 0 w d x w2 sub y m w 0 d x w2 sub y w2 add m w w neg d x w2 sub y w2 sub m w w d s} def
/m32 {mp x y w2 sub m w2 w d w neg 0 d cl s} def
/m33 {mp x y w2 add m w3 neg w2 neg d w3 w2 neg d w3 w2 d cl f} def
/m34 {mp x w2 sub y w2 sub w3 add m w3 0 d  0 w3 neg d w3 0 d 0 w3 d w3 0 d  0 w3 d w3 neg 0 d 0 w3 d w3 neg 0 d 0 w3 neg d w3 neg 0 d cl f } def
/m2 {mp x y w2 sub m 0 w d x w2 sub y m w 0 d s} def
/m5 {mp x w2 sub y w2 sub m w w d x w2 sub y w2 add m w w neg d s} def
/reEncode {exch findfont dup length dict begin {1 index /FID eq  {pop pop} {def} ifelse } forall /Encoding exch def currentdict end dup /FontName get exch definefont pop } def [/Times-Bold /Times-Italic /Times-BoldItalic /Helvetica /Helvetica-Oblique
 /Helvetica-Bold /Helvetica-BoldOblique /Courier /Courier-Oblique /Courier-Bold /Courier-BoldOblique /Times-Roman /AvantGarde-Book /AvantGarde-BookOblique /AvantGarde-Demi /AvantGarde-DemiOblique /Bookman-Demi /Bookman-DemiItalic /Bookman-Light
 /Bookman-LightItalic /Helvetica-Narrow /Helvetica-Narrow-Bold /Helvetica-Narrow-BoldOblique /Helvetica-Narrow-Oblique /NewCenturySchlbk-Roman /NewCenturySchlbk-Bold /NewCenturySchlbk-BoldItalic /NewCenturySchlbk-Italic /Palatino-Bold
 /Palatino-BoldItalic /Palatino-Italic /Palatino-Roman ] {ISOLatin1Encoding reEncode } forall
%%EndProlog
%%BeginSetup
%%EndSetup
newpath  gsave  .25 .25 scale  gsave  0 0 t black[  ] 0 sd 3 lw 1 1 1 c 2268 1538 0 0 bf black 1 1 1 c 1883 1322 317 185 bf black 1883 1322 317 185 bl 1 1 1 c 1883 1322 317 185 bf black 1883 1322 317 185 bl 6 lw 1 1 1 c black 610 758 m 14 Y s 610 785
 m 12 Y s 577 779 m 26 X s 616 779 m 26 X s 3 lw /w 13 def /w2 {w 2 div} def /w3 {w 3 div} def 610 779 m20 6 lw 642 1425 m 26 X s 681 1425 m 26 X s 3 lw 674 1425 m20 6 lw 707 1382 m 26 X s 746 1382 m 26 X s 3 lw 739 1382 m20 6 lw 804 977 m 3 Y s 804
 993 m 1 Y s 772 986 m 26 X s 811 986 m 26 X s 3 lw 804 986 m20 6 lw 869 754 m 15 Y s 869 783 m 11 Y s 837 776 m 26 X s 876 776 m 26 X s 3 lw 869 776 m20 6 lw 934 625 m 31 Y s 934 669 m 22 Y s 902 662 m 26 X s 941 662 m 26 X s 3 lw 934 662 m20 6 lw
 1064 588 m 34 Y s 1064 635 m 24 Y s 1031 628 m 26 X s 1070 628 m 26 X s 3 lw 1064 628 m20 6 lw 1129 185 m 114 Y s 1129 312 m 141 Y s 1096 306 m 26 X s 1135 306 m 26 X s 3 lw 1129 306 m20 6 lw 1194 272 m 165 Y s 1194 450 m 64 Y s 1161 444 m 26 X s
 1200 444 m 26 X s 3 lw 1194 444 m20 6 lw 1259 185 m 114 Y s 1259 312 m 120 Y s 1226 306 m 26 X s 1265 306 m 26 X s 3 lw 1259 306 m20 6 lw 1648 336 m 101 Y s 1648 450 m 51 Y s 1616 444 m 25 X s 1655 444 m 25 X s 3 lw 1648 444 m20 6 lw 1713 185 m 114
 Y s 1713 312 m 81 Y s 1680 306 m 26 X s 1719 306 m 26 X s 3 lw 1713 306 m20 6 lw 3 lw 317 185 m 1883 X s
 gsave  2268 1538 0 0 C 2130.87 6.51643 t 0 r /Helvetica findfont 84.7135 sf 0 0 m (f3) show NC gr  382 223 m -38 Y s 441 204 m -19 Y s 500 204 m -19 Y s 559 204 m -19 Y s 618 204 m -19 Y s 677 223 m -38 Y s 736 204 m -19 Y s 795 204 m -19 Y s 854
 204 m -19 Y s 913 204 m -19 Y s 972 223 m -38 Y s 1031 204 m -19 Y s 1090 204 m -19 Y s 1149 204 m -19 Y s 1208 204 m -19 Y s 1267 223 m -38 Y s 1326 204 m -19 Y s 1385 204 m -19 Y s 1444 204 m -19 Y s 1503 204 m -19 Y s 1562 223 m -38 Y s 1621 204
 m -19 Y s 1680 204 m -19 Y s 1739 204 m -19 Y s 1798 204 m -19 Y s 1857 223 m -38 Y s 1916 204 m -19 Y s 1975 204 m -19 Y s 2034 204 m -19 Y s 2093 204 m -19 Y s 2152 223 m -38 Y s 382 223 m -38 Y s 323 204 m -19 Y s 2152 223 m -38 Y s
 gsave  2268 1538 0 0 C 316.047 104.263 t 0 r /Helvetica findfont 84.7135 sf 0 0 m (\2550.1) show NC gr 
 gsave  2268 1538 0 0 C 651.643 104.263 t 0 r /Helvetica findfont 84.7135 sf 0 0 m (0) show NC gr 
 gsave  2268 1538 0 0 C 918.816 104.263 t 0 r /Helvetica findfont 84.7135 sf 0 0 m (0.1) show NC gr 
 gsave  2268 1538 0 0 C 1205.54 104.263 t 0 r /Helvetica findfont 84.7135 sf 0 0 m (0.2) show NC gr 
 gsave  2268 1538 0 0 C 1502.04 104.263 t 0 r /Helvetica findfont 84.7135 sf 0 0 m (0.3) show NC gr 
 gsave  2268 1538 0 0 C 1798.53 104.263 t 0 r /Helvetica findfont 84.7135 sf 0 0 m (0.4) show NC gr 
 gsave  2268 1538 0 0 C 2091.77 104.263 t 0 r /Helvetica findfont 84.7135 sf 0 0 m (0.5) show NC gr  317 1507 m 1883 X s 382 1469 m 38 Y s 441 1488 m 19 Y s 500 1488 m 19 Y s 559 1488 m 19 Y s 618 1488 m 19 Y s 677 1469 m 38 Y s 736 1488 m 19 Y s 795
 1488 m 19 Y s 854 1488 m 19 Y s 913 1488 m 19 Y s 972 1469 m 38 Y s 1031 1488 m 19 Y s 1090 1488 m 19 Y s 1149 1488 m 19 Y s 1208 1488 m 19 Y s 1267 1469 m 38 Y s 1326 1488 m 19 Y s 1385 1488 m 19 Y s 1444 1488 m 19 Y s 1503 1488 m 19 Y s 1562 1469
 m 38 Y s 1621 1488 m 19 Y s 1680 1488 m 19 Y s 1739 1488 m 19 Y s 1798 1488 m 19 Y s 1857 1469 m 38 Y s 1916 1488 m 19 Y s 1975 1488 m 19 Y s 2034 1488 m 19 Y s 2093 1488 m 19 Y s 2152 1469 m 38 Y s 382 1469 m 38 Y s 323 1488 m 19 Y s 2152 1469 m 38
 Y s 317 185 m 1322 Y s
 gsave  2268 1538 0 0 C 127.07 1062.18 t 90 r /Helvetica findfont 84.7135 sf 0 0 m (Events/0.02) show NC gr  347 190 m -30 X s 347 218 m -30 X s 347 241 m -30 X s 347 261 m -30 X s 347 278 m -30 X s 347 292 m -30 X s 376 306 m -59 X s
 gsave  2268 1538 0 0 C 295.257 269.165 t 0 r  -47 0 t /Helvetica findfont 84.7135 sf 0 0 m (1) show NC gr  347 393 m -30 X s 347 444 m -30 X s 347 480 m -30 X s 347 508 m -30 X s 347 531 m -30 X s 347 551 m -30 X s 347 567 m -30 X s 347 582 m -30 X
 s 376 595 m -59 X s
 gsave  2268 1538 0 0 C 295.257 558.921 t 0 r  -95 0 t /Helvetica findfont 84.7135 sf 0 0 m (10) show NC gr  347 683 m -30 X s 347 734 m -30 X s 347 770 m -30 X s 347 798 m -30 X s 347 821 m -30 X s 347 840 m -30 X s 347 857 m -30 X s 347 872 m -30 X
 s 376 885 m -59 X s
 gsave  2268 1538 0 0 C 260.657 882.976 t 0 r /Helvetica findfont 58.6478 sf 0 0 m (2) show NC gr 
 gsave  2268 1538 0 0 C 169.427 847.135 t 0 r /Helvetica findfont 84.7135 sf 0 0 m (10) show NC gr  347 972 m -30 X s 347 1023 m -30 X s 347 1060 m -30 X s 347 1088 m -30 X s 347 1111 m -30 X s 347 1130 m -30 X s 347 1147 m -30 X s 347 1162 m -30 X s
 376 1175 m -59 X s
 gsave  2268 1538 0 0 C 260.657 1176.21 t 0 r /Helvetica findfont 58.6478 sf 0 0 m (3) show NC gr 
 gsave  2268 1538 0 0 C 169.427 1137.12 t 0 r /Helvetica findfont 84.7135 sf 0 0 m (10) show NC gr  347 1262 m -30 X s 347 1313 m -30 X s 347 1349 m -30 X s 347 1377 m -30 X s 347 1400 m -30 X s 347 1420 m -30 X s 347 1437 m -30 X s 347 1451 m -30 X
 s 376 1465 m -59 X s
 gsave  2268 1538 0 0 C 260.657 1462.94 t 0 r /Helvetica findfont 58.6478 sf 0 0 m (4) show NC gr 
 gsave  2268 1538 0 0 C 169.427 1427.1 t 0 r /Helvetica findfont 84.7135 sf 0 0 m (10) show NC gr  2200 185 m 1322 Y s 2170 190 m 30 X s 2170 218 m 30 X s 2170 241 m 30 X s 2170 261 m 30 X s 2170 278 m 30 X s 2170 292 m 30 X s 2141 306 m 59 X s 2170
 393 m 30 X s 2170 444 m 30 X s 2170 480 m 30 X s 2170 508 m 30 X s 2170 531 m 30 X s 2170 551 m 30 X s 2170 567 m 30 X s 2170 582 m 30 X s 2141 595 m 59 X s 2170 683 m 30 X s 2170 734 m 30 X s 2170 770 m 30 X s 2170 798 m 30 X s 2170 821 m 30 X s
 2170 840 m 30 X s 2170 857 m 30 X s 2170 872 m 30 X s 2141 885 m 59 X s 2170 972 m 30 X s 2170 1023 m 30 X s 2170 1060 m 30 X s 2170 1088 m 30 X s 2170 1111 m 30 X s 2170 1130 m 30 X s 2170 1147 m 30 X s 2170 1162 m 30 X s 2141 1175 m 59 X s 2170
 1262 m 30 X s 2170 1313 m 30 X s 2170 1349 m 30 X s 2170 1377 m 30 X s 2170 1400 m 30 X s 2170 1420 m 30 X s 2170 1437 m 30 X s 2170 1451 m 30 X s 2141 1465 m 59 X s 0 0.6 0 c 9 lw 1 1 1 c black 0 0.6 0 c 317 185 m 260 X 484 Y 65 X 684 Y 65 X 28 Y
 65 X -150 Y 65 X -88 Y 65 X -74 Y 65 X -59 Y 64 X -55 Y 65 X -54 Y 65 X -49 Y 65 X -39 Y 65 X -46 Y 65 X -41 Y 65 X -48 Y 65 X -46 Y 65 X -50 Y 65 X -42 Y 64 X -42 Y 65 X -35 Y 65 X -107 Y 65 X -87 Y 65 X -1 Y 65 X -16 Y 65 X -67 Y 130 X s 0.6 0 0 c
 1 1 1 c black 0.6 0 0 c 317 185 m 260 X 593 Y 65 X 651 Y 65 X -53 Y 65 X -379 Y 65 X -184 Y 65 X -118 Y 65 X -48 Y 64 X -202 Y 65 X 43 Y 65 X -303 Y 1039 X s black
 gsave  2268 1538 0 0 C 1505.29 1316.32 t 0 r /Helvetica-Bold findfont 61.9061 sf 0 0 m ( probe \(data\)) show NC gr 
 gsave  2268 1538 0 0 C 1456.42 1316.32 t 0 r /Symbol findfont 61.9061 sf 0 0 m (Y) show NC gr 
 gsave  2268 1538 0 0 C 1404.29 1316.32 t 0 r /Helvetica-Bold findfont 61.9061 sf 0 0 m (J/) show NC gr  1 1 1 c 3 lw 1258 1301 m 120 X 72 Y -120 X f 9 lw black 1258 1337 m 120 X s 3 lw 1318 1337 m20 9 lw
 gsave  2268 1538 0 0 C 1404.29 1212.06 t 0 r /Helvetica-Bold findfont 61.9061 sf 0 0 m (B\255el \(MC\)) show NC gr  0.6 0 0 c 6 lw 1258 1235 m 120 X s black
 gsave  2268 1538 0 0 C 1404.29 1111.05 t 0 r /Helvetica-Bold findfont 61.9061 sf 0 0 m (uds el \(qcd \)) show NC gr  1 1 1 c 3 lw 1258 1097 m 120 X 72 Y -120 X f 6 lw 0 0.6 0 c 1258 1133 m 120 X s black 3 lw 1318 1133 m20 6 lw
 gr  gr showpage
end
%%EOF
