%!PS-Adobe-2.0 EPSF-2.0
%%BoundingBox:  0 0 567 384
%%Title: /home/rohin/Analysis/thesis/images/softel/validated_vars/f3core.eps: c1_n11
%%Creator: ROOT Version 5.34/14
%%CreationDate: Mon Sep  8 03:52:10 2014
%%EndComments
%%BeginProlog
80 dict begin
/s {stroke} def /l {lineto} def /m {moveto} def /t {translate} def
/r {rotate} def /rl {roll}  def /R {repeat} def
/d {rlineto} def /rm {rmoveto} def /gr {grestore} def /f {eofill} def
/c {setrgbcolor} def /black {0 setgray} def /sd {setdash} def
/cl {closepath} def /sf {scalefont setfont} def /lw {setlinewidth} def
/box {m dup 0 exch d exch 0 d 0 exch neg d cl} def
/NC{systemdict begin initclip end}def/C{NC box clip newpath}def
/bl {box s} def /bf {box f} def /Y { 0 exch d} def /X { 0 d} def 
/K {{pop pop 0 moveto} exch kshow} bind def
/ita {/ang 15 def gsave [1 0 ang dup sin exch cos div 1 0 0] concat} def 
/mp {newpath /y exch def /x exch def} def
/side {[w .77 mul w .23 mul] .385 w mul sd w 0 l currentpoint t -144 r} def
/mr {mp x y w2 0 360 arc} def /m24 {mr s} def /m20 {mr f} def
/mb {mp x y w2 add m w2 neg 0 d 0 w neg d w 0 d 0 w d cl} def
/mt {mp x y w2 add m w2 neg w neg d w 0 d cl} def
/m21 {mb f} def /m25 {mb s} def /m22 {mt f} def /m26{mt s} def
/m23 {mp x y w2 sub m w2 w d w neg 0 d cl f} def
/m27 {mp x y w2 add m w3 neg w2 neg d w3 w2 neg d w3 w2 d cl s} def
/m28 {mp x w2 sub y w2 sub w3 add m w3 0 d  0 w3 neg d w3 0 d 0 w3 d w3 0 d  0 w3 d w3 neg 0 d 0 w3 d w3 neg 0 d 0 w3 neg d w3 neg 0 d cl s } def
/m29 {mp gsave x w2 sub y w2 add w3 sub m currentpoint t 4 {side} repeat cl fill gr} def
/m30 {mp gsave x w2 sub y w2 add w3 sub m currentpoint t 4 {side} repeat cl s gr} def
/m31 {mp x y w2 sub m 0 w d x w2 sub y m w 0 d x w2 sub y w2 add m w w neg d x w2 sub y w2 sub m w w d s} def
/m32 {mp x y w2 sub m w2 w d w neg 0 d cl s} def
/m33 {mp x y w2 add m w3 neg w2 neg d w3 w2 neg d w3 w2 d cl f} def
/m34 {mp x w2 sub y w2 sub w3 add m w3 0 d  0 w3 neg d w3 0 d 0 w3 d w3 0 d  0 w3 d w3 neg 0 d 0 w3 d w3 neg 0 d 0 w3 neg d w3 neg 0 d cl f } def
/m2 {mp x y w2 sub m 0 w d x w2 sub y m w 0 d s} def
/m5 {mp x w2 sub y w2 sub m w w d x w2 sub y w2 add m w w neg d s} def
/reEncode {exch findfont dup length dict begin {1 index /FID eq  {pop pop} {def} ifelse } forall /Encoding exch def currentdict end dup /FontName get exch definefont pop } def [/Times-Bold /Times-Italic /Times-BoldItalic /Helvetica /Helvetica-Oblique
 /Helvetica-Bold /Helvetica-BoldOblique /Courier /Courier-Oblique /Courier-Bold /Courier-BoldOblique /Times-Roman /AvantGarde-Book /AvantGarde-BookOblique /AvantGarde-Demi /AvantGarde-DemiOblique /Bookman-Demi /Bookman-DemiItalic /Bookman-Light
 /Bookman-LightItalic /Helvetica-Narrow /Helvetica-Narrow-Bold /Helvetica-Narrow-BoldOblique /Helvetica-Narrow-Oblique /NewCenturySchlbk-Roman /NewCenturySchlbk-Bold /NewCenturySchlbk-BoldItalic /NewCenturySchlbk-Italic /Palatino-Bold
 /Palatino-BoldItalic /Palatino-Italic /Palatino-Roman ] {ISOLatin1Encoding reEncode } forall
%%EndProlog
%%BeginSetup
%%EndSetup
newpath  gsave  .25 .25 scale  gsave  0 0 t black[  ] 0 sd 3 lw 1 1 1 c 2268 1538 0 0 bf black 1 1 1 c 1883 1322 317 185 bf black 1883 1322 317 185 bl 1 1 1 c 1883 1322 317 185 bf black 1883 1322 317 185 bl 6 lw 1 1 1 c black 496 185 m 140 Y s 496
 338 m 76 Y s 470 331 m 19 X s 502 331 m 19 X s 3 lw /w 13 def /w2 {w 2 div} def /w3 {w 3 div} def 496 331 m20 6 lw 521 1264 m 19 X s 553 1264 m 19 X s 3 lw 546 1264 m20 6 lw 572 1430 m 19 X s 604 1430 m 19 X s 3 lw 597 1430 m20 6 lw 648 1012 m 1 Y s
 623 1019 m 19 X s 655 1019 m 19 X s 3 lw 648 1019 m20 6 lw 699 725 m 17 Y s 699 755 m 12 Y s 674 748 m 18 X s 706 748 m 18 X s 3 lw 699 748 m20 6 lw 750 550 m 49 Y s 750 612 m 32 Y s 724 606 m 19 X s 756 606 m 19 X s 3 lw 750 606 m20 6 lw 801 487 m
 70 Y s 801 570 m 39 Y s 775 563 m 19 X s 807 563 m 19 X s 3 lw 801 563 m20 6 lw 902 299 m 157 Y s 902 469 m 60 Y s 877 462 m 19 X s 909 462 m 19 X s 3 lw 902 462 m20 6 lw 1004 267 m 140 Y s 1004 420 m 58 Y s 979 414 m 19 X s 1011 414 m 19 X s 3 lw
 1004 414 m20 6 lw 1055 185 m 140 Y s 1055 338 m 113 Y s 1030 331 m 19 X s 1062 331 m 19 X s 3 lw 1055 331 m20 6 lw 1309 185 m 140 Y s 1309 338 m 76 Y s 1284 331 m 19 X s 1316 331 m 19 X s 3 lw 1309 331 m20 6 lw 1411 185 m 140 Y s 1411 338 m 76 Y s
 1386 331 m 19 X s 1418 331 m 19 X s 3 lw 1411 331 m20 6 lw 3 lw 317 185 m 1883 X s
 gsave  2268 1538 0 0 C 1964.7 6.51643 t 0 r /Helvetica findfont 84.7135 sf 0 0 m (f3core) show NC gr  317 223 m -38 Y s 368 204 m -19 Y s 419 204 m -19 Y s 470 204 m -19 Y s 521 204 m -19 Y s 572 223 m -38 Y s 623 204 m -19 Y s 674 204 m -19 Y s 724
 204 m -19 Y s 775 204 m -19 Y s 826 223 m -38 Y s 877 204 m -19 Y s 928 204 m -19 Y s 979 204 m -19 Y s 1030 204 m -19 Y s 1081 223 m -38 Y s 1131 204 m -19 Y s 1182 204 m -19 Y s 1233 204 m -19 Y s 1284 204 m -19 Y s 1335 223 m -38 Y s 1386 204 m
 -19 Y s 1437 204 m -19 Y s 1487 204 m -19 Y s 1538 204 m -19 Y s 1589 223 m -38 Y s 1640 204 m -19 Y s 1691 204 m -19 Y s 1742 204 m -19 Y s 1793 204 m -19 Y s 1844 223 m -38 Y s 1894 204 m -19 Y s 1945 204 m -19 Y s 1996 204 m -19 Y s 2047 204 m
 -19 Y s 2098 223 m -38 Y s 2098 223 m -38 Y s 2149 204 m -19 Y s 2200 204 m -19 Y s
 gsave  2268 1538 0 0 C 250.882 104.263 t 0 r /Helvetica findfont 84.7135 sf 0 0 m (\2550.1) show NC gr 
 gsave  2268 1538 0 0 C 547.38 104.263 t 0 r /Helvetica findfont 84.7135 sf 0 0 m (0) show NC gr 
 gsave  2268 1538 0 0 C 772.197 104.263 t 0 r /Helvetica findfont 84.7135 sf 0 0 m (0.1) show NC gr 
 gsave  2268 1538 0 0 C 1019.82 104.263 t 0 r /Helvetica findfont 84.7135 sf 0 0 m (0.2) show NC gr 
 gsave  2268 1538 0 0 C 1273.96 104.263 t 0 r /Helvetica findfont 84.7135 sf 0 0 m (0.3) show NC gr 
 gsave  2268 1538 0 0 C 1528.1 104.263 t 0 r /Helvetica findfont 84.7135 sf 0 0 m (0.4) show NC gr 
 gsave  2268 1538 0 0 C 1782.24 104.263 t 0 r /Helvetica findfont 84.7135 sf 0 0 m (0.5) show NC gr 
 gsave  2268 1538 0 0 C 2036.38 104.263 t 0 r /Helvetica findfont 84.7135 sf 0 0 m (0.6) show NC gr  317 1507 m 1883 X s 317 1469 m 38 Y s 368 1488 m 19 Y s 419 1488 m 19 Y s 470 1488 m 19 Y s 521 1488 m 19 Y s 572 1469 m 38 Y s 623 1488 m 19 Y s 674
 1488 m 19 Y s 724 1488 m 19 Y s 775 1488 m 19 Y s 826 1469 m 38 Y s 877 1488 m 19 Y s 928 1488 m 19 Y s 979 1488 m 19 Y s 1030 1488 m 19 Y s 1081 1469 m 38 Y s 1131 1488 m 19 Y s 1182 1488 m 19 Y s 1233 1488 m 19 Y s 1284 1488 m 19 Y s 1335 1469 m
 38 Y s 1386 1488 m 19 Y s 1437 1488 m 19 Y s 1487 1488 m 19 Y s 1538 1488 m 19 Y s 1589 1469 m 38 Y s 1640 1488 m 19 Y s 1691 1488 m 19 Y s 1742 1488 m 19 Y s 1793 1488 m 19 Y s 1844 1469 m 38 Y s 1894 1488 m 19 Y s 1945 1488 m 19 Y s 1996 1488 m 19
 Y s 2047 1488 m 19 Y s 2098 1469 m 38 Y s 2098 1469 m 38 Y s 2149 1488 m 19 Y s 2200 1488 m 19 Y s 317 185 m 1322 Y s
 gsave  2268 1538 0 0 C 127.07 1062.18 t 90 r /Helvetica findfont 84.7135 sf 0 0 m (Events/0.02) show NC gr  347 187 m -30 X s 347 222 m -30 X s 347 248 m -30 X s 347 270 m -30 X s 347 288 m -30 X s 347 304 m -30 X s 347 318 m -30 X s 376 331 m -59 X
 s
 gsave  2268 1538 0 0 C 295.257 294.559 t 0 r  -47 0 t /Helvetica findfont 84.7135 sf 0 0 m (1) show NC gr  347 414 m -30 X s 347 462 m -30 X s 347 496 m -30 X s 347 523 m -30 X s 347 545 m -30 X s 347 563 m -30 X s 347 579 m -30 X s 347 593 m -30 X
 s 376 606 m -59 X s
 gsave  2268 1538 0 0 C 295.257 569.28 t 0 r  -95 0 t /Helvetica findfont 84.7135 sf 0 0 m (10) show NC gr  347 688 m -30 X s 347 737 m -30 X s 347 771 m -30 X s 347 798 m -30 X s 347 820 m -30 X s 347 838 m -30 X s 347 854 m -30 X s 347 868 m -30 X
 s 376 880 m -59 X s
 gsave  2268 1538 0 0 C 260.657 879.718 t 0 r /Helvetica findfont 58.6478 sf 0 0 m (2) show NC gr 
 gsave  2268 1538 0 0 C 169.427 843.877 t 0 r /Helvetica findfont 84.7135 sf 0 0 m (10) show NC gr  347 963 m -30 X s 347 1012 m -30 X s 347 1046 m -30 X s 347 1073 m -30 X s 347 1094 m -30 X s 347 1113 m -30 X s 347 1129 m -30 X s 347 1143 m -30 X s
 376 1155 m -59 X s
 gsave  2268 1538 0 0 C 260.657 1156.67 t 0 r /Helvetica findfont 58.6478 sf 0 0 m (3) show NC gr 
 gsave  2268 1538 0 0 C 169.427 1117.57 t 0 r /Helvetica findfont 84.7135 sf 0 0 m (10) show NC gr  347 1238 m -30 X s 347 1286 m -30 X s 347 1321 m -30 X s 347 1347 m -30 X s 347 1369 m -30 X s 347 1387 m -30 X s 347 1403 m -30 X s 347 1417 m -30 X
 s 376 1430 m -59 X s
 gsave  2268 1538 0 0 C 260.657 1427.1 t 0 r /Helvetica findfont 58.6478 sf 0 0 m (4) show NC gr 
 gsave  2268 1538 0 0 C 169.427 1391.26 t 0 r /Helvetica findfont 84.7135 sf 0 0 m (10) show NC gr  2200 185 m 1322 Y s 2170 187 m 30 X s 2170 222 m 30 X s 2170 248 m 30 X s 2170 270 m 30 X s 2170 288 m 30 X s 2170 304 m 30 X s 2170 318 m 30 X s 2141
 331 m 59 X s 2170 414 m 30 X s 2170 462 m 30 X s 2170 496 m 30 X s 2170 523 m 30 X s 2170 545 m 30 X s 2170 563 m 30 X s 2170 579 m 30 X s 2170 593 m 30 X s 2141 606 m 59 X s 2170 688 m 30 X s 2170 737 m 30 X s 2170 771 m 30 X s 2170 798 m 30 X s
 2170 820 m 30 X s 2170 838 m 30 X s 2170 854 m 30 X s 2170 868 m 30 X s 2141 880 m 59 X s 2170 963 m 30 X s 2170 1012 m 30 X s 2170 1046 m 30 X s 2170 1073 m 30 X s 2170 1094 m 30 X s 2170 1113 m 30 X s 2170 1129 m 30 X s 2170 1143 m 30 X s 2141
 1155 m 59 X s 2170 1238 m 30 X s 2170 1286 m 30 X s 2170 1321 m 30 X s 2170 1347 m 30 X s 2170 1369 m 30 X s 2170 1387 m 30 X s 2170 1403 m 30 X s 2170 1417 m 30 X s 2141 1430 m 59 X s 0 0.6 0 c 9 lw 1 1 1 c black 0 0.6 0 c 317 185 m 153 X 170 Y 51
 X 850 Y 51 X 197 Y 51 X -185 Y 51 X -105 Y 50 X -77 Y 51 X -62 Y 51 X -57 Y 51 X -48 Y 51 X -47 Y 51 X -45 Y 51 X -33 Y 51 X -52 Y 50 X -43 Y 51 X -27 Y 51 X -46 Y 51 X -32 Y 51 X -51 Y 51 X -72 Y 51 X -70 Y 50 X -24 Y 51 X -23 Y 51 X -61 Y 51 X -57
 Y 560 X s 0.6 0 0 c 1 1 1 c black 0.6 0 0 c 317 185 m 153 X 79 Y 51 X 993 Y 51 X 175 Y 51 X -431 Y 51 X -197 Y 50 X -137 Y 51 X -76 Y 51 X -62 Y 51 X -224 Y 51 X -120 Y 1272 X s black
 gsave  2268 1538 0 0 C 1576.98 1215.31 t 0 r /Helvetica-Bold findfont 68.4225 sf 0 0 m ( probe \(data\)) show NC gr 
 gsave  2268 1538 0 0 C 1521.59 1215.31 t 0 r /Symbol findfont 68.4225 sf 0 0 m (Y) show NC gr 
 gsave  2268 1538 0 0 C 1462.94 1215.31 t 0 r /Helvetica-Bold findfont 68.4225 sf 0 0 m (J/) show NC gr  1 1 1 c 3 lw 1303 1200 m 133 X 72 Y -133 X f 9 lw black 1303 1236 m 133 X s 3 lw 1369 1236 m20 9 lw
 gsave  2268 1538 0 0 C 1462.94 1111.05 t 0 r /Helvetica-Bold findfont 68.4225 sf 0 0 m (B\255el \(MC\)) show NC gr  0.6 0 0 c 6 lw 1303 1134 m 133 X s black
 gsave  2268 1538 0 0 C 1462.94 1010.05 t 0 r /Helvetica-Bold findfont 68.4225 sf 0 0 m (uds el \(qcd \)) show NC gr  1 1 1 c 3 lw 1303 996 m 133 X 71 Y -133 X f 6 lw 0 0.6 0 c 1303 1032 m 133 X s black 3 lw 1369 1032 m20 6 lw
 gr  gr showpage
end
%%EOF
