%!PS-Adobe-2.0 EPSF-2.0
%%BoundingBox:  0 0 567 384
%%Title: h_d0Signfcns.eps: c1_n4
%%Creator: ROOT Version 5.34/14
%%CreationDate: Mon Sep  8 03:26:20 2014
%%EndComments
%%BeginProlog
80 dict begin
/s {stroke} def /l {lineto} def /m {moveto} def /t {translate} def
/r {rotate} def /rl {roll}  def /R {repeat} def
/d {rlineto} def /rm {rmoveto} def /gr {grestore} def /f {eofill} def
/c {setrgbcolor} def /black {0 setgray} def /sd {setdash} def
/cl {closepath} def /sf {scalefont setfont} def /lw {setlinewidth} def
/box {m dup 0 exch d exch 0 d 0 exch neg d cl} def
/NC{systemdict begin initclip end}def/C{NC box clip newpath}def
/bl {box s} def /bf {box f} def /Y { 0 exch d} def /X { 0 d} def 
/K {{pop pop 0 moveto} exch kshow} bind def
/ita {/ang 15 def gsave [1 0 ang dup sin exch cos div 1 0 0] concat} def 
/mp {newpath /y exch def /x exch def} def
/side {[w .77 mul w .23 mul] .385 w mul sd w 0 l currentpoint t -144 r} def
/mr {mp x y w2 0 360 arc} def /m24 {mr s} def /m20 {mr f} def
/mb {mp x y w2 add m w2 neg 0 d 0 w neg d w 0 d 0 w d cl} def
/mt {mp x y w2 add m w2 neg w neg d w 0 d cl} def
/m21 {mb f} def /m25 {mb s} def /m22 {mt f} def /m26{mt s} def
/m23 {mp x y w2 sub m w2 w d w neg 0 d cl f} def
/m27 {mp x y w2 add m w3 neg w2 neg d w3 w2 neg d w3 w2 d cl s} def
/m28 {mp x w2 sub y w2 sub w3 add m w3 0 d  0 w3 neg d w3 0 d 0 w3 d w3 0 d  0 w3 d w3 neg 0 d 0 w3 d w3 neg 0 d 0 w3 neg d w3 neg 0 d cl s } def
/m29 {mp gsave x w2 sub y w2 add w3 sub m currentpoint t 4 {side} repeat cl fill gr} def
/m30 {mp gsave x w2 sub y w2 add w3 sub m currentpoint t 4 {side} repeat cl s gr} def
/m31 {mp x y w2 sub m 0 w d x w2 sub y m w 0 d x w2 sub y w2 add m w w neg d x w2 sub y w2 sub m w w d s} def
/m32 {mp x y w2 sub m w2 w d w neg 0 d cl s} def
/m33 {mp x y w2 add m w3 neg w2 neg d w3 w2 neg d w3 w2 d cl f} def
/m34 {mp x w2 sub y w2 sub w3 add m w3 0 d  0 w3 neg d w3 0 d 0 w3 d w3 0 d  0 w3 d w3 neg 0 d 0 w3 d w3 neg 0 d 0 w3 neg d w3 neg 0 d cl f } def
/m2 {mp x y w2 sub m 0 w d x w2 sub y m w 0 d s} def
/m5 {mp x w2 sub y w2 sub m w w d x w2 sub y w2 add m w w neg d s} def
/reEncode {exch findfont dup length dict begin {1 index /FID eq  {pop pop} {def} ifelse } forall /Encoding exch def currentdict end dup /FontName get exch definefont pop } def [/Times-Bold /Times-Italic /Times-BoldItalic /Helvetica /Helvetica-Oblique
 /Helvetica-Bold /Helvetica-BoldOblique /Courier /Courier-Oblique /Courier-Bold /Courier-BoldOblique /Times-Roman /AvantGarde-Book /AvantGarde-BookOblique /AvantGarde-Demi /AvantGarde-DemiOblique /Bookman-Demi /Bookman-DemiItalic /Bookman-Light
 /Bookman-LightItalic /Helvetica-Narrow /Helvetica-Narrow-Bold /Helvetica-Narrow-BoldOblique /Helvetica-Narrow-Oblique /NewCenturySchlbk-Roman /NewCenturySchlbk-Bold /NewCenturySchlbk-BoldItalic /NewCenturySchlbk-Italic /Palatino-Bold
 /Palatino-BoldItalic /Palatino-Italic /Palatino-Roman ] {ISOLatin1Encoding reEncode } forall
%%EndProlog
%%BeginSetup
%%EndSetup
newpath  gsave  .25 .25 scale  gsave  0 0 t black[  ] 0 sd 3 lw 1 1 1 c 2268 1538 0 0 bf black 1 1 1 c 1883 1322 317 185 bf black 1883 1322 317 185 bl 1 1 1 c 1883 1322 317 185 bf black 1883 1322 317 185 bl 6 lw 1 1 1 c black 317 1423 m 13 X s 343
 1423 m 12 X s 3 lw /w 13 def /w2 {w 2 div} def /w3 {w 3 div} def 336 1423 m20 6 lw 355 1237 m 12 X s 380 1237 m 13 X s 3 lw 374 1237 m20 6 lw 393 1126 m 12 X s 418 1126 m 12 X s 3 lw 412 1126 m20 6 lw 449 996 m 3 Y s 449 1012 m 3 Y s 430 1006 m 13 X
 s 456 1006 m 12 X s 3 lw 449 1006 m20 6 lw 487 898 m 8 Y s 487 919 m 7 Y s 468 913 m 12 X s 493 913 m 13 X s 3 lw 487 913 m20 6 lw 525 753 m 20 Y s 525 786 m 15 Y s 506 779 m 12 X s 531 779 m 12 X s 3 lw 525 779 m20 6 lw 562 715 m 23 Y s 562 751 m
 18 Y s 543 745 m 13 X s 569 745 m 12 X s 3 lw 562 745 m20 6 lw 600 604 m 40 Y s 600 657 m 27 Y s 581 650 m 12 X s 606 650 m 13 X s 3 lw 600 650 m20 6 lw 637 505 m 61 Y s 637 579 m 37 Y s 619 572 m 12 X s 644 572 m 12 X s 3 lw 637 572 m20 6 lw 675
 274 m 151 Y s 675 438 m 62 Y s 656 431 m 13 X s 682 431 m 12 X s 3 lw 675 431 m20 6 lw 750 185 m 151 Y s 750 349 m 82 Y s 732 342 m 12 X s 757 342 m 12 X s 3 lw 750 342 m20 6 lw 826 185 m 151 Y s 826 349 m 82 Y s 807 342 m 12 X s 832 342 m 12 X s 3
 lw 826 342 m20 6 lw 863 185 m 151 Y s 863 349 m 82 Y s 844 342 m 13 X s 870 342 m 12 X s 3 lw 863 342 m20 6 lw 1277 185 m 151 Y s 1277 349 m 82 Y s 1259 342 m 12 X s 1284 342 m 12 X s 3 lw 1277 342 m20 6 lw 3 lw 317 185 m 1883 X s
 gsave  2268 1538 0 0 C 1642.14 13.0329 t 0 r /Helvetica findfont 84.7135 sf 0 0 m (d0 significance) show NC gr  317 223 m -38 Y s 355 204 m -19 Y s 393 204 m -19 Y s 430 204 m -19 Y s 468 204 m -19 Y s 506 223 m -38 Y s 543 204 m -19 Y s 581 204 m
 -19 Y s 619 204 m -19 Y s 656 204 m -19 Y s 694 223 m -38 Y s 732 204 m -19 Y s 769 204 m -19 Y s 807 204 m -19 Y s 844 204 m -19 Y s 882 223 m -38 Y s 920 204 m -19 Y s 957 204 m -19 Y s 995 204 m -19 Y s 1033 204 m -19 Y s 1070 223 m -38 Y s 1108
 204 m -19 Y s 1146 204 m -19 Y s 1183 204 m -19 Y s 1221 204 m -19 Y s 1259 223 m -38 Y s 1296 204 m -19 Y s 1334 204 m -19 Y s 1372 204 m -19 Y s 1409 204 m -19 Y s 1447 223 m -38 Y s 1484 204 m -19 Y s 1522 204 m -19 Y s 1560 204 m -19 Y s 1597
 204 m -19 Y s 1635 223 m -38 Y s 1673 204 m -19 Y s 1710 204 m -19 Y s 1748 204 m -19 Y s 1786 204 m -19 Y s 1823 223 m -38 Y s 1861 204 m -19 Y s 1899 204 m -19 Y s 1936 204 m -19 Y s 1974 204 m -19 Y s 2011 223 m -38 Y s 2049 204 m -19 Y s 2087
 204 m -19 Y s 2124 204 m -19 Y s 2162 204 m -19 Y s 2200 223 m -38 Y s
 gsave  2268 1538 0 0 C 293.239 104.263 t 0 r /Helvetica findfont 84.7135 sf 0 0 m (0) show NC gr 
 gsave  2268 1538 0 0 C 459.408 104.263 t 0 r /Helvetica findfont 84.7135 sf 0 0 m (10) show NC gr 
 gsave  2268 1538 0 0 C 645.126 104.263 t 0 r /Helvetica findfont 84.7135 sf 0 0 m (20) show NC gr 
 gsave  2268 1538 0 0 C 834.103 104.263 t 0 r /Helvetica findfont 84.7135 sf 0 0 m (30) show NC gr 
 gsave  2268 1538 0 0 C 1023.08 104.263 t 0 r /Helvetica findfont 84.7135 sf 0 0 m (40) show NC gr 
 gsave  2268 1538 0 0 C 1212.06 104.263 t 0 r /Helvetica findfont 84.7135 sf 0 0 m (50) show NC gr 
 gsave  2268 1538 0 0 C 1401.03 104.263 t 0 r /Helvetica findfont 84.7135 sf 0 0 m (60) show NC gr 
 gsave  2268 1538 0 0 C 1586.75 104.263 t 0 r /Helvetica findfont 84.7135 sf 0 0 m (70) show NC gr 
 gsave  2268 1538 0 0 C 1775.73 104.263 t 0 r /Helvetica findfont 84.7135 sf 0 0 m (80) show NC gr 
 gsave  2268 1538 0 0 C 1964.7 104.263 t 0 r /Helvetica findfont 84.7135 sf 0 0 m (90) show NC gr 
 gsave  2268 1538 0 0 C 2127.61 104.263 t 0 r /Helvetica findfont 84.7135 sf 0 0 m (100) show NC gr  317 1507 m 1883 X s 317 1469 m 38 Y s 355 1488 m 19 Y s 393 1488 m 19 Y s 430 1488 m 19 Y s 468 1488 m 19 Y s 506 1469 m 38 Y s 543 1488 m 19 Y s 581
 1488 m 19 Y s 619 1488 m 19 Y s 656 1488 m 19 Y s 694 1469 m 38 Y s 732 1488 m 19 Y s 769 1488 m 19 Y s 807 1488 m 19 Y s 844 1488 m 19 Y s 882 1469 m 38 Y s 920 1488 m 19 Y s 957 1488 m 19 Y s 995 1488 m 19 Y s 1033 1488 m 19 Y s 1070 1469 m 38 Y s
 1108 1488 m 19 Y s 1146 1488 m 19 Y s 1183 1488 m 19 Y s 1221 1488 m 19 Y s 1259 1469 m 38 Y s 1296 1488 m 19 Y s 1334 1488 m 19 Y s 1372 1488 m 19 Y s 1409 1488 m 19 Y s 1447 1469 m 38 Y s 1484 1488 m 19 Y s 1522 1488 m 19 Y s 1560 1488 m 19 Y s
 1597 1488 m 19 Y s 1635 1469 m 38 Y s 1673 1488 m 19 Y s 1710 1488 m 19 Y s 1748 1488 m 19 Y s 1786 1488 m 19 Y s 1823 1469 m 38 Y s 1861 1488 m 19 Y s 1899 1488 m 19 Y s 1936 1488 m 19 Y s 1974 1488 m 19 Y s 2011 1469 m 38 Y s 2049 1488 m 19 Y s
 2087 1488 m 19 Y s 2124 1488 m 19 Y s 2162 1488 m 19 Y s 2200 1469 m 38 Y s 317 185 m 1322 Y s
 gsave  2268 1538 0 0 C 127.07 1111.05 t 90 r /Helvetica findfont 84.7135 sf 0 0 m (Events/2.0) show NC gr  347 188 m -30 X s 347 225 m -30 X s 347 253 m -30 X s 347 277 m -30 X s 347 296 m -30 X s 347 314 m -30 X s 347 329 m -30 X s 376 342 m -59 X
 s
 gsave  2268 1538 0 0 C 295.257 305.765 t 0 r  -47 0 t /Helvetica findfont 84.7135 sf 0 0 m (1) show NC gr  347 431 m -30 X s 347 483 m -30 X s 347 520 m -30 X s 347 549 m -30 X s 347 572 m -30 X s 347 592 m -30 X s 347 609 m -30 X s 347 624 m -30 X
 s 376 638 m -59 X s
 gsave  2268 1538 0 0 C 295.257 601.497 t 0 r  -95 0 t /Helvetica findfont 84.7135 sf 0 0 m (10) show NC gr  347 727 m -30 X s 347 779 m -30 X s 347 816 m -30 X s 347 845 m -30 X s 347 868 m -30 X s 347 888 m -30 X s 347 905 m -30 X s 347 920 m -30 X
 s 376 934 m -59 X s
 gsave  2268 1538 0 0 C 260.657 931.849 t 0 r /Helvetica findfont 58.6478 sf 0 0 m (2) show NC gr 
 gsave  2268 1538 0 0 C 169.427 896.009 t 0 r /Helvetica findfont 84.7135 sf 0 0 m (10) show NC gr  347 1023 m -30 X s 347 1075 m -30 X s 347 1112 m -30 X s 347 1140 m -30 X s 347 1164 m -30 X s 347 1184 m -30 X s 347 1201 m -30 X s 347 1216 m -30 X
 s 376 1229 m -59 X s
 gsave  2268 1538 0 0 C 260.657 1231.6 t 0 r /Helvetica findfont 58.6478 sf 0 0 m (3) show NC gr 
 gsave  2268 1538 0 0 C 169.427 1192.51 t 0 r /Helvetica findfont 84.7135 sf 0 0 m (10) show NC gr  347 1318 m -30 X s 347 1371 m -30 X s 347 1408 m -30 X s 347 1436 m -30 X s 347 1460 m -30 X s 347 1479 m -30 X s 347 1497 m -30 X s 2200 185 m 1322 Y
 s 2170 188 m 30 X s 2170 225 m 30 X s 2170 253 m 30 X s 2170 277 m 30 X s 2170 296 m 30 X s 2170 314 m 30 X s 2170 329 m 30 X s 2141 342 m 59 X s 2170 431 m 30 X s 2170 483 m 30 X s 2170 520 m 30 X s 2170 549 m 30 X s 2170 572 m 30 X s 2170 592 m 30
 X s 2170 609 m 30 X s 2170 624 m 30 X s 2141 638 m 59 X s 2170 727 m 30 X s 2170 779 m 30 X s 2170 816 m 30 X s 2170 845 m 30 X s 2170 868 m 30 X s 2170 888 m 30 X s 2170 905 m 30 X s 2170 920 m 30 X s 2141 934 m 59 X s 2170 1023 m 30 X s 2170 1075
 m 30 X s 2170 1112 m 30 X s 2170 1140 m 30 X s 2170 1164 m 30 X s 2170 1184 m 30 X s 2170 1201 m 30 X s 2170 1216 m 30 X s 2141 1229 m 59 X s 2170 1318 m 30 X s 2170 1371 m 30 X s 2170 1408 m 30 X s 2170 1436 m 30 X s 2170 1460 m 30 X s 2170 1479 m
 30 X s 2170 1497 m 30 X s 0 0.6 0 c 9 lw 1 1 1 c black 0 0.6 0 c 317 1443 m 38 X -281 Y 38 X -165 Y 37 X -79 Y 38 X -62 Y 38 X -42 Y 37 X -39 Y 38 X -38 Y 38 X -19 Y 37 X -28 Y 38 X -44 Y 38 X -40 Y 37 X -6 Y 38 X -25 Y 37 X -22 Y 38 X -27 Y 38 X
 -18 Y 37 X -28 Y 38 X -40 Y 38 X 7 Y 37 X -45 Y 38 X -12 Y 38 X 17 Y 37 X -30 Y 38 X 3 Y 38 X -31 Y 37 X -25 Y 38 X 11 Y 38 X 11 Y 37 X -45 Y 38 X -61 Y 37 X 75 Y 38 X -55 Y 38 X -27 Y 37 X -43 Y 38 X 38 Y 38 X -43 Y 37 X 54 Y 38 X -54 Y 113 X 53 Y
 38 X -53 Y 37 X 58 Y 38 X -58 Y 226 X s 0.6 0 0 c 1 1 1 c black 0.6 0 0 c 317 1334 m 38 X -84 Y 38 X -67 Y 37 X -44 Y 38 X -50 Y 38 X -35 Y 37 X -30 Y 38 X -36 Y 38 X -29 Y 37 X -7 Y 38 X -39 Y 38 X -32 Y 37 X -10 Y 38 X -31 Y 37 X -26 Y 38 X -8 Y
 38 X 29 Y 37 X -126 Y 38 X 34 Y 38 X -83 Y 37 X 56 Y 38 X -26 Y 38 X -33 Y 37 X -53 Y 38 X -11 Y 38 X -65 Y 37 X 2 Y 38 X 76 Y 38 X -61 Y 37 X 16 Y 38 X -93 Y 37 X 117 Y 38 X -36 Y 38 X -78 Y 37 X -38 Y 38 X -69 Y 38 X -179 Y 37 X 242 Y 38 X -39 Y
 38 X -203 Y 37 X 296 Y 38 X -296 Y 38 X 105 Y 37 X -78 Y 38 X 88 Y 37 X 52 Y 38 X -167 Y 38 X 142 Y 37 X 45 Y 38 X -187 Y 38 X s black
 gsave  2268 1538 0 0 C 1772.47 1309.8 t 0 r /Helvetica-Bold findfont 42.3568 sf 0 0 m ( probe \(data\)) show NC gr 
 gsave  2268 1538 0 0 C 1736.63 1309.8 t 0 r /Symbol findfont 42.3568 sf 0 0 m (Y) show NC gr 
 gsave  2268 1538 0 0 C 1700.79 1309.8 t 0 r /Helvetica-Bold findfont 42.3568 sf 0 0 m (J/) show NC gr  1 1 1 c 3 lw 1604 1297 m 80 X 72 Y -80 X f 9 lw black 1604 1333 m 80 X s 3 lw 1644 1333 m20 9 lw
 gsave  2268 1538 0 0 C 1700.79 1208.8 t 0 r /Helvetica-Bold findfont 42.3568 sf 0 0 m (B\255el \(MC\)) show NC gr  0.6 0 0 c 6 lw 1604 1230 m 80 X s black
 gsave  2268 1538 0 0 C 1700.79 1107.79 t 0 r /Helvetica-Bold findfont 42.3568 sf 0 0 m (uds el \(qcd \)) show NC gr  1 1 1 c 3 lw 1604 1092 m 80 X 72 Y -80 X f 6 lw 0 0.6 0 c 1604 1128 m 80 X s black 3 lw 1644 1128 m20 6 lw
 gr  gr showpage
end
%%EOF
