%!PS-Adobe-2.0 EPSF-2.0
%%BoundingBox:  0 0 567 384
%%Title: /home/rohin/Analysis/thesis/images/softel/validated_vars/pt.eps: c1_n17
%%Creator: ROOT Version 5.34/14
%%CreationDate: Mon Sep  8 03:50:14 2014
%%EndComments
%%BeginProlog
80 dict begin
/s {stroke} def /l {lineto} def /m {moveto} def /t {translate} def
/r {rotate} def /rl {roll}  def /R {repeat} def
/d {rlineto} def /rm {rmoveto} def /gr {grestore} def /f {eofill} def
/c {setrgbcolor} def /black {0 setgray} def /sd {setdash} def
/cl {closepath} def /sf {scalefont setfont} def /lw {setlinewidth} def
/box {m dup 0 exch d exch 0 d 0 exch neg d cl} def
/NC{systemdict begin initclip end}def/C{NC box clip newpath}def
/bl {box s} def /bf {box f} def /Y { 0 exch d} def /X { 0 d} def 
/K {{pop pop 0 moveto} exch kshow} bind def
/ita {/ang 15 def gsave [1 0 ang dup sin exch cos div 1 0 0] concat} def 
/mp {newpath /y exch def /x exch def} def
/side {[w .77 mul w .23 mul] .385 w mul sd w 0 l currentpoint t -144 r} def
/mr {mp x y w2 0 360 arc} def /m24 {mr s} def /m20 {mr f} def
/mb {mp x y w2 add m w2 neg 0 d 0 w neg d w 0 d 0 w d cl} def
/mt {mp x y w2 add m w2 neg w neg d w 0 d cl} def
/m21 {mb f} def /m25 {mb s} def /m22 {mt f} def /m26{mt s} def
/m23 {mp x y w2 sub m w2 w d w neg 0 d cl f} def
/m27 {mp x y w2 add m w3 neg w2 neg d w3 w2 neg d w3 w2 d cl s} def
/m28 {mp x w2 sub y w2 sub w3 add m w3 0 d  0 w3 neg d w3 0 d 0 w3 d w3 0 d  0 w3 d w3 neg 0 d 0 w3 d w3 neg 0 d 0 w3 neg d w3 neg 0 d cl s } def
/m29 {mp gsave x w2 sub y w2 add w3 sub m currentpoint t 4 {side} repeat cl fill gr} def
/m30 {mp gsave x w2 sub y w2 add w3 sub m currentpoint t 4 {side} repeat cl s gr} def
/m31 {mp x y w2 sub m 0 w d x w2 sub y m w 0 d x w2 sub y w2 add m w w neg d x w2 sub y w2 sub m w w d s} def
/m32 {mp x y w2 sub m w2 w d w neg 0 d cl s} def
/m33 {mp x y w2 add m w3 neg w2 neg d w3 w2 neg d w3 w2 d cl f} def
/m34 {mp x w2 sub y w2 sub w3 add m w3 0 d  0 w3 neg d w3 0 d 0 w3 d w3 0 d  0 w3 d w3 neg 0 d 0 w3 d w3 neg 0 d 0 w3 neg d w3 neg 0 d cl f } def
/m2 {mp x y w2 sub m 0 w d x w2 sub y m w 0 d s} def
/m5 {mp x w2 sub y w2 sub m w w d x w2 sub y w2 add m w w neg d s} def
/reEncode {exch findfont dup length dict begin {1 index /FID eq  {pop pop} {def} ifelse } forall /Encoding exch def currentdict end dup /FontName get exch definefont pop } def [/Times-Bold /Times-Italic /Times-BoldItalic /Helvetica /Helvetica-Oblique
 /Helvetica-Bold /Helvetica-BoldOblique /Courier /Courier-Oblique /Courier-Bold /Courier-BoldOblique /Times-Roman /AvantGarde-Book /AvantGarde-BookOblique /AvantGarde-Demi /AvantGarde-DemiOblique /Bookman-Demi /Bookman-DemiItalic /Bookman-Light
 /Bookman-LightItalic /Helvetica-Narrow /Helvetica-Narrow-Bold /Helvetica-Narrow-BoldOblique /Helvetica-Narrow-Oblique /NewCenturySchlbk-Roman /NewCenturySchlbk-Bold /NewCenturySchlbk-BoldItalic /NewCenturySchlbk-Italic /Palatino-Bold
 /Palatino-BoldItalic /Palatino-Italic /Palatino-Roman ] {ISOLatin1Encoding reEncode } forall
%%EndProlog
%%BeginSetup
%%EndSetup
newpath  gsave  .25 .25 scale  gsave  0 0 t black[  ] 0 sd 3 lw 1 1 1 c 2268 1538 0 0 bf black 1 1 1 c 1883 1322 317 185 bf black 1883 1322 317 185 bl 1 1 1 c 1883 1322 317 185 bf black 1883 1322 317 185 bl 6 lw 1 1 1 c black 449 1251 m 3 X s 465
 1251 m 3 X s 3 lw /w 13 def /w2 {w 2 div} def /w3 {w 3 div} def 459 1251 m20 6 lw 468 1290 m 3 X s 484 1290 m 3 X s 3 lw 477 1290 m20 6 lw 487 1367 m 3 X s 503 1367 m 3 X s 3 lw 496 1367 m20 6 lw 506 1416 m 3 X s 522 1416 m 3 X s 3 lw 515 1416 m20 6
 lw 525 1414 m 2 X s 540 1414 m 3 X s 3 lw 534 1414 m20 6 lw 543 1388 m 3 X s 559 1388 m 3 X s 3 lw 553 1388 m20 6 lw 562 1359 m 3 X s 578 1359 m 3 X s 3 lw 572 1359 m20 6 lw 581 1300 m 3 X s 597 1300 m 3 X s 3 lw 590 1300 m20 6 lw 609 1162 m 1 Y s
 609 1176 m s 600 1169 m 3 X s 616 1169 m 3 X s 3 lw 609 1169 m20 6 lw 628 1015 m 6 Y s 628 1034 m 5 Y s 619 1027 m 3 X s 635 1027 m 2 X s 3 lw 628 1027 m20 6 lw 647 932 m 10 Y s 647 955 m 8 Y s 637 948 m 3 X s 653 948 m 3 X s 3 lw 647 948 m20 6 lw
 666 819 m 20 Y s 666 852 m 16 Y s 656 846 m 3 X s 672 846 m 3 X s 3 lw 666 846 m20 6 lw 685 793 m 21 Y s 685 827 m 17 Y s 675 821 m 3 X s 691 821 m 3 X s 3 lw 685 821 m20 6 lw 703 657 m 42 Y s 703 712 m 30 Y s 694 706 m 3 X s 710 706 m 3 X s 3 lw
 703 706 m20 6 lw 722 738 m 27 Y s 722 778 m 21 Y s 713 772 m 3 X s 729 772 m 3 X s 3 lw 722 772 m20 6 lw 741 648 m 40 Y s 741 701 m 29 Y s 732 695 m 2 X s 747 695 m 3 X s 3 lw 741 695 m20 6 lw 760 527 m 66 Y s 760 606 m 41 Y s 750 600 m 3 X s 766
 600 m 3 X s 3 lw 760 600 m20 6 lw 779 544 m 70 Y s 779 627 m 43 Y s 769 621 m 3 X s 785 621 m 3 X s 3 lw 779 621 m20 6 lw 797 611 m 52 Y s 797 676 m 35 Y s 788 670 m 3 X s 804 670 m 3 X s 3 lw 797 670 m20 6 lw 816 570 m 63 Y s 816 646 m 39 Y s 807
 639 m 3 X s 823 639 m 3 X s 3 lw 816 639 m20 6 lw 835 185 m 162 Y s 835 360 m 131 Y s 826 353 m 3 X s 842 353 m 2 X s 3 lw 835 353 m20 6 lw 854 185 m 257 Y s 854 455 m 89 Y s 844 449 m 3 X s 860 449 m 3 X s 3 lw 854 449 m20 6 lw 873 280 m 162 Y s
 873 455 m 67 Y s 863 449 m 3 X s 879 449 m 3 X s 3 lw 873 449 m20 6 lw 892 316 m 182 Y s 892 511 m 70 Y s 882 504 m 3 X s 898 504 m 3 X s 3 lw 892 504 m20 6 lw 929 185 m 162 Y s 929 360 m 131 Y s 920 353 m 3 X s 936 353 m 3 X s 3 lw 929 353 m20 6 lw
 967 185 m 257 Y s 967 455 m 103 Y s 957 449 m 3 X s 973 449 m 3 X s 3 lw 967 449 m20 6 lw 1004 280 m 162 Y s 1004 455 m 67 Y s 995 449 m 3 X s 1011 449 m 3 X s 3 lw 1004 449 m20 6 lw 1023 185 m 162 Y s 1023 360 m 89 Y s 1014 353 m 3 X s 1030 353 m 3
 X s 3 lw 1023 353 m20 6 lw 1042 185 m 162 Y s 1042 360 m 89 Y s 1033 353 m 3 X s 1049 353 m 3 X s 3 lw 1042 353 m20 6 lw 1061 185 m 162 Y s 1061 360 m 131 Y s 1052 353 m 2 X s 1067 353 m 3 X s 3 lw 1061 353 m20 6 lw 1080 185 m 162 Y s 1080 360 m 89
 Y s 1070 353 m 3 X s 1086 353 m 3 X s 3 lw 1080 353 m20 6 lw 1099 185 m 162 Y s 1099 360 m 89 Y s 1089 353 m 3 X s 1105 353 m 3 X s 3 lw 1099 353 m20 6 lw 1174 185 m 162 Y s 1174 360 m 89 Y s 1164 353 m 3 X s 1180 353 m 3 X s 3 lw 1174 353 m20 6 lw
 1212 185 m 162 Y s 1212 360 m 89 Y s 1202 353 m 3 X s 1218 353 m 3 X s 3 lw 1212 353 m20 6 lw 1230 185 m 162 Y s 1230 360 m 89 Y s 1221 353 m 3 X s 1237 353 m 3 X s 3 lw 1230 353 m20 6 lw 1306 185 m 162 Y s 1306 360 m 89 Y s 1296 353 m 3 X s 1312
 353 m 3 X s 3 lw 1306 353 m20 6 lw 1324 185 m 162 Y s 1324 360 m 89 Y s 1315 353 m 3 X s 1331 353 m 3 X s 3 lw 1324 353 m20 6 lw 1343 185 m 162 Y s 1343 360 m 89 Y s 1334 353 m 3 X s 1350 353 m 3 X s 3 lw 1343 353 m20 6 lw 1362 185 m 162 Y s 1362
 360 m 89 Y s 1353 353 m 3 X s 1369 353 m 3 X s 3 lw 1362 353 m20 6 lw 1739 185 m 162 Y s 1739 360 m 89 Y s 1729 353 m 3 X s 1745 353 m 3 X s 3 lw 1739 353 m20 6 lw 3 lw 317 185 m 1883 X s
 gsave  2268 1538 0 0 C 1893.02 13.0329 t 0 r /Helvetica findfont 84.7135 sf 0 0 m (pt [GeV]) show NC gr  317 223 m -38 Y s 355 204 m -19 Y s 393 204 m -19 Y s 430 204 m -19 Y s 468 204 m -19 Y s 506 223 m -38 Y s 543 204 m -19 Y s 581 204 m -19 Y s
 619 204 m -19 Y s 656 204 m -19 Y s 694 223 m -38 Y s 732 204 m -19 Y s 769 204 m -19 Y s 807 204 m -19 Y s 844 204 m -19 Y s 882 223 m -38 Y s 920 204 m -19 Y s 957 204 m -19 Y s 995 204 m -19 Y s 1033 204 m -19 Y s 1070 223 m -38 Y s 1108 204 m
 -19 Y s 1146 204 m -19 Y s 1183 204 m -19 Y s 1221 204 m -19 Y s 1259 223 m -38 Y s 1296 204 m -19 Y s 1334 204 m -19 Y s 1372 204 m -19 Y s 1409 204 m -19 Y s 1447 223 m -38 Y s 1484 204 m -19 Y s 1522 204 m -19 Y s 1560 204 m -19 Y s 1597 204 m
 -19 Y s 1635 223 m -38 Y s 1673 204 m -19 Y s 1710 204 m -19 Y s 1748 204 m -19 Y s 1786 204 m -19 Y s 1823 223 m -38 Y s 1861 204 m -19 Y s 1899 204 m -19 Y s 1936 204 m -19 Y s 1974 204 m -19 Y s 2011 223 m -38 Y s 2049 204 m -19 Y s 2087 204 m
 -19 Y s 2124 204 m -19 Y s 2162 204 m -19 Y s 2200 223 m -38 Y s
 gsave  2268 1538 0 0 C 293.239 104.263 t 0 r /Helvetica findfont 84.7135 sf 0 0 m (0) show NC gr 
 gsave  2268 1538 0 0 C 459.408 104.263 t 0 r /Helvetica findfont 84.7135 sf 0 0 m (10) show NC gr 
 gsave  2268 1538 0 0 C 645.126 104.263 t 0 r /Helvetica findfont 84.7135 sf 0 0 m (20) show NC gr 
 gsave  2268 1538 0 0 C 834.103 104.263 t 0 r /Helvetica findfont 84.7135 sf 0 0 m (30) show NC gr 
 gsave  2268 1538 0 0 C 1023.08 104.263 t 0 r /Helvetica findfont 84.7135 sf 0 0 m (40) show NC gr 
 gsave  2268 1538 0 0 C 1212.06 104.263 t 0 r /Helvetica findfont 84.7135 sf 0 0 m (50) show NC gr 
 gsave  2268 1538 0 0 C 1401.03 104.263 t 0 r /Helvetica findfont 84.7135 sf 0 0 m (60) show NC gr 
 gsave  2268 1538 0 0 C 1586.75 104.263 t 0 r /Helvetica findfont 84.7135 sf 0 0 m (70) show NC gr 
 gsave  2268 1538 0 0 C 1775.73 104.263 t 0 r /Helvetica findfont 84.7135 sf 0 0 m (80) show NC gr 
 gsave  2268 1538 0 0 C 1964.7 104.263 t 0 r /Helvetica findfont 84.7135 sf 0 0 m (90) show NC gr 
 gsave  2268 1538 0 0 C 2127.61 104.263 t 0 r /Helvetica findfont 84.7135 sf 0 0 m (100) show NC gr  317 1507 m 1883 X s 317 1469 m 38 Y s 355 1488 m 19 Y s 393 1488 m 19 Y s 430 1488 m 19 Y s 468 1488 m 19 Y s 506 1469 m 38 Y s 543 1488 m 19 Y s 581
 1488 m 19 Y s 619 1488 m 19 Y s 656 1488 m 19 Y s 694 1469 m 38 Y s 732 1488 m 19 Y s 769 1488 m 19 Y s 807 1488 m 19 Y s 844 1488 m 19 Y s 882 1469 m 38 Y s 920 1488 m 19 Y s 957 1488 m 19 Y s 995 1488 m 19 Y s 1033 1488 m 19 Y s 1070 1469 m 38 Y s
 1108 1488 m 19 Y s 1146 1488 m 19 Y s 1183 1488 m 19 Y s 1221 1488 m 19 Y s 1259 1469 m 38 Y s 1296 1488 m 19 Y s 1334 1488 m 19 Y s 1372 1488 m 19 Y s 1409 1488 m 19 Y s 1447 1469 m 38 Y s 1484 1488 m 19 Y s 1522 1488 m 19 Y s 1560 1488 m 19 Y s
 1597 1488 m 19 Y s 1635 1469 m 38 Y s 1673 1488 m 19 Y s 1710 1488 m 19 Y s 1748 1488 m 19 Y s 1786 1488 m 19 Y s 1823 1469 m 38 Y s 1861 1488 m 19 Y s 1899 1488 m 19 Y s 1936 1488 m 19 Y s 1974 1488 m 19 Y s 2011 1469 m 38 Y s 2049 1488 m 19 Y s
 2087 1488 m 19 Y s 2124 1488 m 19 Y s 2162 1488 m 19 Y s 2200 1469 m 38 Y s 317 185 m 1322 Y s
 gsave  2268 1538 0 0 C 127.07 1111.05 t 90 r /Helvetica findfont 84.7135 sf 0 0 m (Events/1.0) show NC gr  347 188 m -30 X s 347 227 m -30 X s 347 258 m -30 X s 347 283 m -30 X s 347 304 m -30 X s 347 323 m -30 X s 347 339 m -30 X s 376 353 m -59 X
 s
 gsave  2268 1538 0 0 C 295.257 316.803 t 0 r  -47 0 t /Helvetica findfont 84.7135 sf 0 0 m (1) show NC gr  347 449 m -30 X s 347 504 m -30 X s 347 544 m -30 X s 347 574 m -30 X s 347 600 m -30 X s 347 621 m -30 X s 347 639 m -30 X s 347 655 m -30 X
 s 376 670 m -59 X s
 gsave  2268 1538 0 0 C 295.257 633.234 t 0 r  -95 0 t /Helvetica findfont 84.7135 sf 0 0 m (10) show NC gr  347 765 m -30 X s 347 821 m -30 X s 347 860 m -30 X s 347 891 m -30 X s 347 916 m -30 X s 347 937 m -30 X s 347 955 m -30 X s 347 972 m -30 X
 s 376 986 m -59 X s
 gsave  2268 1538 0 0 C 260.657 983.98 t 0 r /Helvetica findfont 58.6478 sf 0 0 m (2) show NC gr 
 gsave  2268 1538 0 0 C 169.427 948.14 t 0 r /Helvetica findfont 84.7135 sf 0 0 m (10) show NC gr  347 1081 m -30 X s 347 1137 m -30 X s 347 1177 m -30 X s 347 1207 m -30 X s 347 1232 m -30 X s 347 1254 m -30 X s 347 1272 m -30 X s 347 1288 m -30 X s
 376 1303 m -59 X s
 gsave  2268 1538 0 0 C 260.657 1303.29 t 0 r /Helvetica findfont 58.6478 sf 0 0 m (3) show NC gr 
 gsave  2268 1538 0 0 C 169.427 1264.19 t 0 r /Helvetica findfont 84.7135 sf 0 0 m (10) show NC gr  347 1398 m -30 X s 347 1454 m -30 X s 347 1493 m -30 X s 2200 185 m 1322 Y s 2170 188 m 30 X s 2170 227 m 30 X s 2170 258 m 30 X s 2170 283 m 30 X s
 2170 304 m 30 X s 2170 323 m 30 X s 2170 339 m 30 X s 2141 353 m 59 X s 2170 449 m 30 X s 2170 504 m 30 X s 2170 544 m 30 X s 2170 574 m 30 X s 2170 600 m 30 X s 2170 621 m 30 X s 2170 639 m 30 X s 2170 655 m 30 X s 2141 670 m 59 X s 2170 765 m 30 X
 s 2170 821 m 30 X s 2170 860 m 30 X s 2170 891 m 30 X s 2170 916 m 30 X s 2170 937 m 30 X s 2170 955 m 30 X s 2170 972 m 30 X s 2141 986 m 59 X s 2170 1081 m 30 X s 2170 1137 m 30 X s 2170 1177 m 30 X s 2170 1207 m 30 X s 2170 1232 m 30 X s 2170
 1254 m 30 X s 2170 1272 m 30 X s 2170 1288 m 30 X s 2141 1303 m 59 X s 2170 1398 m 30 X s 2170 1454 m 30 X s 2170 1493 m 30 X s 0 0.6 0 c 9 lw 1 1 1 c black 0 0.6 0 c 317 185 m 113 X 1204 Y 38 X 76 Y 38 X -33 Y 37 X -51 Y 38 X -62 Y 38 X -61 Y 37 X
 -47 Y 38 X -58 Y 38 X -61 Y 37 X -58 Y 38 X -57 Y 37 X -56 Y 38 X -49 Y 38 X -58 Y 37 X -53 Y 38 X -35 Y 38 X -40 Y 37 X -47 Y 38 X -11 Y 38 X -41 Y 37 X -26 Y 38 X -50 Y 38 X -26 Y 37 X 3 Y 38 X -31 Y 38 X 2 Y 37 X -11 Y 38 X -13 Y 37 X -32 Y 38 X
 -11 Y 38 X -10 Y 37 X -12 Y 38 X -5 Y 38 X -5 Y 37 X 10 Y 38 X -46 Y 38 X 13 Y 37 X -55 Y 38 X -71 Y 38 X 54 Y 37 X 32 Y 38 X -42 Y 37 X -25 Y 38 X 31 Y 38 X 31 Y 37 X -107 Y 38 X 74 Y 38 X s 0.6 0 0 c 1 1 1 c black 0.6 0 0 c 317 185 m 132 X 1057 Y
 19 X 55 Y 19 X 70 Y 19 X 57 Y 19 X -6 Y 18 X -23 Y 19 X -42 Y 19 X -64 Y 19 X -126 Y 19 X -163 Y 18 X -143 Y 19 X -194 Y 19 X -10 Y 19 X -140 Y 19 X 91 Y 19 X -126 Y 18 X 129 Y 19 X -283 Y 19 X 258 Y 19 X -39 Y 19 X -189 Y 18 X 23 Y 19 X -192 Y 19 X
 333 Y 19 X -194 Y 19 X 81 Y 19 X -44 Y 18 X 88 Y 19 X -95 Y 19 X 18 Y 38 X 143 Y 19 X -330 Y 18 X 187 Y 19 X -187 Y 57 X 276 Y 18 X -37 Y 19 X -239 Y 19 X 194 Y 19 X -194 Y 56 X 273 Y 19 X -268 Y 19 X -5 Y 94 X 113 Y 19 X -113 Y 132 X 139 Y 19 X -24
 Y 18 X 101 Y 19 X -28 Y 19 X -188 Y 75 X 154 Y 19 X -154 Y 170 X 169 Y 18 X -169 Y 283 X s black
 gsave  2268 1538 0 0 C 1622.59 1313.06 t 0 r /Helvetica-Bold findfont 61.9061 sf 0 0 m ( probe \(data\)) show NC gr 
 gsave  2268 1538 0 0 C 1573.72 1313.06 t 0 r /Symbol findfont 61.9061 sf 0 0 m (Y) show NC gr 
 gsave  2268 1538 0 0 C 1521.59 1313.06 t 0 r /Helvetica-Bold findfont 61.9061 sf 0 0 m (J/) show NC gr  1 1 1 c 3 lw 1375 1298 m 121 X 71 Y -121 X f 9 lw black 1375 1334 m 121 X s 3 lw 1435 1334 m20 9 lw
 gsave  2268 1538 0 0 C 1521.59 1208.8 t 0 r /Helvetica-Bold findfont 61.9061 sf 0 0 m (B\255el \(MC\)) show NC gr  0.6 0 0 c 6 lw 1375 1232 m 121 X s black
 gsave  2268 1538 0 0 C 1521.59 1107.79 t 0 r /Helvetica-Bold findfont 61.9061 sf 0 0 m (uds el \(qcd \)) show NC gr  1 1 1 c 3 lw 1375 1094 m 121 X 71 Y -121 X f 6 lw 0 0.6 0 c 1375 1130 m 121 X s black 3 lw 1435 1130 m20 6 lw
 gr  gr showpage
end
%%EOF
