%!PS-Adobe-2.0 EPSF-2.0
%%BoundingBox:  0 0 567 384
%%Title: /home/rohin/Analysis/thesis/images/softel/validated_vars/reta.eps: c1_n15
%%Creator: ROOT Version 5.34/14
%%CreationDate: Mon Sep  8 03:51:03 2014
%%EndComments
%%BeginProlog
80 dict begin
/s {stroke} def /l {lineto} def /m {moveto} def /t {translate} def
/r {rotate} def /rl {roll}  def /R {repeat} def
/d {rlineto} def /rm {rmoveto} def /gr {grestore} def /f {eofill} def
/c {setrgbcolor} def /black {0 setgray} def /sd {setdash} def
/cl {closepath} def /sf {scalefont setfont} def /lw {setlinewidth} def
/box {m dup 0 exch d exch 0 d 0 exch neg d cl} def
/NC{systemdict begin initclip end}def/C{NC box clip newpath}def
/bl {box s} def /bf {box f} def /Y { 0 exch d} def /X { 0 d} def 
/K {{pop pop 0 moveto} exch kshow} bind def
/ita {/ang 15 def gsave [1 0 ang dup sin exch cos div 1 0 0] concat} def 
/mp {newpath /y exch def /x exch def} def
/side {[w .77 mul w .23 mul] .385 w mul sd w 0 l currentpoint t -144 r} def
/mr {mp x y w2 0 360 arc} def /m24 {mr s} def /m20 {mr f} def
/mb {mp x y w2 add m w2 neg 0 d 0 w neg d w 0 d 0 w d cl} def
/mt {mp x y w2 add m w2 neg w neg d w 0 d cl} def
/m21 {mb f} def /m25 {mb s} def /m22 {mt f} def /m26{mt s} def
/m23 {mp x y w2 sub m w2 w d w neg 0 d cl f} def
/m27 {mp x y w2 add m w3 neg w2 neg d w3 w2 neg d w3 w2 d cl s} def
/m28 {mp x w2 sub y w2 sub w3 add m w3 0 d  0 w3 neg d w3 0 d 0 w3 d w3 0 d  0 w3 d w3 neg 0 d 0 w3 d w3 neg 0 d 0 w3 neg d w3 neg 0 d cl s } def
/m29 {mp gsave x w2 sub y w2 add w3 sub m currentpoint t 4 {side} repeat cl fill gr} def
/m30 {mp gsave x w2 sub y w2 add w3 sub m currentpoint t 4 {side} repeat cl s gr} def
/m31 {mp x y w2 sub m 0 w d x w2 sub y m w 0 d x w2 sub y w2 add m w w neg d x w2 sub y w2 sub m w w d s} def
/m32 {mp x y w2 sub m w2 w d w neg 0 d cl s} def
/m33 {mp x y w2 add m w3 neg w2 neg d w3 w2 neg d w3 w2 d cl f} def
/m34 {mp x w2 sub y w2 sub w3 add m w3 0 d  0 w3 neg d w3 0 d 0 w3 d w3 0 d  0 w3 d w3 neg 0 d 0 w3 d w3 neg 0 d 0 w3 neg d w3 neg 0 d cl f } def
/m2 {mp x y w2 sub m 0 w d x w2 sub y m w 0 d s} def
/m5 {mp x w2 sub y w2 sub m w w d x w2 sub y w2 add m w w neg d s} def
/reEncode {exch findfont dup length dict begin {1 index /FID eq  {pop pop} {def} ifelse } forall /Encoding exch def currentdict end dup /FontName get exch definefont pop } def [/Times-Bold /Times-Italic /Times-BoldItalic /Helvetica /Helvetica-Oblique
 /Helvetica-Bold /Helvetica-BoldOblique /Courier /Courier-Oblique /Courier-Bold /Courier-BoldOblique /Times-Roman /AvantGarde-Book /AvantGarde-BookOblique /AvantGarde-Demi /AvantGarde-DemiOblique /Bookman-Demi /Bookman-DemiItalic /Bookman-Light
 /Bookman-LightItalic /Helvetica-Narrow /Helvetica-Narrow-Bold /Helvetica-Narrow-BoldOblique /Helvetica-Narrow-Oblique /NewCenturySchlbk-Roman /NewCenturySchlbk-Bold /NewCenturySchlbk-BoldItalic /NewCenturySchlbk-Italic /Palatino-Bold
 /Palatino-BoldItalic /Palatino-Italic /Palatino-Roman ] {ISOLatin1Encoding reEncode } forall
%%EndProlog
%%BeginSetup
%%EndSetup
newpath  gsave  .25 .25 scale  gsave  0 0 t black[  ] 0 sd 3 lw 1 1 1 c 2268 1538 0 0 bf black 1 1 1 c 1883 1322 317 185 bf black 1883 1322 317 185 bl 1 1 1 c 1883 1322 317 185 bf black 1883 1322 317 185 bl 6 lw 1 1 1 c black 562 185 m 89 Y s 562 287
 m 89 Y s 543 280 m 13 X s 569 280 m 12 X s 3 lw /w 13 def /w2 {w 2 div} def /w3 {w 3 div} def 562 280 m20 6 lw 675 185 m 89 Y s 675 287 m 155 Y s 656 280 m 13 X s 682 280 m 12 X s 3 lw 675 280 m20 6 lw 713 527 m 50 Y s 713 590 m 33 Y s 694 583 m 12
 X s 719 583 m 13 X s 3 lw 713 583 m20 6 lw 750 589 m 39 Y s 750 641 m 27 Y s 732 634 m 12 X s 757 634 m 12 X s 3 lw 750 634 m20 6 lw 788 352 m 144 Y s 788 509 m 63 Y s 769 502 m 13 X s 795 502 m 12 X s 3 lw 788 502 m20 6 lw 826 765 m 18 Y s 826 796
 m 13 Y s 807 789 m 12 X s 832 789 m 12 X s 3 lw 826 789 m20 6 lw 863 796 m 15 Y s 863 824 m 11 Y s 844 817 m 13 X s 870 817 m 12 X s 3 lw 863 817 m20 6 lw 901 875 m 10 Y s 901 898 m 8 Y s 882 891 m 12 X s 907 891 m 13 X s 3 lw 901 891 m20 6 lw 939
 931 m 7 Y s 939 951 m 5 Y s 920 944 m 12 X s 945 944 m 12 X s 3 lw 939 944 m20 6 lw 976 1019 m 3 Y s 976 1035 m 2 Y s 957 1029 m 13 X s 983 1029 m 12 X s 3 lw 976 1029 m20 6 lw 1014 1088 m 1 Y s 1014 1102 m 1 Y s 995 1096 m 12 X s 1020 1096 m 13 X s
 3 lw 1014 1096 m20 6 lw 1033 1176 m 12 X s 1058 1176 m 12 X s 3 lw 1052 1176 m20 6 lw 1070 1272 m 13 X s 1096 1272 m 12 X s 3 lw 1089 1272 m20 6 lw 1108 1293 m 12 X s 1133 1293 m 13 X s 3 lw 1127 1293 m20 6 lw 1146 1363 m 12 X s 1171 1363 m 12 X s 3
 lw 1164 1363 m20 6 lw 1183 1417 m 13 X s 1209 1417 m 12 X s 3 lw 1202 1417 m20 6 lw 1221 1310 m 12 X s 1246 1310 m 13 X s 3 lw 1240 1310 m20 6 lw 1277 1038 m 3 Y s 1277 1054 m 2 Y s 1259 1047 m 12 X s 1284 1047 m 12 X s 3 lw 1277 1047 m20 6 lw 1315
 731 m 21 Y s 1315 765 m 16 Y s 1296 758 m 13 X s 1322 758 m 12 X s 3 lw 1315 758 m20 6 lw 1353 483 m 59 Y s 1353 555 m 38 Y s 1334 549 m 12 X s 1359 549 m 13 X s 3 lw 1353 549 m20 6 lw 1390 185 m 89 Y s 1390 287 m 89 Y s 1372 280 m 12 X s 1397 280 m
 12 X s 3 lw 1390 280 m20 6 lw 1428 185 m 89 Y s 1428 287 m 89 Y s 1409 280 m 12 X s 1434 280 m 13 X s 3 lw 1428 280 m20 6 lw 1466 185 m 89 Y s 1466 287 m 89 Y s 1447 280 m 12 X s 1472 280 m 12 X s 3 lw 1466 280 m20 6 lw 3 lw 317 185 m 1883 X s
 gsave  2268 1538 0 0 C 2052.67 9.77464 t 0 r /Helvetica findfont 84.7135 sf 0 0 m (reta) show NC gr  317 223 m -38 Y s 365 204 m -19 Y s 412 204 m -19 Y s 459 204 m -19 Y s 506 223 m -38 Y s 553 204 m -19 Y s 600 204 m -19 Y s 647 204 m -19 Y s 694
 223 m -38 Y s 741 204 m -19 Y s 788 204 m -19 Y s 835 204 m -19 Y s 882 223 m -38 Y s 929 204 m -19 Y s 976 204 m -19 Y s 1023 204 m -19 Y s 1070 223 m -38 Y s 1117 204 m -19 Y s 1164 204 m -19 Y s 1212 204 m -19 Y s 1259 223 m -38 Y s 1306 204 m
 -19 Y s 1353 204 m -19 Y s 1400 204 m -19 Y s 1447 223 m -38 Y s 1494 204 m -19 Y s 1541 204 m -19 Y s 1588 204 m -19 Y s 1635 223 m -38 Y s 1682 204 m -19 Y s 1729 204 m -19 Y s 1776 204 m -19 Y s 1823 223 m -38 Y s 1870 204 m -19 Y s 1917 204 m
 -19 Y s 1964 204 m -19 Y s 2011 223 m -38 Y s 2059 204 m -19 Y s 2106 204 m -19 Y s 2153 204 m -19 Y s 2200 223 m -38 Y s
 gsave  2268 1538 0 0 C 293.239 104.263 t 0 r /Helvetica findfont 84.7135 sf 0 0 m (0) show NC gr 
 gsave  2268 1538 0 0 C 446.375 104.263 t 0 r /Helvetica findfont 84.7135 sf 0 0 m (0.2) show NC gr 
 gsave  2268 1538 0 0 C 632.093 104.263 t 0 r /Helvetica findfont 84.7135 sf 0 0 m (0.4) show NC gr 
 gsave  2268 1538 0 0 C 821.07 104.263 t 0 r /Helvetica findfont 84.7135 sf 0 0 m (0.6) show NC gr 
 gsave  2268 1538 0 0 C 1010.05 104.263 t 0 r /Helvetica findfont 84.7135 sf 0 0 m (0.8) show NC gr 
 gsave  2268 1538 0 0 C 1241.38 104.263 t 0 r /Helvetica findfont 84.7135 sf 0 0 m (1) show NC gr 
 gsave  2268 1538 0 0 C 1388 104.263 t 0 r /Helvetica findfont 84.7135 sf 0 0 m (1.2) show NC gr 
 gsave  2268 1538 0 0 C 1573.72 104.263 t 0 r /Helvetica findfont 84.7135 sf 0 0 m (1.4) show NC gr 
 gsave  2268 1538 0 0 C 1762.69 104.263 t 0 r /Helvetica findfont 84.7135 sf 0 0 m (1.6) show NC gr 
 gsave  2268 1538 0 0 C 1951.67 104.263 t 0 r /Helvetica findfont 84.7135 sf 0 0 m (1.8) show NC gr 
 gsave  2268 1538 0 0 C 2176.49 104.263 t 0 r /Helvetica findfont 84.7135 sf 0 0 m (2) show NC gr  317 1507 m 1883 X s 317 1469 m 38 Y s 365 1488 m 19 Y s 412 1488 m 19 Y s 459 1488 m 19 Y s 506 1469 m 38 Y s 553 1488 m 19 Y s 600 1488 m 19 Y s 647
 1488 m 19 Y s 694 1469 m 38 Y s 741 1488 m 19 Y s 788 1488 m 19 Y s 835 1488 m 19 Y s 882 1469 m 38 Y s 929 1488 m 19 Y s 976 1488 m 19 Y s 1023 1488 m 19 Y s 1070 1469 m 38 Y s 1117 1488 m 19 Y s 1164 1488 m 19 Y s 1212 1488 m 19 Y s 1259 1469 m 38
 Y s 1306 1488 m 19 Y s 1353 1488 m 19 Y s 1400 1488 m 19 Y s 1447 1469 m 38 Y s 1494 1488 m 19 Y s 1541 1488 m 19 Y s 1588 1488 m 19 Y s 1635 1469 m 38 Y s 1682 1488 m 19 Y s 1729 1488 m 19 Y s 1776 1488 m 19 Y s 1823 1469 m 38 Y s 1870 1488 m 19 Y
 s 1917 1488 m 19 Y s 1964 1488 m 19 Y s 2011 1469 m 38 Y s 2059 1488 m 19 Y s 2106 1488 m 19 Y s 2153 1488 m 19 Y s 2200 1469 m 38 Y s 317 185 m 1322 Y s
 gsave  2268 1538 0 0 C 127.07 1062.18 t 90 r /Helvetica findfont 84.7135 sf 0 0 m (Events/0.04) show NC gr  347 185 m -30 X s 347 210 m -30 X s 347 231 m -30 X s 347 249 m -30 X s 347 266 m -30 X s 376 280 m -59 X s
 gsave  2268 1538 0 0 C 295.257 243.678 t 0 r  -47 0 t /Helvetica findfont 84.7135 sf 0 0 m (1) show NC gr  347 376 m -30 X s 347 432 m -30 X s 347 471 m -30 X s 347 502 m -30 X s 347 527 m -30 X s 347 549 m -30 X s 347 567 m -30 X s 347 583 m -30 X
 s 376 598 m -59 X s
 gsave  2268 1538 0 0 C 295.257 561.334 t 0 r  -95 0 t /Helvetica findfont 84.7135 sf 0 0 m (10) show NC gr  347 693 m -30 X s 347 749 m -30 X s 347 789 m -30 X s 347 820 m -30 X s 347 845 m -30 X s 347 866 m -30 X s 347 885 m -30 X s 347 901 m -30 X
 s 376 915 m -59 X s
 gsave  2268 1538 0 0 C 260.657 912.3 t 0 r /Helvetica findfont 58.6478 sf 0 0 m (2) show NC gr 
 gsave  2268 1538 0 0 C 169.427 876.459 t 0 r /Helvetica findfont 84.7135 sf 0 0 m (10) show NC gr  347 1011 m -30 X s 347 1067 m -30 X s 347 1107 m -30 X s 347 1138 m -30 X s 347 1163 m -30 X s 347 1184 m -30 X s 347 1202 m -30 X s 347 1219 m -30 X
 s 376 1233 m -59 X s
 gsave  2268 1538 0 0 C 260.657 1234.86 t 0 r /Helvetica findfont 58.6478 sf 0 0 m (3) show NC gr 
 gsave  2268 1538 0 0 C 169.427 1195.76 t 0 r /Helvetica findfont 84.7135 sf 0 0 m (10) show NC gr  347 1329 m -30 X s 347 1385 m -30 X s 347 1424 m -30 X s 347 1455 m -30 X s 347 1480 m -30 X s 347 1502 m -30 X s 2200 185 m 1322 Y s 2170 185 m 30 X
 s 2170 210 m 30 X s 2170 231 m 30 X s 2170 249 m 30 X s 2170 266 m 30 X s 2141 280 m 59 X s 2170 376 m 30 X s 2170 432 m 30 X s 2170 471 m 30 X s 2170 502 m 30 X s 2170 527 m 30 X s 2170 549 m 30 X s 2170 567 m 30 X s 2170 583 m 30 X s 2141 598 m 59
 X s 2170 693 m 30 X s 2170 749 m 30 X s 2170 789 m 30 X s 2170 820 m 30 X s 2170 845 m 30 X s 2170 866 m 30 X s 2170 885 m 30 X s 2170 901 m 30 X s 2141 915 m 59 X s 2170 1011 m 30 X s 2170 1067 m 30 X s 2170 1107 m 30 X s 2170 1138 m 30 X s 2170
 1163 m 30 X s 2170 1184 m 30 X s 2170 1202 m 30 X s 2170 1219 m 30 X s 2141 1233 m 59 X s 2170 1329 m 30 X s 2170 1385 m 30 X s 2170 1424 m 30 X s 2170 1455 m 30 X s 2170 1480 m 30 X s 2170 1502 m 30 X s 0 0.6 0 c 9 lw 1 1 1 c black 0 0.6 0 c 317
 185 m 38 X 214 Y 38 X 16 Y 37 X -43 Y 38 X 56 Y 38 X -1 Y 37 X 58 Y 38 X 93 Y 38 X 101 Y 37 X 104 Y 38 X 98 Y 38 X 84 Y 37 X 73 Y 38 X 61 Y 37 X 47 Y 38 X 39 Y 38 X 29 Y 37 X 23 Y 38 X 19 Y 38 X 15 Y 37 X 17 Y 38 X 7 Y 38 X -2 Y 37 X -35 Y 38 X -147
 Y 38 X -242 Y 37 X -263 Y 38 X -222 Y 38 X -161 Y 37 X -38 Y 791 X s 0.6 0 0 c 1 1 1 c black 0.6 0 0 c 317 185 m 189 X 125 Y 37 X -22 Y 38 X 11 Y 38 X -114 Y 37 X 366 Y 38 X 18 Y 38 X 55 Y 37 X 89 Y 38 X 77 Y 37 X 63 Y 38 X 56 Y 38 X 27 Y 37 X 43 Y
 38 X 58 Y 38 X 64 Y 37 X 82 Y 38 X 61 Y 38 X 112 Y 37 X 73 Y 38 X -61 Y 38 X -213 Y 37 X -250 Y 38 X -226 Y 38 X -215 Y 37 X -104 Y 38 X -134 Y 37 X 64 Y 38 X -105 Y 678 X s black
 gsave  2268 1538 0 0 C 1700.79 1306.54 t 0 r /Helvetica-Bold findfont 65.1643 sf 0 0 m ( probe \(data\)) show NC gr 
 gsave  2268 1538 0 0 C 1648.66 1306.54 t 0 r /Symbol findfont 65.1643 sf 0 0 m (Y) show NC gr 
 gsave  2268 1538 0 0 C 1593.27 1306.54 t 0 r /Helvetica-Bold findfont 65.1643 sf 0 0 m (J/) show NC gr  1 1 1 c 3 lw 1444 1292 m 125 X 76 Y -125 X f 9 lw black 1444 1330 m 125 X s 3 lw 1507 1330 m20 9 lw
 gsave  2268 1538 0 0 C 1593.27 1195.76 t 0 r /Helvetica-Bold findfont 65.1643 sf 0 0 m (B\255el \(MC\)) show NC gr  0.6 0 0 c 6 lw 1444 1220 m 125 X s black
 gsave  2268 1538 0 0 C 1593.27 1088.24 t 0 r /Helvetica-Bold findfont 65.1643 sf 0 0 m (uds el \(qcd \)) show NC gr  1 1 1 c 3 lw 1444 1072 m 125 X 77 Y -125 X f 6 lw 0 0.6 0 c 1444 1111 m 125 X s black 3 lw 1507 1111 m20 6 lw
 gr  gr showpage
end
%%EOF
