%!PS-Adobe-2.0 EPSF-2.0
%%BoundingBox:  0 0 567 384
%%Title: /home/rohin/Analysis/thesis/images/softel/validated_vars/rHad.eps: c1_n13
%%Creator: ROOT Version 5.34/14
%%CreationDate: Mon Sep  8 03:51:36 2014
%%EndComments
%%BeginProlog
80 dict begin
/s {stroke} def /l {lineto} def /m {moveto} def /t {translate} def
/r {rotate} def /rl {roll}  def /R {repeat} def
/d {rlineto} def /rm {rmoveto} def /gr {grestore} def /f {eofill} def
/c {setrgbcolor} def /black {0 setgray} def /sd {setdash} def
/cl {closepath} def /sf {scalefont setfont} def /lw {setlinewidth} def
/box {m dup 0 exch d exch 0 d 0 exch neg d cl} def
/NC{systemdict begin initclip end}def/C{NC box clip newpath}def
/bl {box s} def /bf {box f} def /Y { 0 exch d} def /X { 0 d} def 
/K {{pop pop 0 moveto} exch kshow} bind def
/ita {/ang 15 def gsave [1 0 ang dup sin exch cos div 1 0 0] concat} def 
/mp {newpath /y exch def /x exch def} def
/side {[w .77 mul w .23 mul] .385 w mul sd w 0 l currentpoint t -144 r} def
/mr {mp x y w2 0 360 arc} def /m24 {mr s} def /m20 {mr f} def
/mb {mp x y w2 add m w2 neg 0 d 0 w neg d w 0 d 0 w d cl} def
/mt {mp x y w2 add m w2 neg w neg d w 0 d cl} def
/m21 {mb f} def /m25 {mb s} def /m22 {mt f} def /m26{mt s} def
/m23 {mp x y w2 sub m w2 w d w neg 0 d cl f} def
/m27 {mp x y w2 add m w3 neg w2 neg d w3 w2 neg d w3 w2 d cl s} def
/m28 {mp x w2 sub y w2 sub w3 add m w3 0 d  0 w3 neg d w3 0 d 0 w3 d w3 0 d  0 w3 d w3 neg 0 d 0 w3 d w3 neg 0 d 0 w3 neg d w3 neg 0 d cl s } def
/m29 {mp gsave x w2 sub y w2 add w3 sub m currentpoint t 4 {side} repeat cl fill gr} def
/m30 {mp gsave x w2 sub y w2 add w3 sub m currentpoint t 4 {side} repeat cl s gr} def
/m31 {mp x y w2 sub m 0 w d x w2 sub y m w 0 d x w2 sub y w2 add m w w neg d x w2 sub y w2 sub m w w d s} def
/m32 {mp x y w2 sub m w2 w d w neg 0 d cl s} def
/m33 {mp x y w2 add m w3 neg w2 neg d w3 w2 neg d w3 w2 d cl f} def
/m34 {mp x w2 sub y w2 sub w3 add m w3 0 d  0 w3 neg d w3 0 d 0 w3 d w3 0 d  0 w3 d w3 neg 0 d 0 w3 d w3 neg 0 d 0 w3 neg d w3 neg 0 d cl f } def
/m2 {mp x y w2 sub m 0 w d x w2 sub y m w 0 d s} def
/m5 {mp x w2 sub y w2 sub m w w d x w2 sub y w2 add m w w neg d s} def
/reEncode {exch findfont dup length dict begin {1 index /FID eq  {pop pop} {def} ifelse } forall /Encoding exch def currentdict end dup /FontName get exch definefont pop } def [/Times-Bold /Times-Italic /Times-BoldItalic /Helvetica /Helvetica-Oblique
 /Helvetica-Bold /Helvetica-BoldOblique /Courier /Courier-Oblique /Courier-Bold /Courier-BoldOblique /Times-Roman /AvantGarde-Book /AvantGarde-BookOblique /AvantGarde-Demi /AvantGarde-DemiOblique /Bookman-Demi /Bookman-DemiItalic /Bookman-Light
 /Bookman-LightItalic /Helvetica-Narrow /Helvetica-Narrow-Bold /Helvetica-Narrow-BoldOblique /Helvetica-Narrow-Oblique /NewCenturySchlbk-Roman /NewCenturySchlbk-Bold /NewCenturySchlbk-BoldItalic /NewCenturySchlbk-Italic /Palatino-Bold
 /Palatino-BoldItalic /Palatino-Italic /Palatino-Roman ] {ISOLatin1Encoding reEncode } forall
%%EndProlog
%%BeginSetup
%%EndSetup
newpath  gsave  .25 .25 scale  gsave  0 0 t black[  ] 0 sd 3 lw 1 1 1 c 2268 1538 0 0 bf black 1 1 1 c 1883 1322 317 185 bf black 1883 1322 317 185 bl 1 1 1 c 1883 1322 317 185 bf black 1883 1322 317 185 bl 6 lw 1 1 1 c black 317 1425 m 13 X s 343
 1425 m 12 X s 3 lw /w 13 def /w2 {w 2 div} def /w3 {w 3 div} def 336 1425 m20 6 lw 355 1073 m 12 X s 380 1073 m 13 X s 3 lw 374 1073 m20 6 lw 412 890 m 5 Y s 412 908 m 3 Y s 393 901 m 12 X s 418 901 m 12 X s 3 lw 412 901 m20 6 lw 449 714 m 15 Y s
 449 742 m 13 Y s 430 736 m 13 X s 456 736 m 12 X s 3 lw 449 736 m20 6 lw 487 592 m 39 Y s 487 645 m 27 Y s 468 638 m 12 X s 493 638 m 13 X s 3 lw 487 638 m20 6 lw 525 185 m 168 Y s 525 366 m 114 Y s 506 360 m 12 X s 531 360 m 12 X s 3 lw 525 360 m20
 6 lw 637 302 m 103 Y s 637 418 m 51 Y s 619 411 m 12 X s 644 411 m 12 X s 3 lw 637 411 m20 6 lw 863 185 m 81 Y s 863 279 m 81 Y s 844 272 m 13 X s 870 272 m 12 X s 3 lw 863 272 m20 6 lw 1654 185 m 81 Y s 1654 279 m 81 Y s 1635 272 m 12 X s 1660 272
 m 13 X s 3 lw 1654 272 m20 6 lw 3 lw 317 185 m 1883 X s
 gsave  2268 1538 0 0 C 2020.09 6.51643 t 0 r /Helvetica findfont 84.7135 sf 0 0 m (rHad) show NC gr  317 223 m -38 Y s 355 204 m -19 Y s 393 204 m -19 Y s 430 204 m -19 Y s 468 204 m -19 Y s 506 223 m -38 Y s 543 204 m -19 Y s 581 204 m -19 Y s 619
 204 m -19 Y s 656 204 m -19 Y s 694 223 m -38 Y s 732 204 m -19 Y s 769 204 m -19 Y s 807 204 m -19 Y s 844 204 m -19 Y s 882 223 m -38 Y s 920 204 m -19 Y s 957 204 m -19 Y s 995 204 m -19 Y s 1033 204 m -19 Y s 1070 223 m -38 Y s 1108 204 m -19 Y
 s 1146 204 m -19 Y s 1183 204 m -19 Y s 1221 204 m -19 Y s 1259 223 m -38 Y s 1296 204 m -19 Y s 1334 204 m -19 Y s 1372 204 m -19 Y s 1409 204 m -19 Y s 1447 223 m -38 Y s 1484 204 m -19 Y s 1522 204 m -19 Y s 1560 204 m -19 Y s 1597 204 m -19 Y s
 1635 223 m -38 Y s 1673 204 m -19 Y s 1710 204 m -19 Y s 1748 204 m -19 Y s 1786 204 m -19 Y s 1823 223 m -38 Y s 1861 204 m -19 Y s 1899 204 m -19 Y s 1936 204 m -19 Y s 1974 204 m -19 Y s 2011 223 m -38 Y s 2049 204 m -19 Y s 2087 204 m -19 Y s
 2124 204 m -19 Y s 2162 204 m -19 Y s 2200 223 m -38 Y s
 gsave  2268 1538 0 0 C 293.239 104.263 t 0 r /Helvetica findfont 84.7135 sf 0 0 m (0) show NC gr 
 gsave  2268 1538 0 0 C 488.732 104.263 t 0 r /Helvetica findfont 84.7135 sf 0 0 m (1) show NC gr 
 gsave  2268 1538 0 0 C 667.934 104.263 t 0 r /Helvetica findfont 84.7135 sf 0 0 m (2) show NC gr 
 gsave  2268 1538 0 0 C 856.91 104.263 t 0 r /Helvetica findfont 84.7135 sf 0 0 m (3) show NC gr 
 gsave  2268 1538 0 0 C 1045.89 104.263 t 0 r /Helvetica findfont 84.7135 sf 0 0 m (4) show NC gr 
 gsave  2268 1538 0 0 C 1234.86 104.263 t 0 r /Helvetica findfont 84.7135 sf 0 0 m (5) show NC gr 
 gsave  2268 1538 0 0 C 1423.84 104.263 t 0 r /Helvetica findfont 84.7135 sf 0 0 m (6) show NC gr 
 gsave  2268 1538 0 0 C 1609.56 104.263 t 0 r /Helvetica findfont 84.7135 sf 0 0 m (7) show NC gr 
 gsave  2268 1538 0 0 C 1798.53 104.263 t 0 r /Helvetica findfont 84.7135 sf 0 0 m (8) show NC gr 
 gsave  2268 1538 0 0 C 1987.51 104.263 t 0 r /Helvetica findfont 84.7135 sf 0 0 m (9) show NC gr 
 gsave  2268 1538 0 0 C 2153.68 104.263 t 0 r /Helvetica findfont 84.7135 sf 0 0 m (10) show NC gr  317 1507 m 1883 X s 317 1469 m 38 Y s 355 1488 m 19 Y s 393 1488 m 19 Y s 430 1488 m 19 Y s 468 1488 m 19 Y s 506 1469 m 38 Y s 543 1488 m 19 Y s 581
 1488 m 19 Y s 619 1488 m 19 Y s 656 1488 m 19 Y s 694 1469 m 38 Y s 732 1488 m 19 Y s 769 1488 m 19 Y s 807 1488 m 19 Y s 844 1488 m 19 Y s 882 1469 m 38 Y s 920 1488 m 19 Y s 957 1488 m 19 Y s 995 1488 m 19 Y s 1033 1488 m 19 Y s 1070 1469 m 38 Y s
 1108 1488 m 19 Y s 1146 1488 m 19 Y s 1183 1488 m 19 Y s 1221 1488 m 19 Y s 1259 1469 m 38 Y s 1296 1488 m 19 Y s 1334 1488 m 19 Y s 1372 1488 m 19 Y s 1409 1488 m 19 Y s 1447 1469 m 38 Y s 1484 1488 m 19 Y s 1522 1488 m 19 Y s 1560 1488 m 19 Y s
 1597 1488 m 19 Y s 1635 1469 m 38 Y s 1673 1488 m 19 Y s 1710 1488 m 19 Y s 1748 1488 m 19 Y s 1786 1488 m 19 Y s 1823 1469 m 38 Y s 1861 1488 m 19 Y s 1899 1488 m 19 Y s 1936 1488 m 19 Y s 1974 1488 m 19 Y s 2011 1469 m 38 Y s 2049 1488 m 19 Y s
 2087 1488 m 19 Y s 2124 1488 m 19 Y s 2162 1488 m 19 Y s 2200 1469 m 38 Y s 317 185 m 1322 Y s
 gsave  2268 1538 0 0 C 127.07 1111.05 t 90 r /Helvetica findfont 84.7135 sf 0 0 m (Events/0.2) show NC gr  347 185 m -30 X s 347 208 m -30 X s 347 227 m -30 X s 347 244 m -30 X s 347 259 m -30 X s 376 272 m -59 X s
 gsave  2268 1538 0 0 C 295.257 235.762 t 0 r  -47 0 t /Helvetica findfont 84.7135 sf 0 0 m (1) show NC gr  347 360 m -30 X s 347 411 m -30 X s 347 448 m -30 X s 347 476 m -30 X s 347 499 m -30 X s 347 518 m -30 X s 347 535 m -30 X s 347 550 m -30 X
 s 376 564 m -59 X s
 gsave  2268 1538 0 0 C 295.257 527.123 t 0 r  -95 0 t /Helvetica findfont 84.7135 sf 0 0 m (10) show NC gr  347 651 m -30 X s 347 703 m -30 X s 347 739 m -30 X s 347 767 m -30 X s 347 790 m -30 X s 347 810 m -30 X s 347 827 m -30 X s 347 842 m -30 X
 s 376 855 m -59 X s
 gsave  2268 1538 0 0 C 260.657 853.652 t 0 r /Helvetica findfont 58.6478 sf 0 0 m (2) show NC gr 
 gsave  2268 1538 0 0 C 169.427 817.812 t 0 r /Helvetica findfont 84.7135 sf 0 0 m (10) show NC gr  347 943 m -30 X s 347 994 m -30 X s 347 1030 m -30 X s 347 1059 m -30 X s 347 1082 m -30 X s 347 1101 m -30 X s 347 1118 m -30 X s 347 1133 m -30 X s
 376 1146 m -59 X s
 gsave  2268 1538 0 0 C 260.657 1146.89 t 0 r /Helvetica findfont 58.6478 sf 0 0 m (3) show NC gr 
 gsave  2268 1538 0 0 C 169.427 1107.79 t 0 r /Helvetica findfont 84.7135 sf 0 0 m (10) show NC gr  347 1234 m -30 X s 347 1285 m -30 X s 347 1322 m -30 X s 347 1350 m -30 X s 347 1373 m -30 X s 347 1393 m -30 X s 347 1409 m -30 X s 347 1424 m -30 X
 s 376 1438 m -59 X s
 gsave  2268 1538 0 0 C 260.657 1436.87 t 0 r /Helvetica findfont 58.6478 sf 0 0 m (4) show NC gr 
 gsave  2268 1538 0 0 C 169.427 1401.03 t 0 r /Helvetica findfont 84.7135 sf 0 0 m (10) show NC gr  2200 185 m 1322 Y s 2170 185 m 30 X s 2170 208 m 30 X s 2170 227 m 30 X s 2170 244 m 30 X s 2170 259 m 30 X s 2141 272 m 59 X s 2170 360 m 30 X s 2170
 411 m 30 X s 2170 448 m 30 X s 2170 476 m 30 X s 2170 499 m 30 X s 2170 518 m 30 X s 2170 535 m 30 X s 2170 550 m 30 X s 2141 564 m 59 X s 2170 651 m 30 X s 2170 703 m 30 X s 2170 739 m 30 X s 2170 767 m 30 X s 2170 790 m 30 X s 2170 810 m 30 X s
 2170 827 m 30 X s 2170 842 m 30 X s 2141 855 m 59 X s 2170 943 m 30 X s 2170 994 m 30 X s 2170 1030 m 30 X s 2170 1059 m 30 X s 2170 1082 m 30 X s 2170 1101 m 30 X s 2170 1118 m 30 X s 2170 1133 m 30 X s 2141 1146 m 59 X s 2170 1234 m 30 X s 2170
 1285 m 30 X s 2170 1322 m 30 X s 2170 1350 m 30 X s 2170 1373 m 30 X s 2170 1393 m 30 X s 2170 1409 m 30 X s 2170 1424 m 30 X s 2141 1438 m 59 X s 0 0.6 0 c 9 lw 1 1 1 c black 0 0.6 0 c 317 1363 m 38 X -141 Y 38 X -78 Y 37 X -75 Y 38 X -68 Y 38 X
 -68 Y 37 X -56 Y 38 X -53 Y 38 X -56 Y 37 X -43 Y 38 X -40 Y 38 X -45 Y 37 X -35 Y 38 X -40 Y 37 X -23 Y 38 X -30 Y 38 X -31 Y 37 X -34 Y 38 X -15 Y 38 X -25 Y 37 X -31 Y 38 X -43 Y 38 X 29 Y 37 X -20 Y 38 X -18 Y 38 X -7 Y 37 X -12 Y 38 X -47 Y 38
 X 25 Y 37 X -9 Y 38 X -17 Y 37 X -7 Y 38 X -33 Y 38 X 30 Y 37 X -53 Y 38 X -9 Y 38 X 39 Y 37 X -36 Y 38 X -3 Y 452 X s 0.6 0 0 c 1 1 1 c black 0.6 0 0 c 317 1419 m 38 X -327 Y 38 X -112 Y 37 X -90 Y 38 X -121 Y 38 X -28 Y 37 X -158 Y 38 X -57 Y 38 X
 -75 Y 37 X 17 Y 38 X 40 Y 38 X -161 Y 37 X 62 Y 38 X -198 Y 37 X -26 Y 76 X 98 Y 37 X -98 Y 151 X 110 Y 38 X 31 Y 37 X -141 Y 151 X 98 Y 38 X -98 Y 37 X 110 Y 75 X -110 Y 716 X s black
 gsave  2268 1538 0 0 C 1638.88 1313.06 t 0 r /Helvetica-Bold findfont 61.9061 sf 0 0 m ( probe \(data\)) show NC gr 
 gsave  2268 1538 0 0 C 1590.01 1313.06 t 0 r /Symbol findfont 61.9061 sf 0 0 m (Y) show NC gr 
 gsave  2268 1538 0 0 C 1537.88 1313.06 t 0 r /Helvetica-Bold findfont 61.9061 sf 0 0 m (J/) show NC gr  1 1 1 c 3 lw 1397 1298 m 117 X 71 Y -117 X f 9 lw black 1397 1334 m 117 X s 3 lw 1455 1334 m20 9 lw
 gsave  2268 1538 0 0 C 1537.88 1208.8 t 0 r /Helvetica-Bold findfont 61.9061 sf 0 0 m (B\255el \(MC\)) show NC gr  0.6 0 0 c 6 lw 1397 1232 m 117 X s black
 gsave  2268 1538 0 0 C 1537.88 1107.79 t 0 r /Helvetica-Bold findfont 61.9061 sf 0 0 m (uds el \(qcd \)) show NC gr  1 1 1 c 3 lw 1397 1094 m 117 X 71 Y -117 X f 6 lw 0 0.6 0 c 1397 1130 m 117 X s black 3 lw 1455 1130 m20 6 lw
 gr  gr showpage
end
%%EOF
