%!PS-Adobe-2.0 EPSF-2.0
%%BoundingBox:  0 0 567 384
%%Title: /home/rohin/Analysis/thesis/images/softel/validated_vars/rHad1.eps: c1_n14
%%Creator: ROOT Version 5.34/14
%%CreationDate: Mon Sep  8 03:51:20 2014
%%EndComments
%%BeginProlog
80 dict begin
/s {stroke} def /l {lineto} def /m {moveto} def /t {translate} def
/r {rotate} def /rl {roll}  def /R {repeat} def
/d {rlineto} def /rm {rmoveto} def /gr {grestore} def /f {eofill} def
/c {setrgbcolor} def /black {0 setgray} def /sd {setdash} def
/cl {closepath} def /sf {scalefont setfont} def /lw {setlinewidth} def
/box {m dup 0 exch d exch 0 d 0 exch neg d cl} def
/NC{systemdict begin initclip end}def/C{NC box clip newpath}def
/bl {box s} def /bf {box f} def /Y { 0 exch d} def /X { 0 d} def 
/K {{pop pop 0 moveto} exch kshow} bind def
/ita {/ang 15 def gsave [1 0 ang dup sin exch cos div 1 0 0] concat} def 
/mp {newpath /y exch def /x exch def} def
/side {[w .77 mul w .23 mul] .385 w mul sd w 0 l currentpoint t -144 r} def
/mr {mp x y w2 0 360 arc} def /m24 {mr s} def /m20 {mr f} def
/mb {mp x y w2 add m w2 neg 0 d 0 w neg d w 0 d 0 w d cl} def
/mt {mp x y w2 add m w2 neg w neg d w 0 d cl} def
/m21 {mb f} def /m25 {mb s} def /m22 {mt f} def /m26{mt s} def
/m23 {mp x y w2 sub m w2 w d w neg 0 d cl f} def
/m27 {mp x y w2 add m w3 neg w2 neg d w3 w2 neg d w3 w2 d cl s} def
/m28 {mp x w2 sub y w2 sub w3 add m w3 0 d  0 w3 neg d w3 0 d 0 w3 d w3 0 d  0 w3 d w3 neg 0 d 0 w3 d w3 neg 0 d 0 w3 neg d w3 neg 0 d cl s } def
/m29 {mp gsave x w2 sub y w2 add w3 sub m currentpoint t 4 {side} repeat cl fill gr} def
/m30 {mp gsave x w2 sub y w2 add w3 sub m currentpoint t 4 {side} repeat cl s gr} def
/m31 {mp x y w2 sub m 0 w d x w2 sub y m w 0 d x w2 sub y w2 add m w w neg d x w2 sub y w2 sub m w w d s} def
/m32 {mp x y w2 sub m w2 w d w neg 0 d cl s} def
/m33 {mp x y w2 add m w3 neg w2 neg d w3 w2 neg d w3 w2 d cl f} def
/m34 {mp x w2 sub y w2 sub w3 add m w3 0 d  0 w3 neg d w3 0 d 0 w3 d w3 0 d  0 w3 d w3 neg 0 d 0 w3 d w3 neg 0 d 0 w3 neg d w3 neg 0 d cl f } def
/m2 {mp x y w2 sub m 0 w d x w2 sub y m w 0 d s} def
/m5 {mp x w2 sub y w2 sub m w w d x w2 sub y w2 add m w w neg d s} def
/reEncode {exch findfont dup length dict begin {1 index /FID eq  {pop pop} {def} ifelse } forall /Encoding exch def currentdict end dup /FontName get exch definefont pop } def [/Times-Bold /Times-Italic /Times-BoldItalic /Helvetica /Helvetica-Oblique
 /Helvetica-Bold /Helvetica-BoldOblique /Courier /Courier-Oblique /Courier-Bold /Courier-BoldOblique /Times-Roman /AvantGarde-Book /AvantGarde-BookOblique /AvantGarde-Demi /AvantGarde-DemiOblique /Bookman-Demi /Bookman-DemiItalic /Bookman-Light
 /Bookman-LightItalic /Helvetica-Narrow /Helvetica-Narrow-Bold /Helvetica-Narrow-BoldOblique /Helvetica-Narrow-Oblique /NewCenturySchlbk-Roman /NewCenturySchlbk-Bold /NewCenturySchlbk-BoldItalic /NewCenturySchlbk-Italic /Palatino-Bold
 /Palatino-BoldItalic /Palatino-Italic /Palatino-Roman ] {ISOLatin1Encoding reEncode } forall
%%EndProlog
%%BeginSetup
%%EndSetup
newpath  gsave  .25 .25 scale  gsave  0 0 t black[  ] 0 sd 3 lw 1 1 1 c 2268 1538 0 0 bf black 1 1 1 c 1883 1322 317 185 bf black 1883 1322 317 185 bl 1 1 1 c 1883 1322 317 185 bf black 1883 1322 317 185 bl 6 lw 1 1 1 c black 317 1426 m 13 X s 343
 1426 m 12 X s 3 lw /w 13 def /w2 {w 2 div} def /w3 {w 3 div} def 336 1426 m20 6 lw 355 1142 m 12 X s 380 1142 m 13 X s 3 lw 374 1142 m20 6 lw 412 942 m 3 Y s 412 958 m 2 Y s 393 952 m 12 X s 418 952 m 12 X s 3 lw 412 952 m20 6 lw 449 835 m 8 Y s 449
 856 m 7 Y s 430 850 m 13 X s 456 850 m 12 X s 3 lw 449 850 m20 6 lw 487 694 m 22 Y s 487 729 m 16 Y s 468 722 m 12 X s 493 722 m 13 X s 3 lw 487 722 m20 6 lw 525 619 m 30 Y s 525 662 m 22 Y s 506 656 m 12 X s 531 656 m 12 X s 3 lw 525 656 m20 6 lw
 562 271 m 163 Y s 562 447 m 63 Y s 543 440 m 13 X s 569 440 m 12 X s 3 lw 562 440 m20 6 lw 600 430 m 67 Y s 600 510 m 40 Y s 581 504 m 12 X s 606 504 m 13 X s 3 lw 600 504 m20 6 lw 713 185 m 113 Y s 713 311 m 118 Y s 694 304 m 12 X s 719 304 m 13 X
 s 3 lw 713 304 m20 6 lw 788 185 m 113 Y s 788 311 m 79 Y s 769 304 m 13 X s 795 304 m 12 X s 3 lw 788 304 m20 6 lw 826 185 m 113 Y s 826 311 m 79 Y s 807 304 m 12 X s 832 304 m 12 X s 3 lw 826 304 m20 6 lw 1880 185 m 113 Y s 1880 311 m 79 Y s 1861
 304 m 12 X s 1886 304 m 13 X s 3 lw 1880 304 m20 6 lw 3 lw 317 185 m 1883 X s
 gsave  2268 1538 0 0 C 1984.25 6.51643 t 0 r /Helvetica findfont 84.7135 sf 0 0 m (rHad1) show NC gr  317 223 m -38 Y s 355 204 m -19 Y s 393 204 m -19 Y s 430 204 m -19 Y s 468 204 m -19 Y s 506 223 m -38 Y s 543 204 m -19 Y s 581 204 m -19 Y s 619
 204 m -19 Y s 656 204 m -19 Y s 694 223 m -38 Y s 732 204 m -19 Y s 769 204 m -19 Y s 807 204 m -19 Y s 844 204 m -19 Y s 882 223 m -38 Y s 920 204 m -19 Y s 957 204 m -19 Y s 995 204 m -19 Y s 1033 204 m -19 Y s 1070 223 m -38 Y s 1108 204 m -19 Y
 s 1146 204 m -19 Y s 1183 204 m -19 Y s 1221 204 m -19 Y s 1259 223 m -38 Y s 1296 204 m -19 Y s 1334 204 m -19 Y s 1372 204 m -19 Y s 1409 204 m -19 Y s 1447 223 m -38 Y s 1484 204 m -19 Y s 1522 204 m -19 Y s 1560 204 m -19 Y s 1597 204 m -19 Y s
 1635 223 m -38 Y s 1673 204 m -19 Y s 1710 204 m -19 Y s 1748 204 m -19 Y s 1786 204 m -19 Y s 1823 223 m -38 Y s 1861 204 m -19 Y s 1899 204 m -19 Y s 1936 204 m -19 Y s 1974 204 m -19 Y s 2011 223 m -38 Y s 2049 204 m -19 Y s 2087 204 m -19 Y s
 2124 204 m -19 Y s 2162 204 m -19 Y s 2200 223 m -38 Y s
 gsave  2268 1538 0 0 C 293.239 104.263 t 0 r /Helvetica findfont 84.7135 sf 0 0 m (0) show NC gr 
 gsave  2268 1538 0 0 C 446.375 104.263 t 0 r /Helvetica findfont 84.7135 sf 0 0 m (0.5) show NC gr 
 gsave  2268 1538 0 0 C 674.45 104.263 t 0 r /Helvetica findfont 84.7135 sf 0 0 m (1) show NC gr 
 gsave  2268 1538 0 0 C 821.07 104.263 t 0 r /Helvetica findfont 84.7135 sf 0 0 m (1.5) show NC gr 
 gsave  2268 1538 0 0 C 1045.89 104.263 t 0 r /Helvetica findfont 84.7135 sf 0 0 m (2) show NC gr 
 gsave  2268 1538 0 0 C 1199.02 104.263 t 0 r /Helvetica findfont 84.7135 sf 0 0 m (2.5) show NC gr 
 gsave  2268 1538 0 0 C 1423.84 104.263 t 0 r /Helvetica findfont 84.7135 sf 0 0 m (3) show NC gr 
 gsave  2268 1538 0 0 C 1573.72 104.263 t 0 r /Helvetica findfont 84.7135 sf 0 0 m (3.5) show NC gr 
 gsave  2268 1538 0 0 C 1798.53 104.263 t 0 r /Helvetica findfont 84.7135 sf 0 0 m (4) show NC gr 
 gsave  2268 1538 0 0 C 1951.67 104.263 t 0 r /Helvetica findfont 84.7135 sf 0 0 m (4.5) show NC gr 
 gsave  2268 1538 0 0 C 2176.49 104.263 t 0 r /Helvetica findfont 84.7135 sf 0 0 m (5) show NC gr  317 1507 m 1883 X s 317 1469 m 38 Y s 355 1488 m 19 Y s 393 1488 m 19 Y s 430 1488 m 19 Y s 468 1488 m 19 Y s 506 1469 m 38 Y s 543 1488 m 19 Y s 581
 1488 m 19 Y s 619 1488 m 19 Y s 656 1488 m 19 Y s 694 1469 m 38 Y s 732 1488 m 19 Y s 769 1488 m 19 Y s 807 1488 m 19 Y s 844 1488 m 19 Y s 882 1469 m 38 Y s 920 1488 m 19 Y s 957 1488 m 19 Y s 995 1488 m 19 Y s 1033 1488 m 19 Y s 1070 1469 m 38 Y s
 1108 1488 m 19 Y s 1146 1488 m 19 Y s 1183 1488 m 19 Y s 1221 1488 m 19 Y s 1259 1469 m 38 Y s 1296 1488 m 19 Y s 1334 1488 m 19 Y s 1372 1488 m 19 Y s 1409 1488 m 19 Y s 1447 1469 m 38 Y s 1484 1488 m 19 Y s 1522 1488 m 19 Y s 1560 1488 m 19 Y s
 1597 1488 m 19 Y s 1635 1469 m 38 Y s 1673 1488 m 19 Y s 1710 1488 m 19 Y s 1748 1488 m 19 Y s 1786 1488 m 19 Y s 1823 1469 m 38 Y s 1861 1488 m 19 Y s 1899 1488 m 19 Y s 1936 1488 m 19 Y s 1974 1488 m 19 Y s 2011 1469 m 38 Y s 2049 1488 m 19 Y s
 2087 1488 m 19 Y s 2124 1488 m 19 Y s 2162 1488 m 19 Y s 2200 1469 m 38 Y s 317 185 m 1322 Y s
 gsave  2268 1538 0 0 C 127.07 1124.08 t 90 r /Helvetica findfont 84.7135 sf 0 0 m (Events/0.1) show NC gr  347 190 m -30 X s 347 218 m -30 X s 347 241 m -30 X s 347 260 m -30 X s 347 276 m -30 X s 347 291 m -30 X s 376 304 m -59 X s
 gsave  2268 1538 0 0 C 295.257 267.562 t 0 r  -47 0 t /Helvetica findfont 84.7135 sf 0 0 m (1) show NC gr  347 390 m -30 X s 347 440 m -30 X s 347 476 m -30 X s 347 504 m -30 X s 347 527 m -30 X s 347 546 m -30 X s 347 562 m -30 X s 347 577 m -30 X
 s 376 590 m -59 X s
 gsave  2268 1538 0 0 C 295.257 553.484 t 0 r  -95 0 t /Helvetica findfont 84.7135 sf 0 0 m (10) show NC gr  347 676 m -30 X s 347 726 m -30 X s 347 762 m -30 X s 347 790 m -30 X s 347 812 m -30 X s 347 832 m -30 X s 347 848 m -30 X s 347 863 m -30 X
 s 376 876 m -59 X s
 gsave  2268 1538 0 0 C 260.657 873.201 t 0 r /Helvetica findfont 58.6478 sf 0 0 m (2) show NC gr 
 gsave  2268 1538 0 0 C 169.427 837.361 t 0 r /Helvetica findfont 84.7135 sf 0 0 m (10) show NC gr  347 962 m -30 X s 347 1012 m -30 X s 347 1048 m -30 X s 347 1076 m -30 X s 347 1098 m -30 X s 347 1118 m -30 X s 347 1134 m -30 X s 347 1149 m -30 X s
 376 1162 m -59 X s
 gsave  2268 1538 0 0 C 260.657 1163.18 t 0 r /Helvetica findfont 58.6478 sf 0 0 m (3) show NC gr 
 gsave  2268 1538 0 0 C 169.427 1124.08 t 0 r /Helvetica findfont 84.7135 sf 0 0 m (10) show NC gr  347 1248 m -30 X s 347 1298 m -30 X s 347 1334 m -30 X s 347 1362 m -30 X s 347 1384 m -30 X s 347 1403 m -30 X s 347 1420 m -30 X s 347 1435 m -30 X
 s 376 1448 m -59 X s
 gsave  2268 1538 0 0 C 260.657 1446.65 t 0 r /Helvetica findfont 58.6478 sf 0 0 m (4) show NC gr 
 gsave  2268 1538 0 0 C 169.427 1410.81 t 0 r /Helvetica findfont 84.7135 sf 0 0 m (10) show NC gr  2200 185 m 1322 Y s 2170 190 m 30 X s 2170 218 m 30 X s 2170 241 m 30 X s 2170 260 m 30 X s 2170 276 m 30 X s 2170 291 m 30 X s 2141 304 m 59 X s 2170
 390 m 30 X s 2170 440 m 30 X s 2170 476 m 30 X s 2170 504 m 30 X s 2170 527 m 30 X s 2170 546 m 30 X s 2170 562 m 30 X s 2170 577 m 30 X s 2141 590 m 59 X s 2170 676 m 30 X s 2170 726 m 30 X s 2170 762 m 30 X s 2170 790 m 30 X s 2170 812 m 30 X s
 2170 832 m 30 X s 2170 848 m 30 X s 2170 863 m 30 X s 2141 876 m 59 X s 2170 962 m 30 X s 2170 1012 m 30 X s 2170 1048 m 30 X s 2170 1076 m 30 X s 2170 1098 m 30 X s 2170 1118 m 30 X s 2170 1134 m 30 X s 2170 1149 m 30 X s 2141 1162 m 59 X s 2170
 1248 m 30 X s 2170 1298 m 30 X s 2170 1334 m 30 X s 2170 1362 m 30 X s 2170 1384 m 30 X s 2170 1403 m 30 X s 2170 1420 m 30 X s 2170 1435 m 30 X s 2141 1448 m 59 X s 0 0.6 0 c 9 lw 1 1 1 c black 0 0.6 0 c 317 1363 m 38 X -129 Y 38 X -76 Y 37 X -61 Y
 38 X -58 Y 38 X -55 Y 37 X -52 Y 38 X -49 Y 38 X -45 Y 37 X -43 Y 38 X -39 Y 38 X -33 Y 37 X -35 Y 38 X -39 Y 37 X -26 Y 38 X -38 Y 38 X -36 Y 37 X -8 Y 38 X -36 Y 38 X -23 Y 37 X -16 Y 38 X -30 Y 38 X -10 Y 37 X -10 Y 38 X -15 Y 38 X -40 Y 37 X -43
 Y 38 X -1 Y 38 X 5 Y 37 X -9 Y 38 X 12 Y 37 X -56 Y 38 X 13 Y 38 X -47 Y 37 X 31 Y 76 X 6 Y 37 X -26 Y 38 X 2 Y 38 X -63 Y 37 X 27 Y 38 X 1 Y 38 X -28 Y 37 X 2 Y 38 X 5 Y 37 X -7 Y 189 X s 0.6 0 0 c 1 1 1 c black 0.6 0 0 c 317 1424 m 38 X -304 Y 38
 X -114 Y 37 X -102 Y 38 X -58 Y 38 X -85 Y 37 X -49 Y 38 X -115 Y 38 X -47 Y 37 X 30 Y 38 X 17 Y 38 X -141 Y 37 X -118 Y 38 X 196 Y 37 X -187 Y 38 X -25 Y 38 X -137 Y 37 X 58 Y 38 X -58 Y 113 X 101 Y 38 X 40 Y 37 X -141 Y 151 X 171 Y 38 X -171 Y 225
 X 141 Y 38 X -141 Y 188 X 129 Y 38 X -129 Y 113 X 141 Y 37 X -141 Y 189 X s black
 gsave  2268 1538 0 0 C 1609.56 1313.06 t 0 r /Helvetica-Bold findfont 65.1643 sf 0 0 m ( probe \(data\)) show NC gr 
 gsave  2268 1538 0 0 C 1557.43 1313.06 t 0 r /Symbol findfont 65.1643 sf 0 0 m (Y) show NC gr 
 gsave  2268 1538 0 0 C 1502.04 1313.06 t 0 r /Helvetica-Bold findfont 65.1643 sf 0 0 m (J/) show NC gr  1 1 1 c 3 lw 1350 1298 m 125 X 71 Y -125 X f 9 lw black 1350 1334 m 125 X s 3 lw 1412 1334 m20 9 lw
 gsave  2268 1538 0 0 C 1502.04 1208.8 t 0 r /Helvetica-Bold findfont 65.1643 sf 0 0 m (B\255el \(MC\)) show NC gr  0.6 0 0 c 6 lw 1350 1232 m 125 X s black
 gsave  2268 1538 0 0 C 1502.04 1107.79 t 0 r /Helvetica-Bold findfont 65.1643 sf 0 0 m (uds el \(qcd \)) show NC gr  1 1 1 c 3 lw 1350 1094 m 125 X 71 Y -125 X f 6 lw 0 0.6 0 c 1350 1130 m 125 X s black 3 lw 1412 1130 m20 6 lw
 gr  gr showpage
end
%%EOF
