%!PS-Adobe-2.0 EPSF-2.0
%%BoundingBox:  0 0 567 384
%%Title: /home/rohin/Analysis/thesis/images/softel/validated_vars/rphi.eps: c1_n16
%%Creator: ROOT Version 5.34/14
%%CreationDate: Mon Sep  8 03:50:41 2014
%%EndComments
%%BeginProlog
80 dict begin
/s {stroke} def /l {lineto} def /m {moveto} def /t {translate} def
/r {rotate} def /rl {roll}  def /R {repeat} def
/d {rlineto} def /rm {rmoveto} def /gr {grestore} def /f {eofill} def
/c {setrgbcolor} def /black {0 setgray} def /sd {setdash} def
/cl {closepath} def /sf {scalefont setfont} def /lw {setlinewidth} def
/box {m dup 0 exch d exch 0 d 0 exch neg d cl} def
/NC{systemdict begin initclip end}def/C{NC box clip newpath}def
/bl {box s} def /bf {box f} def /Y { 0 exch d} def /X { 0 d} def 
/K {{pop pop 0 moveto} exch kshow} bind def
/ita {/ang 15 def gsave [1 0 ang dup sin exch cos div 1 0 0] concat} def 
/mp {newpath /y exch def /x exch def} def
/side {[w .77 mul w .23 mul] .385 w mul sd w 0 l currentpoint t -144 r} def
/mr {mp x y w2 0 360 arc} def /m24 {mr s} def /m20 {mr f} def
/mb {mp x y w2 add m w2 neg 0 d 0 w neg d w 0 d 0 w d cl} def
/mt {mp x y w2 add m w2 neg w neg d w 0 d cl} def
/m21 {mb f} def /m25 {mb s} def /m22 {mt f} def /m26{mt s} def
/m23 {mp x y w2 sub m w2 w d w neg 0 d cl f} def
/m27 {mp x y w2 add m w3 neg w2 neg d w3 w2 neg d w3 w2 d cl s} def
/m28 {mp x w2 sub y w2 sub w3 add m w3 0 d  0 w3 neg d w3 0 d 0 w3 d w3 0 d  0 w3 d w3 neg 0 d 0 w3 d w3 neg 0 d 0 w3 neg d w3 neg 0 d cl s } def
/m29 {mp gsave x w2 sub y w2 add w3 sub m currentpoint t 4 {side} repeat cl fill gr} def
/m30 {mp gsave x w2 sub y w2 add w3 sub m currentpoint t 4 {side} repeat cl s gr} def
/m31 {mp x y w2 sub m 0 w d x w2 sub y m w 0 d x w2 sub y w2 add m w w neg d x w2 sub y w2 sub m w w d s} def
/m32 {mp x y w2 sub m w2 w d w neg 0 d cl s} def
/m33 {mp x y w2 add m w3 neg w2 neg d w3 w2 neg d w3 w2 d cl f} def
/m34 {mp x w2 sub y w2 sub w3 add m w3 0 d  0 w3 neg d w3 0 d 0 w3 d w3 0 d  0 w3 d w3 neg 0 d 0 w3 d w3 neg 0 d 0 w3 neg d w3 neg 0 d cl f } def
/m2 {mp x y w2 sub m 0 w d x w2 sub y m w 0 d s} def
/m5 {mp x w2 sub y w2 sub m w w d x w2 sub y w2 add m w w neg d s} def
/reEncode {exch findfont dup length dict begin {1 index /FID eq  {pop pop} {def} ifelse } forall /Encoding exch def currentdict end dup /FontName get exch definefont pop } def [/Times-Bold /Times-Italic /Times-BoldItalic /Helvetica /Helvetica-Oblique
 /Helvetica-Bold /Helvetica-BoldOblique /Courier /Courier-Oblique /Courier-Bold /Courier-BoldOblique /Times-Roman /AvantGarde-Book /AvantGarde-BookOblique /AvantGarde-Demi /AvantGarde-DemiOblique /Bookman-Demi /Bookman-DemiItalic /Bookman-Light
 /Bookman-LightItalic /Helvetica-Narrow /Helvetica-Narrow-Bold /Helvetica-Narrow-BoldOblique /Helvetica-Narrow-Oblique /NewCenturySchlbk-Roman /NewCenturySchlbk-Bold /NewCenturySchlbk-BoldItalic /NewCenturySchlbk-Italic /Palatino-Bold
 /Palatino-BoldItalic /Palatino-Italic /Palatino-Roman ] {ISOLatin1Encoding reEncode } forall
%%EndProlog
%%BeginSetup
%%EndSetup
newpath  gsave  .25 .25 scale  gsave  0 0 t black[  ] 0 sd 3 lw 1 1 1 c 2268 1538 0 0 bf black 1 1 1 c 1883 1322 317 185 bf black 1883 1322 317 185 bl 1 1 1 c 1883 1322 317 185 bf black 1883 1322 317 185 bl 6 lw 1 1 1 c black 637 275 m 155 Y s 637
 443 m 64 Y s 619 436 m 12 X s 644 436 m 12 X s 3 lw /w 13 def /w2 {w 2 div} def /w3 {w 3 div} def 637 436 m20 6 lw 675 512 m 62 Y s 675 587 m 38 Y s 656 581 m 13 X s 682 581 m 12 X s 3 lw 675 581 m20 6 lw 713 636 m 39 Y s 713 688 m 28 Y s 694 682 m
 12 X s 719 682 m 13 X s 3 lw 713 682 m20 6 lw 750 713 m 25 Y s 750 751 m 20 Y s 732 745 m 12 X s 757 745 m 12 X s 3 lw 750 745 m20 6 lw 788 890 m 10 Y s 788 913 m 8 Y s 769 906 m 13 X s 795 906 m 12 X s 3 lw 788 906 m20 6 lw 826 929 m 7 Y s 826 949
 m 7 Y s 807 943 m 12 X s 832 943 m 12 X s 3 lw 826 943 m20 6 lw 863 994 m 5 Y s 863 1012 m 3 Y s 844 1005 m 13 X s 870 1005 m 12 X s 3 lw 863 1005 m20 6 lw 901 1073 m 2 Y s 901 1088 m 1 Y s 882 1081 m 12 X s 907 1081 m 13 X s 3 lw 901 1081 m20 6 lw
 939 1108 m 1 Y s 939 1122 m s 920 1115 m 12 X s 945 1115 m 12 X s 3 lw 939 1115 m20 6 lw 957 1144 m 13 X s 983 1144 m 12 X s 3 lw 976 1144 m20 6 lw 995 1169 m 12 X s 1020 1169 m 13 X s 3 lw 1014 1169 m20 6 lw 1033 1208 m 12 X s 1058 1208 m 12 X s 3
 lw 1052 1208 m20 6 lw 1070 1251 m 13 X s 1096 1251 m 12 X s 3 lw 1089 1251 m20 6 lw 1108 1304 m 12 X s 1133 1304 m 13 X s 3 lw 1127 1304 m20 6 lw 1146 1367 m 12 X s 1171 1367 m 12 X s 3 lw 1164 1367 m20 6 lw 1183 1421 m 13 X s 1209 1421 m 12 X s 3
 lw 1202 1421 m20 6 lw 1221 1308 m 12 X s 1246 1308 m 13 X s 3 lw 1240 1308 m20 6 lw 1277 871 m 11 Y s 1277 895 m 9 Y s 1259 889 m 12 X s 1284 889 m 12 X s 3 lw 1277 889 m20 6 lw 1315 185 m 154 Y s 1315 352 m 84 Y s 1296 346 m 13 X s 1322 346 m 12 X
 s 3 lw 1315 346 m20 6 lw 3 lw 317 185 m 1883 X s
 gsave  2268 1538 0 0 C 2062.45 16.2911 t 0 r /Helvetica findfont 84.7135 sf 0 0 m (rphi) show NC gr  317 223 m -38 Y s 365 204 m -19 Y s 412 204 m -19 Y s 459 204 m -19 Y s 506 223 m -38 Y s 553 204 m -19 Y s 600 204 m -19 Y s 647 204 m -19 Y s 694
 223 m -38 Y s 741 204 m -19 Y s 788 204 m -19 Y s 835 204 m -19 Y s 882 223 m -38 Y s 929 204 m -19 Y s 976 204 m -19 Y s 1023 204 m -19 Y s 1070 223 m -38 Y s 1117 204 m -19 Y s 1164 204 m -19 Y s 1212 204 m -19 Y s 1259 223 m -38 Y s 1306 204 m
 -19 Y s 1353 204 m -19 Y s 1400 204 m -19 Y s 1447 223 m -38 Y s 1494 204 m -19 Y s 1541 204 m -19 Y s 1588 204 m -19 Y s 1635 223 m -38 Y s 1682 204 m -19 Y s 1729 204 m -19 Y s 1776 204 m -19 Y s 1823 223 m -38 Y s 1870 204 m -19 Y s 1917 204 m
 -19 Y s 1964 204 m -19 Y s 2011 223 m -38 Y s 2059 204 m -19 Y s 2106 204 m -19 Y s 2153 204 m -19 Y s 2200 223 m -38 Y s
 gsave  2268 1538 0 0 C 293.239 104.263 t 0 r /Helvetica findfont 84.7135 sf 0 0 m (0) show NC gr 
 gsave  2268 1538 0 0 C 446.375 104.263 t 0 r /Helvetica findfont 84.7135 sf 0 0 m (0.2) show NC gr 
 gsave  2268 1538 0 0 C 632.093 104.263 t 0 r /Helvetica findfont 84.7135 sf 0 0 m (0.4) show NC gr 
 gsave  2268 1538 0 0 C 821.07 104.263 t 0 r /Helvetica findfont 84.7135 sf 0 0 m (0.6) show NC gr 
 gsave  2268 1538 0 0 C 1010.05 104.263 t 0 r /Helvetica findfont 84.7135 sf 0 0 m (0.8) show NC gr 
 gsave  2268 1538 0 0 C 1241.38 104.263 t 0 r /Helvetica findfont 84.7135 sf 0 0 m (1) show NC gr 
 gsave  2268 1538 0 0 C 1388 104.263 t 0 r /Helvetica findfont 84.7135 sf 0 0 m (1.2) show NC gr 
 gsave  2268 1538 0 0 C 1573.72 104.263 t 0 r /Helvetica findfont 84.7135 sf 0 0 m (1.4) show NC gr 
 gsave  2268 1538 0 0 C 1762.69 104.263 t 0 r /Helvetica findfont 84.7135 sf 0 0 m (1.6) show NC gr 
 gsave  2268 1538 0 0 C 1951.67 104.263 t 0 r /Helvetica findfont 84.7135 sf 0 0 m (1.8) show NC gr 
 gsave  2268 1538 0 0 C 2176.49 104.263 t 0 r /Helvetica findfont 84.7135 sf 0 0 m (2) show NC gr  317 1507 m 1883 X s 317 1469 m 38 Y s 365 1488 m 19 Y s 412 1488 m 19 Y s 459 1488 m 19 Y s 506 1469 m 38 Y s 553 1488 m 19 Y s 600 1488 m 19 Y s 647
 1488 m 19 Y s 694 1469 m 38 Y s 741 1488 m 19 Y s 788 1488 m 19 Y s 835 1488 m 19 Y s 882 1469 m 38 Y s 929 1488 m 19 Y s 976 1488 m 19 Y s 1023 1488 m 19 Y s 1070 1469 m 38 Y s 1117 1488 m 19 Y s 1164 1488 m 19 Y s 1212 1488 m 19 Y s 1259 1469 m 38
 Y s 1306 1488 m 19 Y s 1353 1488 m 19 Y s 1400 1488 m 19 Y s 1447 1469 m 38 Y s 1494 1488 m 19 Y s 1541 1488 m 19 Y s 1588 1488 m 19 Y s 1635 1469 m 38 Y s 1682 1488 m 19 Y s 1729 1488 m 19 Y s 1776 1488 m 19 Y s 1823 1469 m 38 Y s 1870 1488 m 19 Y
 s 1917 1488 m 19 Y s 1964 1488 m 19 Y s 2011 1469 m 38 Y s 2059 1488 m 19 Y s 2106 1488 m 19 Y s 2153 1488 m 19 Y s 2200 1469 m 38 Y s 317 185 m 1322 Y s
 gsave  2268 1538 0 0 C 127.07 1062.18 t 90 r /Helvetica findfont 84.7135 sf 0 0 m (Events/0.04) show NC gr  347 188 m -30 X s 347 225 m -30 X s 347 255 m -30 X s 347 279 m -30 X s 347 299 m -30 X s 347 316 m -30 X s 347 332 m -30 X s 376 346 m -59 X
 s
 gsave  2268 1538 0 0 C 295.257 309.084 t 0 r  -47 0 t /Helvetica findfont 84.7135 sf 0 0 m (1) show NC gr  347 436 m -30 X s 347 490 m -30 X s 347 527 m -30 X s 347 557 m -30 X s 347 581 m -30 X s 347 601 m -30 X s 347 618 m -30 X s 347 634 m -30 X
 s 376 648 m -59 X s
 gsave  2268 1538 0 0 C 295.257 611.039 t 0 r  -95 0 t /Helvetica findfont 84.7135 sf 0 0 m (10) show NC gr  347 738 m -30 X s 347 792 m -30 X s 347 829 m -30 X s 347 859 m -30 X s 347 882 m -30 X s 347 903 m -30 X s 347 920 m -30 X s 347 936 m -30 X
 s 376 949 m -59 X s
 gsave  2268 1538 0 0 C 260.657 948.14 t 0 r /Helvetica findfont 58.6478 sf 0 0 m (2) show NC gr 
 gsave  2268 1538 0 0 C 169.427 912.3 t 0 r /Helvetica findfont 84.7135 sf 0 0 m (10) show NC gr  347 1040 m -30 X s 347 1094 m -30 X s 347 1131 m -30 X s 347 1161 m -30 X s 347 1184 m -30 X s 347 1205 m -30 X s 347 1222 m -30 X s 347 1238 m -30 X s
 376 1251 m -59 X s
 gsave  2268 1538 0 0 C 260.657 1254.41 t 0 r /Helvetica findfont 58.6478 sf 0 0 m (3) show NC gr 
 gsave  2268 1538 0 0 C 169.427 1215.31 t 0 r /Helvetica findfont 84.7135 sf 0 0 m (10) show NC gr  347 1342 m -30 X s 347 1396 m -30 X s 347 1433 m -30 X s 347 1463 m -30 X s 347 1486 m -30 X s 347 1507 m -30 X s 2200 185 m 1322 Y s 2170 188 m 30 X
 s 2170 225 m 30 X s 2170 255 m 30 X s 2170 279 m 30 X s 2170 299 m 30 X s 2170 316 m 30 X s 2170 332 m 30 X s 2141 346 m 59 X s 2170 436 m 30 X s 2170 490 m 30 X s 2170 527 m 30 X s 2170 557 m 30 X s 2170 581 m 30 X s 2170 601 m 30 X s 2170 618 m 30
 X s 2170 634 m 30 X s 2141 648 m 59 X s 2170 738 m 30 X s 2170 792 m 30 X s 2170 829 m 30 X s 2170 859 m 30 X s 2170 882 m 30 X s 2170 903 m 30 X s 2170 920 m 30 X s 2170 936 m 30 X s 2141 949 m 59 X s 2170 1040 m 30 X s 2170 1094 m 30 X s 2170 1131
 m 30 X s 2170 1161 m 30 X s 2170 1184 m 30 X s 2170 1205 m 30 X s 2170 1222 m 30 X s 2170 1238 m 30 X s 2141 1251 m 59 X s 2170 1342 m 30 X s 2170 1396 m 30 X s 2170 1433 m 30 X s 2170 1463 m 30 X s 2170 1486 m 30 X s 2170 1507 m 30 X s 0 0.6 0 c 9
 lw 1 1 1 c black 0 0.6 0 c 317 185 m 76 X 32 Y 37 X 40 Y 38 X 23 Y 38 X 81 Y 37 X 3 Y 38 X 124 Y 38 X 75 Y 37 X 137 Y 38 X 141 Y 38 X 91 Y 37 X 89 Y 38 X 66 Y 37 X 56 Y 38 X 44 Y 38 X 37 Y 37 X 25 Y 38 X 21 Y 38 X 22 Y 37 X 18 Y 38 X 17 Y 38 X 1 Y
 37 X -37 Y 38 X -177 Y 38 X -364 Y 37 X -350 Y 38 X -199 Y 38 X -16 Y 828 X s 0.6 0 0 c 1 1 1 c black 0.6 0 0 c 317 185 m 339 X 382 Y 38 X 13 Y 38 X 165 Y 37 X 92 Y 38 X 108 Y 37 X 43 Y 38 X 79 Y 38 X 39 Y 37 X 28 Y 38 X 35 Y 38 X 27 Y 37 X 48 Y 38
 X 55 Y 38 X 75 Y 37 X 54 Y 38 X -125 Y 38 X -386 Y 37 X -384 Y 38 X -78 Y 38 X -270 Y 828 X s black
 gsave  2268 1538 0 0 C 1733.37 1019.82 t 0 r /Helvetica-Bold findfont 61.9061 sf 0 0 m ( probe \(data\)) show NC gr 
 gsave  2268 1538 0 0 C 1684.5 1019.82 t 0 r /Symbol findfont 61.9061 sf 0 0 m (Y) show NC gr 
 gsave  2268 1538 0 0 C 1632.36 1019.82 t 0 r /Helvetica-Bold findfont 61.9061 sf 0 0 m (J/) show NC gr  1 1 1 c 3 lw 1486 1005 m 122 X 71 Y -122 X f 9 lw black 1486 1040 m 122 X s 3 lw 1547 1040 m20 9 lw
 gsave  2268 1538 0 0 C 1632.36 915.558 t 0 r /Helvetica-Bold findfont 61.9061 sf 0 0 m (B\255el \(MC\)) show NC gr  0.6 0 0 c 6 lw 1486 938 m 122 X s black
 gsave  2268 1538 0 0 C 1632.36 814.553 t 0 r /Helvetica-Bold findfont 61.9061 sf 0 0 m (uds el \(qcd \)) show NC gr  1 1 1 c 3 lw 1486 801 m 122 X 71 Y -122 X f 6 lw 0 0.6 0 c 1486 836 m 122 X s black 3 lw 1547 836 m20 6 lw
 gr  gr showpage
end
%%EOF
