%!PS-Adobe-2.0 EPSF-2.0
%%BoundingBox:  0 0 567 384
%%Title: /home/rohin/Analysis/thesis/images/softel/validated_vars/trtHitRatio.eps: c1_n18
%%Creator: ROOT Version 5.34/14
%%CreationDate: Mon Sep  8 03:49:19 2014
%%EndComments
%%BeginProlog
80 dict begin
/s {stroke} def /l {lineto} def /m {moveto} def /t {translate} def
/r {rotate} def /rl {roll}  def /R {repeat} def
/d {rlineto} def /rm {rmoveto} def /gr {grestore} def /f {eofill} def
/c {setrgbcolor} def /black {0 setgray} def /sd {setdash} def
/cl {closepath} def /sf {scalefont setfont} def /lw {setlinewidth} def
/box {m dup 0 exch d exch 0 d 0 exch neg d cl} def
/NC{systemdict begin initclip end}def/C{NC box clip newpath}def
/bl {box s} def /bf {box f} def /Y { 0 exch d} def /X { 0 d} def 
/K {{pop pop 0 moveto} exch kshow} bind def
/ita {/ang 15 def gsave [1 0 ang dup sin exch cos div 1 0 0] concat} def 
/mp {newpath /y exch def /x exch def} def
/side {[w .77 mul w .23 mul] .385 w mul sd w 0 l currentpoint t -144 r} def
/mr {mp x y w2 0 360 arc} def /m24 {mr s} def /m20 {mr f} def
/mb {mp x y w2 add m w2 neg 0 d 0 w neg d w 0 d 0 w d cl} def
/mt {mp x y w2 add m w2 neg w neg d w 0 d cl} def
/m21 {mb f} def /m25 {mb s} def /m22 {mt f} def /m26{mt s} def
/m23 {mp x y w2 sub m w2 w d w neg 0 d cl f} def
/m27 {mp x y w2 add m w3 neg w2 neg d w3 w2 neg d w3 w2 d cl s} def
/m28 {mp x w2 sub y w2 sub w3 add m w3 0 d  0 w3 neg d w3 0 d 0 w3 d w3 0 d  0 w3 d w3 neg 0 d 0 w3 d w3 neg 0 d 0 w3 neg d w3 neg 0 d cl s } def
/m29 {mp gsave x w2 sub y w2 add w3 sub m currentpoint t 4 {side} repeat cl fill gr} def
/m30 {mp gsave x w2 sub y w2 add w3 sub m currentpoint t 4 {side} repeat cl s gr} def
/m31 {mp x y w2 sub m 0 w d x w2 sub y m w 0 d x w2 sub y w2 add m w w neg d x w2 sub y w2 sub m w w d s} def
/m32 {mp x y w2 sub m w2 w d w neg 0 d cl s} def
/m33 {mp x y w2 add m w3 neg w2 neg d w3 w2 neg d w3 w2 d cl f} def
/m34 {mp x w2 sub y w2 sub w3 add m w3 0 d  0 w3 neg d w3 0 d 0 w3 d w3 0 d  0 w3 d w3 neg 0 d 0 w3 d w3 neg 0 d 0 w3 neg d w3 neg 0 d cl f } def
/m2 {mp x y w2 sub m 0 w d x w2 sub y m w 0 d s} def
/m5 {mp x w2 sub y w2 sub m w w d x w2 sub y w2 add m w w neg d s} def
/reEncode {exch findfont dup length dict begin {1 index /FID eq  {pop pop} {def} ifelse } forall /Encoding exch def currentdict end dup /FontName get exch definefont pop } def [/Times-Bold /Times-Italic /Times-BoldItalic /Helvetica /Helvetica-Oblique
 /Helvetica-Bold /Helvetica-BoldOblique /Courier /Courier-Oblique /Courier-Bold /Courier-BoldOblique /Times-Roman /AvantGarde-Book /AvantGarde-BookOblique /AvantGarde-Demi /AvantGarde-DemiOblique /Bookman-Demi /Bookman-DemiItalic /Bookman-Light
 /Bookman-LightItalic /Helvetica-Narrow /Helvetica-Narrow-Bold /Helvetica-Narrow-BoldOblique /Helvetica-Narrow-Oblique /NewCenturySchlbk-Roman /NewCenturySchlbk-Bold /NewCenturySchlbk-BoldItalic /NewCenturySchlbk-Italic /Palatino-Bold
 /Palatino-BoldItalic /Palatino-Italic /Palatino-Roman ] {ISOLatin1Encoding reEncode } forall
%%EndProlog
%%BeginSetup
%%EndSetup
newpath  gsave  .25 .25 scale  gsave  0 0 t black[  ] 0 sd 3 lw 1 1 1 c 2268 1538 0 0 bf black 1 1 1 c 1883 1323 316 186 bf black 1883 1323 316 186 bl 1 1 1 c 1883 1323 316 186 bf black 1883 1323 316 186 bl 6 lw 1 1 1 c black 580 1272 m 12 X s 605
 1272 m 12 X s 3 lw /w 13 def /w2 {w 2 div} def /w3 {w 3 div} def 599 1272 m20 6 lw 617 1365 m 13 X s 643 1365 m 12 X s 3 lw 636 1365 m20 6 lw 655 1355 m 12 X s 680 1355 m 13 X s 3 lw 674 1355 m20 6 lw 693 1414 m 12 X s 718 1414 m 12 X s 3 lw 712
 1414 m20 6 lw 730 1385 m 13 X s 756 1385 m 12 X s 3 lw 749 1385 m20 6 lw 768 1385 m 12 X s 793 1385 m 13 X s 3 lw 787 1385 m20 6 lw 806 1362 m 12 X s 831 1362 m 12 X s 3 lw 825 1362 m20 6 lw 843 1348 m 13 X s 869 1348 m 12 X s 3 lw 862 1348 m20 6 lw
 881 1329 m 12 X s 906 1329 m 13 X s 3 lw 900 1329 m20 6 lw 919 1278 m 12 X s 944 1278 m 12 X s 3 lw 938 1278 m20 6 lw 975 1233 m 1 Y s 956 1240 m 13 X s 982 1240 m 12 X s 3 lw 975 1240 m20 6 lw 1013 1212 m s 1013 1225 m s 994 1219 m 12 X s 1019 1219
 m 13 X s 3 lw 1013 1219 m20 6 lw 1051 1110 m 4 Y s 1051 1127 m 3 Y s 1032 1120 m 12 X s 1057 1120 m 12 X s 3 lw 1051 1120 m20 6 lw 1088 1139 m 3 Y s 1088 1155 m 2 Y s 1069 1149 m 13 X s 1095 1149 m 12 X s 3 lw 1088 1149 m20 6 lw 1126 1037 m 7 Y s
 1126 1057 m 5 Y s 1107 1050 m 12 X s 1132 1050 m 13 X s 3 lw 1126 1050 m20 6 lw 1164 1021 m 7 Y s 1164 1041 m 7 Y s 1145 1035 m 12 X s 1170 1035 m 12 X s 3 lw 1164 1035 m20 6 lw 1201 935 m 12 Y s 1201 960 m 10 Y s 1182 954 m 13 X s 1208 954 m 12 X s
 3 lw 1201 954 m20 6 lw 1239 773 m 27 Y s 1239 813 m 20 Y s 1220 806 m 12 X s 1245 806 m 13 X s 3 lw 1239 806 m20 6 lw 1277 968 m 11 Y s 1277 992 m 8 Y s 1258 985 m 12 X s 1283 985 m 12 X s 3 lw 1277 985 m20 6 lw 1314 700 m 39 Y s 1314 752 m 28 Y s
 1295 745 m 13 X s 1321 745 m 12 X s 3 lw 1314 745 m20 6 lw 1352 724 m 33 Y s 1352 770 m 24 Y s 1333 763 m 12 X s 1358 763 m 13 X s 3 lw 1352 763 m20 6 lw 1389 634 m 47 Y s 1389 694 m 33 Y s 1371 688 m 12 X s 1396 688 m 12 X s 3 lw 1389 688 m20 6 lw
 1427 634 m 47 Y s 1427 694 m 33 Y s 1408 688 m 13 X s 1434 688 m 12 X s 3 lw 1427 688 m20 6 lw 1465 615 m 51 Y s 1465 679 m 35 Y s 1446 673 m 12 X s 1471 673 m 13 X s 3 lw 1465 673 m20 6 lw 1502 505 m 78 Y s 1502 596 m 46 Y s 1484 589 m 12 X s 1509
 589 m 12 X s 3 lw 1502 589 m20 6 lw 1540 186 m 168 Y s 1540 367 m 136 Y s 1521 360 m 13 X s 1547 360 m 12 X s 3 lw 1540 360 m20 6 lw 1578 569 m 61 Y s 1578 643 m 40 Y s 1559 637 m 12 X s 1584 637 m 13 X s 3 lw 1578 637 m20 6 lw 1728 284 m 168 Y s
 1728 465 m 70 Y s 1710 459 m 12 X s 1735 459 m 12 X s 3 lw 1728 459 m20 6 lw 1766 284 m 168 Y s 1766 465 m 70 Y s 1747 459 m 13 X s 1773 459 m 12 X s 3 lw 1766 459 m20 6 lw 1841 186 m 168 Y s 1841 367 m 92 Y s 1823 360 m 12 X s 1848 360 m 12 X s 3
 lw 1841 360 m20 6 lw 3 lw 316 186 m 1883 X s
 gsave  2268 1538 0 0 C 1824.6 6.51643 t 0 r /Helvetica findfont 84.7135 sf 0 0 m (trtHitRatio) show NC gr  316 224 m -38 Y s 354 205 m -19 Y s 391 205 m -19 Y s 429 205 m -19 Y s 467 205 m -19 Y s 504 224 m -38 Y s 542 205 m -19 Y s 580 205 m -19 Y
 s 617 205 m -19 Y s 655 205 m -19 Y s 693 224 m -38 Y s 730 205 m -19 Y s 768 205 m -19 Y s 806 205 m -19 Y s 843 205 m -19 Y s 881 224 m -38 Y s 919 205 m -19 Y s 956 205 m -19 Y s 994 205 m -19 Y s 1032 205 m -19 Y s 1069 224 m -38 Y s 1107 205 m
 -19 Y s 1145 205 m -19 Y s 1182 205 m -19 Y s 1220 205 m -19 Y s 1258 224 m -38 Y s 1295 205 m -19 Y s 1333 205 m -19 Y s 1371 205 m -19 Y s 1408 205 m -19 Y s 1446 224 m -38 Y s 1484 205 m -19 Y s 1521 205 m -19 Y s 1559 205 m -19 Y s 1597 205 m
 -19 Y s 1634 224 m -38 Y s 1672 205 m -19 Y s 1710 205 m -19 Y s 1747 205 m -19 Y s 1785 205 m -19 Y s 1823 224 m -38 Y s 1860 205 m -19 Y s 1898 205 m -19 Y s 1936 205 m -19 Y s 1973 205 m -19 Y s 2011 224 m -38 Y s 2049 205 m -19 Y s 2086 205 m
 -19 Y s 2124 205 m -19 Y s 2162 205 m -19 Y s 2199 224 m -38 Y s
 gsave  2268 1538 0 0 C 293.239 104.263 t 0 r /Helvetica findfont 84.7135 sf 0 0 m (0) show NC gr 
 gsave  2268 1538 0 0 C 449.633 104.263 t 0 r /Helvetica findfont 84.7135 sf 0 0 m (0.1) show NC gr 
 gsave  2268 1538 0 0 C 632.093 104.263 t 0 r /Helvetica findfont 84.7135 sf 0 0 m (0.2) show NC gr 
 gsave  2268 1538 0 0 C 821.07 104.263 t 0 r /Helvetica findfont 84.7135 sf 0 0 m (0.3) show NC gr 
 gsave  2268 1538 0 0 C 1010.05 104.263 t 0 r /Helvetica findfont 84.7135 sf 0 0 m (0.4) show NC gr 
 gsave  2268 1538 0 0 C 1199.02 104.263 t 0 r /Helvetica findfont 84.7135 sf 0 0 m (0.5) show NC gr 
 gsave  2268 1538 0 0 C 1384.74 104.263 t 0 r /Helvetica findfont 84.7135 sf 0 0 m (0.6) show NC gr 
 gsave  2268 1538 0 0 C 1573.72 104.263 t 0 r /Helvetica findfont 84.7135 sf 0 0 m (0.7) show NC gr 
 gsave  2268 1538 0 0 C 1762.69 104.263 t 0 r /Helvetica findfont 84.7135 sf 0 0 m (0.8) show NC gr 
 gsave  2268 1538 0 0 C 1951.67 104.263 t 0 r /Helvetica findfont 84.7135 sf 0 0 m (0.9) show NC gr 
 gsave  2268 1538 0 0 C 2183 104.263 t 0 r /Helvetica findfont 84.7135 sf 0 0 m (1) show NC gr  316 1509 m 1883 X s 316 1470 m 39 Y s 354 1489 m 20 Y s 391 1489 m 20 Y s 429 1489 m 20 Y s 467 1489 m 20 Y s 504 1470 m 39 Y s 542 1489 m 20 Y s 580 1489
 m 20 Y s 617 1489 m 20 Y s 655 1489 m 20 Y s 693 1470 m 39 Y s 730 1489 m 20 Y s 768 1489 m 20 Y s 806 1489 m 20 Y s 843 1489 m 20 Y s 881 1470 m 39 Y s 919 1489 m 20 Y s 956 1489 m 20 Y s 994 1489 m 20 Y s 1032 1489 m 20 Y s 1069 1470 m 39 Y s 1107
 1489 m 20 Y s 1145 1489 m 20 Y s 1182 1489 m 20 Y s 1220 1489 m 20 Y s 1258 1470 m 39 Y s 1295 1489 m 20 Y s 1333 1489 m 20 Y s 1371 1489 m 20 Y s 1408 1489 m 20 Y s 1446 1470 m 39 Y s 1484 1489 m 20 Y s 1521 1489 m 20 Y s 1559 1489 m 20 Y s 1597
 1489 m 20 Y s 1634 1470 m 39 Y s 1672 1489 m 20 Y s 1710 1489 m 20 Y s 1747 1489 m 20 Y s 1785 1489 m 20 Y s 1823 1470 m 39 Y s 1860 1489 m 20 Y s 1898 1489 m 20 Y s 1936 1489 m 20 Y s 1973 1489 m 20 Y s 2011 1470 m 39 Y s 2049 1489 m 20 Y s 2086
 1489 m 20 Y s 2124 1489 m 20 Y s 2162 1489 m 20 Y s 2199 1470 m 39 Y s 316 186 m 1323 Y s
 gsave  2268 1538 0 0 C 127.07 1062.18 t 90 r /Helvetica findfont 84.7135 sf 0 0 m (Events/0.02) show NC gr  345 189 m -29 X s 345 230 m -29 X s 345 262 m -29 X s 345 288 m -29 X s 345 310 m -29 X s 345 329 m -29 X s 345 345 m -29 X s 375 360 m -59 X
 s
 gsave  2268 1538 0 0 C 293.823 323.803 t 0 r  -47 0 t /Helvetica findfont 84.7135 sf 0 0 m (1) show NC gr  345 459 m -29 X s 345 516 m -29 X s 345 557 m -29 X s 345 589 m -29 X s 345 615 m -29 X s 345 637 m -29 X s 345 656 m -29 X s 345 673 m -29 X
 s 375 688 m -59 X s
 gsave  2268 1538 0 0 C 293.823 651.159 t 0 r  -95 0 t /Helvetica findfont 84.7135 sf 0 0 m (10) show NC gr  345 786 m -29 X s 345 844 m -29 X s 345 885 m -29 X s 345 916 m -29 X s 345 942 m -29 X s 345 964 m -29 X s 345 983 m -29 X s 345 1000 m -29
 X s 375 1015 m -59 X s
 gsave  2268 1538 0 0 C 260.657 1013.3 t 0 r /Helvetica findfont 58.6478 sf 0 0 m (2) show NC gr 
 gsave  2268 1538 0 0 C 169.427 977.464 t 0 r /Helvetica findfont 84.7135 sf 0 0 m (10) show NC gr  345 1114 m -29 X s 345 1171 m -29 X s 345 1212 m -29 X s 345 1244 m -29 X s 345 1270 m -29 X s 345 1292 m -29 X s 345 1311 m -29 X s 345 1327 m -29 X
 s 375 1342 m -59 X s
 gsave  2268 1538 0 0 C 260.657 1342.38 t 0 r /Helvetica findfont 58.6478 sf 0 0 m (3) show NC gr 
 gsave  2268 1538 0 0 C 169.427 1303.29 t 0 r /Helvetica findfont 84.7135 sf 0 0 m (10) show NC gr  345 1441 m -29 X s 345 1499 m -29 X s 2199 186 m 1323 Y s 2170 189 m 29 X s 2170 230 m 29 X s 2170 262 m 29 X s 2170 288 m 29 X s 2170 310 m 29 X s
 2170 329 m 29 X s 2170 345 m 29 X s 2141 360 m 58 X s 2170 459 m 29 X s 2170 516 m 29 X s 2170 557 m 29 X s 2170 589 m 29 X s 2170 615 m 29 X s 2170 637 m 29 X s 2170 656 m 29 X s 2170 673 m 29 X s 2141 688 m 58 X s 2170 786 m 29 X s 2170 844 m 29 X
 s 2170 885 m 29 X s 2170 916 m 29 X s 2170 942 m 29 X s 2170 964 m 29 X s 2170 983 m 29 X s 2170 1000 m 29 X s 2141 1015 m 58 X s 2170 1114 m 29 X s 2170 1171 m 29 X s 2170 1212 m 29 X s 2170 1244 m 29 X s 2170 1270 m 29 X s 2170 1292 m 29 X s 2170
 1311 m 29 X s 2170 1327 m 29 X s 2141 1342 m 58 X s 2170 1441 m 29 X s 2170 1499 m 29 X s 0 0.6 0 c 9 lw 1 1 1 c black 0 0.6 0 c 316 186 m 264 X 1248 Y 37 X 60 Y 38 X -75 Y 38 X 5 Y 37 X -71 Y 38 X -53 Y 38 X -34 Y 37 X -42 Y 38 X -1 Y 38 X -43 Y 37
 X -61 Y 38 X -20 Y 38 X -79 Y 37 X 35 Y 38 X -87 Y 38 X -27 Y 37 X -56 Y 38 X -209 Y 38 X 267 Y 37 X -192 Y 38 X -13 Y 38 X -43 Y 37 X -97 Y 38 X 82 Y 38 X -109 Y 37 X -79 Y 38 X 128 Y 38 X -138 Y 37 X -74 Y 38 X -22 Y 38 X 68 Y 37 X -86 Y 38 X -98
 Y 38 X 71 Y 37 X -57 Y 38 X -98 Y 301 X s 0.6 0 0 c 1 1 1 c black 0.6 0 0 c 316 186 m 264 X 1028 Y 37 X 116 Y 38 X 6 Y 38 X 67 Y 37 X -22 Y 38 X 7 Y 38 X -18 Y 37 X -16 Y 38 X -12 Y 38 X -41 Y 37 X -34 Y 38 X -27 Y 38 X -72 Y 37 X -1 Y 38 X -60 Y 38
 X -59 Y 37 X -72 Y 38 X -161 Y 38 X 176 Y 37 X -162 Y 38 X 22 Y 38 X -145 Y 37 X 35 Y 38 X -66 Y 38 X -1 Y 37 X -125 Y 38 X 142 Y 38 X -253 Y 37 X -29 Y 38 X 148 Y 38 X -212 Y 37 X 74 Y 38 X -233 Y 38 X 143 Y 37 X -143 Y 339 X s black
 gsave  2268 1538 0 0 C 1638.88 1352.16 t 0 r /Helvetica-Bold findfont 61.9061 sf 0 0 m ( probe \(data\)) show NC gr 
 gsave  2268 1538 0 0 C 1590.01 1352.16 t 0 r /Symbol findfont 61.9061 sf 0 0 m (Y) show NC gr 
 gsave  2268 1538 0 0 C 1537.88 1352.16 t 0 r /Helvetica-Bold findfont 61.9061 sf 0 0 m (J/) show NC gr  1 1 1 c 3 lw 1394 1335 m 120 X 81 Y -120 X f 9 lw black 1394 1376 m 120 X s 3 lw 1454 1376 m20 9 lw
 gsave  2268 1538 0 0 C 1537.88 1234.86 t 0 r /Helvetica-Bold findfont 61.9061 sf 0 0 m (B\255el \(MC\)) show NC gr  0.6 0 0 c 6 lw 1394 1259 m 120 X s black
 gsave  2268 1538 0 0 C 1537.88 1117.57 t 0 r /Helvetica-Bold findfont 61.9061 sf 0 0 m (uds el \(qcd \)) show NC gr  1 1 1 c 3 lw 1394 1102 m 120 X 82 Y -120 X f 6 lw 0 0.6 0 c 1394 1143 m 120 X s black 3 lw 1454 1143 m20 6 lw
 gr  gr showpage
end
%%EOF
