%!PS-Adobe-2.0 EPSF-2.0
%%BoundingBox:  0 0 567 384
%%Title: /home/rohin/Analysis/thesis/images/softel/validated_vars/weta2.eps: c1_n20
%%Creator: ROOT Version 5.34/14
%%CreationDate: Mon Sep  8 03:48:13 2014
%%EndComments
%%BeginProlog
80 dict begin
/s {stroke} def /l {lineto} def /m {moveto} def /t {translate} def
/r {rotate} def /rl {roll}  def /R {repeat} def
/d {rlineto} def /rm {rmoveto} def /gr {grestore} def /f {eofill} def
/c {setrgbcolor} def /black {0 setgray} def /sd {setdash} def
/cl {closepath} def /sf {scalefont setfont} def /lw {setlinewidth} def
/box {m dup 0 exch d exch 0 d 0 exch neg d cl} def
/NC{systemdict begin initclip end}def/C{NC box clip newpath}def
/bl {box s} def /bf {box f} def /Y { 0 exch d} def /X { 0 d} def 
/K {{pop pop 0 moveto} exch kshow} bind def
/ita {/ang 15 def gsave [1 0 ang dup sin exch cos div 1 0 0] concat} def 
/mp {newpath /y exch def /x exch def} def
/side {[w .77 mul w .23 mul] .385 w mul sd w 0 l currentpoint t -144 r} def
/mr {mp x y w2 0 360 arc} def /m24 {mr s} def /m20 {mr f} def
/mb {mp x y w2 add m w2 neg 0 d 0 w neg d w 0 d 0 w d cl} def
/mt {mp x y w2 add m w2 neg w neg d w 0 d cl} def
/m21 {mb f} def /m25 {mb s} def /m22 {mt f} def /m26{mt s} def
/m23 {mp x y w2 sub m w2 w d w neg 0 d cl f} def
/m27 {mp x y w2 add m w3 neg w2 neg d w3 w2 neg d w3 w2 d cl s} def
/m28 {mp x w2 sub y w2 sub w3 add m w3 0 d  0 w3 neg d w3 0 d 0 w3 d w3 0 d  0 w3 d w3 neg 0 d 0 w3 d w3 neg 0 d 0 w3 neg d w3 neg 0 d cl s } def
/m29 {mp gsave x w2 sub y w2 add w3 sub m currentpoint t 4 {side} repeat cl fill gr} def
/m30 {mp gsave x w2 sub y w2 add w3 sub m currentpoint t 4 {side} repeat cl s gr} def
/m31 {mp x y w2 sub m 0 w d x w2 sub y m w 0 d x w2 sub y w2 add m w w neg d x w2 sub y w2 sub m w w d s} def
/m32 {mp x y w2 sub m w2 w d w neg 0 d cl s} def
/m33 {mp x y w2 add m w3 neg w2 neg d w3 w2 neg d w3 w2 d cl f} def
/m34 {mp x w2 sub y w2 sub w3 add m w3 0 d  0 w3 neg d w3 0 d 0 w3 d w3 0 d  0 w3 d w3 neg 0 d 0 w3 d w3 neg 0 d 0 w3 neg d w3 neg 0 d cl f } def
/m2 {mp x y w2 sub m 0 w d x w2 sub y m w 0 d s} def
/m5 {mp x w2 sub y w2 sub m w w d x w2 sub y w2 add m w w neg d s} def
/reEncode {exch findfont dup length dict begin {1 index /FID eq  {pop pop} {def} ifelse } forall /Encoding exch def currentdict end dup /FontName get exch definefont pop } def [/Times-Bold /Times-Italic /Times-BoldItalic /Helvetica /Helvetica-Oblique
 /Helvetica-Bold /Helvetica-BoldOblique /Courier /Courier-Oblique /Courier-Bold /Courier-BoldOblique /Times-Roman /AvantGarde-Book /AvantGarde-BookOblique /AvantGarde-Demi /AvantGarde-DemiOblique /Bookman-Demi /Bookman-DemiItalic /Bookman-Light
 /Bookman-LightItalic /Helvetica-Narrow /Helvetica-Narrow-Bold /Helvetica-Narrow-BoldOblique /Helvetica-Narrow-Oblique /NewCenturySchlbk-Roman /NewCenturySchlbk-Bold /NewCenturySchlbk-BoldItalic /NewCenturySchlbk-Italic /Palatino-Bold
 /Palatino-BoldItalic /Palatino-Italic /Palatino-Roman ] {ISOLatin1Encoding reEncode } forall
%%EndProlog
%%BeginSetup
%%EndSetup
newpath  gsave  .25 .25 scale  gsave  0 0 t black[  ] 0 sd 3 lw 1 1 1 c 2268 1538 0 0 bf black 1 1 1 c 1883 1322 317 185 bf black 1883 1322 317 185 bl 1 1 1 c 1883 1322 317 185 bf black 1883 1322 317 185 bl 6 lw 1 1 1 c black 1002 185 m 168 Y s 1002
 366 m 92 Y s 956 359 m 40 X s 1009 359 m 37 X s 3 lw /w 13 def /w2 {w 2 div} def /w3 {w 3 div} def 1002 359 m20 6 lw 1086 185 m 168 Y s 1086 366 m 92 Y s 1046 359 m 33 X s 1092 359 m 31 X s 3 lw 1086 359 m20 6 lw 1427 283 m 168 Y s 1427 464 m 70 Y s
 1405 458 m 16 X s 1434 458 m 14 X s 3 lw 1427 458 m20 6 lw 1508 185 m 266 Y s 1508 464 m 93 Y s 1488 458 m 13 X s 1514 458 m 12 X s 3 lw 1508 458 m20 6 lw 1544 713 m 34 Y s 1544 760 m 26 Y s 1526 754 m 11 X s 1550 754 m 11 X s 3 lw 1544 754 m20 6 lw
 1578 750 m 29 Y s 1578 792 m 22 Y s 1561 786 m 11 X s 1585 786 m 9 X s 3 lw 1578 786 m20 6 lw 1610 750 m 29 Y s 1610 792 m 22 Y s 1594 786 m 10 X s 1617 786 m 9 X s 3 lw 1610 786 m20 6 lw 1641 912 m 14 Y s 1641 939 m 11 Y s 1626 932 m 8 X s 1647 932
 m 9 X s 3 lw 1641 932 m20 6 lw 1670 1019 m 8 Y s 1670 1040 m 6 Y s 1656 1033 m 7 X s 1677 1033 m 7 X s 3 lw 1670 1033 m20 6 lw 1698 1145 m 2 Y s 1698 1160 m 2 Y s 1684 1154 m 7 X s 1704 1154 m 7 X s 3 lw 1698 1154 m20 6 lw 1711 1255 m 7 X s 1731
 1255 m 6 X s 3 lw 1724 1255 m20 6 lw 1737 1322 m 6 X s 1756 1322 m 6 X s 3 lw 1749 1322 m20 6 lw 1762 1374 m 5 X s 1780 1374 m 5 X s 3 lw 1774 1374 m20 6 lw 1785 1404 m 5 X s 1803 1404 m 5 X s 3 lw 1797 1404 m20 6 lw 1808 1413 m 5 X s 1826 1413 m 4
 X s 3 lw 1819 1413 m20 6 lw 1830 1400 m 4 X s 1847 1400 m 4 X s 3 lw 1841 1400 m20 6 lw 1851 1375 m 4 X s 1868 1375 m 4 X s 3 lw 1861 1375 m20 6 lw 1872 1337 m 3 X s 1888 1337 m 3 X s 3 lw 1882 1337 m20 6 lw 1891 1303 m 3 X s 1907 1303 m 3 X s 3 lw
 1901 1303 m20 6 lw 1920 1231 m s 1910 1237 m 3 X s 1926 1237 m 3 X s 3 lw 1920 1237 m20 6 lw 1938 1215 m 1 Y s 1938 1229 m s 1929 1222 m 2 X s 1944 1222 m 3 X s 3 lw 1938 1222 m20 6 lw 1955 1184 m 2 Y s 1955 1199 m s 1947 1192 m 2 X s 1962 1192 m 2
 X s 3 lw 1955 1192 m20 6 lw 1973 1127 m 3 Y s 1973 1143 m 3 Y s 1964 1137 m 2 X s 1979 1137 m 2 X s 3 lw 1973 1137 m20 6 lw 1989 1094 m 5 Y s 1989 1112 m 3 Y s 1981 1105 m 2 X s 1996 1105 m 1 X s 3 lw 1989 1105 m20 6 lw 2005 1014 m 8 Y s 2005 1035 m
 6 Y s 1997 1028 m 2 X s 2012 1028 m 1 X s 3 lw 2005 1028 m20 6 lw 2021 932 m 13 Y s 2021 958 m 10 Y s 2013 951 m 1 X s 2028 951 m 1 X s 3 lw 2021 951 m20 6 lw 2036 885 m 16 Y s 2036 914 m 13 Y s 2029 907 m 1 X s 2043 907 m 1 X s 3 lw 2036 907 m20 6
 lw 2051 897 m 15 Y s 2051 925 m 12 Y s 2044 919 m 1 X s 2058 919 m s 3 lw 2051 919 m20 6 lw 2066 786 m 25 Y s 2066 824 m 19 Y s 2058 817 m 1 X s 2072 817 m 1 X s 3 lw 2066 817 m20 6 lw 2080 741 m 31 Y s 2080 785 m 23 Y s 2073 778 m s 2086 778 m 1 X
 s 3 lw 2080 778 m20 6 lw 2094 578 m 87 Y s 2094 678 m 50 Y s 2087 672 m s 2100 672 m 1 X s 3 lw 2094 672 m20 6 lw 2120 422 m 128 Y s 2120 563 m 62 Y s 2114 557 m s 3 lw 2120 557 m20 6 lw 2133 524 m 84 Y s 2133 621 m 48 Y s 3 lw 2133 614 m20 6 lw
 2146 185 m 266 Y s 2146 464 m 108 Y s 3 lw 2146 458 m20 6 lw 2158 458 m 92 Y s 2158 563 m 51 Y s 3 lw 2158 557 m20 6 lw 2182 185 m 168 Y s 2182 366 m 92 Y s 3 lw 2182 359 m20 6 lw 2194 185 m 168 Y s 2194 366 m 136 Y s 3 lw 2194 359 m20 6 lw 3 lw 317
 185 m 1883 X s
 gsave  2268 1538 0 0 C 1974.48 6.51643 t 0 r /Helvetica findfont 84.7135 sf 0 0 m (weta2) show NC gr  317 204 m -19 Y s 386 204 m -19 Y s 447 223 m -38 Y s
 gsave  2268 1538 0 0 C 465.925 114.037 t 0 r /Helvetica findfont 58.6478 sf 0 0 m (\2553) show NC gr 
 gsave  2268 1538 0 0 C 374.695 71.6807 t 0 r /Helvetica findfont 84.7135 sf 0 0 m (10) show NC gr  850 204 m -19 Y s 1086 204 m -19 Y s 1253 204 m -19 Y s 1383 204 m -19 Y s 1488 204 m -19 Y s 1578 204 m -19 Y s 1656 204 m -19 Y s 1724 204 m -19 Y s
 1785 223 m -38 Y s
 gsave  2268 1538 0 0 C 1801.79 110.779 t 0 r /Helvetica findfont 58.6478 sf 0 0 m (\2552) show NC gr 
 gsave  2268 1538 0 0 C 1710.56 71.6807 t 0 r /Helvetica findfont 84.7135 sf 0 0 m (10) show NC gr  2188 204 m -19 Y s 317 1507 m 1883 X s 317 1488 m 19 Y s 386 1488 m 19 Y s 447 1469 m 38 Y s 850 1488 m 19 Y s 1086 1488 m 19 Y s 1253 1488 m 19 Y s
 1383 1488 m 19 Y s 1488 1488 m 19 Y s 1578 1488 m 19 Y s 1656 1488 m 19 Y s 1724 1488 m 19 Y s 1785 1469 m 38 Y s 2188 1488 m 19 Y s 317 185 m 1322 Y s
 gsave  2268 1538 0 0 C 127.07 1111.05 t 90 r /Helvetica findfont 84.7135 sf 0 0 m (Events/0.0) show NC gr  347 188 m -30 X s 347 229 m -30 X s 347 261 m -30 X s 347 287 m -30 X s 347 309 m -30 X s 347 328 m -30 X s 347 344 m -30 X s 376 359 m -59 X
 s
 gsave  2268 1538 0 0 C 295.257 322.786 t 0 r  -47 0 t /Helvetica findfont 84.7135 sf 0 0 m (1) show NC gr  347 458 m -30 X s 347 516 m -30 X s 347 557 m -30 X s 347 588 m -30 X s 347 614 m -30 X s 347 636 m -30 X s 347 655 m -30 X s 347 672 m -30 X
 s 376 687 m -59 X s
 gsave  2268 1538 0 0 C 295.257 650.437 t 0 r  -95 0 t /Helvetica findfont 84.7135 sf 0 0 m (10) show NC gr  347 786 m -30 X s 347 843 m -30 X s 347 884 m -30 X s 347 916 m -30 X s 347 942 m -30 X s 347 964 m -30 X s 347 983 m -30 X s 347 1000 m -30
 X s 376 1015 m -59 X s
 gsave  2268 1538 0 0 C 260.657 1013.3 t 0 r /Helvetica findfont 58.6478 sf 0 0 m (2) show NC gr 
 gsave  2268 1538 0 0 C 169.427 977.464 t 0 r /Helvetica findfont 84.7135 sf 0 0 m (10) show NC gr  347 1113 m -30 X s 347 1171 m -30 X s 347 1212 m -30 X s 347 1244 m -30 X s 347 1270 m -30 X s 347 1291 m -30 X s 347 1310 m -30 X s 347 1327 m -30 X
 s 376 1342 m -59 X s
 gsave  2268 1538 0 0 C 260.657 1342.38 t 0 r /Helvetica findfont 58.6478 sf 0 0 m (3) show NC gr 
 gsave  2268 1538 0 0 C 169.427 1303.29 t 0 r /Helvetica findfont 84.7135 sf 0 0 m (10) show NC gr  347 1441 m -30 X s 347 1499 m -30 X s 2200 185 m 1322 Y s 2170 188 m 30 X s 2170 229 m 30 X s 2170 261 m 30 X s 2170 287 m 30 X s 2170 309 m 30 X s
 2170 328 m 30 X s 2170 344 m 30 X s 2141 359 m 59 X s 2170 458 m 30 X s 2170 516 m 30 X s 2170 557 m 30 X s 2170 588 m 30 X s 2170 614 m 30 X s 2170 636 m 30 X s 2170 655 m 30 X s 2170 672 m 30 X s 2141 687 m 59 X s 2170 786 m 30 X s 2170 843 m 30 X
 s 2170 884 m 30 X s 2170 916 m 30 X s 2170 942 m 30 X s 2170 964 m 30 X s 2170 983 m 30 X s 2170 1000 m 30 X s 2141 1015 m 59 X s 2170 1113 m 30 X s 2170 1171 m 30 X s 2170 1212 m 30 X s 2170 1244 m 30 X s 2170 1270 m 30 X s 2170 1291 m 30 X s 2170
 1310 m 30 X s 2170 1327 m 30 X s 2141 1342 m 59 X s 2170 1441 m 30 X s 2170 1499 m 30 X s 0 0.6 0 c 9 lw 1 1 1 c black 0 0.6 0 c 317 185 m 729 X 3 Y 77 X 42 Y 69 X 26 Y 61 X 82 Y 55 X 64 Y 51 X 54 Y 46 X 88 Y 43 X 90 Y 40 X 79 Y 38 X 50 Y 35 X 61 Y
 33 X 54 Y 32 X 64 Y 30 X 67 Y 28 X 70 Y 27 X 66 Y 26 X 60 Y 25 X 44 Y 23 X 33 Y 23 X 18 Y 22 X 10 Y 42 X -2 Y 19 X -4 Y 19 X -6 Y 19 X -8 Y 18 X -8 Y 17 X -9 Y 17 X -11 Y 16 X -10 Y 16 X -11 Y 16 X -16 Y 15 X -15 Y 14 X -19 Y 15 X -25 Y 14 X -24 Y
 14 X -23 Y 13 X -31 Y 13 X -39 Y 13 X -38 Y 12 X -58 Y 12 X -66 Y 12 X -84 Y 12 X -58 Y 12 X s 0.6 0 0 c 1 1 1 c black 0.6 0 0 c 317 185 m 991 X 185 Y 51 X 10 Y 46 X 106 Y 43 X -146 Y 40 X 298 Y 38 X 38 Y 35 X 56 Y 33 X 91 Y 32 X 94 Y 30 X 94 Y 28 X
 126 Y 27 X 108 Y 26 X 89 Y 25 X 46 Y 23 X 35 Y 23 X 11 Y 22 X -10 Y 21 X -28 Y 21 X -49 Y 19 X -50 Y 19 X -69 Y 19 X -52 Y 18 X -57 Y 17 X -50 Y 17 X -10 Y 16 X -82 Y 16 X -75 Y 16 X -4 Y 15 X -56 Y 14 X -36 Y 15 X -31 Y 14 X -34 Y 14 X -62 Y 13 X
 -48 Y 13 X -78 Y 13 X -166 Y 12 X 29 Y 12 X -64 Y 12 X 129 Y 12 X -288 Y 12 X s black
 gsave  2268 1538 0 0 C 834.103 1231.6 t 0 r /Helvetica-Bold findfont 68.4225 sf 0 0 m ( probe \(data\)) show NC gr 
 gsave  2268 1538 0 0 C 778.713 1231.6 t 0 r /Symbol findfont 68.4225 sf 0 0 m (Y) show NC gr 
 gsave  2268 1538 0 0 C 720.065 1231.6 t 0 r /Helvetica-Bold findfont 68.4225 sf 0 0 m (J/) show NC gr  1 1 1 c 3 lw 562 1217 m 132 X 71 Y -132 X f 9 lw black 562 1252 m 132 X s 3 lw 628 1252 m20 9 lw
 gsave  2268 1538 0 0 C 720.065 1127.34 t 0 r /Helvetica-Bold findfont 68.4225 sf 0 0 m (B\255el \(MC\)) show NC gr  0.6 0 0 c 6 lw 562 1150 m 132 X s black
 gsave  2268 1538 0 0 C 720.065 1026.34 t 0 r /Helvetica-Bold findfont 68.4225 sf 0 0 m (uds el \(qcd \)) show NC gr  1 1 1 c 3 lw 562 1012 m 132 X 72 Y -132 X f 6 lw 0 0.6 0 c 562 1048 m 132 X s black 3 lw 628 1048 m20 6 lw
 gr  gr showpage
end
%%EOF
