%!PS-Adobe-2.0 EPSF-2.0
%%BoundingBox:  0 0 567 384
%%Title: /home/rohin/Analysis/thesis/images/softel/validated_vars/ws3.eps: c1_n21
%%Creator: ROOT Version 5.34/14
%%CreationDate: Mon Sep  8 03:46:28 2014
%%EndComments
%%BeginProlog
80 dict begin
/s {stroke} def /l {lineto} def /m {moveto} def /t {translate} def
/r {rotate} def /rl {roll}  def /R {repeat} def
/d {rlineto} def /rm {rmoveto} def /gr {grestore} def /f {eofill} def
/c {setrgbcolor} def /black {0 setgray} def /sd {setdash} def
/cl {closepath} def /sf {scalefont setfont} def /lw {setlinewidth} def
/box {m dup 0 exch d exch 0 d 0 exch neg d cl} def
/NC{systemdict begin initclip end}def/C{NC box clip newpath}def
/bl {box s} def /bf {box f} def /Y { 0 exch d} def /X { 0 d} def 
/K {{pop pop 0 moveto} exch kshow} bind def
/ita {/ang 15 def gsave [1 0 ang dup sin exch cos div 1 0 0] concat} def 
/mp {newpath /y exch def /x exch def} def
/side {[w .77 mul w .23 mul] .385 w mul sd w 0 l currentpoint t -144 r} def
/mr {mp x y w2 0 360 arc} def /m24 {mr s} def /m20 {mr f} def
/mb {mp x y w2 add m w2 neg 0 d 0 w neg d w 0 d 0 w d cl} def
/mt {mp x y w2 add m w2 neg w neg d w 0 d cl} def
/m21 {mb f} def /m25 {mb s} def /m22 {mt f} def /m26{mt s} def
/m23 {mp x y w2 sub m w2 w d w neg 0 d cl f} def
/m27 {mp x y w2 add m w3 neg w2 neg d w3 w2 neg d w3 w2 d cl s} def
/m28 {mp x w2 sub y w2 sub w3 add m w3 0 d  0 w3 neg d w3 0 d 0 w3 d w3 0 d  0 w3 d w3 neg 0 d 0 w3 d w3 neg 0 d 0 w3 neg d w3 neg 0 d cl s } def
/m29 {mp gsave x w2 sub y w2 add w3 sub m currentpoint t 4 {side} repeat cl fill gr} def
/m30 {mp gsave x w2 sub y w2 add w3 sub m currentpoint t 4 {side} repeat cl s gr} def
/m31 {mp x y w2 sub m 0 w d x w2 sub y m w 0 d x w2 sub y w2 add m w w neg d x w2 sub y w2 sub m w w d s} def
/m32 {mp x y w2 sub m w2 w d w neg 0 d cl s} def
/m33 {mp x y w2 add m w3 neg w2 neg d w3 w2 neg d w3 w2 d cl f} def
/m34 {mp x w2 sub y w2 sub w3 add m w3 0 d  0 w3 neg d w3 0 d 0 w3 d w3 0 d  0 w3 d w3 neg 0 d 0 w3 d w3 neg 0 d 0 w3 neg d w3 neg 0 d cl f } def
/m2 {mp x y w2 sub m 0 w d x w2 sub y m w 0 d s} def
/m5 {mp x w2 sub y w2 sub m w w d x w2 sub y w2 add m w w neg d s} def
/reEncode {exch findfont dup length dict begin {1 index /FID eq  {pop pop} {def} ifelse } forall /Encoding exch def currentdict end dup /FontName get exch definefont pop } def [/Times-Bold /Times-Italic /Times-BoldItalic /Helvetica /Helvetica-Oblique
 /Helvetica-Bold /Helvetica-BoldOblique /Courier /Courier-Oblique /Courier-Bold /Courier-BoldOblique /Times-Roman /AvantGarde-Book /AvantGarde-BookOblique /AvantGarde-Demi /AvantGarde-DemiOblique /Bookman-Demi /Bookman-DemiItalic /Bookman-Light
 /Bookman-LightItalic /Helvetica-Narrow /Helvetica-Narrow-Bold /Helvetica-Narrow-BoldOblique /Helvetica-Narrow-Oblique /NewCenturySchlbk-Roman /NewCenturySchlbk-Bold /NewCenturySchlbk-BoldItalic /NewCenturySchlbk-Italic /Palatino-Bold
 /Palatino-BoldItalic /Palatino-Italic /Palatino-Roman ] {ISOLatin1Encoding reEncode } forall
%%EndProlog
%%BeginSetup
%%EndSetup
newpath  gsave  .25 .25 scale  gsave  0 0 t black[  ] 0 sd 3 lw 1 1 1 c 2268 1538 0 0 bf black 1 1 1 c 1883 1322 317 185 bf black 1883 1322 317 185 bl 1 1 1 c 1883 1322 317 185 bf black 1883 1322 317 185 bl 6 lw 1 1 1 c black 976 323 m 121 Y s 976
 458 m 61 Y s 957 451 m 13 X s 983 451 m 12 X s 3 lw /w 13 def /w2 {w 2 div} def /w3 {w 3 div} def 976 451 m20 6 lw 1127 185 m 96 Y s 1127 294 m 97 Y s 1108 288 m 12 X s 1133 288 m 13 X s 3 lw 1127 288 m20 6 lw 1202 185 m 199 Y s 1202 397 m 113 Y s
 1183 391 m 13 X s 1209 391 m 12 X s 3 lw 1202 391 m20 6 lw 1240 494 m 76 Y s 1240 583 m 47 Y s 1221 577 m 12 X s 1246 577 m 13 X s 3 lw 1240 577 m20 6 lw 1277 740 m 26 Y s 1277 779 m 20 Y s 1259 772 m 12 X s 1284 772 m 12 X s 3 lw 1277 772 m20 6 lw
 1315 972 m 8 Y s 1315 993 m 7 Y s 1296 987 m 13 X s 1322 987 m 12 X s 3 lw 1315 987 m20 6 lw 1353 1148 m 2 Y s 1353 1163 m 1 Y s 1334 1157 m 12 X s 1359 1157 m 13 X s 3 lw 1353 1157 m20 6 lw 1372 1243 m 12 X s 1397 1243 m 12 X s 3 lw 1390 1243 m20 6
 lw 1409 1299 m 12 X s 1434 1299 m 13 X s 3 lw 1428 1299 m20 6 lw 1447 1365 m 12 X s 1472 1365 m 12 X s 3 lw 1466 1365 m20 6 lw 1484 1393 m 13 X s 1510 1393 m 12 X s 3 lw 1503 1393 m20 6 lw 1522 1407 m 12 X s 1547 1407 m 13 X s 3 lw 1541 1407 m20 6
 lw 1560 1409 m 12 X s 1585 1409 m 12 X s 3 lw 1579 1409 m20 6 lw 1597 1376 m 13 X s 1623 1376 m 12 X s 3 lw 1616 1376 m20 6 lw 1635 1331 m 12 X s 1660 1331 m 13 X s 3 lw 1654 1331 m20 6 lw 1673 1264 m 12 X s 1698 1264 m 12 X s 3 lw 1691 1264 m20 6
 lw 1729 1159 m 1 Y s 1729 1173 m 1 Y s 1710 1167 m 13 X s 1736 1167 m 12 X s 3 lw 1729 1167 m20 6 lw 1767 1066 m 4 Y s 1767 1083 m 4 Y s 1748 1077 m 12 X s 1773 1077 m 13 X s 3 lw 1767 1077 m20 6 lw 1804 911 m 12 Y s 1804 936 m 10 Y s 1786 930 m 12
 X s 1811 930 m 12 X s 3 lw 1804 930 m20 6 lw 1842 591 m 47 Y s 1842 651 m 32 Y s 1823 644 m 13 X s 1849 644 m 12 X s 3 lw 1842 644 m20 6 lw 3 lw 317 185 m 1883 X s
 gsave  2268 1538 0 0 C 2052.67 6.51643 t 0 r /Helvetica findfont 84.7135 sf 0 0 m (ws3) show NC gr  317 223 m -38 Y s 355 204 m -19 Y s 393 204 m -19 Y s 430 204 m -19 Y s 468 204 m -19 Y s 506 223 m -38 Y s 543 204 m -19 Y s 581 204 m -19 Y s 619
 204 m -19 Y s 656 204 m -19 Y s 694 223 m -38 Y s 732 204 m -19 Y s 769 204 m -19 Y s 807 204 m -19 Y s 844 204 m -19 Y s 882 223 m -38 Y s 920 204 m -19 Y s 957 204 m -19 Y s 995 204 m -19 Y s 1033 204 m -19 Y s 1070 223 m -38 Y s 1108 204 m -19 Y
 s 1146 204 m -19 Y s 1183 204 m -19 Y s 1221 204 m -19 Y s 1259 223 m -38 Y s 1296 204 m -19 Y s 1334 204 m -19 Y s 1372 204 m -19 Y s 1409 204 m -19 Y s 1447 223 m -38 Y s 1484 204 m -19 Y s 1522 204 m -19 Y s 1560 204 m -19 Y s 1597 204 m -19 Y s
 1635 223 m -38 Y s 1673 204 m -19 Y s 1710 204 m -19 Y s 1748 204 m -19 Y s 1786 204 m -19 Y s 1823 223 m -38 Y s 1861 204 m -19 Y s 1899 204 m -19 Y s 1936 204 m -19 Y s 1974 204 m -19 Y s 2011 223 m -38 Y s 2049 204 m -19 Y s 2087 204 m -19 Y s
 2124 204 m -19 Y s 2162 204 m -19 Y s 2200 223 m -38 Y s
 gsave  2268 1538 0 0 C 293.239 104.263 t 0 r /Helvetica findfont 84.7135 sf 0 0 m (0) show NC gr 
 gsave  2268 1538 0 0 C 452.892 104.263 t 0 r /Helvetica findfont 84.7135 sf 0 0 m (0.1) show NC gr 
 gsave  2268 1538 0 0 C 632.093 104.263 t 0 r /Helvetica findfont 84.7135 sf 0 0 m (0.2) show NC gr 
 gsave  2268 1538 0 0 C 821.07 104.263 t 0 r /Helvetica findfont 84.7135 sf 0 0 m (0.3) show NC gr 
 gsave  2268 1538 0 0 C 1010.05 104.263 t 0 r /Helvetica findfont 84.7135 sf 0 0 m (0.4) show NC gr 
 gsave  2268 1538 0 0 C 1199.02 104.263 t 0 r /Helvetica findfont 84.7135 sf 0 0 m (0.5) show NC gr 
 gsave  2268 1538 0 0 C 1388 104.263 t 0 r /Helvetica findfont 84.7135 sf 0 0 m (0.6) show NC gr 
 gsave  2268 1538 0 0 C 1573.72 104.263 t 0 r /Helvetica findfont 84.7135 sf 0 0 m (0.7) show NC gr 
 gsave  2268 1538 0 0 C 1762.69 104.263 t 0 r /Helvetica findfont 84.7135 sf 0 0 m (0.8) show NC gr 
 gsave  2268 1538 0 0 C 1951.67 104.263 t 0 r /Helvetica findfont 84.7135 sf 0 0 m (0.9) show NC gr 
 gsave  2268 1538 0 0 C 2183 104.263 t 0 r /Helvetica findfont 84.7135 sf 0 0 m (1) show NC gr  317 1507 m 1883 X s 317 1469 m 38 Y s 355 1488 m 19 Y s 393 1488 m 19 Y s 430 1488 m 19 Y s 468 1488 m 19 Y s 506 1469 m 38 Y s 543 1488 m 19 Y s 581 1488
 m 19 Y s 619 1488 m 19 Y s 656 1488 m 19 Y s 694 1469 m 38 Y s 732 1488 m 19 Y s 769 1488 m 19 Y s 807 1488 m 19 Y s 844 1488 m 19 Y s 882 1469 m 38 Y s 920 1488 m 19 Y s 957 1488 m 19 Y s 995 1488 m 19 Y s 1033 1488 m 19 Y s 1070 1469 m 38 Y s 1108
 1488 m 19 Y s 1146 1488 m 19 Y s 1183 1488 m 19 Y s 1221 1488 m 19 Y s 1259 1469 m 38 Y s 1296 1488 m 19 Y s 1334 1488 m 19 Y s 1372 1488 m 19 Y s 1409 1488 m 19 Y s 1447 1469 m 38 Y s 1484 1488 m 19 Y s 1522 1488 m 19 Y s 1560 1488 m 19 Y s 1597
 1488 m 19 Y s 1635 1469 m 38 Y s 1673 1488 m 19 Y s 1710 1488 m 19 Y s 1748 1488 m 19 Y s 1786 1488 m 19 Y s 1823 1469 m 38 Y s 1861 1488 m 19 Y s 1899 1488 m 19 Y s 1936 1488 m 19 Y s 1974 1488 m 19 Y s 2011 1469 m 38 Y s 2049 1488 m 19 Y s 2087
 1488 m 19 Y s 2124 1488 m 19 Y s 2162 1488 m 19 Y s 2200 1469 m 38 Y s 317 185 m 1322 Y s
 gsave  2268 1538 0 0 C 127.07 1062.18 t 90 r /Helvetica findfont 84.7135 sf 0 0 m (Events/0.02) show NC gr  347 185 m -30 X s 347 212 m -30 X s 347 235 m -30 X s 347 254 m -30 X s 347 272 m -30 X s 376 288 m -59 X s
 gsave  2268 1538 0 0 C 295.257 251.127 t 0 r  -47 0 t /Helvetica findfont 84.7135 sf 0 0 m (1) show NC gr  347 391 m -30 X s 347 451 m -30 X s 347 494 m -30 X s 347 527 m -30 X s 347 554 m -30 X s 347 577 m -30 X s 347 597 m -30 X s 347 614 m -30 X
 s 376 630 m -59 X s
 gsave  2268 1538 0 0 C 295.257 593.528 t 0 r  -95 0 t /Helvetica findfont 84.7135 sf 0 0 m (10) show NC gr  347 733 m -30 X s 347 793 m -30 X s 347 836 m -30 X s 347 869 m -30 X s 347 896 m -30 X s 347 919 m -30 X s 347 939 m -30 X s 347 957 m -30 X
 s 376 972 m -59 X s
 gsave  2268 1538 0 0 C 260.657 970.948 t 0 r /Helvetica findfont 58.6478 sf 0 0 m (2) show NC gr 
 gsave  2268 1538 0 0 C 169.427 935.107 t 0 r /Helvetica findfont 84.7135 sf 0 0 m (10) show NC gr  347 1075 m -30 X s 347 1136 m -30 X s 347 1179 m -30 X s 347 1212 m -30 X s 347 1239 m -30 X s 347 1262 m -30 X s 347 1282 m -30 X s 347 1299 m -30 X
 s 376 1315 m -59 X s
 gsave  2268 1538 0 0 C 260.657 1316.32 t 0 r /Helvetica findfont 58.6478 sf 0 0 m (3) show NC gr 
 gsave  2268 1538 0 0 C 169.427 1277.22 t 0 r /Helvetica findfont 84.7135 sf 0 0 m (10) show NC gr  347 1418 m -30 X s 347 1478 m -30 X s 2200 185 m 1322 Y s 2170 185 m 30 X s 2170 212 m 30 X s 2170 235 m 30 X s 2170 254 m 30 X s 2170 272 m 30 X s
 2141 288 m 59 X s 2170 391 m 30 X s 2170 451 m 30 X s 2170 494 m 30 X s 2170 527 m 30 X s 2170 554 m 30 X s 2170 577 m 30 X s 2170 597 m 30 X s 2170 614 m 30 X s 2141 630 m 59 X s 2170 733 m 30 X s 2170 793 m 30 X s 2170 836 m 30 X s 2170 869 m 30 X
 s 2170 896 m 30 X s 2170 919 m 30 X s 2170 939 m 30 X s 2170 957 m 30 X s 2141 972 m 59 X s 2170 1075 m 30 X s 2170 1136 m 30 X s 2170 1179 m 30 X s 2170 1212 m 30 X s 2170 1239 m 30 X s 2170 1262 m 30 X s 2170 1282 m 30 X s 2170 1299 m 30 X s 2141
 1315 m 59 X s 2170 1418 m 30 X s 2170 1478 m 30 X s 0 0.6 0 c 9 lw 1 1 1 c black 0 0.6 0 c 317 185 m 377 X 56 Y 38 X 55 Y 37 X -61 Y 38 X 71 Y 37 X 62 Y 38 X 85 Y 38 X 117 Y 37 X 120 Y 38 X -15 Y 38 X 1 Y 37 X -39 Y 38 X 28 Y 38 X 42 Y 37 X 68 Y 38
 X 99 Y 38 X 121 Y 37 X 102 Y 38 X 102 Y 38 X 68 Y 37 X 46 Y 38 X 34 Y 37 X 24 Y 38 X 13 Y 38 X -7 Y 37 X -24 Y 38 X -30 Y 38 X -39 Y 37 X -52 Y 38 X -65 Y 38 X -104 Y 37 X -235 Y 38 X -643 Y 339 X s 0.6 0 0 c 1 1 1 c black 0.6 0 0 c 317 185 m 603 X
 116 Y 37 X 8 Y 38 X -124 Y 38 X 130 Y 37 X -6 Y 38 X 30 Y 38 X -1 Y 37 X 282 Y 38 X 3 Y 38 X 238 Y 37 X 178 Y 38 X 121 Y 38 X 85 Y 37 X 51 Y 38 X 40 Y 37 X 42 Y 38 X 23 Y 38 X 1 Y 37 X -24 Y 38 X -43 Y 38 X -47 Y 37 X -64 Y 38 X -84 Y 38 X -136 Y 37
 X -331 Y 38 X -488 Y 339 X s black
 gsave  2268 1538 0 0 C 781.971 1283.74 t 0 r /Helvetica-Bold findfont 68.4225 sf 0 0 m ( probe \(data\)) show NC gr 
 gsave  2268 1538 0 0 C 726.582 1283.74 t 0 r /Symbol findfont 68.4225 sf 0 0 m (Y) show NC gr 
 gsave  2268 1538 0 0 C 667.934 1283.74 t 0 r /Helvetica-Bold findfont 68.4225 sf 0 0 m (J/) show NC gr  1 1 1 c 3 lw 510 1269 m 130 X 71 Y -130 X f 9 lw black 510 1304 m 130 X s 3 lw 575 1304 m20 9 lw
 gsave  2268 1538 0 0 C 667.934 1179.47 t 0 r /Helvetica-Bold findfont 68.4225 sf 0 0 m (B\255el \(MC\)) show NC gr  0.6 0 0 c 6 lw 510 1202 m 130 X s black
 gsave  2268 1538 0 0 C 667.934 1078.47 t 0 r /Helvetica-Bold findfont 68.4225 sf 0 0 m (uds el \(qcd \)) show NC gr  1 1 1 c 3 lw 510 1064 m 130 X 72 Y -130 X f 6 lw 0 0.6 0 c 510 1100 m 130 X s black 3 lw 575 1100 m20 6 lw
 gr  gr showpage
end
%%EOF
