%!PS-Adobe-2.0 EPSF-2.0
%%BoundingBox:  0 0 567 384
%%Title: /home/rohin/Analysis/thesis/images/softel/validated_vars/wstot.eps: c1_n22
%%Creator: ROOT Version 5.34/14
%%CreationDate: Mon Sep  8 03:46:02 2014
%%EndComments
%%BeginProlog
80 dict begin
/s {stroke} def /l {lineto} def /m {moveto} def /t {translate} def
/r {rotate} def /rl {roll}  def /R {repeat} def
/d {rlineto} def /rm {rmoveto} def /gr {grestore} def /f {eofill} def
/c {setrgbcolor} def /black {0 setgray} def /sd {setdash} def
/cl {closepath} def /sf {scalefont setfont} def /lw {setlinewidth} def
/box {m dup 0 exch d exch 0 d 0 exch neg d cl} def
/NC{systemdict begin initclip end}def/C{NC box clip newpath}def
/bl {box s} def /bf {box f} def /Y { 0 exch d} def /X { 0 d} def 
/K {{pop pop 0 moveto} exch kshow} bind def
/ita {/ang 15 def gsave [1 0 ang dup sin exch cos div 1 0 0] concat} def 
/mp {newpath /y exch def /x exch def} def
/side {[w .77 mul w .23 mul] .385 w mul sd w 0 l currentpoint t -144 r} def
/mr {mp x y w2 0 360 arc} def /m24 {mr s} def /m20 {mr f} def
/mb {mp x y w2 add m w2 neg 0 d 0 w neg d w 0 d 0 w d cl} def
/mt {mp x y w2 add m w2 neg w neg d w 0 d cl} def
/m21 {mb f} def /m25 {mb s} def /m22 {mt f} def /m26{mt s} def
/m23 {mp x y w2 sub m w2 w d w neg 0 d cl f} def
/m27 {mp x y w2 add m w3 neg w2 neg d w3 w2 neg d w3 w2 d cl s} def
/m28 {mp x w2 sub y w2 sub w3 add m w3 0 d  0 w3 neg d w3 0 d 0 w3 d w3 0 d  0 w3 d w3 neg 0 d 0 w3 d w3 neg 0 d 0 w3 neg d w3 neg 0 d cl s } def
/m29 {mp gsave x w2 sub y w2 add w3 sub m currentpoint t 4 {side} repeat cl fill gr} def
/m30 {mp gsave x w2 sub y w2 add w3 sub m currentpoint t 4 {side} repeat cl s gr} def
/m31 {mp x y w2 sub m 0 w d x w2 sub y m w 0 d x w2 sub y w2 add m w w neg d x w2 sub y w2 sub m w w d s} def
/m32 {mp x y w2 sub m w2 w d w neg 0 d cl s} def
/m33 {mp x y w2 add m w3 neg w2 neg d w3 w2 neg d w3 w2 d cl f} def
/m34 {mp x w2 sub y w2 sub w3 add m w3 0 d  0 w3 neg d w3 0 d 0 w3 d w3 0 d  0 w3 d w3 neg 0 d 0 w3 d w3 neg 0 d 0 w3 neg d w3 neg 0 d cl f } def
/m2 {mp x y w2 sub m 0 w d x w2 sub y m w 0 d s} def
/m5 {mp x w2 sub y w2 sub m w w d x w2 sub y w2 add m w w neg d s} def
/reEncode {exch findfont dup length dict begin {1 index /FID eq  {pop pop} {def} ifelse } forall /Encoding exch def currentdict end dup /FontName get exch definefont pop } def [/Times-Bold /Times-Italic /Times-BoldItalic /Helvetica /Helvetica-Oblique
 /Helvetica-Bold /Helvetica-BoldOblique /Courier /Courier-Oblique /Courier-Bold /Courier-BoldOblique /Times-Roman /AvantGarde-Book /AvantGarde-BookOblique /AvantGarde-Demi /AvantGarde-DemiOblique /Bookman-Demi /Bookman-DemiItalic /Bookman-Light
 /Bookman-LightItalic /Helvetica-Narrow /Helvetica-Narrow-Bold /Helvetica-Narrow-BoldOblique /Helvetica-Narrow-Oblique /NewCenturySchlbk-Roman /NewCenturySchlbk-Bold /NewCenturySchlbk-BoldItalic /NewCenturySchlbk-Italic /Palatino-Bold
 /Palatino-BoldItalic /Palatino-Italic /Palatino-Roman ] {ISOLatin1Encoding reEncode } forall
%%EndProlog
%%BeginSetup
%%EndSetup
newpath  gsave  .25 .25 scale  gsave  0 0 t black[  ] 0 sd 3 lw 1 1 1 c 2268 1538 0 0 bf black 1 1 1 c 1883 1322 317 185 bf black 1883 1322 317 185 bl 1 1 1 c 1883 1322 317 185 bf black 1883 1322 317 185 bl 6 lw 1 1 1 c black 374 282 m 166 Y s 374
 461 m 69 Y s 355 455 m 12 X s 380 455 m 13 X s 3 lw /w 13 def /w2 {w 2 div} def /w3 {w 3 div} def 374 455 m20 6 lw 412 589 m 55 Y s 412 657 m 36 Y s 393 650 m 12 X s 418 650 m 12 X s 3 lw 412 650 m20 6 lw 449 536 m 67 Y s 449 616 m 42 Y s 430 610 m
 13 X s 456 610 m 12 X s 3 lw 449 610 m20 6 lw 487 726 m 32 Y s 487 771 m 23 Y s 468 764 m 12 X s 493 764 m 13 X s 3 lw 487 764 m20 6 lw 525 890 m 14 Y s 525 917 m 12 Y s 506 911 m 12 X s 531 911 m 12 X s 3 lw 525 911 m20 6 lw 562 1088 m 4 Y s 562
 1105 m 4 Y s 543 1099 m 13 X s 569 1099 m 12 X s 3 lw 562 1099 m20 6 lw 600 1163 m 2 Y s 600 1178 m 1 Y s 581 1171 m 12 X s 606 1171 m 13 X s 3 lw 600 1171 m20 6 lw 619 1300 m 12 X s 644 1300 m 12 X s 3 lw 637 1300 m20 6 lw 656 1366 m 13 X s 682
 1366 m 12 X s 3 lw 675 1366 m20 6 lw 694 1403 m 12 X s 719 1403 m 13 X s 3 lw 713 1403 m20 6 lw 732 1414 m 12 X s 757 1414 m 12 X s 3 lw 750 1414 m20 6 lw 769 1390 m 13 X s 795 1390 m 12 X s 3 lw 788 1390 m20 6 lw 807 1352 m 12 X s 832 1352 m 12 X s
 3 lw 826 1352 m20 6 lw 844 1382 m 13 X s 870 1382 m 12 X s 3 lw 863 1382 m20 6 lw 882 1318 m 12 X s 907 1318 m 13 X s 3 lw 901 1318 m20 6 lw 939 1215 m s 920 1222 m 12 X s 945 1222 m 12 X s 3 lw 939 1222 m20 6 lw 976 1184 m 1 Y s 976 1198 m s 957
 1191 m 13 X s 983 1191 m 12 X s 3 lw 976 1191 m20 6 lw 1014 1132 m 2 Y s 1014 1147 m 2 Y s 995 1141 m 12 X s 1020 1141 m 13 X s 3 lw 1014 1141 m20 6 lw 1052 1031 m 6 Y s 1052 1050 m 5 Y s 1033 1044 m 12 X s 1058 1044 m 12 X s 3 lw 1052 1044 m20 6 lw
 1089 954 m 10 Y s 1089 977 m 9 Y s 1070 971 m 13 X s 1096 971 m 12 X s 3 lw 1089 971 m20 6 lw 1127 880 m 16 Y s 1127 909 m 12 Y s 1108 902 m 12 X s 1133 902 m 13 X s 3 lw 1127 902 m20 6 lw 1164 848 m 19 Y s 1164 880 m 14 Y s 1146 873 m 12 X s 1171
 873 m 12 X s 3 lw 1164 873 m20 6 lw 1202 856 m 18 Y s 1202 887 m 14 Y s 1183 880 m 13 X s 1209 880 m 12 X s 3 lw 1202 880 m20 6 lw 1240 661 m 51 Y s 1240 725 m 34 Y s 1221 718 m 12 X s 1246 718 m 13 X s 3 lw 1240 718 m20 6 lw 1277 659 m 42 Y s 1277
 714 m 29 Y s 1259 707 m 12 X s 1284 707 m 12 X s 3 lw 1277 707 m20 6 lw 1315 766 m 26 Y s 1315 805 m 20 Y s 1296 799 m 13 X s 1322 799 m 12 X s 3 lw 1315 799 m20 6 lw 1353 622 m 53 Y s 1353 688 m 35 Y s 1334 681 m 12 X s 1359 681 m 13 X s 3 lw 1353
 681 m20 6 lw 1390 520 m 83 Y s 1390 616 m 48 Y s 1372 610 m 12 X s 1397 610 m 12 X s 3 lw 1390 610 m20 6 lw 1428 504 m 99 Y s 1428 616 m 53 Y s 1409 610 m 12 X s 1434 610 m 13 X s 3 lw 1428 610 m20 6 lw 1466 185 m 321 Y s 1466 519 m 98 Y s 1447 512
 m 12 X s 1472 512 m 12 X s 3 lw 1466 512 m20 6 lw 1503 553 m 72 Y s 1503 638 m 43 Y s 1484 631 m 13 X s 1510 631 m 12 X s 3 lw 1503 631 m20 6 lw 1579 185 m 166 Y s 1579 364 m 159 Y s 1560 357 m 12 X s 1585 357 m 12 X s 3 lw 1579 357 m20 6 lw 1616
 185 m 263 Y s 1616 461 m 107 Y s 1597 455 m 13 X s 1623 455 m 12 X s 3 lw 1616 455 m20 6 lw 1654 185 m 166 Y s 1654 364 m 135 Y s 1635 357 m 12 X s 1660 357 m 13 X s 3 lw 1654 357 m20 6 lw 1767 455 m 91 Y s 1767 559 m 51 Y s 1748 553 m 12 X s 1773
 553 m 13 X s 3 lw 1767 553 m20 6 lw 1804 185 m 166 Y s 1804 364 m 135 Y s 1786 357 m 12 X s 1811 357 m 12 X s 3 lw 1804 357 m20 6 lw 1842 455 m 91 Y s 1842 559 m 51 Y s 1823 553 m 13 X s 1849 553 m 12 X s 3 lw 1842 553 m20 6 lw 1993 185 m 166 Y s
 1993 364 m 175 Y s 1974 357 m 12 X s 1999 357 m 12 X s 3 lw 1993 357 m20 6 lw 2030 185 m 166 Y s 2030 364 m 91 Y s 2011 357 m 13 X s 2037 357 m 12 X s 3 lw 2030 357 m20 6 lw 2068 500 m 77 Y s 2068 590 m 46 Y s 2049 584 m 12 X s 2074 584 m 13 X s 3
 lw 2068 584 m20 6 lw 2143 185 m 166 Y s 2143 364 m 91 Y s 2124 357 m 13 X s 2150 357 m 12 X s 3 lw 2143 357 m20 6 lw 2181 391 m 115 Y s 2181 519 m 57 Y s 2162 512 m 12 X s 2187 512 m 13 X s 3 lw 2181 512 m20 6 lw 3 lw 317 185 m 1883 X s
 gsave  2268 1538 0 0 C 2000.54 9.77464 t 0 r /Helvetica findfont 84.7135 sf 0 0 m (wstot) show NC gr  317 223 m -38 Y s 355 204 m -19 Y s 393 204 m -19 Y s 430 204 m -19 Y s 468 204 m -19 Y s 506 223 m -38 Y s 543 204 m -19 Y s 581 204 m -19 Y s 619
 204 m -19 Y s 656 204 m -19 Y s 694 223 m -38 Y s 732 204 m -19 Y s 769 204 m -19 Y s 807 204 m -19 Y s 844 204 m -19 Y s 882 223 m -38 Y s 920 204 m -19 Y s 957 204 m -19 Y s 995 204 m -19 Y s 1033 204 m -19 Y s 1070 223 m -38 Y s 1108 204 m -19 Y
 s 1146 204 m -19 Y s 1183 204 m -19 Y s 1221 204 m -19 Y s 1259 223 m -38 Y s 1296 204 m -19 Y s 1334 204 m -19 Y s 1372 204 m -19 Y s 1409 204 m -19 Y s 1447 223 m -38 Y s 1484 204 m -19 Y s 1522 204 m -19 Y s 1560 204 m -19 Y s 1597 204 m -19 Y s
 1635 223 m -38 Y s 1673 204 m -19 Y s 1710 204 m -19 Y s 1748 204 m -19 Y s 1786 204 m -19 Y s 1823 223 m -38 Y s 1861 204 m -19 Y s 1899 204 m -19 Y s 1936 204 m -19 Y s 1974 204 m -19 Y s 2011 223 m -38 Y s 2049 204 m -19 Y s 2087 204 m -19 Y s
 2124 204 m -19 Y s 2162 204 m -19 Y s 2200 223 m -38 Y s
 gsave  2268 1538 0 0 C 293.239 104.263 t 0 r /Helvetica findfont 84.7135 sf 0 0 m (0) show NC gr 
 gsave  2268 1538 0 0 C 488.732 104.263 t 0 r /Helvetica findfont 84.7135 sf 0 0 m (1) show NC gr 
 gsave  2268 1538 0 0 C 667.934 104.263 t 0 r /Helvetica findfont 84.7135 sf 0 0 m (2) show NC gr 
 gsave  2268 1538 0 0 C 856.91 104.263 t 0 r /Helvetica findfont 84.7135 sf 0 0 m (3) show NC gr 
 gsave  2268 1538 0 0 C 1045.89 104.263 t 0 r /Helvetica findfont 84.7135 sf 0 0 m (4) show NC gr 
 gsave  2268 1538 0 0 C 1234.86 104.263 t 0 r /Helvetica findfont 84.7135 sf 0 0 m (5) show NC gr 
 gsave  2268 1538 0 0 C 1423.84 104.263 t 0 r /Helvetica findfont 84.7135 sf 0 0 m (6) show NC gr 
 gsave  2268 1538 0 0 C 1609.56 104.263 t 0 r /Helvetica findfont 84.7135 sf 0 0 m (7) show NC gr 
 gsave  2268 1538 0 0 C 1798.53 104.263 t 0 r /Helvetica findfont 84.7135 sf 0 0 m (8) show NC gr 
 gsave  2268 1538 0 0 C 1987.51 104.263 t 0 r /Helvetica findfont 84.7135 sf 0 0 m (9) show NC gr 
 gsave  2268 1538 0 0 C 2153.68 104.263 t 0 r /Helvetica findfont 84.7135 sf 0 0 m (10) show NC gr  317 1507 m 1883 X s 317 1469 m 38 Y s 355 1488 m 19 Y s 393 1488 m 19 Y s 430 1488 m 19 Y s 468 1488 m 19 Y s 506 1469 m 38 Y s 543 1488 m 19 Y s 581
 1488 m 19 Y s 619 1488 m 19 Y s 656 1488 m 19 Y s 694 1469 m 38 Y s 732 1488 m 19 Y s 769 1488 m 19 Y s 807 1488 m 19 Y s 844 1488 m 19 Y s 882 1469 m 38 Y s 920 1488 m 19 Y s 957 1488 m 19 Y s 995 1488 m 19 Y s 1033 1488 m 19 Y s 1070 1469 m 38 Y s
 1108 1488 m 19 Y s 1146 1488 m 19 Y s 1183 1488 m 19 Y s 1221 1488 m 19 Y s 1259 1469 m 38 Y s 1296 1488 m 19 Y s 1334 1488 m 19 Y s 1372 1488 m 19 Y s 1409 1488 m 19 Y s 1447 1469 m 38 Y s 1484 1488 m 19 Y s 1522 1488 m 19 Y s 1560 1488 m 19 Y s
 1597 1488 m 19 Y s 1635 1469 m 38 Y s 1673 1488 m 19 Y s 1710 1488 m 19 Y s 1748 1488 m 19 Y s 1786 1488 m 19 Y s 1823 1469 m 38 Y s 1861 1488 m 19 Y s 1899 1488 m 19 Y s 1936 1488 m 19 Y s 1974 1488 m 19 Y s 2011 1469 m 38 Y s 2049 1488 m 19 Y s
 2087 1488 m 19 Y s 2124 1488 m 19 Y s 2162 1488 m 19 Y s 2200 1469 m 38 Y s 317 185 m 1322 Y s
 gsave  2268 1538 0 0 C 127.07 1111.05 t 90 r /Helvetica findfont 84.7135 sf 0 0 m (Events/0.2) show NC gr  347 188 m -30 X s 347 228 m -30 X s 347 260 m -30 X s 347 285 m -30 X s 347 307 m -30 X s 347 326 m -30 X s 347 343 m -30 X s 376 357 m -59 X
 s
 gsave  2268 1538 0 0 C 295.257 320.894 t 0 r  -47 0 t /Helvetica findfont 84.7135 sf 0 0 m (1) show NC gr  347 455 m -30 X s 347 512 m -30 X s 347 553 m -30 X s 347 584 m -30 X s 347 610 m -30 X s 347 631 m -30 X s 347 650 m -30 X s 347 667 m -30 X
 s 376 681 m -59 X s
 gsave  2268 1538 0 0 C 295.257 644.996 t 0 r  -95 0 t /Helvetica findfont 84.7135 sf 0 0 m (10) show NC gr  347 779 m -30 X s 347 836 m -30 X s 347 877 m -30 X s 347 908 m -30 X s 347 934 m -30 X s 347 955 m -30 X s 347 974 m -30 X s 347 991 m -30 X
 s 376 1006 m -59 X s
 gsave  2268 1538 0 0 C 260.657 1003.53 t 0 r /Helvetica findfont 58.6478 sf 0 0 m (2) show NC gr 
 gsave  2268 1538 0 0 C 169.427 967.689 t 0 r /Helvetica findfont 84.7135 sf 0 0 m (10) show NC gr  347 1103 m -30 X s 347 1160 m -30 X s 347 1201 m -30 X s 347 1232 m -30 X s 347 1258 m -30 X s 347 1279 m -30 X s 347 1298 m -30 X s 347 1315 m -30 X
 s 376 1330 m -59 X s
 gsave  2268 1538 0 0 C 260.657 1332.61 t 0 r /Helvetica findfont 58.6478 sf 0 0 m (3) show NC gr 
 gsave  2268 1538 0 0 C 169.427 1293.51 t 0 r /Helvetica findfont 84.7135 sf 0 0 m (10) show NC gr  347 1427 m -30 X s 347 1484 m -30 X s 2200 185 m 1322 Y s 2170 188 m 30 X s 2170 228 m 30 X s 2170 260 m 30 X s 2170 285 m 30 X s 2170 307 m 30 X s
 2170 326 m 30 X s 2170 343 m 30 X s 2141 357 m 59 X s 2170 455 m 30 X s 2170 512 m 30 X s 2170 553 m 30 X s 2170 584 m 30 X s 2170 610 m 30 X s 2170 631 m 30 X s 2170 650 m 30 X s 2170 667 m 30 X s 2141 681 m 59 X s 2170 779 m 30 X s 2170 836 m 30 X
 s 2170 877 m 30 X s 2170 908 m 30 X s 2170 934 m 30 X s 2170 955 m 30 X s 2170 974 m 30 X s 2170 991 m 30 X s 2141 1006 m 59 X s 2170 1103 m 30 X s 2170 1160 m 30 X s 2170 1201 m 30 X s 2170 1232 m 30 X s 2170 1258 m 30 X s 2170 1279 m 30 X s 2170
 1298 m 30 X s 2170 1315 m 30 X s 2141 1330 m 59 X s 2170 1427 m 30 X s 2170 1484 m 30 X s 0 0.6 0 c 9 lw 1 1 1 c black 0 0.6 0 c 317 311 m 38 X 120 Y 38 X 82 Y 37 X 86 Y 38 X 132 Y 38 X 192 Y 37 X 124 Y 38 X 81 Y 38 X 77 Y 37 X 46 Y 38 X 30 Y 38 X
 18 Y 37 X 8 Y 38 X 2 Y 37 X -7 Y 38 X -9 Y 38 X -9 Y 37 X -11 Y 38 X -12 Y 38 X -15 Y 37 X -15 Y 38 X -18 Y 38 X -18 Y 37 X -19 Y 38 X -20 Y 38 X -21 Y 37 X -24 Y 38 X -17 Y 38 X -28 Y 37 X -16 Y 38 X -20 Y 37 X -17 Y 38 X -19 Y 38 X -21 Y 37 X -15
 Y 38 X -14 Y 38 X -19 Y 37 X -1 Y 38 X -15 Y 38 X -3 Y 37 X -14 Y 38 X -9 Y 38 X -5 Y 37 X -7 Y 75 X -3 Y 38 X -12 Y 38 X 3 Y 37 X -4 Y 38 X 3 Y 38 X s 0.6 0 0 c 1 1 1 c black 0.6 0 0 c 317 343 m 38 X 161 Y 38 X 166 Y 37 X 73 Y 38 X 104 Y 38 X 148 Y
 37 X 134 Y 38 X 84 Y 38 X 104 Y 37 X 65 Y 38 X 18 Y 38 X 20 Y 37 X -11 Y 38 X -27 Y 37 X -47 Y 38 X -60 Y 38 X -80 Y 37 X -67 Y 38 X -50 Y 38 X -82 Y 37 X -43 Y 38 X -40 Y 38 X -27 Y 37 X -53 Y 38 X -32 Y 38 X -105 Y 37 X -3 Y 38 X -68 Y 38 X -89 Y
 37 X -6 Y 38 X -5 Y 37 X 51 Y 38 X 11 Y 38 X -244 Y 37 X -158 Y 76 X 207 Y 37 X -20 Y 38 X -18 Y 38 X 179 Y 37 X -348 Y 113 X 192 Y 38 X -192 Y 37 X 183 Y 38 X -183 Y 113 X 192 Y 38 X s black
 gsave  2268 1538 0 0 C 1655.17 1374.97 t 0 r /Helvetica-Bold findfont 58.6478 sf 0 0 m ( probe \(data\)) show NC gr 
 gsave  2268 1538 0 0 C 1606.3 1374.97 t 0 r /Symbol findfont 58.6478 sf 0 0 m (Y) show NC gr 
 gsave  2268 1538 0 0 C 1557.43 1374.97 t 0 r /Helvetica-Bold findfont 58.6478 sf 0 0 m (J/) show NC gr  1 1 1 c 3 lw 1419 1360 m 114 X 71 Y -114 X f 9 lw black 1419 1396 m 114 X s 3 lw 1476 1396 m20 9 lw
 gsave  2268 1538 0 0 C 1557.43 1270.7 t 0 r /Helvetica-Bold findfont 58.6478 sf 0 0 m (B\255el \(MC\)) show NC gr  0.6 0 0 c 6 lw 1419 1294 m 114 X s black
 gsave  2268 1538 0 0 C 1557.43 1169.7 t 0 r /Helvetica-Bold findfont 58.6478 sf 0 0 m (uds el \(qcd \)) show NC gr  1 1 1 c 3 lw 1419 1156 m 114 X 71 Y -114 X f 6 lw 0 0.6 0 c 1419 1191 m 114 X s black 3 lw 1476 1191 m20 6 lw
 gr  gr showpage
end
%%EOF
