%!PS-Adobe-2.0 EPSF-2.0
%%BoundingBox:  0 0 567 384
%%Title: BElectronsInZJets.eps: c1_n2
%%Creator: ROOT Version 5.34/14
%%CreationDate: Fri Sep 12 05:00:13 2014
%%EndComments
%%BeginProlog
80 dict begin
/s {stroke} def /l {lineto} def /m {moveto} def /t {translate} def
/r {rotate} def /rl {roll}  def /R {repeat} def
/d {rlineto} def /rm {rmoveto} def /gr {grestore} def /f {eofill} def
/c {setrgbcolor} def /black {0 setgray} def /sd {setdash} def
/cl {closepath} def /sf {scalefont setfont} def /lw {setlinewidth} def
/box {m dup 0 exch d exch 0 d 0 exch neg d cl} def
/NC{systemdict begin initclip end}def/C{NC box clip newpath}def
/bl {box s} def /bf {box f} def /Y { 0 exch d} def /X { 0 d} def 
/K {{pop pop 0 moveto} exch kshow} bind def
/ita {/ang 15 def gsave [1 0 ang dup sin exch cos div 1 0 0] concat} def 
/mp {newpath /y exch def /x exch def} def
/side {[w .77 mul w .23 mul] .385 w mul sd w 0 l currentpoint t -144 r} def
/mr {mp x y w2 0 360 arc} def /m24 {mr s} def /m20 {mr f} def
/mb {mp x y w2 add m w2 neg 0 d 0 w neg d w 0 d 0 w d cl} def
/mt {mp x y w2 add m w2 neg w neg d w 0 d cl} def
/m21 {mb f} def /m25 {mb s} def /m22 {mt f} def /m26{mt s} def
/m23 {mp x y w2 sub m w2 w d w neg 0 d cl f} def
/m27 {mp x y w2 add m w3 neg w2 neg d w3 w2 neg d w3 w2 d cl s} def
/m28 {mp x w2 sub y w2 sub w3 add m w3 0 d  0 w3 neg d w3 0 d 0 w3 d w3 0 d  0 w3 d w3 neg 0 d 0 w3 d w3 neg 0 d 0 w3 neg d w3 neg 0 d cl s } def
/m29 {mp gsave x w2 sub y w2 add w3 sub m currentpoint t 4 {side} repeat cl fill gr} def
/m30 {mp gsave x w2 sub y w2 add w3 sub m currentpoint t 4 {side} repeat cl s gr} def
/m31 {mp x y w2 sub m 0 w d x w2 sub y m w 0 d x w2 sub y w2 add m w w neg d x w2 sub y w2 sub m w w d s} def
/m32 {mp x y w2 sub m w2 w d w neg 0 d cl s} def
/m33 {mp x y w2 add m w3 neg w2 neg d w3 w2 neg d w3 w2 d cl f} def
/m34 {mp x w2 sub y w2 sub w3 add m w3 0 d  0 w3 neg d w3 0 d 0 w3 d w3 0 d  0 w3 d w3 neg 0 d 0 w3 d w3 neg 0 d 0 w3 neg d w3 neg 0 d cl f } def
/m2 {mp x y w2 sub m 0 w d x w2 sub y m w 0 d s} def
/m5 {mp x w2 sub y w2 sub m w w d x w2 sub y w2 add m w w neg d s} def
/reEncode {exch findfont dup length dict begin {1 index /FID eq  {pop pop} {def} ifelse } forall /Encoding exch def currentdict end dup /FontName get exch definefont pop } def [/Times-Bold /Times-Italic /Times-BoldItalic /Helvetica /Helvetica-Oblique
 /Helvetica-Bold /Helvetica-BoldOblique /Courier /Courier-Oblique /Courier-Bold /Courier-BoldOblique /Times-Roman /AvantGarde-Book /AvantGarde-BookOblique /AvantGarde-Demi /AvantGarde-DemiOblique /Bookman-Demi /Bookman-DemiItalic /Bookman-Light
 /Bookman-LightItalic /Helvetica-Narrow /Helvetica-Narrow-Bold /Helvetica-Narrow-BoldOblique /Helvetica-Narrow-Oblique /NewCenturySchlbk-Roman /NewCenturySchlbk-Bold /NewCenturySchlbk-BoldItalic /NewCenturySchlbk-Italic /Palatino-Bold
 /Palatino-BoldItalic /Palatino-Italic /Palatino-Roman ] {ISOLatin1Encoding reEncode } forall
%%EndProlog
%%BeginSetup
%%EndSetup
newpath  gsave  .25 .25 scale  gsave  0 0 t black[  ] 0 sd 3 lw 1 1 1 c 2268 1538 0 0 bf black 1 1 1 c 1883 1322 317 185 bf black 1883 1322 317 185 bl
 gsave  2268 1538 0 0 C 475.699 228.075 t 0 r /Helvetica findfont 58.6478 sf 0 0 m (121833) show NC gr 
 gsave  2268 1538 0 0 C 729.84 228.075 t 0 r /Helvetica findfont 58.6478 sf 0 0 m (68640) show NC gr 
 gsave  2268 1538 0 0 C 964.431 228.075 t 0 r /Helvetica findfont 58.6478 sf 0 0 m (27117) show NC gr 
 gsave  2268 1538 0 0 C 1199.02 228.075 t 0 r /Helvetica findfont 58.6478 sf 0 0 m (11100) show NC gr 
 gsave  2268 1538 0 0 C 1449.91 228.075 t 0 r /Helvetica findfont 58.6478 sf 0 0 m (4766) show NC gr 
 gsave  2268 1538 0 0 C 1684.5 228.075 t 0 r /Helvetica findfont 58.6478 sf 0 0 m (1870) show NC gr 
 gsave  2268 1538 0 0 C 1938.64 228.075 t 0 r /Helvetica findfont 58.6478 sf 0 0 m (596) show NC gr 
 gsave  2268 1538 0 0 C 491.99 361.662 t 0 r /Helvetica findfont 58.6478 sf 0 0 m (26955) show NC gr 
 gsave  2268 1538 0 0 C 729.84 361.662 t 0 r /Helvetica findfont 58.6478 sf 0 0 m (13419) show NC gr 
 gsave  2268 1538 0 0 C 980.722 361.662 t 0 r /Helvetica findfont 58.6478 sf 0 0 m (4766) show NC gr 
 gsave  2268 1538 0 0 C 1215.31 361.662 t 0 r /Helvetica findfont 58.6478 sf 0 0 m (1819) show NC gr 
 gsave  2268 1538 0 0 C 1466.2 361.662 t 0 r /Helvetica findfont 58.6478 sf 0 0 m (708) show NC gr 
 gsave  2268 1538 0 0 C 1700.79 361.662 t 0 r /Helvetica findfont 58.6478 sf 0 0 m (278) show NC gr 
 gsave  2268 1538 0 0 C 1954.93 361.662 t 0 r /Helvetica findfont 58.6478 sf 0 0 m (72) show NC gr 
 gsave  2268 1538 0 0 C 508.281 495.248 t 0 r /Helvetica findfont 58.6478 sf 0 0 m (4405) show NC gr 
 gsave  2268 1538 0 0 C 746.131 495.248 t 0 r /Helvetica findfont 58.6478 sf 0 0 m (2187) show NC gr 
 gsave  2268 1538 0 0 C 997.013 495.248 t 0 r /Helvetica findfont 58.6478 sf 0 0 m (773) show NC gr 
 gsave  2268 1538 0 0 C 1231.6 495.248 t 0 r /Helvetica findfont 58.6478 sf 0 0 m (296) show NC gr 
 gsave  2268 1538 0 0 C 1466.2 495.248 t 0 r /Helvetica findfont 58.6478 sf 0 0 m (117) show NC gr 
 gsave  2268 1538 0 0 C 1720.34 495.248 t 0 r /Helvetica findfont 58.6478 sf 0 0 m (51) show NC gr 
 gsave  2268 1538 0 0 C 1954.93 495.248 t 0 r /Helvetica findfont 58.6478 sf 0 0 m (14) show NC gr 
 gsave  2268 1538 0 0 C 508.281 625.577 t 0 r /Helvetica findfont 58.6478 sf 0 0 m (1053) show NC gr 
 gsave  2268 1538 0 0 C 762.422 625.577 t 0 r /Helvetica findfont 58.6478 sf 0 0 m (440) show NC gr 
 gsave  2268 1538 0 0 C 997.013 625.577 t 0 r /Helvetica findfont 58.6478 sf 0 0 m (124) show NC gr 
 gsave  2268 1538 0 0 C 1247.9 625.577 t 0 r /Helvetica findfont 58.6478 sf 0 0 m (45) show NC gr 
 gsave  2268 1538 0 0 C 1482.49 625.577 t 0 r /Helvetica findfont 58.6478 sf 0 0 m (13) show NC gr 
 gsave  2268 1538 0 0 C 1733.37 625.577 t 0 r /Helvetica findfont 58.6478 sf 0 0 m (7) show NC gr 
 gsave  2268 1538 0 0 C 1974.48 625.577 t 0 r /Helvetica findfont 58.6478 sf 0 0 m (1) show NC gr 
 gsave  2268 1538 0 0 C 524.572 759.164 t 0 r /Helvetica findfont 58.6478 sf 0 0 m (109) show NC gr 
 gsave  2268 1538 0 0 C 778.713 759.164 t 0 r /Helvetica findfont 58.6478 sf 0 0 m (48) show NC gr 
 gsave  2268 1538 0 0 C 1013.3 759.164 t 0 r /Helvetica findfont 58.6478 sf 0 0 m (14) show NC gr 
 gsave  2268 1538 0 0 C 1264.19 759.164 t 0 r /Helvetica findfont 58.6478 sf 0 0 m (7) show NC gr 
 gsave  2268 1538 0 0 C 1498.78 759.164 t 0 r /Helvetica findfont 58.6478 sf 0 0 m (2) show NC gr 
 gsave  2268 1538 0 0 C 1736.63 759.164 t 0 r /Helvetica findfont 58.6478 sf 0 0 m (1) show NC gr 
 gsave  2268 1538 0 0 C 524.572 889.492 t 0 r /Helvetica findfont 58.6478 sf 0 0 m (134) show NC gr 
 gsave  2268 1538 0 0 C 778.713 889.492 t 0 r /Helvetica findfont 58.6478 sf 0 0 m (44) show NC gr 
 gsave  2268 1538 0 0 C 1029.6 889.492 t 0 r /Helvetica findfont 58.6478 sf 0 0 m (6) show NC gr 
 gsave  2268 1538 0 0 C 1264.19 889.492 t 0 r /Helvetica findfont 58.6478 sf 0 0 m (2) show NC gr 
 gsave  2268 1538 0 0 C 557.154 1023.08 t 0 r /Helvetica findfont 58.6478 sf 0 0 m (4) show NC gr 
 gsave  2268 1538 0 0 C 798.262 1023.08 t 0 r /Helvetica findfont 58.6478 sf 0 0 m (1) show NC gr 
 gsave  2268 1538 0 0 C 1032.85 1023.08 t 0 r /Helvetica findfont 58.6478 sf 0 0 m (1) show NC gr 
 gsave  2268 1538 0 0 C 1267.45 1023.08 t 0 r /Helvetica findfont 58.6478 sf 0 0 m (1) show NC gr 
 gsave  2268 1538 0 0 C 1502.04 1023.08 t 0 r /Helvetica findfont 58.6478 sf 0 0 m (1) show NC gr 
 gsave  2268 1538 0 0 C 544.122 1156.67 t 0 r /Helvetica findfont 58.6478 sf 0 0 m (21) show NC gr 
 gsave  2268 1538 0 0 C 795.004 1156.67 t 0 r /Helvetica findfont 58.6478 sf 0 0 m (5) show NC gr 
 gsave  2268 1538 0 0 C 1029.6 1156.67 t 0 r /Helvetica findfont 58.6478 sf 0 0 m (2) show NC gr 
 gsave  2268 1538 0 0 C 560.413 1420.58 t 0 r /Helvetica findfont 58.6478 sf 0 0 m (1) show NC gr  317 185 m 1883 X s
 gsave  2268 1538 0 0 C 2062.45 29.3239 t 0 r /Helvetica findfont 84.7135 sf 0 0 m ( cut) show NC gr 
 gsave  2268 1538 0 0 C 2026.61 -16.2911 t 0 r /Helvetica findfont 58.6478 sf 0 0 m (T) show NC gr 
 gsave  2268 1538 0 0 C 1570.46 29.3239 t 0 r /Helvetica findfont 84.7135 sf 0 0 m (B\255electron p) show NC gr  317 223 m -38 Y s 365 204 m -19 Y s 412 204 m -19 Y s 459 204 m -19 Y s 506 204 m -19 Y s 553 223 m -38 Y s 600 204 m -19 Y s 647 204 m
 -19 Y s 694 204 m -19 Y s 741 204 m -19 Y s 788 223 m -38 Y s 835 204 m -19 Y s 882 204 m -19 Y s 929 204 m -19 Y s 976 204 m -19 Y s 1023 223 m -38 Y s 1070 204 m -19 Y s 1117 204 m -19 Y s 1164 204 m -19 Y s 1212 204 m -19 Y s 1259 223 m -38 Y s
 1306 204 m -19 Y s 1353 204 m -19 Y s 1400 204 m -19 Y s 1447 204 m -19 Y s 1494 223 m -38 Y s 1541 204 m -19 Y s 1588 204 m -19 Y s 1635 204 m -19 Y s 1682 204 m -19 Y s 1729 223 m -38 Y s 1776 204 m -19 Y s 1823 204 m -19 Y s 1870 204 m -19 Y s
 1917 204 m -19 Y s 1964 223 m -38 Y s 2011 204 m -19 Y s 2059 204 m -19 Y s 2106 204 m -19 Y s 2153 204 m -19 Y s 2200 223 m -38 Y s
 gsave  2268 1538 0 0 C 293.239 104.263 t 0 r /Helvetica findfont 84.7135 sf 0 0 m (0) show NC gr 
 gsave  2268 1538 0 0 C 527.831 104.263 t 0 r /Helvetica findfont 84.7135 sf 0 0 m (5) show NC gr 
 gsave  2268 1538 0 0 C 739.614 104.263 t 0 r /Helvetica findfont 84.7135 sf 0 0 m (10) show NC gr 
 gsave  2268 1538 0 0 C 977.464 104.263 t 0 r /Helvetica findfont 84.7135 sf 0 0 m (15) show NC gr 
 gsave  2268 1538 0 0 C 1212.06 104.263 t 0 r /Helvetica findfont 84.7135 sf 0 0 m (20) show NC gr 
 gsave  2268 1538 0 0 C 1446.65 104.263 t 0 r /Helvetica findfont 84.7135 sf 0 0 m (25) show NC gr 
 gsave  2268 1538 0 0 C 1681.24 104.263 t 0 r /Helvetica findfont 84.7135 sf 0 0 m (30) show NC gr 
 gsave  2268 1538 0 0 C 1915.83 104.263 t 0 r /Helvetica findfont 84.7135 sf 0 0 m (35) show NC gr 
 gsave  2268 1538 0 0 C 2153.68 104.263 t 0 r /Helvetica findfont 84.7135 sf 0 0 m (40) show NC gr  317 1507 m 1883 X s 317 1469 m 38 Y s 365 1488 m 19 Y s 412 1488 m 19 Y s 459 1488 m 19 Y s 506 1488 m 19 Y s 553 1469 m 38 Y s 600 1488 m 19 Y s 647
 1488 m 19 Y s 694 1488 m 19 Y s 741 1488 m 19 Y s 788 1469 m 38 Y s 835 1488 m 19 Y s 882 1488 m 19 Y s 929 1488 m 19 Y s 976 1488 m 19 Y s 1023 1469 m 38 Y s 1070 1488 m 19 Y s 1117 1488 m 19 Y s 1164 1488 m 19 Y s 1212 1488 m 19 Y s 1259 1469 m 38
 Y s 1306 1488 m 19 Y s 1353 1488 m 19 Y s 1400 1488 m 19 Y s 1447 1488 m 19 Y s 1494 1469 m 38 Y s 1541 1488 m 19 Y s 1588 1488 m 19 Y s 1635 1488 m 19 Y s 1682 1488 m 19 Y s 1729 1469 m 38 Y s 1776 1488 m 19 Y s 1823 1488 m 19 Y s 1870 1488 m 19 Y
 s 1917 1488 m 19 Y s 1964 1469 m 38 Y s 2011 1488 m 19 Y s 2059 1488 m 19 Y s 2106 1488 m 19 Y s 2153 1488 m 19 Y s 2200 1469 m 38 Y s 317 185 m 1322 Y s
 gsave  2268 1538 0 0 C 120.554 707.032 t 90 r /Helvetica findfont 84.7135 sf 0 0 m (B\255electron multiplicity) show NC gr  376 251 m -59 X s 347 277 m -30 X s 347 304 m -30 X s 347 330 m -30 X s 347 356 m -30 X s 376 383 m -59 X s 347 409 m -30 X s
 347 436 m -30 X s 347 462 m -30 X s 347 489 m -30 X s 376 515 m -59 X s 347 542 m -30 X s 347 568 m -30 X s 347 595 m -30 X s 347 621 m -30 X s 376 647 m -59 X s 347 674 m -30 X s 347 700 m -30 X s 347 727 m -30 X s 347 753 m -30 X s 376 780 m -59 X
 s 347 806 m -30 X s 347 833 m -30 X s 347 859 m -30 X s 347 886 m -30 X s 376 912 m -59 X s 347 938 m -30 X s 347 965 m -30 X s 347 991 m -30 X s 347 1018 m -30 X s 376 1044 m -59 X s 347 1071 m -30 X s 347 1097 m -30 X s 347 1124 m -30 X s 347 1150
 m -30 X s 376 1176 m -59 X s 347 1203 m -30 X s 347 1229 m -30 X s 347 1256 m -30 X s 347 1282 m -30 X s 376 1309 m -59 X s 347 1335 m -30 X s 347 1362 m -30 X s 347 1388 m -30 X s 347 1415 m -30 X s 376 1441 m -59 X s 376 251 m -59 X s 347 224 m
 -30 X s 347 198 m -30 X s 376 1441 m -59 X s 347 1467 m -30 X s 347 1494 m -30 X s
 gsave  2268 1538 0 0 C 270.432 218.3 t 0 r /Helvetica findfont 84.7135 sf 0 0 m (1) show NC gr 
 gsave  2268 1538 0 0 C 257.399 351.887 t 0 r /Helvetica findfont 84.7135 sf 0 0 m (2) show NC gr 
 gsave  2268 1538 0 0 C 257.399 485.474 t 0 r /Helvetica findfont 84.7135 sf 0 0 m (3) show NC gr 
 gsave  2268 1538 0 0 C 257.399 615.802 t 0 r /Helvetica findfont 84.7135 sf 0 0 m (4) show NC gr 
 gsave  2268 1538 0 0 C 257.399 749.389 t 0 r /Helvetica findfont 84.7135 sf 0 0 m (5) show NC gr 
 gsave  2268 1538 0 0 C 257.399 879.718 t 0 r /Helvetica findfont 84.7135 sf 0 0 m (6) show NC gr 
 gsave  2268 1538 0 0 C 257.399 1013.3 t 0 r /Helvetica findfont 84.7135 sf 0 0 m (7) show NC gr 
 gsave  2268 1538 0 0 C 257.399 1146.89 t 0 r /Helvetica findfont 84.7135 sf 0 0 m (8) show NC gr 
 gsave  2268 1538 0 0 C 257.399 1277.22 t 0 r /Helvetica findfont 84.7135 sf 0 0 m (9) show NC gr 
 gsave  2268 1538 0 0 C 211.784 1410.81 t 0 r /Helvetica findfont 84.7135 sf 0 0 m (10) show NC gr  2200 185 m 1322 Y s 2141 251 m 59 X s 2170 277 m 30 X s 2170 304 m 30 X s 2170 330 m 30 X s 2170 356 m 30 X s 2141 383 m 59 X s 2170 409 m 30 X s 2170
 436 m 30 X s 2170 462 m 30 X s 2170 489 m 30 X s 2141 515 m 59 X s 2170 542 m 30 X s 2170 568 m 30 X s 2170 595 m 30 X s 2170 621 m 30 X s 2141 647 m 59 X s 2170 674 m 30 X s 2170 700 m 30 X s 2170 727 m 30 X s 2170 753 m 30 X s 2141 780 m 59 X s
 2170 806 m 30 X s 2170 833 m 30 X s 2170 859 m 30 X s 2170 886 m 30 X s 2141 912 m 59 X s 2170 938 m 30 X s 2170 965 m 30 X s 2170 991 m 30 X s 2170 1018 m 30 X s 2141 1044 m 59 X s 2170 1071 m 30 X s 2170 1097 m 30 X s 2170 1124 m 30 X s 2170 1150
 m 30 X s 2141 1176 m 59 X s 2170 1203 m 30 X s 2170 1229 m 30 X s 2170 1256 m 30 X s 2170 1282 m 30 X s 2141 1309 m 59 X s 2170 1335 m 30 X s 2170 1362 m 30 X s 2170 1388 m 30 X s 2170 1415 m 30 X s 2141 1441 m 59 X s 2141 251 m 59 X s 2170 224 m 30
 X s 2170 198 m 30 X s 2141 1441 m 59 X s 2170 1467 m 30 X s 2170 1494 m 30 X s
 gr  gr showpage
end
%%EOF
