%!PS-Adobe-2.0 EPSF-2.0
%%BoundingBox:  0 0 567 384
%%Title: Dphi_bbOverBkg.eps: c1
%%Creator: ROOT Version 5.34/14
%%CreationDate: Thu Sep 11 15:42:19 2014
%%EndComments
%%BeginProlog
80 dict begin
/s {stroke} def /l {lineto} def /m {moveto} def /t {translate} def
/r {rotate} def /rl {roll}  def /R {repeat} def
/d {rlineto} def /rm {rmoveto} def /gr {grestore} def /f {eofill} def
/c {setrgbcolor} def /black {0 setgray} def /sd {setdash} def
/cl {closepath} def /sf {scalefont setfont} def /lw {setlinewidth} def
/box {m dup 0 exch d exch 0 d 0 exch neg d cl} def
/NC{systemdict begin initclip end}def/C{NC box clip newpath}def
/bl {box s} def /bf {box f} def /Y { 0 exch d} def /X { 0 d} def 
/K {{pop pop 0 moveto} exch kshow} bind def
/ita {/ang 15 def gsave [1 0 ang dup sin exch cos div 1 0 0] concat} def 
/mp {newpath /y exch def /x exch def} def
/side {[w .77 mul w .23 mul] .385 w mul sd w 0 l currentpoint t -144 r} def
/mr {mp x y w2 0 360 arc} def /m24 {mr s} def /m20 {mr f} def
/mb {mp x y w2 add m w2 neg 0 d 0 w neg d w 0 d 0 w d cl} def
/mt {mp x y w2 add m w2 neg w neg d w 0 d cl} def
/m21 {mb f} def /m25 {mb s} def /m22 {mt f} def /m26{mt s} def
/m23 {mp x y w2 sub m w2 w d w neg 0 d cl f} def
/m27 {mp x y w2 add m w3 neg w2 neg d w3 w2 neg d w3 w2 d cl s} def
/m28 {mp x w2 sub y w2 sub w3 add m w3 0 d  0 w3 neg d w3 0 d 0 w3 d w3 0 d  0 w3 d w3 neg 0 d 0 w3 d w3 neg 0 d 0 w3 neg d w3 neg 0 d cl s } def
/m29 {mp gsave x w2 sub y w2 add w3 sub m currentpoint t 4 {side} repeat cl fill gr} def
/m30 {mp gsave x w2 sub y w2 add w3 sub m currentpoint t 4 {side} repeat cl s gr} def
/m31 {mp x y w2 sub m 0 w d x w2 sub y m w 0 d x w2 sub y w2 add m w w neg d x w2 sub y w2 sub m w w d s} def
/m32 {mp x y w2 sub m w2 w d w neg 0 d cl s} def
/m33 {mp x y w2 add m w3 neg w2 neg d w3 w2 neg d w3 w2 d cl f} def
/m34 {mp x w2 sub y w2 sub w3 add m w3 0 d  0 w3 neg d w3 0 d 0 w3 d w3 0 d  0 w3 d w3 neg 0 d 0 w3 d w3 neg 0 d 0 w3 neg d w3 neg 0 d cl f } def
/m2 {mp x y w2 sub m 0 w d x w2 sub y m w 0 d s} def
/m5 {mp x w2 sub y w2 sub m w w d x w2 sub y w2 add m w w neg d s} def
/reEncode {exch findfont dup length dict begin {1 index /FID eq  {pop pop} {def} ifelse } forall /Encoding exch def currentdict end dup /FontName get exch definefont pop } def [/Times-Bold /Times-Italic /Times-BoldItalic /Helvetica /Helvetica-Oblique
 /Helvetica-Bold /Helvetica-BoldOblique /Courier /Courier-Oblique /Courier-Bold /Courier-BoldOblique /Times-Roman /AvantGarde-Book /AvantGarde-BookOblique /AvantGarde-Demi /AvantGarde-DemiOblique /Bookman-Demi /Bookman-DemiItalic /Bookman-Light
 /Bookman-LightItalic /Helvetica-Narrow /Helvetica-Narrow-Bold /Helvetica-Narrow-BoldOblique /Helvetica-Narrow-Oblique /NewCenturySchlbk-Roman /NewCenturySchlbk-Bold /NewCenturySchlbk-BoldItalic /NewCenturySchlbk-Italic /Palatino-Bold
 /Palatino-BoldItalic /Palatino-Italic /Palatino-Roman ] {ISOLatin1Encoding reEncode } forall
%%EndProlog
%%BeginSetup
%%EndSetup
newpath  gsave  .25 .25 scale  gsave  0 0 t black[  ] 0 sd 3 lw 1 1 1 c 2268 1538 0 0 bf black 1 1 1 c 1883 1322 317 185 bf black 1883 1322 317 185 bl 0 0.4 0 c 9 lw 1 1 1 c black 0 0.4 0 c 317 448 m 189 X 11 Y 188 X 30 Y 188 X 577 Y 188 X -486 Y 189
 X 124 Y 188 X 212 Y 188 X -123 Y 188 X 45 Y 188 X -653 Y 189 X s black 3 lw 317 185 m 1883 X s
 gsave  2268 1538 0 0 C 2156.94 16.2911 t 0 r /Symbol findfont 84.7135 sf 0 0 m (f) show NC gr 
 gsave  2268 1538 0 0 C 2104.81 16.2911 t 0 r /Symbol findfont 84.7135 sf 0 0 m (D) show NC gr  317 223 m -38 Y s 371 204 m -19 Y s 425 204 m -19 Y s 479 204 m -19 Y s 533 204 m -19 Y s 586 223 m -38 Y s 640 204 m -19 Y s 694 204 m -19 Y s 748 204 m
 -19 Y s 801 204 m -19 Y s 855 223 m -38 Y s 909 204 m -19 Y s 963 204 m -19 Y s 1017 204 m -19 Y s 1070 204 m -19 Y s 1124 223 m -38 Y s 1178 204 m -19 Y s 1232 204 m -19 Y s 1285 204 m -19 Y s 1339 204 m -19 Y s 1393 223 m -38 Y s 1447 204 m -19 Y
 s 1501 204 m -19 Y s 1554 204 m -19 Y s 1608 204 m -19 Y s 1662 223 m -38 Y s 1716 204 m -19 Y s 1769 204 m -19 Y s 1823 204 m -19 Y s 1877 204 m -19 Y s 1931 223 m -38 Y s 1985 204 m -19 Y s 2038 204 m -19 Y s 2092 204 m -19 Y s 2146 204 m -19 Y s
 2200 223 m -38 Y s
 gsave  2268 1538 0 0 C 293.239 104.263 t 0 r /Helvetica findfont 84.7135 sf 0 0 m (0) show NC gr 
 gsave  2268 1538 0 0 C 524.572 104.263 t 0 r /Helvetica findfont 84.7135 sf 0 0 m (0.5) show NC gr 
 gsave  2268 1538 0 0 C 837.361 104.263 t 0 r /Helvetica findfont 84.7135 sf 0 0 m (1) show NC gr 
 gsave  2268 1538 0 0 C 1065.44 104.263 t 0 r /Helvetica findfont 84.7135 sf 0 0 m (1.5) show NC gr 
 gsave  2268 1538 0 0 C 1368.45 104.263 t 0 r /Helvetica findfont 84.7135 sf 0 0 m (2) show NC gr 
 gsave  2268 1538 0 0 C 1603.04 104.263 t 0 r /Helvetica findfont 84.7135 sf 0 0 m (2.5) show NC gr 
 gsave  2268 1538 0 0 C 1906.05 104.263 t 0 r /Helvetica findfont 84.7135 sf 0 0 m (3) show NC gr 
 gsave  2268 1538 0 0 C 2140.65 104.263 t 0 r /Helvetica findfont 84.7135 sf 0 0 m (3.5) show NC gr  317 1507 m 1883 X s 317 1469 m 38 Y s 371 1488 m 19 Y s 425 1488 m 19 Y s 479 1488 m 19 Y s 533 1488 m 19 Y s 586 1469 m 38 Y s 640 1488 m 19 Y s 694
 1488 m 19 Y s 748 1488 m 19 Y s 801 1488 m 19 Y s 855 1469 m 38 Y s 909 1488 m 19 Y s 963 1488 m 19 Y s 1017 1488 m 19 Y s 1070 1488 m 19 Y s 1124 1469 m 38 Y s 1178 1488 m 19 Y s 1232 1488 m 19 Y s 1285 1488 m 19 Y s 1339 1488 m 19 Y s 1393 1469 m
 38 Y s 1447 1488 m 19 Y s 1501 1488 m 19 Y s 1554 1488 m 19 Y s 1608 1488 m 19 Y s 1662 1469 m 38 Y s 1716 1488 m 19 Y s 1769 1488 m 19 Y s 1823 1488 m 19 Y s 1877 1488 m 19 Y s 1931 1469 m 38 Y s 1985 1488 m 19 Y s 2038 1488 m 19 Y s 2092 1488 m 19
 Y s 2146 1488 m 19 Y s 2200 1469 m 38 Y s 317 185 m 1322 Y s
 gsave  2268 1538 0 0 C 130.329 1374.97 t 90 r /Helvetica findfont 84.7135 sf 0 0 m (S/B) show NC gr  376 185 m -59 X s 347 224 m -30 X s 347 263 m -30 X s 347 302 m -30 X s 347 341 m -30 X s 376 380 m -59 X s 347 419 m -30 X s 347 458 m -30 X s 347
 497 m -30 X s 347 536 m -30 X s 376 575 m -59 X s 347 613 m -30 X s 347 652 m -30 X s 347 691 m -30 X s 347 730 m -30 X s 376 769 m -59 X s 347 808 m -30 X s 347 847 m -30 X s 347 886 m -30 X s 347 925 m -30 X s 376 964 m -59 X s 347 1003 m -30 X s
 347 1042 m -30 X s 347 1081 m -30 X s 347 1120 m -30 X s 376 1159 m -59 X s 347 1198 m -30 X s 347 1237 m -30 X s 347 1276 m -30 X s 347 1315 m -30 X s 376 1354 m -59 X s 376 1354 m -59 X s 347 1393 m -30 X s 347 1432 m -30 X s 347 1471 m -30 X s
 gsave  2268 1538 0 0 C 257.399 153.136 t 0 r /Helvetica findfont 84.7135 sf 0 0 m (0) show NC gr 
 gsave  2268 1538 0 0 C 140.103 348.629 t 0 r /Helvetica findfont 84.7135 sf 0 0 m (0.05) show NC gr 
 gsave  2268 1538 0 0 C 202.009 544.122 t 0 r /Helvetica findfont 84.7135 sf 0 0 m (0.1) show NC gr 
 gsave  2268 1538 0 0 C 140.103 739.614 t 0 r /Helvetica findfont 84.7135 sf 0 0 m (0.15) show NC gr 
 gsave  2268 1538 0 0 C 188.976 935.107 t 0 r /Helvetica findfont 84.7135 sf 0 0 m (0.2) show NC gr 
 gsave  2268 1538 0 0 C 140.103 1127.34 t 0 r /Helvetica findfont 84.7135 sf 0 0 m (0.25) show NC gr 
 gsave  2268 1538 0 0 C 188.976 1322.83 t 0 r /Helvetica findfont 84.7135 sf 0 0 m (0.3) show NC gr  2200 185 m 1322 Y s 2141 185 m 59 X s 2170 224 m 30 X s 2170 263 m 30 X s 2170 302 m 30 X s 2170 341 m 30 X s 2141 380 m 59 X s 2170 419 m 30 X s
 2170 458 m 30 X s 2170 497 m 30 X s 2170 536 m 30 X s 2141 575 m 59 X s 2170 613 m 30 X s 2170 652 m 30 X s 2170 691 m 30 X s 2170 730 m 30 X s 2141 769 m 59 X s 2170 808 m 30 X s 2170 847 m 30 X s 2170 886 m 30 X s 2170 925 m 30 X s 2141 964 m 59 X
 s 2170 1003 m 30 X s 2170 1042 m 30 X s 2170 1081 m 30 X s 2170 1120 m 30 X s 2141 1159 m 59 X s 2170 1198 m 30 X s 2170 1237 m 30 X s 2170 1276 m 30 X s 2170 1315 m 30 X s 2141 1354 m 59 X s 2141 1354 m 59 X s 2170 1393 m 30 X s 2170 1432 m 30 X s
 2170 1471 m 30 X s 0.6 0 0 c 9 lw 1 1 1 c black 0.6 0 0 c 317 378 m 189 X 78 Y 188 X -32 Y 188 X 78 Y 188 X -15 Y 189 X -22 Y 188 X 58 Y 188 X -13 Y 188 X -77 Y 188 X -248 Y 189 X s black
 gsave  2268 1538 0 0 C 1410.81 1322.83 t 0 r /Helvetica-Bold findfont 42.3568 sf 0 0 m (nonZDphi) show NC gr  0 0.4 0 c 1330 1365 m 67 X s black
 gsave  2268 1538 0 0 C 1410.81 1130.6 t 0 r /Helvetica-Bold findfont 42.3568 sf 0 0 m (tightLLhDphi) show NC gr  0.6 0 0 c 1330 1173 m 67 X s
 gr  gr showpage
end
%%EOF
