%!PS-Adobe-2.0 EPSF-2.0
%%BoundingBox:  0 0 567 384
%%Title: Dr_hfOverBkg.eps: c1
%%Creator: ROOT Version 5.34/14
%%CreationDate: Thu Sep 11 15:42:19 2014
%%EndComments
%%BeginProlog
80 dict begin
/s {stroke} def /l {lineto} def /m {moveto} def /t {translate} def
/r {rotate} def /rl {roll}  def /R {repeat} def
/d {rlineto} def /rm {rmoveto} def /gr {grestore} def /f {eofill} def
/c {setrgbcolor} def /black {0 setgray} def /sd {setdash} def
/cl {closepath} def /sf {scalefont setfont} def /lw {setlinewidth} def
/box {m dup 0 exch d exch 0 d 0 exch neg d cl} def
/NC{systemdict begin initclip end}def/C{NC box clip newpath}def
/bl {box s} def /bf {box f} def /Y { 0 exch d} def /X { 0 d} def 
/K {{pop pop 0 moveto} exch kshow} bind def
/ita {/ang 15 def gsave [1 0 ang dup sin exch cos div 1 0 0] concat} def 
/mp {newpath /y exch def /x exch def} def
/side {[w .77 mul w .23 mul] .385 w mul sd w 0 l currentpoint t -144 r} def
/mr {mp x y w2 0 360 arc} def /m24 {mr s} def /m20 {mr f} def
/mb {mp x y w2 add m w2 neg 0 d 0 w neg d w 0 d 0 w d cl} def
/mt {mp x y w2 add m w2 neg w neg d w 0 d cl} def
/m21 {mb f} def /m25 {mb s} def /m22 {mt f} def /m26{mt s} def
/m23 {mp x y w2 sub m w2 w d w neg 0 d cl f} def
/m27 {mp x y w2 add m w3 neg w2 neg d w3 w2 neg d w3 w2 d cl s} def
/m28 {mp x w2 sub y w2 sub w3 add m w3 0 d  0 w3 neg d w3 0 d 0 w3 d w3 0 d  0 w3 d w3 neg 0 d 0 w3 d w3 neg 0 d 0 w3 neg d w3 neg 0 d cl s } def
/m29 {mp gsave x w2 sub y w2 add w3 sub m currentpoint t 4 {side} repeat cl fill gr} def
/m30 {mp gsave x w2 sub y w2 add w3 sub m currentpoint t 4 {side} repeat cl s gr} def
/m31 {mp x y w2 sub m 0 w d x w2 sub y m w 0 d x w2 sub y w2 add m w w neg d x w2 sub y w2 sub m w w d s} def
/m32 {mp x y w2 sub m w2 w d w neg 0 d cl s} def
/m33 {mp x y w2 add m w3 neg w2 neg d w3 w2 neg d w3 w2 d cl f} def
/m34 {mp x w2 sub y w2 sub w3 add m w3 0 d  0 w3 neg d w3 0 d 0 w3 d w3 0 d  0 w3 d w3 neg 0 d 0 w3 d w3 neg 0 d 0 w3 neg d w3 neg 0 d cl f } def
/m2 {mp x y w2 sub m 0 w d x w2 sub y m w 0 d s} def
/m5 {mp x w2 sub y w2 sub m w w d x w2 sub y w2 add m w w neg d s} def
/reEncode {exch findfont dup length dict begin {1 index /FID eq  {pop pop} {def} ifelse } forall /Encoding exch def currentdict end dup /FontName get exch definefont pop } def [/Times-Bold /Times-Italic /Times-BoldItalic /Helvetica /Helvetica-Oblique
 /Helvetica-Bold /Helvetica-BoldOblique /Courier /Courier-Oblique /Courier-Bold /Courier-BoldOblique /Times-Roman /AvantGarde-Book /AvantGarde-BookOblique /AvantGarde-Demi /AvantGarde-DemiOblique /Bookman-Demi /Bookman-DemiItalic /Bookman-Light
 /Bookman-LightItalic /Helvetica-Narrow /Helvetica-Narrow-Bold /Helvetica-Narrow-BoldOblique /Helvetica-Narrow-Oblique /NewCenturySchlbk-Roman /NewCenturySchlbk-Bold /NewCenturySchlbk-BoldItalic /NewCenturySchlbk-Italic /Palatino-Bold
 /Palatino-BoldItalic /Palatino-Italic /Palatino-Roman ] {ISOLatin1Encoding reEncode } forall
%%EndProlog
%%BeginSetup
%%EndSetup
newpath  gsave  .25 .25 scale  gsave  0 0 t black[  ] 0 sd 3 lw 1 1 1 c 2268 1538 0 0 bf black 1 1 1 c 1883 1322 317 185 bf black 1883 1322 317 185 bl 0 0.4 0 c 9 lw 1 1 1 c black 0 0.4 0 c 317 187 m 314 X 2 Y 157 X -1 Y 157 X 1 Y 157 X 1 Y 157 X 1 Y
 156 X -4 Y 157 X 1 Y 157 X 1256 Y 157 X -1259 Y 314 X s black 3 lw 317 185 m 1883 X s
 gsave  2268 1538 0 0 C 2147.16 6.51643 t 0 r /Helvetica findfont 84.7135 sf 0 0 m ( r) show NC gr 
 gsave  2268 1538 0 0 C 2095.03 6.51643 t 0 r /Symbol findfont 84.7135 sf 0 0 m (D) show NC gr  317 223 m -38 Y s 380 204 m -19 Y s 443 204 m -19 Y s 506 204 m -19 Y s 568 204 m -19 Y s 631 223 m -38 Y s 694 204 m -19 Y s 757 204 m -19 Y s 819 204 m
 -19 Y s 882 204 m -19 Y s 945 223 m -38 Y s 1008 204 m -19 Y s 1070 204 m -19 Y s 1133 204 m -19 Y s 1196 204 m -19 Y s 1259 223 m -38 Y s 1321 204 m -19 Y s 1384 204 m -19 Y s 1447 204 m -19 Y s 1510 204 m -19 Y s 1572 223 m -38 Y s 1635 204 m -19
 Y s 1698 204 m -19 Y s 1761 204 m -19 Y s 1823 204 m -19 Y s 1886 223 m -38 Y s 1949 204 m -19 Y s 2011 204 m -19 Y s 2074 204 m -19 Y s 2137 204 m -19 Y s 2200 223 m -38 Y s
 gsave  2268 1538 0 0 C 293.239 104.263 t 0 r /Helvetica findfont 84.7135 sf 0 0 m (0) show NC gr 
 gsave  2268 1538 0 0 C 612.544 104.263 t 0 r /Helvetica findfont 84.7135 sf 0 0 m (1) show NC gr 
 gsave  2268 1538 0 0 C 922.074 104.263 t 0 r /Helvetica findfont 84.7135 sf 0 0 m (2) show NC gr 
 gsave  2268 1538 0 0 C 1234.86 104.263 t 0 r /Helvetica findfont 84.7135 sf 0 0 m (3) show NC gr 
 gsave  2268 1538 0 0 C 1547.65 104.263 t 0 r /Helvetica findfont 84.7135 sf 0 0 m (4) show NC gr 
 gsave  2268 1538 0 0 C 1860.44 104.263 t 0 r /Helvetica findfont 84.7135 sf 0 0 m (5) show NC gr 
 gsave  2268 1538 0 0 C 2176.49 104.263 t 0 r /Helvetica findfont 84.7135 sf 0 0 m (6) show NC gr  317 1507 m 1883 X s 317 1469 m 38 Y s 380 1488 m 19 Y s 443 1488 m 19 Y s 506 1488 m 19 Y s 568 1488 m 19 Y s 631 1469 m 38 Y s 694 1488 m 19 Y s 757
 1488 m 19 Y s 819 1488 m 19 Y s 882 1488 m 19 Y s 945 1469 m 38 Y s 1008 1488 m 19 Y s 1070 1488 m 19 Y s 1133 1488 m 19 Y s 1196 1488 m 19 Y s 1259 1469 m 38 Y s 1321 1488 m 19 Y s 1384 1488 m 19 Y s 1447 1488 m 19 Y s 1510 1488 m 19 Y s 1572 1469
 m 38 Y s 1635 1488 m 19 Y s 1698 1488 m 19 Y s 1761 1488 m 19 Y s 1823 1488 m 19 Y s 1886 1469 m 38 Y s 1949 1488 m 19 Y s 2011 1488 m 19 Y s 2074 1488 m 19 Y s 2137 1488 m 19 Y s 2200 1469 m 38 Y s 317 185 m 1322 Y s
 gsave  2268 1538 0 0 C 130.329 1374.97 t 90 r /Helvetica findfont 84.7135 sf 0 0 m (S/B) show NC gr  376 185 m -59 X s 347 223 m -30 X s 347 261 m -30 X s 347 299 m -30 X s 347 337 m -30 X s 376 376 m -59 X s 347 414 m -30 X s 347 452 m -30 X s 347
 490 m -30 X s 347 528 m -30 X s 376 567 m -59 X s 347 605 m -30 X s 347 643 m -30 X s 347 681 m -30 X s 347 720 m -30 X s 376 758 m -59 X s 347 796 m -30 X s 347 834 m -30 X s 347 872 m -30 X s 347 911 m -30 X s 376 949 m -59 X s 347 987 m -30 X s
 347 1025 m -30 X s 347 1064 m -30 X s 347 1102 m -30 X s 376 1140 m -59 X s 347 1178 m -30 X s 347 1216 m -30 X s 347 1255 m -30 X s 347 1293 m -30 X s 376 1331 m -59 X s 376 1331 m -59 X s 347 1369 m -30 X s 347 1407 m -30 X s 347 1446 m -30 X s
 347 1484 m -30 X s
 gsave  2268 1538 0 0 C 257.399 153.136 t 0 r /Helvetica findfont 84.7135 sf 0 0 m (0) show NC gr 
 gsave  2268 1538 0 0 C 257.399 345.371 t 0 r /Helvetica findfont 84.7135 sf 0 0 m (5) show NC gr 
 gsave  2268 1538 0 0 C 211.784 534.347 t 0 r /Helvetica findfont 84.7135 sf 0 0 m (10) show NC gr 
 gsave  2268 1538 0 0 C 211.784 726.582 t 0 r /Helvetica findfont 84.7135 sf 0 0 m (15) show NC gr 
 gsave  2268 1538 0 0 C 211.784 918.816 t 0 r /Helvetica findfont 84.7135 sf 0 0 m (20) show NC gr 
 gsave  2268 1538 0 0 C 211.784 1107.79 t 0 r /Helvetica findfont 84.7135 sf 0 0 m (25) show NC gr 
 gsave  2268 1538 0 0 C 211.784 1300.03 t 0 r /Helvetica findfont 84.7135 sf 0 0 m (30) show NC gr  2200 185 m 1322 Y s 2141 185 m 59 X s 2170 223 m 30 X s 2170 261 m 30 X s 2170 299 m 30 X s 2170 337 m 30 X s 2141 376 m 59 X s 2170 414 m 30 X s 2170
 452 m 30 X s 2170 490 m 30 X s 2170 528 m 30 X s 2141 567 m 59 X s 2170 605 m 30 X s 2170 643 m 30 X s 2170 681 m 30 X s 2170 720 m 30 X s 2141 758 m 59 X s 2170 796 m 30 X s 2170 834 m 30 X s 2170 872 m 30 X s 2170 911 m 30 X s 2141 949 m 59 X s
 2170 987 m 30 X s 2170 1025 m 30 X s 2170 1064 m 30 X s 2170 1102 m 30 X s 2141 1140 m 59 X s 2170 1178 m 30 X s 2170 1216 m 30 X s 2170 1255 m 30 X s 2170 1293 m 30 X s 2141 1331 m 59 X s 2141 1331 m 59 X s 2170 1369 m 30 X s 2170 1407 m 30 X s
 2170 1446 m 30 X s 2170 1484 m 30 X s 0.6 0 0 c 9 lw 1 1 1 c black 0.6 0 0 c 317 186 m 157 X 1 Y 1412 X -2 Y 314 X s black
 gsave  2268 1538 0 0 C 1795.28 1322.83 t 0 r /Helvetica-Bold findfont 52.1314 sf 0 0 m (nonZDr) show NC gr  0 0.4 0 c 1715 1365 m 68 X s black
 gsave  2268 1538 0 0 C 1795.28 1130.6 t 0 r /Helvetica-Bold findfont 52.1314 sf 0 0 m (tightLLhDr) show NC gr  0.6 0 0 c 1715 1173 m 68 X s
 gr  gr showpage
end
%%EOF
