%!PS-Adobe-2.0 EPSF-2.0
%%BoundingBox:  0 0 567 384
%%Title: Elq1q2_bbOverBkg.eps: c1
%%Creator: ROOT Version 5.34/14
%%CreationDate: Thu Sep 11 15:42:19 2014
%%EndComments
%%BeginProlog
80 dict begin
/s {stroke} def /l {lineto} def /m {moveto} def /t {translate} def
/r {rotate} def /rl {roll}  def /R {repeat} def
/d {rlineto} def /rm {rmoveto} def /gr {grestore} def /f {eofill} def
/c {setrgbcolor} def /black {0 setgray} def /sd {setdash} def
/cl {closepath} def /sf {scalefont setfont} def /lw {setlinewidth} def
/box {m dup 0 exch d exch 0 d 0 exch neg d cl} def
/NC{systemdict begin initclip end}def/C{NC box clip newpath}def
/bl {box s} def /bf {box f} def /Y { 0 exch d} def /X { 0 d} def 
/K {{pop pop 0 moveto} exch kshow} bind def
/ita {/ang 15 def gsave [1 0 ang dup sin exch cos div 1 0 0] concat} def 
/mp {newpath /y exch def /x exch def} def
/side {[w .77 mul w .23 mul] .385 w mul sd w 0 l currentpoint t -144 r} def
/mr {mp x y w2 0 360 arc} def /m24 {mr s} def /m20 {mr f} def
/mb {mp x y w2 add m w2 neg 0 d 0 w neg d w 0 d 0 w d cl} def
/mt {mp x y w2 add m w2 neg w neg d w 0 d cl} def
/m21 {mb f} def /m25 {mb s} def /m22 {mt f} def /m26{mt s} def
/m23 {mp x y w2 sub m w2 w d w neg 0 d cl f} def
/m27 {mp x y w2 add m w3 neg w2 neg d w3 w2 neg d w3 w2 d cl s} def
/m28 {mp x w2 sub y w2 sub w3 add m w3 0 d  0 w3 neg d w3 0 d 0 w3 d w3 0 d  0 w3 d w3 neg 0 d 0 w3 d w3 neg 0 d 0 w3 neg d w3 neg 0 d cl s } def
/m29 {mp gsave x w2 sub y w2 add w3 sub m currentpoint t 4 {side} repeat cl fill gr} def
/m30 {mp gsave x w2 sub y w2 add w3 sub m currentpoint t 4 {side} repeat cl s gr} def
/m31 {mp x y w2 sub m 0 w d x w2 sub y m w 0 d x w2 sub y w2 add m w w neg d x w2 sub y w2 sub m w w d s} def
/m32 {mp x y w2 sub m w2 w d w neg 0 d cl s} def
/m33 {mp x y w2 add m w3 neg w2 neg d w3 w2 neg d w3 w2 d cl f} def
/m34 {mp x w2 sub y w2 sub w3 add m w3 0 d  0 w3 neg d w3 0 d 0 w3 d w3 0 d  0 w3 d w3 neg 0 d 0 w3 d w3 neg 0 d 0 w3 neg d w3 neg 0 d cl f } def
/m2 {mp x y w2 sub m 0 w d x w2 sub y m w 0 d s} def
/m5 {mp x w2 sub y w2 sub m w w d x w2 sub y w2 add m w w neg d s} def
/reEncode {exch findfont dup length dict begin {1 index /FID eq  {pop pop} {def} ifelse } forall /Encoding exch def currentdict end dup /FontName get exch definefont pop } def [/Times-Bold /Times-Italic /Times-BoldItalic /Helvetica /Helvetica-Oblique
 /Helvetica-Bold /Helvetica-BoldOblique /Courier /Courier-Oblique /Courier-Bold /Courier-BoldOblique /Times-Roman /AvantGarde-Book /AvantGarde-BookOblique /AvantGarde-Demi /AvantGarde-DemiOblique /Bookman-Demi /Bookman-DemiItalic /Bookman-Light
 /Bookman-LightItalic /Helvetica-Narrow /Helvetica-Narrow-Bold /Helvetica-Narrow-BoldOblique /Helvetica-Narrow-Oblique /NewCenturySchlbk-Roman /NewCenturySchlbk-Bold /NewCenturySchlbk-BoldItalic /NewCenturySchlbk-Italic /Palatino-Bold
 /Palatino-BoldItalic /Palatino-Italic /Palatino-Roman ] {ISOLatin1Encoding reEncode } forall
%%EndProlog
%%BeginSetup
%%EndSetup
newpath  gsave  .25 .25 scale  gsave  0 0 t black[  ] 0 sd 3 lw 1 1 1 c 2268 1538 0 0 bf black 1 1 1 c 1883 1322 317 185 bf black 1883 1322 317 185 bl 0 0.4 0 c 9 lw 1 1 1 c black 0 0.4 0 c 317 1066 m 628 X -881 Y 627 X 650 Y 628 X s black 3 lw 317
 185 m 1883 X s
 gsave  2268 1538 0 0 C 1990.77 16.2911 t 0 r /Helvetica findfont 84.7135 sf 0 0 m (q1.q2) show NC gr  317 223 m -38 Y s 380 204 m -19 Y s 443 204 m -19 Y s 506 204 m -19 Y s 568 204 m -19 Y s 631 223 m -38 Y s 694 204 m -19 Y s 757 204 m -19 Y s 819
 204 m -19 Y s 882 204 m -19 Y s 945 223 m -38 Y s 1008 204 m -19 Y s 1070 204 m -19 Y s 1133 204 m -19 Y s 1196 204 m -19 Y s 1259 223 m -38 Y s 1321 204 m -19 Y s 1384 204 m -19 Y s 1447 204 m -19 Y s 1510 204 m -19 Y s 1572 223 m -38 Y s 1635 204
 m -19 Y s 1698 204 m -19 Y s 1761 204 m -19 Y s 1823 204 m -19 Y s 1886 223 m -38 Y s 1949 204 m -19 Y s 2011 204 m -19 Y s 2074 204 m -19 Y s 2137 204 m -19 Y s 2200 223 m -38 Y s
 gsave  2268 1538 0 0 C 244.366 104.263 t 0 r /Helvetica findfont 84.7135 sf 0 0 m (\2551.5) show NC gr 
 gsave  2268 1538 0 0 C 599.511 104.263 t 0 r /Helvetica findfont 84.7135 sf 0 0 m (\2551) show NC gr 
 gsave  2268 1538 0 0 C 873.201 104.263 t 0 r /Helvetica findfont 84.7135 sf 0 0 m (\2550.5) show NC gr 
 gsave  2268 1538 0 0 C 1234.86 104.263 t 0 r /Helvetica findfont 84.7135 sf 0 0 m (0) show NC gr 
 gsave  2268 1538 0 0 C 1511.81 104.263 t 0 r /Helvetica findfont 84.7135 sf 0 0 m (0.5) show NC gr 
 gsave  2268 1538 0 0 C 1866.96 104.263 t 0 r /Helvetica findfont 84.7135 sf 0 0 m (1) show NC gr 
 gsave  2268 1538 0 0 C 2140.65 104.263 t 0 r /Helvetica findfont 84.7135 sf 0 0 m (1.5) show NC gr  317 1507 m 1883 X s 317 1469 m 38 Y s 380 1488 m 19 Y s 443 1488 m 19 Y s 506 1488 m 19 Y s 568 1488 m 19 Y s 631 1469 m 38 Y s 694 1488 m 19 Y s 757
 1488 m 19 Y s 819 1488 m 19 Y s 882 1488 m 19 Y s 945 1469 m 38 Y s 1008 1488 m 19 Y s 1070 1488 m 19 Y s 1133 1488 m 19 Y s 1196 1488 m 19 Y s 1259 1469 m 38 Y s 1321 1488 m 19 Y s 1384 1488 m 19 Y s 1447 1488 m 19 Y s 1510 1488 m 19 Y s 1572 1469
 m 38 Y s 1635 1488 m 19 Y s 1698 1488 m 19 Y s 1761 1488 m 19 Y s 1823 1488 m 19 Y s 1886 1469 m 38 Y s 1949 1488 m 19 Y s 2011 1488 m 19 Y s 2074 1488 m 19 Y s 2137 1488 m 19 Y s 2200 1469 m 38 Y s 317 185 m 1322 Y s
 gsave  2268 1538 0 0 C 130.329 1374.97 t 90 r /Helvetica findfont 84.7135 sf 0 0 m (S/B) show NC gr  376 185 m -59 X s 347 225 m -30 X s 347 266 m -30 X s 347 307 m -30 X s 376 348 m -59 X s 347 389 m -30 X s 347 430 m -30 X s 347 470 m -30 X s 376
 511 m -59 X s 347 552 m -30 X s 347 593 m -30 X s 347 634 m -30 X s 376 675 m -59 X s 347 716 m -30 X s 347 756 m -30 X s 347 797 m -30 X s 376 838 m -59 X s 347 879 m -30 X s 347 920 m -30 X s 347 961 m -30 X s 376 1002 m -59 X s 347 1042 m -30 X s
 347 1083 m -30 X s 347 1124 m -30 X s 376 1165 m -59 X s 347 1206 m -30 X s 347 1247 m -30 X s 347 1287 m -30 X s 376 1328 m -59 X s 347 1369 m -30 X s 347 1410 m -30 X s 347 1451 m -30 X s 376 1492 m -59 X s 376 1492 m -59 X s
 gsave  2268 1538 0 0 C 257.399 153.136 t 0 r /Helvetica findfont 84.7135 sf 0 0 m (0) show NC gr 
 gsave  2268 1538 0 0 C 140.103 316.047 t 0 r /Helvetica findfont 84.7135 sf 0 0 m (0.02) show NC gr 
 gsave  2268 1538 0 0 C 140.103 478.957 t 0 r /Helvetica findfont 84.7135 sf 0 0 m (0.04) show NC gr 
 gsave  2268 1538 0 0 C 140.103 645.126 t 0 r /Helvetica findfont 84.7135 sf 0 0 m (0.06) show NC gr 
 gsave  2268 1538 0 0 C 140.103 808.037 t 0 r /Helvetica findfont 84.7135 sf 0 0 m (0.08) show NC gr 
 gsave  2268 1538 0 0 C 202.009 970.948 t 0 r /Helvetica findfont 84.7135 sf 0 0 m (0.1) show NC gr 
 gsave  2268 1538 0 0 C 140.103 1133.86 t 0 r /Helvetica findfont 84.7135 sf 0 0 m (0.12) show NC gr 
 gsave  2268 1538 0 0 C 140.103 1296.77 t 0 r /Helvetica findfont 84.7135 sf 0 0 m (0.14) show NC gr 
 gsave  2268 1538 0 0 C 140.103 1459.68 t 0 r /Helvetica findfont 84.7135 sf 0 0 m (0.16) show NC gr  2200 185 m 1322 Y s 2141 185 m 59 X s 2170 225 m 30 X s 2170 266 m 30 X s 2170 307 m 30 X s 2141 348 m 59 X s 2170 389 m 30 X s 2170 430 m 30 X s
 2170 470 m 30 X s 2141 511 m 59 X s 2170 552 m 30 X s 2170 593 m 30 X s 2170 634 m 30 X s 2141 675 m 59 X s 2170 716 m 30 X s 2170 756 m 30 X s 2170 797 m 30 X s 2141 838 m 59 X s 2170 879 m 30 X s 2170 920 m 30 X s 2170 961 m 30 X s 2141 1002 m 59
 X s 2170 1042 m 30 X s 2170 1083 m 30 X s 2170 1124 m 30 X s 2141 1165 m 59 X s 2170 1206 m 30 X s 2170 1247 m 30 X s 2170 1287 m 30 X s 2141 1328 m 59 X s 2170 1369 m 30 X s 2170 1410 m 30 X s 2170 1451 m 30 X s 2141 1492 m 59 X s 2141 1492 m 59 X
 s 0.6 0 0 c 9 lw 1 1 1 c black 0.6 0 0 c 317 648 m 628 X -463 Y 627 X 500 Y 628 X s black
 gsave  2268 1538 0 0 C 1410.81 1322.83 t 0 r /Helvetica-Bold findfont 35.8403 sf 0 0 m (nonZElq1q2) show NC gr  0 0.4 0 c 1330 1365 m 67 X s black
 gsave  2268 1538 0 0 C 1410.81 1130.6 t 0 r /Helvetica-Bold findfont 35.8403 sf 0 0 m (tightLLhElq1q2) show NC gr  0.6 0 0 c 1330 1173 m 67 X s
 gr  gr showpage
end
%%EOF
