%!PS-Adobe-2.0 EPSF-2.0
%%BoundingBox:  0 0 567 384
%%Title: Mass_bbOverBkg.eps: c1
%%Creator: ROOT Version 5.34/14
%%CreationDate: Thu Sep 11 15:42:19 2014
%%EndComments
%%BeginProlog
80 dict begin
/s {stroke} def /l {lineto} def /m {moveto} def /t {translate} def
/r {rotate} def /rl {roll}  def /R {repeat} def
/d {rlineto} def /rm {rmoveto} def /gr {grestore} def /f {eofill} def
/c {setrgbcolor} def /black {0 setgray} def /sd {setdash} def
/cl {closepath} def /sf {scalefont setfont} def /lw {setlinewidth} def
/box {m dup 0 exch d exch 0 d 0 exch neg d cl} def
/NC{systemdict begin initclip end}def/C{NC box clip newpath}def
/bl {box s} def /bf {box f} def /Y { 0 exch d} def /X { 0 d} def 
/K {{pop pop 0 moveto} exch kshow} bind def
/ita {/ang 15 def gsave [1 0 ang dup sin exch cos div 1 0 0] concat} def 
/mp {newpath /y exch def /x exch def} def
/side {[w .77 mul w .23 mul] .385 w mul sd w 0 l currentpoint t -144 r} def
/mr {mp x y w2 0 360 arc} def /m24 {mr s} def /m20 {mr f} def
/mb {mp x y w2 add m w2 neg 0 d 0 w neg d w 0 d 0 w d cl} def
/mt {mp x y w2 add m w2 neg w neg d w 0 d cl} def
/m21 {mb f} def /m25 {mb s} def /m22 {mt f} def /m26{mt s} def
/m23 {mp x y w2 sub m w2 w d w neg 0 d cl f} def
/m27 {mp x y w2 add m w3 neg w2 neg d w3 w2 neg d w3 w2 d cl s} def
/m28 {mp x w2 sub y w2 sub w3 add m w3 0 d  0 w3 neg d w3 0 d 0 w3 d w3 0 d  0 w3 d w3 neg 0 d 0 w3 d w3 neg 0 d 0 w3 neg d w3 neg 0 d cl s } def
/m29 {mp gsave x w2 sub y w2 add w3 sub m currentpoint t 4 {side} repeat cl fill gr} def
/m30 {mp gsave x w2 sub y w2 add w3 sub m currentpoint t 4 {side} repeat cl s gr} def
/m31 {mp x y w2 sub m 0 w d x w2 sub y m w 0 d x w2 sub y w2 add m w w neg d x w2 sub y w2 sub m w w d s} def
/m32 {mp x y w2 sub m w2 w d w neg 0 d cl s} def
/m33 {mp x y w2 add m w3 neg w2 neg d w3 w2 neg d w3 w2 d cl f} def
/m34 {mp x w2 sub y w2 sub w3 add m w3 0 d  0 w3 neg d w3 0 d 0 w3 d w3 0 d  0 w3 d w3 neg 0 d 0 w3 d w3 neg 0 d 0 w3 neg d w3 neg 0 d cl f } def
/m2 {mp x y w2 sub m 0 w d x w2 sub y m w 0 d s} def
/m5 {mp x w2 sub y w2 sub m w w d x w2 sub y w2 add m w w neg d s} def
/reEncode {exch findfont dup length dict begin {1 index /FID eq  {pop pop} {def} ifelse } forall /Encoding exch def currentdict end dup /FontName get exch definefont pop } def [/Times-Bold /Times-Italic /Times-BoldItalic /Helvetica /Helvetica-Oblique
 /Helvetica-Bold /Helvetica-BoldOblique /Courier /Courier-Oblique /Courier-Bold /Courier-BoldOblique /Times-Roman /AvantGarde-Book /AvantGarde-BookOblique /AvantGarde-Demi /AvantGarde-DemiOblique /Bookman-Demi /Bookman-DemiItalic /Bookman-Light
 /Bookman-LightItalic /Helvetica-Narrow /Helvetica-Narrow-Bold /Helvetica-Narrow-BoldOblique /Helvetica-Narrow-Oblique /NewCenturySchlbk-Roman /NewCenturySchlbk-Bold /NewCenturySchlbk-BoldItalic /NewCenturySchlbk-Italic /Palatino-Bold
 /Palatino-BoldItalic /Palatino-Italic /Palatino-Roman ] {ISOLatin1Encoding reEncode } forall
%%EndProlog
%%BeginSetup
%%EndSetup
newpath  gsave  .25 .25 scale  gsave  0 0 t black[  ] 0 sd 3 lw 1 1 1 c 2268 1538 0 0 bf black 1 1 1 c 1883 1322 317 185 bf black 1883 1322 317 185 bl 0 0.4 0 c 9 lw 1 1 1 c black 0 0.4 0 c 317 320 m 76 X 99 Y 75 X -19 Y 75 X -144 Y 76 X -52 Y 75 X
 506 Y 75 X 60 Y 75 X -426 Y 76 X 232 Y 75 X -170 Y 75 X 128 Y 76 X -136 Y 75 X -72 Y 75 X 227 Y 76 X -193 Y 75 X 66 Y 75 X -76 Y 75 X 190 Y 76 X -48 Y 75 X 131 Y 75 X 9 Y 76 X 434 Y 75 X -452 Y 75 X -386 Y 75 X 163 Y 76 X s black 3 lw 317 185 m 1883
 X s
 gsave  2268 1538 0 0 C 1893.02 13.0329 t 0 r /Helvetica findfont 84.7135 sf 0 0 m (m [GeV]) show NC gr  471 223 m -38 Y s 510 204 m -19 Y s 548 204 m -19 Y s 586 204 m -19 Y s 625 204 m -19 Y s 663 223 m -38 Y s 702 204 m -19 Y s 740 204 m -19 Y s
 778 204 m -19 Y s 817 204 m -19 Y s 855 223 m -38 Y s 894 204 m -19 Y s 932 204 m -19 Y s 970 204 m -19 Y s 1009 204 m -19 Y s 1047 223 m -38 Y s 1086 204 m -19 Y s 1124 204 m -19 Y s 1163 204 m -19 Y s 1201 204 m -19 Y s 1239 223 m -38 Y s 1278 204
 m -19 Y s 1316 204 m -19 Y s 1355 204 m -19 Y s 1393 204 m -19 Y s 1431 223 m -38 Y s 1470 204 m -19 Y s 1508 204 m -19 Y s 1547 204 m -19 Y s 1585 204 m -19 Y s 1623 223 m -38 Y s 1662 204 m -19 Y s 1700 204 m -19 Y s 1739 204 m -19 Y s 1777 204 m
 -19 Y s 1816 223 m -38 Y s 1854 204 m -19 Y s 1892 204 m -19 Y s 1931 204 m -19 Y s 1969 204 m -19 Y s 2008 223 m -38 Y s 2046 204 m -19 Y s 2084 204 m -19 Y s 2123 204 m -19 Y s 2161 204 m -19 Y s 2200 223 m -38 Y s 471 223 m -38 Y s 433 204 m -19
 Y s 394 204 m -19 Y s 356 204 m -19 Y s 317 204 m -19 Y s
 gsave  2268 1538 0 0 C 446.375 104.263 t 0 r /Helvetica findfont 84.7135 sf 0 0 m (5) show NC gr 
 gsave  2268 1538 0 0 C 615.802 104.263 t 0 r /Helvetica findfont 84.7135 sf 0 0 m (10) show NC gr 
 gsave  2268 1538 0 0 C 808.037 104.263 t 0 r /Helvetica findfont 84.7135 sf 0 0 m (15) show NC gr 
 gsave  2268 1538 0 0 C 1000.27 104.263 t 0 r /Helvetica findfont 84.7135 sf 0 0 m (20) show NC gr 
 gsave  2268 1538 0 0 C 1192.51 104.263 t 0 r /Helvetica findfont 84.7135 sf 0 0 m (25) show NC gr 
 gsave  2268 1538 0 0 C 1384.74 104.263 t 0 r /Helvetica findfont 84.7135 sf 0 0 m (30) show NC gr 
 gsave  2268 1538 0 0 C 1576.98 104.263 t 0 r /Helvetica findfont 84.7135 sf 0 0 m (35) show NC gr 
 gsave  2268 1538 0 0 C 1769.21 104.263 t 0 r /Helvetica findfont 84.7135 sf 0 0 m (40) show NC gr 
 gsave  2268 1538 0 0 C 1961.44 104.263 t 0 r /Helvetica findfont 84.7135 sf 0 0 m (45) show NC gr 
 gsave  2268 1538 0 0 C 2153.68 104.263 t 0 r /Helvetica findfont 84.7135 sf 0 0 m (50) show NC gr  317 1507 m 1883 X s 471 1469 m 38 Y s 510 1488 m 19 Y s 548 1488 m 19 Y s 586 1488 m 19 Y s 625 1488 m 19 Y s 663 1469 m 38 Y s 702 1488 m 19 Y s 740
 1488 m 19 Y s 778 1488 m 19 Y s 817 1488 m 19 Y s 855 1469 m 38 Y s 894 1488 m 19 Y s 932 1488 m 19 Y s 970 1488 m 19 Y s 1009 1488 m 19 Y s 1047 1469 m 38 Y s 1086 1488 m 19 Y s 1124 1488 m 19 Y s 1163 1488 m 19 Y s 1201 1488 m 19 Y s 1239 1469 m
 38 Y s 1278 1488 m 19 Y s 1316 1488 m 19 Y s 1355 1488 m 19 Y s 1393 1488 m 19 Y s 1431 1469 m 38 Y s 1470 1488 m 19 Y s 1508 1488 m 19 Y s 1547 1488 m 19 Y s 1585 1488 m 19 Y s 1623 1469 m 38 Y s 1662 1488 m 19 Y s 1700 1488 m 19 Y s 1739 1488 m 19
 Y s 1777 1488 m 19 Y s 1816 1469 m 38 Y s 1854 1488 m 19 Y s 1892 1488 m 19 Y s 1931 1488 m 19 Y s 1969 1488 m 19 Y s 2008 1469 m 38 Y s 2046 1488 m 19 Y s 2084 1488 m 19 Y s 2123 1488 m 19 Y s 2161 1488 m 19 Y s 2200 1469 m 38 Y s 471 1469 m 38 Y s
 433 1488 m 19 Y s 394 1488 m 19 Y s 356 1488 m 19 Y s 317 1488 m 19 Y s 317 185 m 1322 Y s
 gsave  2268 1538 0 0 C 130.329 1374.97 t 90 r /Helvetica findfont 84.7135 sf 0 0 m (S/B) show NC gr  376 185 m -59 X s 347 218 m -30 X s 347 251 m -30 X s 347 284 m -30 X s 347 317 m -30 X s 376 350 m -59 X s 347 382 m -30 X s 347 415 m -30 X s 347
 448 m -30 X s 347 481 m -30 X s 376 514 m -59 X s 347 547 m -30 X s 347 580 m -30 X s 347 613 m -30 X s 347 646 m -30 X s 376 679 m -59 X s 347 712 m -30 X s 347 745 m -30 X s 347 778 m -30 X s 347 811 m -30 X s 376 844 m -59 X s 347 877 m -30 X s
 347 910 m -30 X s 347 943 m -30 X s 347 976 m -30 X s 376 1009 m -59 X s 347 1042 m -30 X s 347 1075 m -30 X s 347 1108 m -30 X s 347 1141 m -30 X s 376 1174 m -59 X s 347 1207 m -30 X s 347 1240 m -30 X s 347 1273 m -30 X s 347 1306 m -30 X s 376
 1339 m -59 X s 347 1372 m -30 X s 347 1405 m -30 X s 347 1438 m -30 X s 347 1471 m -30 X s 376 1504 m -59 X s 376 1504 m -59 X s
 gsave  2268 1538 0 0 C 257.399 153.136 t 0 r /Helvetica findfont 84.7135 sf 0 0 m (0) show NC gr 
 gsave  2268 1538 0 0 C 202.009 319.305 t 0 r /Helvetica findfont 84.7135 sf 0 0 m (0.1) show NC gr 
 gsave  2268 1538 0 0 C 188.976 482.216 t 0 r /Helvetica findfont 84.7135 sf 0 0 m (0.2) show NC gr 
 gsave  2268 1538 0 0 C 188.976 648.384 t 0 r /Helvetica findfont 84.7135 sf 0 0 m (0.3) show NC gr 
 gsave  2268 1538 0 0 C 185.718 814.553 t 0 r /Helvetica findfont 84.7135 sf 0 0 m (0.4) show NC gr 
 gsave  2268 1538 0 0 C 185.718 977.464 t 0 r /Helvetica findfont 84.7135 sf 0 0 m (0.5) show NC gr 
 gsave  2268 1538 0 0 C 185.718 1143.63 t 0 r /Helvetica findfont 84.7135 sf 0 0 m (0.6) show NC gr 
 gsave  2268 1538 0 0 C 185.718 1309.8 t 0 r /Helvetica findfont 84.7135 sf 0 0 m (0.7) show NC gr 
 gsave  2268 1538 0 0 C 185.718 1472.71 t 0 r /Helvetica findfont 84.7135 sf 0 0 m (0.8) show NC gr  2200 185 m 1322 Y s 2141 185 m 59 X s 2170 218 m 30 X s 2170 251 m 30 X s 2170 284 m 30 X s 2170 317 m 30 X s 2141 350 m 59 X s 2170 382 m 30 X s
 2170 415 m 30 X s 2170 448 m 30 X s 2170 481 m 30 X s 2141 514 m 59 X s 2170 547 m 30 X s 2170 580 m 30 X s 2170 613 m 30 X s 2170 646 m 30 X s 2141 679 m 59 X s 2170 712 m 30 X s 2170 745 m 30 X s 2170 778 m 30 X s 2170 811 m 30 X s 2141 844 m 59 X
 s 2170 877 m 30 X s 2170 910 m 30 X s 2170 943 m 30 X s 2170 976 m 30 X s 2141 1009 m 59 X s 2170 1042 m 30 X s 2170 1075 m 30 X s 2170 1108 m 30 X s 2170 1141 m 30 X s 2141 1174 m 59 X s 2170 1207 m 30 X s 2170 1240 m 30 X s 2170 1273 m 30 X s 2170
 1306 m 30 X s 2141 1339 m 59 X s 2170 1372 m 30 X s 2170 1405 m 30 X s 2170 1438 m 30 X s 2170 1471 m 30 X s 2141 1504 m 59 X s 2141 1504 m 59 X s 0.6 0 0 c 9 lw 1 1 1 c black 0.6 0 0 c 317 285 m 38 X 59 Y 38 X -16 Y 37 X -57 Y 38 X 43 Y 38 X -41 Y
 37 X 17 Y 38 X 36 Y 38 X -15 Y 37 X -9 Y 38 X -31 Y 38 X 47 Y 37 X -5 Y 38 X 2 Y 37 X -8 Y 76 X 7 Y 37 X 7 Y 38 X -24 Y 38 X 14 Y 37 X -1 Y 76 X 24 Y 37 X -21 Y 38 X 4 Y 38 X -16 Y 37 X 20 Y 38 X 8 Y 38 X -51 Y 37 X 41 Y 38 X 2 Y 37 X 1 Y 38 X -1 Y
 38 X -4 Y 37 X 6 Y 38 X -31 Y 38 X 32 Y 37 X -51 Y 38 X 22 Y 38 X 17 Y 37 X -19 Y 38 X -15 Y 38 X 20 Y 37 X -34 Y 38 X 62 Y 37 X 13 Y 38 X -48 Y 38 X -3 Y 37 X -15 Y 38 X 1 Y 38 X s black
 gsave  2268 1538 0 0 C 1410.81 1322.83 t 0 r /Helvetica-Bold findfont 39.0986 sf 0 0 m (nonZMass) show NC gr  0 0.4 0 c 1330 1365 m 67 X s black
 gsave  2268 1538 0 0 C 1410.81 1130.6 t 0 r /Helvetica-Bold findfont 39.0986 sf 0 0 m (tightLLhMass) show NC gr  0.6 0 0 c 1330 1173 m 67 X s
 gr  gr showpage
end
%%EOF
