%!PS-Adobe-2.0 EPSF-2.0
%%BoundingBox:  0 0 567 384
%%Title: nonZmass_deltaRq1q2_Zeecc.eps: c1
%%Creator: ROOT Version 5.34/14
%%CreationDate: Wed Sep 10 08:45:33 2014
%%EndComments
%%BeginProlog
80 dict begin
/s {stroke} def /l {lineto} def /m {moveto} def /t {translate} def
/r {rotate} def /rl {roll}  def /R {repeat} def
/d {rlineto} def /rm {rmoveto} def /gr {grestore} def /f {eofill} def
/c {setrgbcolor} def /black {0 setgray} def /sd {setdash} def
/cl {closepath} def /sf {scalefont setfont} def /lw {setlinewidth} def
/box {m dup 0 exch d exch 0 d 0 exch neg d cl} def
/NC{systemdict begin initclip end}def/C{NC box clip newpath}def
/bl {box s} def /bf {box f} def /Y { 0 exch d} def /X { 0 d} def 
/K {{pop pop 0 moveto} exch kshow} bind def
/ita {/ang 15 def gsave [1 0 ang dup sin exch cos div 1 0 0] concat} def 
/mp {newpath /y exch def /x exch def} def
/side {[w .77 mul w .23 mul] .385 w mul sd w 0 l currentpoint t -144 r} def
/mr {mp x y w2 0 360 arc} def /m24 {mr s} def /m20 {mr f} def
/mb {mp x y w2 add m w2 neg 0 d 0 w neg d w 0 d 0 w d cl} def
/mt {mp x y w2 add m w2 neg w neg d w 0 d cl} def
/m21 {mb f} def /m25 {mb s} def /m22 {mt f} def /m26{mt s} def
/m23 {mp x y w2 sub m w2 w d w neg 0 d cl f} def
/m27 {mp x y w2 add m w3 neg w2 neg d w3 w2 neg d w3 w2 d cl s} def
/m28 {mp x w2 sub y w2 sub w3 add m w3 0 d  0 w3 neg d w3 0 d 0 w3 d w3 0 d  0 w3 d w3 neg 0 d 0 w3 d w3 neg 0 d 0 w3 neg d w3 neg 0 d cl s } def
/m29 {mp gsave x w2 sub y w2 add w3 sub m currentpoint t 4 {side} repeat cl fill gr} def
/m30 {mp gsave x w2 sub y w2 add w3 sub m currentpoint t 4 {side} repeat cl s gr} def
/m31 {mp x y w2 sub m 0 w d x w2 sub y m w 0 d x w2 sub y w2 add m w w neg d x w2 sub y w2 sub m w w d s} def
/m32 {mp x y w2 sub m w2 w d w neg 0 d cl s} def
/m33 {mp x y w2 add m w3 neg w2 neg d w3 w2 neg d w3 w2 d cl f} def
/m34 {mp x w2 sub y w2 sub w3 add m w3 0 d  0 w3 neg d w3 0 d 0 w3 d w3 0 d  0 w3 d w3 neg 0 d 0 w3 d w3 neg 0 d 0 w3 neg d w3 neg 0 d cl f } def
/m2 {mp x y w2 sub m 0 w d x w2 sub y m w 0 d s} def
/m5 {mp x w2 sub y w2 sub m w w d x w2 sub y w2 add m w w neg d s} def
/reEncode {exch findfont dup length dict begin {1 index /FID eq  {pop pop} {def} ifelse } forall /Encoding exch def currentdict end dup /FontName get exch definefont pop } def [/Times-Bold /Times-Italic /Times-BoldItalic /Helvetica /Helvetica-Oblique
 /Helvetica-Bold /Helvetica-BoldOblique /Courier /Courier-Oblique /Courier-Bold /Courier-BoldOblique /Times-Roman /AvantGarde-Book /AvantGarde-BookOblique /AvantGarde-Demi /AvantGarde-DemiOblique /Bookman-Demi /Bookman-DemiItalic /Bookman-Light
 /Bookman-LightItalic /Helvetica-Narrow /Helvetica-Narrow-Bold /Helvetica-Narrow-BoldOblique /Helvetica-Narrow-Oblique /NewCenturySchlbk-Roman /NewCenturySchlbk-Bold /NewCenturySchlbk-BoldItalic /NewCenturySchlbk-Italic /Palatino-Bold
 /Palatino-BoldItalic /Palatino-Italic /Palatino-Roman ] {ISOLatin1Encoding reEncode } forall
%%EndProlog
%%BeginSetup
%%EndSetup
newpath  gsave  .25 .25 scale  gsave  0 0 t black[  ] 0 sd 3 lw 1 1 1 c 2268 1538 0 0 bf black 1 1 1 c 1883 1322 317 185 bf black 1883 1322 317 185 bl 1 1 1 c 0.2 0 1 c 19 26 1597 317 bf 0.386667 0 1 c 19 27 1033 343 bf 0.2 0 1 c 18 27 1146 343 bf 19
 27 675 396 bf 0 0.266667 1 c 19 27 844 396 bf 19 27 976 396 bf 19 26 882 423 bf 0 1 0.8 c 19 27 713 449 bf 0.2 0 1 c 19 26 1202 502 bf 0 0.266667 1 c 19 26 656 555 bf 0 0.546667 1 c 18 27 619 581 bf 0 0.0800001 1 c 19 27 750 581 bf 0.2 0 1 c 18 27
 826 581 bf 18 27 619 634 bf 0 0.546667 1 c 19 27 656 634 bf 0.2 0 1 c 19 27 675 634 bf 0 0.0800001 1 c 19 26 581 661 bf 0.2 0 1 c 19 26 675 661 bf 0 0.266667 1 c 19 26 713 661 bf 0 0.0800001 1 c 19 26 506 714 bf 0.386667 0 1 c 18 27 412 766 bf 1
 0.186667 0 c 19 27 336 819 bf 0 0.0800001 1 c 19 27 355 819 bf 1 7.94729e-08 0 c 19 26 336 846 bf 0.2 0 1 c 19 27 449 925 bf 0 0.0800001 1 c 19 26 449 952 bf 0.386667 0 1 c 19 26 543 952 bf 0.2 0 1 c 19 27 468 978 bf 19 26 675 1031 bf 0 0.0800001 1
 c 19 26 713 1084 bf 0 0.546667 1 c 18 26 732 1084 bf 0 0.0800001 1 c 19 26 769 1084 bf 19 27 957 1163 bf 0.386667 0 1 c 19 27 1014 1163 bf 0 0.0800001 1 c 19 26 713 1190 bf 0 0.266667 1 c 19 26 1014 1190 bf 0 0.0800001 1 c 19 26 1127 1190 bf 0.2 0 1
 c 19 27 844 1216 bf 0 0.0800001 1 c 19 27 1277 1216 bf 0 0.546667 1 c 19 26 713 1243 bf 0.2 0 1 c 19 26 957 1243 bf 0 0.546667 1 c 19 26 1202 1243 bf 0 0.0800001 1 c 19 26 1409 1296 bf 19 27 2049 1348 bf 0.386667 0 1 c 56 66 2211 185 bf 0.2 0 1 c 56
 66 2211 251 bf 0 0.0800001 1 c 56 66 2211 317 bf 0 0.266667 1 c 56 66 2211 383 bf 0 0.546667 1 c 56 66 2211 449 bf 0 0.733333 1 c 56 66 2211 515 bf 0 1 0.986667 c 56 66 2211 581 bf 0 1 0.8 c 56 67 2211 647 bf 0 1 0.52 c 56 66 2211 714 bf 0 1
 0.333333 c 56 66 2211 780 bf 0 1 0.0533334 c 56 66 2211 846 bf 0.133333 1 0 c 56 66 2211 912 bf 0.413333 1 0 c 56 66 2211 978 bf 0.6 1 0 c 56 66 2211 1044 bf 0.88 1 0 c 56 66 2211 1110 bf 1 0.933333 0 c 56 67 2211 1176 bf 1 0.653333 0 c 56 66 2211
 1243 bf 1 0.466667 0 c 56 66 2211 1309 bf 1 0.186667 0 c 56 66 2211 1375 bf 1 7.94729e-08 0 c 56 66 2211 1441 bf black 2267 185 m 1322 Y s 2208 185 m 59 X s 2208 373 m 59 X s 2208 561 m 59 X s 2208 749 m 59 X s 2208 937 m 59 X s 2208 1125 m 59 X s
 2208 1313 m 59 X s 2208 1501 m 59 X s 2208 1501 m 59 X s
 gsave  2268 1538 0 0 C 2277.49 153.136 t 0 r /Helvetica findfont 84.7135 sf 0 0 m (0) show NC gr 
 gsave  2268 1538 0 0 C 2277.49 342.112 t 0 r /Helvetica findfont 84.7135 sf 0 0 m (0.02) show NC gr 
 gsave  2268 1538 0 0 C 2277.49 531.089 t 0 r /Helvetica findfont 84.7135 sf 0 0 m (0.04) show NC gr 
 gsave  2268 1538 0 0 C 2277.49 716.807 t 0 r /Helvetica findfont 84.7135 sf 0 0 m (0.06) show NC gr 
 gsave  2268 1538 0 0 C 2277.49 905.783 t 0 r /Helvetica findfont 84.7135 sf 0 0 m (0.08) show NC gr 
 gsave  2268 1538 0 0 C 2277.49 1094.76 t 0 r /Helvetica findfont 84.7135 sf 0 0 m (0.1) show NC gr 
 gsave  2268 1538 0 0 C 2277.49 1283.74 t 0 r /Helvetica findfont 84.7135 sf 0 0 m (0.12) show NC gr 
 gsave  2268 1538 0 0 C 2277.49 1469.45 t 0 r /Helvetica findfont 84.7135 sf 0 0 m (0.14) show NC gr  1 1 1 c black 317 185 m 1883 X s
 gsave  2268 1538 0 0 C 1762.69 13.0329 t 0 r /Helvetica findfont 84.7135 sf 0 0 m (mass [GeV]) show NC gr  317 223 m -38 Y s 355 204 m -19 Y s 393 204 m -19 Y s 430 204 m -19 Y s 468 204 m -19 Y s 506 223 m -38 Y s 543 204 m -19 Y s 581 204 m -19 Y
 s 619 204 m -19 Y s 656 204 m -19 Y s 694 223 m -38 Y s 732 204 m -19 Y s 769 204 m -19 Y s 807 204 m -19 Y s 844 204 m -19 Y s 882 223 m -38 Y s 920 204 m -19 Y s 957 204 m -19 Y s 995 204 m -19 Y s 1033 204 m -19 Y s 1070 223 m -38 Y s 1108 204 m
 -19 Y s 1146 204 m -19 Y s 1183 204 m -19 Y s 1221 204 m -19 Y s 1259 223 m -38 Y s 1296 204 m -19 Y s 1334 204 m -19 Y s 1372 204 m -19 Y s 1409 204 m -19 Y s 1447 223 m -38 Y s 1484 204 m -19 Y s 1522 204 m -19 Y s 1560 204 m -19 Y s 1597 204 m
 -19 Y s 1635 223 m -38 Y s 1673 204 m -19 Y s 1710 204 m -19 Y s 1748 204 m -19 Y s 1786 204 m -19 Y s 1823 223 m -38 Y s 1861 204 m -19 Y s 1899 204 m -19 Y s 1936 204 m -19 Y s 1974 204 m -19 Y s 2011 223 m -38 Y s 2049 204 m -19 Y s 2087 204 m
 -19 Y s 2124 204 m -19 Y s 2162 204 m -19 Y s 2200 223 m -38 Y s
 gsave  2268 1538 0 0 C 293.239 104.263 t 0 r /Helvetica findfont 84.7135 sf 0 0 m (0) show NC gr 
 gsave  2268 1538 0 0 C 459.408 104.263 t 0 r /Helvetica findfont 84.7135 sf 0 0 m (10) show NC gr 
 gsave  2268 1538 0 0 C 645.126 104.263 t 0 r /Helvetica findfont 84.7135 sf 0 0 m (20) show NC gr 
 gsave  2268 1538 0 0 C 834.103 104.263 t 0 r /Helvetica findfont 84.7135 sf 0 0 m (30) show NC gr 
 gsave  2268 1538 0 0 C 1023.08 104.263 t 0 r /Helvetica findfont 84.7135 sf 0 0 m (40) show NC gr 
 gsave  2268 1538 0 0 C 1212.06 104.263 t 0 r /Helvetica findfont 84.7135 sf 0 0 m (50) show NC gr 
 gsave  2268 1538 0 0 C 1401.03 104.263 t 0 r /Helvetica findfont 84.7135 sf 0 0 m (60) show NC gr 
 gsave  2268 1538 0 0 C 1586.75 104.263 t 0 r /Helvetica findfont 84.7135 sf 0 0 m (70) show NC gr 
 gsave  2268 1538 0 0 C 1775.73 104.263 t 0 r /Helvetica findfont 84.7135 sf 0 0 m (80) show NC gr 
 gsave  2268 1538 0 0 C 1964.7 104.263 t 0 r /Helvetica findfont 84.7135 sf 0 0 m (90) show NC gr 
 gsave  2268 1538 0 0 C 2127.61 104.263 t 0 r /Helvetica findfont 84.7135 sf 0 0 m (100) show NC gr  317 1507 m 1883 X s 317 1469 m 38 Y s 355 1488 m 19 Y s 393 1488 m 19 Y s 430 1488 m 19 Y s 468 1488 m 19 Y s 506 1469 m 38 Y s 543 1488 m 19 Y s 581
 1488 m 19 Y s 619 1488 m 19 Y s 656 1488 m 19 Y s 694 1469 m 38 Y s 732 1488 m 19 Y s 769 1488 m 19 Y s 807 1488 m 19 Y s 844 1488 m 19 Y s 882 1469 m 38 Y s 920 1488 m 19 Y s 957 1488 m 19 Y s 995 1488 m 19 Y s 1033 1488 m 19 Y s 1070 1469 m 38 Y s
 1108 1488 m 19 Y s 1146 1488 m 19 Y s 1183 1488 m 19 Y s 1221 1488 m 19 Y s 1259 1469 m 38 Y s 1296 1488 m 19 Y s 1334 1488 m 19 Y s 1372 1488 m 19 Y s 1409 1488 m 19 Y s 1447 1469 m 38 Y s 1484 1488 m 19 Y s 1522 1488 m 19 Y s 1560 1488 m 19 Y s
 1597 1488 m 19 Y s 1635 1469 m 38 Y s 1673 1488 m 19 Y s 1710 1488 m 19 Y s 1748 1488 m 19 Y s 1786 1488 m 19 Y s 1823 1469 m 38 Y s 1861 1488 m 19 Y s 1899 1488 m 19 Y s 1936 1488 m 19 Y s 1974 1488 m 19 Y s 2011 1469 m 38 Y s 2049 1488 m 19 Y s
 2087 1488 m 19 Y s 2124 1488 m 19 Y s 2162 1488 m 19 Y s 2200 1469 m 38 Y s 317 185 m 1322 Y s
 gsave  2268 1538 0 0 C 153.136 1475.97 t 90 r /Helvetica findfont 58.6478 sf 0 0 m (2) show NC gr 
 gsave  2268 1538 0 0 C 107.521 1397.77 t 90 r /Helvetica findfont 84.7135 sf 0 0 m (*q) show NC gr 
 gsave  2268 1538 0 0 C 153.136 1374.97 t 90 r /Helvetica findfont 58.6478 sf 0 0 m (1) show NC gr 
 gsave  2268 1538 0 0 C 107.521 1221.83 t 90 r /Helvetica findfont 84.7135 sf 0 0 m ( R q) show NC gr 
 gsave  2268 1538 0 0 C 107.521 1169.7 t 90 r /Symbol findfont 84.7135 sf 0 0 m (D) show NC gr  376 185 m -59 X s 347 211 m -30 X s 347 237 m -30 X s 347 264 m -30 X s 347 290 m -30 X s 376 317 m -59 X s 347 343 m -30 X s 347 370 m -30 X s 347 396 m
 -30 X s 347 423 m -30 X s 376 449 m -59 X s 347 476 m -30 X s 347 502 m -30 X s 347 528 m -30 X s 347 555 m -30 X s 376 581 m -59 X s 347 608 m -30 X s 347 634 m -30 X s 347 661 m -30 X s 347 687 m -30 X s 376 714 m -59 X s 347 740 m -30 X s 347 766
 m -30 X s 347 793 m -30 X s 347 819 m -30 X s 376 846 m -59 X s 347 872 m -30 X s 347 899 m -30 X s 347 925 m -30 X s 347 952 m -30 X s 376 978 m -59 X s 347 1005 m -30 X s 347 1031 m -30 X s 347 1057 m -30 X s 347 1084 m -30 X s 376 1110 m -59 X s
 347 1137 m -30 X s 347 1163 m -30 X s 347 1190 m -30 X s 347 1216 m -30 X s 376 1243 m -59 X s 347 1269 m -30 X s 347 1296 m -30 X s 347 1322 m -30 X s 347 1348 m -30 X s 376 1375 m -59 X s 347 1401 m -30 X s 347 1428 m -30 X s 347 1454 m -30 X s
 347 1481 m -30 X s 376 1507 m -59 X s
 gsave  2268 1538 0 0 C 231.333 153.136 t 0 r /Helvetica findfont 84.7135 sf 0 0 m (\2555) show NC gr 
 gsave  2268 1538 0 0 C 228.075 286.723 t 0 r /Helvetica findfont 84.7135 sf 0 0 m (\2554) show NC gr 
 gsave  2268 1538 0 0 C 231.333 417.051 t 0 r /Helvetica findfont 84.7135 sf 0 0 m (\2553) show NC gr 
 gsave  2268 1538 0 0 C 231.333 550.638 t 0 r /Helvetica findfont 84.7135 sf 0 0 m (\2552) show NC gr 
 gsave  2268 1538 0 0 C 244.366 684.225 t 0 r /Helvetica findfont 84.7135 sf 0 0 m (\2551) show NC gr 
 gsave  2268 1538 0 0 C 257.399 814.553 t 0 r /Helvetica findfont 84.7135 sf 0 0 m (0) show NC gr 
 gsave  2268 1538 0 0 C 270.432 948.14 t 0 r /Helvetica findfont 84.7135 sf 0 0 m (1) show NC gr 
 gsave  2268 1538 0 0 C 257.399 1078.47 t 0 r /Helvetica findfont 84.7135 sf 0 0 m (2) show NC gr 
 gsave  2268 1538 0 0 C 257.399 1212.06 t 0 r /Helvetica findfont 84.7135 sf 0 0 m (3) show NC gr 
 gsave  2268 1538 0 0 C 257.399 1342.38 t 0 r /Helvetica findfont 84.7135 sf 0 0 m (4) show NC gr 
 gsave  2268 1538 0 0 C 257.399 1475.97 t 0 r /Helvetica findfont 84.7135 sf 0 0 m (5) show NC gr  2200 185 m 1322 Y s 2141 185 m 59 X s 2170 211 m 30 X s 2170 237 m 30 X s 2170 264 m 30 X s 2170 290 m 30 X s 2141 317 m 59 X s 2170 343 m 30 X s 2170
 370 m 30 X s 2170 396 m 30 X s 2170 423 m 30 X s 2141 449 m 59 X s 2170 476 m 30 X s 2170 502 m 30 X s 2170 528 m 30 X s 2170 555 m 30 X s 2141 581 m 59 X s 2170 608 m 30 X s 2170 634 m 30 X s 2170 661 m 30 X s 2170 687 m 30 X s 2141 714 m 59 X s
 2170 740 m 30 X s 2170 766 m 30 X s 2170 793 m 30 X s 2170 819 m 30 X s 2141 846 m 59 X s 2170 872 m 30 X s 2170 899 m 30 X s 2170 925 m 30 X s 2170 952 m 30 X s 2141 978 m 59 X s 2170 1005 m 30 X s 2170 1031 m 30 X s 2170 1057 m 30 X s 2170 1084 m
 30 X s 2141 1110 m 59 X s 2170 1137 m 30 X s 2170 1163 m 30 X s 2170 1190 m 30 X s 2170 1216 m 30 X s 2141 1243 m 59 X s 2170 1269 m 30 X s 2170 1296 m 30 X s 2170 1322 m 30 X s 2170 1348 m 30 X s 2141 1375 m 59 X s 2170 1401 m 30 X s 2170 1428 m 30
 X s 2170 1454 m 30 X s 2170 1481 m 30 X s 2141 1507 m 59 X s
 gr  gr showpage
end
%%EOF
