%!PS-Adobe-2.0 EPSF-2.0
%%BoundingBox:  0 0 567 384
%%Title: nonZmass_deltaEtaq1q2_ZeeNp.eps: c1
%%Creator: ROOT Version 5.34/14
%%CreationDate: Wed Sep 10 08:45:33 2014
%%EndComments
%%BeginProlog
80 dict begin
/s {stroke} def /l {lineto} def /m {moveto} def /t {translate} def
/r {rotate} def /rl {roll}  def /R {repeat} def
/d {rlineto} def /rm {rmoveto} def /gr {grestore} def /f {eofill} def
/c {setrgbcolor} def /black {0 setgray} def /sd {setdash} def
/cl {closepath} def /sf {scalefont setfont} def /lw {setlinewidth} def
/box {m dup 0 exch d exch 0 d 0 exch neg d cl} def
/NC{systemdict begin initclip end}def/C{NC box clip newpath}def
/bl {box s} def /bf {box f} def /Y { 0 exch d} def /X { 0 d} def 
/K {{pop pop 0 moveto} exch kshow} bind def
/ita {/ang 15 def gsave [1 0 ang dup sin exch cos div 1 0 0] concat} def 
/mp {newpath /y exch def /x exch def} def
/side {[w .77 mul w .23 mul] .385 w mul sd w 0 l currentpoint t -144 r} def
/mr {mp x y w2 0 360 arc} def /m24 {mr s} def /m20 {mr f} def
/mb {mp x y w2 add m w2 neg 0 d 0 w neg d w 0 d 0 w d cl} def
/mt {mp x y w2 add m w2 neg w neg d w 0 d cl} def
/m21 {mb f} def /m25 {mb s} def /m22 {mt f} def /m26{mt s} def
/m23 {mp x y w2 sub m w2 w d w neg 0 d cl f} def
/m27 {mp x y w2 add m w3 neg w2 neg d w3 w2 neg d w3 w2 d cl s} def
/m28 {mp x w2 sub y w2 sub w3 add m w3 0 d  0 w3 neg d w3 0 d 0 w3 d w3 0 d  0 w3 d w3 neg 0 d 0 w3 d w3 neg 0 d 0 w3 neg d w3 neg 0 d cl s } def
/m29 {mp gsave x w2 sub y w2 add w3 sub m currentpoint t 4 {side} repeat cl fill gr} def
/m30 {mp gsave x w2 sub y w2 add w3 sub m currentpoint t 4 {side} repeat cl s gr} def
/m31 {mp x y w2 sub m 0 w d x w2 sub y m w 0 d x w2 sub y w2 add m w w neg d x w2 sub y w2 sub m w w d s} def
/m32 {mp x y w2 sub m w2 w d w neg 0 d cl s} def
/m33 {mp x y w2 add m w3 neg w2 neg d w3 w2 neg d w3 w2 d cl f} def
/m34 {mp x w2 sub y w2 sub w3 add m w3 0 d  0 w3 neg d w3 0 d 0 w3 d w3 0 d  0 w3 d w3 neg 0 d 0 w3 d w3 neg 0 d 0 w3 neg d w3 neg 0 d cl f } def
/m2 {mp x y w2 sub m 0 w d x w2 sub y m w 0 d s} def
/m5 {mp x w2 sub y w2 sub m w w d x w2 sub y w2 add m w w neg d s} def
/reEncode {exch findfont dup length dict begin {1 index /FID eq  {pop pop} {def} ifelse } forall /Encoding exch def currentdict end dup /FontName get exch definefont pop } def [/Times-Bold /Times-Italic /Times-BoldItalic /Helvetica /Helvetica-Oblique
 /Helvetica-Bold /Helvetica-BoldOblique /Courier /Courier-Oblique /Courier-Bold /Courier-BoldOblique /Times-Roman /AvantGarde-Book /AvantGarde-BookOblique /AvantGarde-Demi /AvantGarde-DemiOblique /Bookman-Demi /Bookman-DemiItalic /Bookman-Light
 /Bookman-LightItalic /Helvetica-Narrow /Helvetica-Narrow-Bold /Helvetica-Narrow-BoldOblique /Helvetica-Narrow-Oblique /NewCenturySchlbk-Roman /NewCenturySchlbk-Bold /NewCenturySchlbk-BoldItalic /NewCenturySchlbk-Italic /Palatino-Bold
 /Palatino-BoldItalic /Palatino-Italic /Palatino-Roman ] {ISOLatin1Encoding reEncode } forall
%%EndProlog
%%BeginSetup
%%EndSetup
newpath  gsave  .25 .25 scale  gsave  0 0 t black[  ] 0 sd 3 lw 1 1 1 c 2268 1538 0 0 bf black 1 1 1 c 1883 1322 317 185 bf black 1883 1322 317 185 bl 1 1 1 c 0.386667 0 1 c 19 26 1861 185 bf 19 27 1033 237 bf 19 26 1070 264 bf 18 26 1146 264 bf 19
 26 1221 264 bf 19 27 920 290 bf 19 27 1240 290 bf 19 27 1315 290 bf 19 26 901 317 bf 18 26 1052 317 bf 19 26 1108 317 bf 19 27 920 343 bf 19 27 957 343 bf 18 27 1052 343 bf 19 27 1089 343 bf 19 27 1164 343 bf 19 27 1353 343 bf 18 27 1372 343 bf 18
 26 826 370 bf 19 26 863 370 bf 19 26 1014 370 bf 19 26 1127 370 bf 18 26 1146 370 bf 19 27 750 396 bf 19 27 863 396 bf 19 27 995 396 bf 19 27 1033 396 bf 19 27 1202 396 bf 19 26 694 423 bf 19 26 713 423 bf 19 26 863 423 bf 19 26 976 423 bf 19 26 995
 423 bf 19 26 1070 423 bf 18 27 826 449 bf 19 27 901 449 bf 19 27 1014 449 bf 18 27 1146 449 bf 19 27 1202 449 bf 19 26 750 476 bf 18 26 826 476 bf 19 26 863 476 bf 19 26 882 476 bf 19 26 901 476 bf 19 26 920 476 bf 18 26 939 476 bf 18 26 619 502 bf
 19 26 694 502 bf 19 26 750 502 bf 19 26 882 502 bf 19 26 901 502 bf 18 26 939 502 bf 19 26 976 502 bf 19 26 1033 502 bf 19 27 562 528 bf 19 27 769 528 bf 19 27 788 528 bf 19 27 863 528 bf 19 27 882 528 bf 19 27 901 528 bf 19 27 920 528 bf 18 27 1052
 528 bf 19 26 581 555 bf 19 26 637 555 bf 19 26 694 555 bf 19 26 769 555 bf 19 26 788 555 bf 19 26 863 555 bf 19 26 976 555 bf 19 27 581 581 bf 19 27 637 581 bf 19 27 713 581 bf 18 27 732 581 bf 18 27 826 581 bf 19 27 863 581 bf 19 27 901 581 bf 19
 27 957 581 bf 19 27 976 581 bf 19 27 1033 581 bf 18 26 525 608 bf 19 26 543 608 bf 19 26 675 608 bf 19 26 694 608 bf 19 26 750 608 bf 19 26 807 608 bf 18 26 826 608 bf 19 26 901 608 bf 19 26 920 608 bf 19 26 957 608 bf 19 27 449 634 bf 19 27 468 634
 bf 19 27 581 634 bf 18 27 732 634 bf 19 27 750 634 bf 19 27 807 634 bf 19 27 844 634 bf 19 27 920 634 bf 19 26 468 661 bf 18 26 525 661 bf 19 26 543 661 bf 19 26 581 661 bf 19 26 600 661 bf 18 26 619 661 bf 19 26 637 661 bf 19 26 656 661 bf 19 26
 675 661 bf 19 26 694 661 bf 18 26 732 661 bf 19 26 769 661 bf 18 26 826 661 bf 19 26 844 661 bf 19 27 449 687 bf 19 27 487 687 bf 19 27 506 687 bf 19 27 543 687 bf 19 27 581 687 bf 19 27 600 687 bf 19 27 637 687 bf 19 27 694 687 bf 19 27 769 687 bf
 19 27 920 687 bf 18 26 412 714 bf 19 26 430 714 bf 19 26 468 714 bf 19 26 487 714 bf 19 26 506 714 bf 19 26 581 714 bf 19 26 675 714 bf 19 26 713 714 bf 19 26 769 714 bf 19 26 807 714 bf 19 26 844 714 bf 19 26 882 714 bf 19 26 393 740 bf 18 26 412
 740 bf 19 26 430 740 bf 19 26 449 740 bf 19 26 468 740 bf 18 26 619 740 bf 18 26 732 740 bf 19 26 750 740 bf 19 26 769 740 bf 19 26 788 740 bf 19 26 901 740 bf 19 26 920 740 bf 18 27 412 766 bf 19 27 449 766 bf 19 27 487 766 bf 19 27 506 766 bf 19
 27 543 766 bf 19 27 581 766 bf 19 27 600 766 bf 19 27 637 766 bf 19 27 656 766 bf 18 27 732 766 bf 19 27 863 766 bf 19 26 336 793 bf 19 26 355 793 bf 19 26 374 793 bf 19 26 449 793 bf 19 26 543 793 bf 18 26 619 793 bf 19 26 637 793 bf 19 26 656 793
 bf 19 26 694 793 bf 18 26 732 793 bf 19 26 769 793 bf 19 26 863 793 bf 1 7.94729e-08 0 c 19 27 336 819 bf 0.386667 0 1 c 19 27 355 819 bf 19 27 374 819 bf 19 27 393 819 bf 18 27 412 819 bf 19 27 449 819 bf 19 27 487 819 bf 19 27 562 819 bf 19 27 581
 819 bf 19 27 675 819 bf 19 27 694 819 bf 19 27 750 819 bf 19 27 788 819 bf 19 27 807 819 bf 19 27 844 819 bf 19 27 920 819 bf 0 1 0.8 c 19 26 336 846 bf 0.386667 0 1 c 19 26 355 846 bf 18 26 412 846 bf 19 26 430 846 bf 19 26 468 846 bf 18 26 619 846
 bf 19 26 675 846 bf 19 26 713 846 bf 19 26 769 846 bf 18 26 826 846 bf 19 26 844 846 bf 19 26 882 846 bf 19 27 336 872 bf 19 27 355 872 bf 19 27 581 872 bf 19 27 600 872 bf 19 27 656 872 bf 19 27 750 872 bf 18 26 412 899 bf 19 26 449 899 bf 19 26
 581 899 bf 19 26 600 899 bf 19 26 637 899 bf 19 26 656 899 bf 18 26 732 899 bf 18 27 412 925 bf 19 27 468 925 bf 19 27 487 925 bf 19 27 543 925 bf 19 27 581 925 bf 19 27 600 925 bf 19 27 656 925 bf 19 27 675 925 bf 19 27 694 925 bf 19 27 788 925 bf
 18 27 826 925 bf 19 27 863 925 bf 18 26 412 952 bf 19 26 430 952 bf 19 26 449 952 bf 19 26 468 952 bf 19 26 487 952 bf 19 26 506 952 bf 19 26 562 952 bf 19 26 600 952 bf 18 26 619 952 bf 19 26 713 952 bf 19 26 788 952 bf 19 26 807 952 bf 19 26 844
 952 bf 19 26 863 952 bf 19 26 957 952 bf 19 27 487 978 bf 18 27 525 978 bf 19 27 656 978 bf 19 27 713 978 bf 19 27 750 978 bf 19 27 844 978 bf 19 27 863 978 bf 19 27 882 978 bf 19 27 901 978 bf 19 27 920 978 bf 19 26 506 1005 bf 19 26 600 1005 bf 18
 26 619 1005 bf 19 26 656 1005 bf 19 26 694 1005 bf 19 26 713 1005 bf 18 26 732 1005 bf 19 26 788 1005 bf 18 26 826 1005 bf 19 26 920 1005 bf 19 26 957 1005 bf 19 26 581 1031 bf 19 26 600 1031 bf 18 26 619 1031 bf 19 26 694 1031 bf 19 26 713 1031 bf
 19 26 901 1031 bf 19 26 1033 1031 bf 19 27 487 1057 bf 18 27 619 1057 bf 19 27 675 1057 bf 19 27 750 1057 bf 19 27 788 1057 bf 18 27 826 1057 bf 19 27 863 1057 bf 19 27 920 1057 bf 19 26 600 1084 bf 18 26 619 1084 bf 19 26 788 1084 bf 19 26 807 1084
 bf 19 26 863 1084 bf 18 26 939 1084 bf 19 26 1127 1084 bf 19 27 600 1110 bf 19 27 656 1110 bf 18 27 826 1110 bf 19 27 863 1110 bf 19 27 957 1110 bf 18 27 1052 1110 bf 19 26 581 1137 bf 19 26 807 1137 bf 19 26 863 1137 bf 19 26 882 1137 bf 19 26 976
 1137 bf 18 26 1146 1137 bf 19 27 694 1163 bf 19 27 788 1163 bf 18 27 826 1163 bf 19 27 844 1163 bf 19 27 901 1163 bf 19 27 976 1163 bf 19 27 995 1163 bf 19 26 656 1190 bf 19 26 807 1190 bf 19 26 844 1190 bf 19 26 863 1190 bf 19 26 901 1190 bf 19 26
 957 1190 bf 18 26 1052 1190 bf 19 27 600 1216 bf 19 27 769 1216 bf 19 27 788 1216 bf 19 27 882 1216 bf 18 27 939 1216 bf 19 27 995 1216 bf 18 27 1052 1216 bf 19 27 1183 1216 bf 19 26 713 1243 bf 18 26 732 1243 bf 19 26 844 1243 bf 19 26 920 1243 bf
 19 26 957 1243 bf 19 26 976 1243 bf 19 27 788 1269 bf 19 27 807 1269 bf 19 27 882 1269 bf 18 27 939 1269 bf 18 26 826 1296 bf 19 26 901 1296 bf 18 26 939 1296 bf 19 26 976 1296 bf 19 26 995 1296 bf 19 26 1033 1296 bf 18 26 1052 1296 bf 19 26 1221
 1296 bf 18 26 939 1322 bf 19 26 1014 1322 bf 19 26 1033 1322 bf 19 26 1070 1322 bf 19 26 1334 1322 bf 19 27 920 1348 bf 19 27 995 1348 bf 18 27 1052 1348 bf 19 26 1070 1375 bf 19 26 1164 1375 bf 19 26 1202 1375 bf 19 27 1221 1401 bf 18 26 1673 1428
 bf 19 26 1597 1481 bf 56 66 2211 185 bf 0.2 0 1 c 56 66 2211 251 bf 0 0.0800001 1 c 56 66 2211 317 bf 0 0.266667 1 c 56 66 2211 383 bf 0 0.546667 1 c 56 66 2211 449 bf 0 0.733333 1 c 56 66 2211 515 bf 0 1 0.986667 c 56 66 2211 581 bf 0 1 0.8 c 56 67
 2211 647 bf 0 1 0.52 c 56 66 2211 714 bf 0 1 0.333333 c 56 66 2211 780 bf 0 1 0.0533334 c 56 66 2211 846 bf 0.133333 1 0 c 56 66 2211 912 bf 0.413333 1 0 c 56 66 2211 978 bf 0.6 1 0 c 56 66 2211 1044 bf 0.88 1 0 c 56 66 2211 1110 bf 1 0.933333 0 c
 56 67 2211 1176 bf 1 0.653333 0 c 56 66 2211 1243 bf 1 0.466667 0 c 56 66 2211 1309 bf 1 0.186667 0 c 56 66 2211 1375 bf 1 7.94729e-08 0 c 56 66 2211 1441 bf black 2267 185 m 1322 Y s 2208 185 m 59 X s 2208 300 m 59 X s 2208 415 m 59 X s 2208 530 m
 59 X s 2208 645 m 59 X s 2208 761 m 59 X s 2208 876 m 59 X s 2208 991 m 59 X s 2208 1106 m 59 X s 2208 1222 m 59 X s 2208 1337 m 59 X s 2208 1452 m 59 X s 2208 1452 m 59 X s
 gsave  2268 1538 0 0 C 2277.49 153.136 t 0 r /Helvetica findfont 84.7135 sf 0 0 m (0) show NC gr 
 gsave  2268 1538 0 0 C 2277.49 270.432 t 0 r /Helvetica findfont 84.7135 sf 0 0 m (0.02) show NC gr 
 gsave  2268 1538 0 0 C 2277.49 384.469 t 0 r /Helvetica findfont 84.7135 sf 0 0 m (0.04) show NC gr 
 gsave  2268 1538 0 0 C 2277.49 498.507 t 0 r /Helvetica findfont 84.7135 sf 0 0 m (0.06) show NC gr 
 gsave  2268 1538 0 0 C 2277.49 615.802 t 0 r /Helvetica findfont 84.7135 sf 0 0 m (0.08) show NC gr 
 gsave  2268 1538 0 0 C 2277.49 729.84 t 0 r /Helvetica findfont 84.7135 sf 0 0 m (0.1) show NC gr 
 gsave  2268 1538 0 0 C 2277.49 843.877 t 0 r /Helvetica findfont 84.7135 sf 0 0 m (0.12) show NC gr 
 gsave  2268 1538 0 0 C 2277.49 961.173 t 0 r /Helvetica findfont 84.7135 sf 0 0 m (0.14) show NC gr 
 gsave  2268 1538 0 0 C 2277.49 1075.21 t 0 r /Helvetica findfont 84.7135 sf 0 0 m (0.16) show NC gr 
 gsave  2268 1538 0 0 C 2277.49 1189.25 t 0 r /Helvetica findfont 84.7135 sf 0 0 m (0.18) show NC gr 
 gsave  2268 1538 0 0 C 2277.49 1306.54 t 0 r /Helvetica findfont 84.7135 sf 0 0 m (0.2) show NC gr 
 gsave  2268 1538 0 0 C 2277.49 1420.58 t 0 r /Helvetica findfont 84.7135 sf 0 0 m (0.22) show NC gr  1 1 1 c black 317 185 m 1883 X s
 gsave  2268 1538 0 0 C 1736.63 13.0329 t 0 r /Helvetica findfont 84.7135 sf 0 0 m ( mass [GeV]) show NC gr  317 223 m -38 Y s 355 204 m -19 Y s 393 204 m -19 Y s 430 204 m -19 Y s 468 204 m -19 Y s 506 223 m -38 Y s 543 204 m -19 Y s 581 204 m -19 Y
 s 619 204 m -19 Y s 656 204 m -19 Y s 694 223 m -38 Y s 732 204 m -19 Y s 769 204 m -19 Y s 807 204 m -19 Y s 844 204 m -19 Y s 882 223 m -38 Y s 920 204 m -19 Y s 957 204 m -19 Y s 995 204 m -19 Y s 1033 204 m -19 Y s 1070 223 m -38 Y s 1108 204 m
 -19 Y s 1146 204 m -19 Y s 1183 204 m -19 Y s 1221 204 m -19 Y s 1259 223 m -38 Y s 1296 204 m -19 Y s 1334 204 m -19 Y s 1372 204 m -19 Y s 1409 204 m -19 Y s 1447 223 m -38 Y s 1484 204 m -19 Y s 1522 204 m -19 Y s 1560 204 m -19 Y s 1597 204 m
 -19 Y s 1635 223 m -38 Y s 1673 204 m -19 Y s 1710 204 m -19 Y s 1748 204 m -19 Y s 1786 204 m -19 Y s 1823 223 m -38 Y s 1861 204 m -19 Y s 1899 204 m -19 Y s 1936 204 m -19 Y s 1974 204 m -19 Y s 2011 223 m -38 Y s 2049 204 m -19 Y s 2087 204 m
 -19 Y s 2124 204 m -19 Y s 2162 204 m -19 Y s 2200 223 m -38 Y s
 gsave  2268 1538 0 0 C 293.239 104.263 t 0 r /Helvetica findfont 84.7135 sf 0 0 m (0) show NC gr 
 gsave  2268 1538 0 0 C 459.408 104.263 t 0 r /Helvetica findfont 84.7135 sf 0 0 m (10) show NC gr 
 gsave  2268 1538 0 0 C 645.126 104.263 t 0 r /Helvetica findfont 84.7135 sf 0 0 m (20) show NC gr 
 gsave  2268 1538 0 0 C 834.103 104.263 t 0 r /Helvetica findfont 84.7135 sf 0 0 m (30) show NC gr 
 gsave  2268 1538 0 0 C 1023.08 104.263 t 0 r /Helvetica findfont 84.7135 sf 0 0 m (40) show NC gr 
 gsave  2268 1538 0 0 C 1212.06 104.263 t 0 r /Helvetica findfont 84.7135 sf 0 0 m (50) show NC gr 
 gsave  2268 1538 0 0 C 1401.03 104.263 t 0 r /Helvetica findfont 84.7135 sf 0 0 m (60) show NC gr 
 gsave  2268 1538 0 0 C 1586.75 104.263 t 0 r /Helvetica findfont 84.7135 sf 0 0 m (70) show NC gr 
 gsave  2268 1538 0 0 C 1775.73 104.263 t 0 r /Helvetica findfont 84.7135 sf 0 0 m (80) show NC gr 
 gsave  2268 1538 0 0 C 1964.7 104.263 t 0 r /Helvetica findfont 84.7135 sf 0 0 m (90) show NC gr 
 gsave  2268 1538 0 0 C 2127.61 104.263 t 0 r /Helvetica findfont 84.7135 sf 0 0 m (100) show NC gr  317 1507 m 1883 X s 317 1469 m 38 Y s 355 1488 m 19 Y s 393 1488 m 19 Y s 430 1488 m 19 Y s 468 1488 m 19 Y s 506 1469 m 38 Y s 543 1488 m 19 Y s 581
 1488 m 19 Y s 619 1488 m 19 Y s 656 1488 m 19 Y s 694 1469 m 38 Y s 732 1488 m 19 Y s 769 1488 m 19 Y s 807 1488 m 19 Y s 844 1488 m 19 Y s 882 1469 m 38 Y s 920 1488 m 19 Y s 957 1488 m 19 Y s 995 1488 m 19 Y s 1033 1488 m 19 Y s 1070 1469 m 38 Y s
 1108 1488 m 19 Y s 1146 1488 m 19 Y s 1183 1488 m 19 Y s 1221 1488 m 19 Y s 1259 1469 m 38 Y s 1296 1488 m 19 Y s 1334 1488 m 19 Y s 1372 1488 m 19 Y s 1409 1488 m 19 Y s 1447 1469 m 38 Y s 1484 1488 m 19 Y s 1522 1488 m 19 Y s 1560 1488 m 19 Y s
 1597 1488 m 19 Y s 1635 1469 m 38 Y s 1673 1488 m 19 Y s 1710 1488 m 19 Y s 1748 1488 m 19 Y s 1786 1488 m 19 Y s 1823 1469 m 38 Y s 1861 1488 m 19 Y s 1899 1488 m 19 Y s 1936 1488 m 19 Y s 1974 1488 m 19 Y s 2011 1469 m 38 Y s 2049 1488 m 19 Y s
 2087 1488 m 19 Y s 2124 1488 m 19 Y s 2162 1488 m 19 Y s 2200 1469 m 38 Y s 317 185 m 1322 Y s
 gsave  2268 1538 0 0 C 120.554 1257.67 t 90 r /Helvetica findfont 84.7135 sf 0 0 m (*q1*q2) show NC gr 
 gsave  2268 1538 0 0 C 120.554 1212.06 t 90 r /Symbol findfont 84.7135 sf 0 0 m (h) show NC gr 
 gsave  2268 1538 0 0 C 120.554 1159.92 t 90 r /Symbol findfont 84.7135 sf 0 0 m (D) show NC gr  376 185 m -59 X s 347 229 m -30 X s 347 273 m -30 X s 347 317 m -30 X s 347 361 m -30 X s 376 405 m -59 X s 347 449 m -30 X s 347 493 m -30 X s 347 537 m
 -30 X s 347 581 m -30 X s 376 625 m -59 X s 347 669 m -30 X s 347 714 m -30 X s 347 758 m -30 X s 347 802 m -30 X s 376 846 m -59 X s 347 890 m -30 X s 347 934 m -30 X s 347 978 m -30 X s 347 1022 m -30 X s 376 1066 m -59 X s 347 1110 m -30 X s 347
 1154 m -30 X s 347 1199 m -30 X s 347 1243 m -30 X s 376 1287 m -59 X s 347 1331 m -30 X s 347 1375 m -30 X s 347 1419 m -30 X s 347 1463 m -30 X s 376 1507 m -59 X s
 gsave  2268 1538 0 0 C 231.333 153.136 t 0 r /Helvetica findfont 84.7135 sf 0 0 m (\2553) show NC gr 
 gsave  2268 1538 0 0 C 231.333 374.695 t 0 r /Helvetica findfont 84.7135 sf 0 0 m (\2552) show NC gr 
 gsave  2268 1538 0 0 C 244.366 592.995 t 0 r /Helvetica findfont 84.7135 sf 0 0 m (\2551) show NC gr 
 gsave  2268 1538 0 0 C 257.399 814.553 t 0 r /Helvetica findfont 84.7135 sf 0 0 m (0) show NC gr 
 gsave  2268 1538 0 0 C 270.432 1036.11 t 0 r /Helvetica findfont 84.7135 sf 0 0 m (1) show NC gr 
 gsave  2268 1538 0 0 C 257.399 1254.41 t 0 r /Helvetica findfont 84.7135 sf 0 0 m (2) show NC gr 
 gsave  2268 1538 0 0 C 257.399 1475.97 t 0 r /Helvetica findfont 84.7135 sf 0 0 m (3) show NC gr  2200 185 m 1322 Y s 2141 185 m 59 X s 2170 229 m 30 X s 2170 273 m 30 X s 2170 317 m 30 X s 2170 361 m 30 X s 2141 405 m 59 X s 2170 449 m 30 X s 2170
 493 m 30 X s 2170 537 m 30 X s 2170 581 m 30 X s 2141 625 m 59 X s 2170 669 m 30 X s 2170 714 m 30 X s 2170 758 m 30 X s 2170 802 m 30 X s 2141 846 m 59 X s 2170 890 m 30 X s 2170 934 m 30 X s 2170 978 m 30 X s 2170 1022 m 30 X s 2141 1066 m 59 X s
 2170 1110 m 30 X s 2170 1154 m 30 X s 2170 1199 m 30 X s 2170 1243 m 30 X s 2141 1287 m 59 X s 2170 1331 m 30 X s 2170 1375 m 30 X s 2170 1419 m 30 X s 2170 1463 m 30 X s 2141 1507 m 59 X s
 gr  gr showpage
end
%%EOF
