%!PS-Adobe-2.0 EPSF-2.0
%%BoundingBox:  0 0 567 384
%%Title: nonZq1q2_deltaR_ZeeNp.eps: c1
%%Creator: ROOT Version 5.34/14
%%CreationDate: Wed Sep 10 08:45:34 2014
%%EndComments
%%BeginProlog
80 dict begin
/s {stroke} def /l {lineto} def /m {moveto} def /t {translate} def
/r {rotate} def /rl {roll}  def /R {repeat} def
/d {rlineto} def /rm {rmoveto} def /gr {grestore} def /f {eofill} def
/c {setrgbcolor} def /black {0 setgray} def /sd {setdash} def
/cl {closepath} def /sf {scalefont setfont} def /lw {setlinewidth} def
/box {m dup 0 exch d exch 0 d 0 exch neg d cl} def
/NC{systemdict begin initclip end}def/C{NC box clip newpath}def
/bl {box s} def /bf {box f} def /Y { 0 exch d} def /X { 0 d} def 
/K {{pop pop 0 moveto} exch kshow} bind def
/ita {/ang 15 def gsave [1 0 ang dup sin exch cos div 1 0 0] concat} def 
/mp {newpath /y exch def /x exch def} def
/side {[w .77 mul w .23 mul] .385 w mul sd w 0 l currentpoint t -144 r} def
/mr {mp x y w2 0 360 arc} def /m24 {mr s} def /m20 {mr f} def
/mb {mp x y w2 add m w2 neg 0 d 0 w neg d w 0 d 0 w d cl} def
/mt {mp x y w2 add m w2 neg w neg d w 0 d cl} def
/m21 {mb f} def /m25 {mb s} def /m22 {mt f} def /m26{mt s} def
/m23 {mp x y w2 sub m w2 w d w neg 0 d cl f} def
/m27 {mp x y w2 add m w3 neg w2 neg d w3 w2 neg d w3 w2 d cl s} def
/m28 {mp x w2 sub y w2 sub w3 add m w3 0 d  0 w3 neg d w3 0 d 0 w3 d w3 0 d  0 w3 d w3 neg 0 d 0 w3 d w3 neg 0 d 0 w3 neg d w3 neg 0 d cl s } def
/m29 {mp gsave x w2 sub y w2 add w3 sub m currentpoint t 4 {side} repeat cl fill gr} def
/m30 {mp gsave x w2 sub y w2 add w3 sub m currentpoint t 4 {side} repeat cl s gr} def
/m31 {mp x y w2 sub m 0 w d x w2 sub y m w 0 d x w2 sub y w2 add m w w neg d x w2 sub y w2 sub m w w d s} def
/m32 {mp x y w2 sub m w2 w d w neg 0 d cl s} def
/m33 {mp x y w2 add m w3 neg w2 neg d w3 w2 neg d w3 w2 d cl f} def
/m34 {mp x w2 sub y w2 sub w3 add m w3 0 d  0 w3 neg d w3 0 d 0 w3 d w3 0 d  0 w3 d w3 neg 0 d 0 w3 d w3 neg 0 d 0 w3 neg d w3 neg 0 d cl f } def
/m2 {mp x y w2 sub m 0 w d x w2 sub y m w 0 d s} def
/m5 {mp x w2 sub y w2 sub m w w d x w2 sub y w2 add m w w neg d s} def
/reEncode {exch findfont dup length dict begin {1 index /FID eq  {pop pop} {def} ifelse } forall /Encoding exch def currentdict end dup /FontName get exch definefont pop } def [/Times-Bold /Times-Italic /Times-BoldItalic /Helvetica /Helvetica-Oblique
 /Helvetica-Bold /Helvetica-BoldOblique /Courier /Courier-Oblique /Courier-Bold /Courier-BoldOblique /Times-Roman /AvantGarde-Book /AvantGarde-BookOblique /AvantGarde-Demi /AvantGarde-DemiOblique /Bookman-Demi /Bookman-DemiItalic /Bookman-Light
 /Bookman-LightItalic /Helvetica-Narrow /Helvetica-Narrow-Bold /Helvetica-Narrow-BoldOblique /Helvetica-Narrow-Oblique /NewCenturySchlbk-Roman /NewCenturySchlbk-Bold /NewCenturySchlbk-BoldItalic /NewCenturySchlbk-Italic /Palatino-Bold
 /Palatino-BoldItalic /Palatino-Italic /Palatino-Roman ] {ISOLatin1Encoding reEncode } forall
%%EndProlog
%%BeginSetup
%%EndSetup
newpath  gsave  .25 .25 scale  gsave  0 0 t black[  ] 0 sd 3 lw 1 1 1 c 2268 1538 0 0 bf black 1 1 1 c 1883 1322 317 185 bf black 1883 1322 317 185 bl 1 1 1 c 1 7.94729e-08 0 c 628 52 317 185 bf 0 1 0.52 c 628 52 1572 185 bf 0.2 0 1 c 628 53 317 237
 bf 628 53 1572 237 bf 628 53 317 290 bf 0.386667 0 1 c 628 53 1572 290 bf 0.2 0 1 c 628 53 317 343 bf 628 53 1572 343 bf 628 53 317 396 bf 0.386667 0 1 c 628 53 1572 396 bf 0.2 0 1 c 628 53 317 449 bf 628 53 1572 449 bf 628 53 317 502 bf 0.386667 0
 1 c 628 53 1572 502 bf 0.2 0 1 c 628 53 317 555 bf 0.386667 0 1 c 628 53 1572 555 bf 0.2 0 1 c 628 53 317 608 bf 0.386667 0 1 c 628 53 1572 608 bf 0.2 0 1 c 628 53 317 661 bf 628 53 1572 661 bf 628 52 317 714 bf 628 52 1572 714 bf 0 0.0800001 1 c
 628 53 317 766 bf 0.2 0 1 c 628 53 1572 766 bf 0 0.0800001 1 c 628 53 317 819 bf 628 53 1572 819 bf 628 53 317 872 bf 628 53 1572 872 bf 0 0.266667 1 c 628 53 317 925 bf 0.2 0 1 c 628 53 1572 925 bf 0 0.0800001 1 c 628 53 317 978 bf 0 0.266667 1 c
 628 53 1572 978 bf 0.386667 0 1 c 628 53 317 1031 bf 0.2 0 1 c 628 53 1572 1031 bf 628 53 317 1084 bf 0.386667 0 1 c 628 53 1572 1084 bf 628 53 317 1137 bf 628 53 1572 1137 bf 628 53 317 1190 bf 628 53 1572 1190 bf 628 53 317 1243 bf 628 53 1572
 1243 bf 628 52 317 1296 bf 628 52 1572 1296 bf 628 53 317 1348 bf 628 53 1572 1348 bf 56 66 2211 185 bf 0.2 0 1 c 56 66 2211 251 bf 0 0.0800001 1 c 56 66 2211 317 bf 0 0.266667 1 c 56 66 2211 383 bf 0 0.546667 1 c 56 66 2211 449 bf 0 0.733333 1 c 56
 66 2211 515 bf 0 1 0.986667 c 56 66 2211 581 bf 0 1 0.8 c 56 67 2211 647 bf 0 1 0.52 c 56 66 2211 714 bf 0 1 0.333333 c 56 66 2211 780 bf 0 1 0.0533334 c 56 66 2211 846 bf 0.133333 1 0 c 56 66 2211 912 bf 0.413333 1 0 c 56 66 2211 978 bf 0.6 1 0 c
 56 66 2211 1044 bf 0.88 1 0 c 56 66 2211 1110 bf 1 0.933333 0 c 56 67 2211 1176 bf 1 0.653333 0 c 56 66 2211 1243 bf 1 0.466667 0 c 56 66 2211 1309 bf 1 0.186667 0 c 56 66 2211 1375 bf 1 7.94729e-08 0 c 56 66 2211 1441 bf black 2267 185 m 1322 Y s
 2208 185 m 59 X s 2208 295 m 59 X s 2208 406 m 59 X s 2208 516 m 59 X s 2208 627 m 59 X s 2208 737 m 59 X s 2208 848 m 59 X s 2208 959 m 59 X s 2208 1069 m 59 X s 2208 1180 m 59 X s 2208 1290 m 59 X s 2208 1401 m 59 X s 2208 1401 m 59 X s
 gsave  2268 1538 0 0 C 2277.49 153.136 t 0 r /Helvetica findfont 84.7135 sf 0 0 m (0) show NC gr 
 gsave  2268 1538 0 0 C 2277.49 263.915 t 0 r /Helvetica findfont 84.7135 sf 0 0 m (0.02) show NC gr 
 gsave  2268 1538 0 0 C 2277.49 374.695 t 0 r /Helvetica findfont 84.7135 sf 0 0 m (0.04) show NC gr 
 gsave  2268 1538 0 0 C 2277.49 485.474 t 0 r /Helvetica findfont 84.7135 sf 0 0 m (0.06) show NC gr 
 gsave  2268 1538 0 0 C 2277.49 596.253 t 0 r /Helvetica findfont 84.7135 sf 0 0 m (0.08) show NC gr 
 gsave  2268 1538 0 0 C 2277.49 707.032 t 0 r /Helvetica findfont 84.7135 sf 0 0 m (0.1) show NC gr 
 gsave  2268 1538 0 0 C 2277.49 817.812 t 0 r /Helvetica findfont 84.7135 sf 0 0 m (0.12) show NC gr 
 gsave  2268 1538 0 0 C 2277.49 928.591 t 0 r /Helvetica findfont 84.7135 sf 0 0 m (0.14) show NC gr 
 gsave  2268 1538 0 0 C 2277.49 1039.37 t 0 r /Helvetica findfont 84.7135 sf 0 0 m (0.16) show NC gr 
 gsave  2268 1538 0 0 C 2277.49 1150.15 t 0 r /Helvetica findfont 84.7135 sf 0 0 m (0.18) show NC gr 
 gsave  2268 1538 0 0 C 2277.49 1260.93 t 0 r /Helvetica findfont 84.7135 sf 0 0 m (0.2) show NC gr 
 gsave  2268 1538 0 0 C 2277.49 1371.71 t 0 r /Helvetica findfont 84.7135 sf 0 0 m (0.22) show NC gr  1 1 1 c black 317 185 m 1883 X s
 gsave  2268 1538 0 0 C 1990.77 16.2911 t 0 r /Helvetica findfont 84.7135 sf 0 0 m (q1.q2) show NC gr  317 223 m -38 Y s 380 204 m -19 Y s 443 204 m -19 Y s 506 204 m -19 Y s 568 204 m -19 Y s 631 223 m -38 Y s 694 204 m -19 Y s 757 204 m -19 Y s 819
 204 m -19 Y s 882 204 m -19 Y s 945 223 m -38 Y s 1008 204 m -19 Y s 1070 204 m -19 Y s 1133 204 m -19 Y s 1196 204 m -19 Y s 1259 223 m -38 Y s 1321 204 m -19 Y s 1384 204 m -19 Y s 1447 204 m -19 Y s 1510 204 m -19 Y s 1572 223 m -38 Y s 1635 204
 m -19 Y s 1698 204 m -19 Y s 1761 204 m -19 Y s 1823 204 m -19 Y s 1886 223 m -38 Y s 1949 204 m -19 Y s 2011 204 m -19 Y s 2074 204 m -19 Y s 2137 204 m -19 Y s 2200 223 m -38 Y s
 gsave  2268 1538 0 0 C 244.366 104.263 t 0 r /Helvetica findfont 84.7135 sf 0 0 m (\2551.5) show NC gr 
 gsave  2268 1538 0 0 C 599.511 104.263 t 0 r /Helvetica findfont 84.7135 sf 0 0 m (\2551) show NC gr 
 gsave  2268 1538 0 0 C 873.201 104.263 t 0 r /Helvetica findfont 84.7135 sf 0 0 m (\2550.5) show NC gr 
 gsave  2268 1538 0 0 C 1234.86 104.263 t 0 r /Helvetica findfont 84.7135 sf 0 0 m (0) show NC gr 
 gsave  2268 1538 0 0 C 1511.81 104.263 t 0 r /Helvetica findfont 84.7135 sf 0 0 m (0.5) show NC gr 
 gsave  2268 1538 0 0 C 1866.96 104.263 t 0 r /Helvetica findfont 84.7135 sf 0 0 m (1) show NC gr 
 gsave  2268 1538 0 0 C 2140.65 104.263 t 0 r /Helvetica findfont 84.7135 sf 0 0 m (1.5) show NC gr  317 1507 m 1883 X s 317 1469 m 38 Y s 380 1488 m 19 Y s 443 1488 m 19 Y s 506 1488 m 19 Y s 568 1488 m 19 Y s 631 1469 m 38 Y s 694 1488 m 19 Y s 757
 1488 m 19 Y s 819 1488 m 19 Y s 882 1488 m 19 Y s 945 1469 m 38 Y s 1008 1488 m 19 Y s 1070 1488 m 19 Y s 1133 1488 m 19 Y s 1196 1488 m 19 Y s 1259 1469 m 38 Y s 1321 1488 m 19 Y s 1384 1488 m 19 Y s 1447 1488 m 19 Y s 1510 1488 m 19 Y s 1572 1469
 m 38 Y s 1635 1488 m 19 Y s 1698 1488 m 19 Y s 1761 1488 m 19 Y s 1823 1488 m 19 Y s 1886 1469 m 38 Y s 1949 1488 m 19 Y s 2011 1488 m 19 Y s 2074 1488 m 19 Y s 2137 1488 m 19 Y s 2200 1469 m 38 Y s 317 185 m 1322 Y s
 gsave  2268 1538 0 0 C 130.329 1427.1 t 90 r /Helvetica findfont 84.7135 sf 0 0 m ( R) show NC gr 
 gsave  2268 1538 0 0 C 130.329 1374.97 t 90 r /Symbol findfont 84.7135 sf 0 0 m (D) show NC gr  376 185 m -59 X s 347 211 m -30 X s 347 237 m -30 X s 347 264 m -30 X s 347 290 m -30 X s 376 317 m -59 X s 347 343 m -30 X s 347 370 m -30 X s 347 396 m
 -30 X s 347 423 m -30 X s 376 449 m -59 X s 347 476 m -30 X s 347 502 m -30 X s 347 528 m -30 X s 347 555 m -30 X s 376 581 m -59 X s 347 608 m -30 X s 347 634 m -30 X s 347 661 m -30 X s 347 687 m -30 X s 376 714 m -59 X s 347 740 m -30 X s 347 766
 m -30 X s 347 793 m -30 X s 347 819 m -30 X s 376 846 m -59 X s 347 872 m -30 X s 347 899 m -30 X s 347 925 m -30 X s 347 952 m -30 X s 376 978 m -59 X s 347 1005 m -30 X s 347 1031 m -30 X s 347 1057 m -30 X s 347 1084 m -30 X s 376 1110 m -59 X s
 347 1137 m -30 X s 347 1163 m -30 X s 347 1190 m -30 X s 347 1216 m -30 X s 376 1243 m -59 X s 347 1269 m -30 X s 347 1296 m -30 X s 347 1322 m -30 X s 347 1348 m -30 X s 376 1375 m -59 X s 347 1401 m -30 X s 347 1428 m -30 X s 347 1454 m -30 X s
 347 1481 m -30 X s 376 1507 m -59 X s
 gsave  2268 1538 0 0 C 257.399 153.136 t 0 r /Helvetica findfont 84.7135 sf 0 0 m (0) show NC gr 
 gsave  2268 1538 0 0 C 185.718 286.723 t 0 r /Helvetica findfont 84.7135 sf 0 0 m (0.5) show NC gr 
 gsave  2268 1538 0 0 C 270.432 417.051 t 0 r /Helvetica findfont 84.7135 sf 0 0 m (1) show NC gr 
 gsave  2268 1538 0 0 C 185.718 550.638 t 0 r /Helvetica findfont 84.7135 sf 0 0 m (1.5) show NC gr 
 gsave  2268 1538 0 0 C 257.399 684.225 t 0 r /Helvetica findfont 84.7135 sf 0 0 m (2) show NC gr 
 gsave  2268 1538 0 0 C 185.718 814.553 t 0 r /Helvetica findfont 84.7135 sf 0 0 m (2.5) show NC gr 
 gsave  2268 1538 0 0 C 257.399 948.14 t 0 r /Helvetica findfont 84.7135 sf 0 0 m (3) show NC gr 
 gsave  2268 1538 0 0 C 185.718 1078.47 t 0 r /Helvetica findfont 84.7135 sf 0 0 m (3.5) show NC gr 
 gsave  2268 1538 0 0 C 257.399 1212.06 t 0 r /Helvetica findfont 84.7135 sf 0 0 m (4) show NC gr 
 gsave  2268 1538 0 0 C 185.718 1342.38 t 0 r /Helvetica findfont 84.7135 sf 0 0 m (4.5) show NC gr 
 gsave  2268 1538 0 0 C 257.399 1475.97 t 0 r /Helvetica findfont 84.7135 sf 0 0 m (5) show NC gr  2200 185 m 1322 Y s 2141 185 m 59 X s 2170 211 m 30 X s 2170 237 m 30 X s 2170 264 m 30 X s 2170 290 m 30 X s 2141 317 m 59 X s 2170 343 m 30 X s 2170
 370 m 30 X s 2170 396 m 30 X s 2170 423 m 30 X s 2141 449 m 59 X s 2170 476 m 30 X s 2170 502 m 30 X s 2170 528 m 30 X s 2170 555 m 30 X s 2141 581 m 59 X s 2170 608 m 30 X s 2170 634 m 30 X s 2170 661 m 30 X s 2170 687 m 30 X s 2141 714 m 59 X s
 2170 740 m 30 X s 2170 766 m 30 X s 2170 793 m 30 X s 2170 819 m 30 X s 2141 846 m 59 X s 2170 872 m 30 X s 2170 899 m 30 X s 2170 925 m 30 X s 2170 952 m 30 X s 2141 978 m 59 X s 2170 1005 m 30 X s 2170 1031 m 30 X s 2170 1057 m 30 X s 2170 1084 m
 30 X s 2141 1110 m 59 X s 2170 1137 m 30 X s 2170 1163 m 30 X s 2170 1190 m 30 X s 2170 1216 m 30 X s 2141 1243 m 59 X s 2170 1269 m 30 X s 2170 1296 m 30 X s 2170 1322 m 30 X s 2170 1348 m 30 X s 2141 1375 m 59 X s 2170 1401 m 30 X s 2170 1428 m 30
 X s 2170 1454 m 30 X s 2170 1481 m 30 X s 2141 1507 m 59 X s
 gr  gr showpage
end
%%EOF
