%!PS-Adobe-2.0 EPSF-2.0
%%BoundingBox:  0 0 567 384
%%Title: nonZmass_deltaPhiq1q2_ZeeNp.eps: c1
%%Creator: ROOT Version 5.34/14
%%CreationDate: Wed Sep 10 08:45:34 2014
%%EndComments
%%BeginProlog
80 dict begin
/s {stroke} def /l {lineto} def /m {moveto} def /t {translate} def
/r {rotate} def /rl {roll}  def /R {repeat} def
/d {rlineto} def /rm {rmoveto} def /gr {grestore} def /f {eofill} def
/c {setrgbcolor} def /black {0 setgray} def /sd {setdash} def
/cl {closepath} def /sf {scalefont setfont} def /lw {setlinewidth} def
/box {m dup 0 exch d exch 0 d 0 exch neg d cl} def
/NC{systemdict begin initclip end}def/C{NC box clip newpath}def
/bl {box s} def /bf {box f} def /Y { 0 exch d} def /X { 0 d} def 
/K {{pop pop 0 moveto} exch kshow} bind def
/ita {/ang 15 def gsave [1 0 ang dup sin exch cos div 1 0 0] concat} def 
/mp {newpath /y exch def /x exch def} def
/side {[w .77 mul w .23 mul] .385 w mul sd w 0 l currentpoint t -144 r} def
/mr {mp x y w2 0 360 arc} def /m24 {mr s} def /m20 {mr f} def
/mb {mp x y w2 add m w2 neg 0 d 0 w neg d w 0 d 0 w d cl} def
/mt {mp x y w2 add m w2 neg w neg d w 0 d cl} def
/m21 {mb f} def /m25 {mb s} def /m22 {mt f} def /m26{mt s} def
/m23 {mp x y w2 sub m w2 w d w neg 0 d cl f} def
/m27 {mp x y w2 add m w3 neg w2 neg d w3 w2 neg d w3 w2 d cl s} def
/m28 {mp x w2 sub y w2 sub w3 add m w3 0 d  0 w3 neg d w3 0 d 0 w3 d w3 0 d  0 w3 d w3 neg 0 d 0 w3 d w3 neg 0 d 0 w3 neg d w3 neg 0 d cl s } def
/m29 {mp gsave x w2 sub y w2 add w3 sub m currentpoint t 4 {side} repeat cl fill gr} def
/m30 {mp gsave x w2 sub y w2 add w3 sub m currentpoint t 4 {side} repeat cl s gr} def
/m31 {mp x y w2 sub m 0 w d x w2 sub y m w 0 d x w2 sub y w2 add m w w neg d x w2 sub y w2 sub m w w d s} def
/m32 {mp x y w2 sub m w2 w d w neg 0 d cl s} def
/m33 {mp x y w2 add m w3 neg w2 neg d w3 w2 neg d w3 w2 d cl f} def
/m34 {mp x w2 sub y w2 sub w3 add m w3 0 d  0 w3 neg d w3 0 d 0 w3 d w3 0 d  0 w3 d w3 neg 0 d 0 w3 d w3 neg 0 d 0 w3 neg d w3 neg 0 d cl f } def
/m2 {mp x y w2 sub m 0 w d x w2 sub y m w 0 d s} def
/m5 {mp x w2 sub y w2 sub m w w d x w2 sub y w2 add m w w neg d s} def
/reEncode {exch findfont dup length dict begin {1 index /FID eq  {pop pop} {def} ifelse } forall /Encoding exch def currentdict end dup /FontName get exch definefont pop } def [/Times-Bold /Times-Italic /Times-BoldItalic /Helvetica /Helvetica-Oblique
 /Helvetica-Bold /Helvetica-BoldOblique /Courier /Courier-Oblique /Courier-Bold /Courier-BoldOblique /Times-Roman /AvantGarde-Book /AvantGarde-BookOblique /AvantGarde-Demi /AvantGarde-DemiOblique /Bookman-Demi /Bookman-DemiItalic /Bookman-Light
 /Bookman-LightItalic /Helvetica-Narrow /Helvetica-Narrow-Bold /Helvetica-Narrow-BoldOblique /Helvetica-Narrow-Oblique /NewCenturySchlbk-Roman /NewCenturySchlbk-Bold /NewCenturySchlbk-BoldItalic /NewCenturySchlbk-Italic /Palatino-Bold
 /Palatino-BoldItalic /Palatino-Italic /Palatino-Roman ] {ISOLatin1Encoding reEncode } forall
%%EndProlog
%%BeginSetup
%%EndSetup
newpath  gsave  .25 .25 scale  gsave  0 0 t black[  ] 0 sd 3 lw 1 1 1 c 2268 1538 0 0 bf black 1 1 1 c 1883 1322 317 185 bf black 1883 1322 317 185 bl 1 1 1 c 0.386667 0 1 c 19 22 694 493 bf 19 22 713 493 bf 18 22 732 493 bf 19 22 750 493 bf 19 22
 769 493 bf 19 22 788 493 bf 19 22 863 493 bf 19 22 901 493 bf 19 22 920 493 bf 19 22 957 493 bf 19 22 976 493 bf 19 22 995 493 bf 18 22 1052 493 bf 19 22 1070 493 bf 19 22 1089 493 bf 19 22 1108 493 bf 19 22 1164 493 bf 19 22 637 515 bf 19 22 656
 515 bf 19 22 713 515 bf 18 22 732 515 bf 19 22 750 515 bf 19 22 769 515 bf 19 22 807 515 bf 18 22 826 515 bf 19 22 844 515 bf 19 22 882 515 bf 19 22 901 515 bf 19 22 920 515 bf 19 22 995 515 bf 19 22 1202 515 bf 19 22 1240 515 bf 18 22 619 537 bf 19
 22 694 537 bf 19 22 769 537 bf 19 22 807 537 bf 18 22 826 537 bf 19 22 844 537 bf 19 22 863 537 bf 19 22 920 537 bf 19 22 957 537 bf 19 22 976 537 bf 18 22 1146 537 bf 19 22 1861 537 bf 19 22 675 559 bf 18 22 732 559 bf 19 22 750 559 bf 19 22 788
 559 bf 19 22 844 559 bf 19 22 863 559 bf 19 22 882 559 bf 19 22 901 559 bf 19 22 957 559 bf 19 22 1014 559 bf 19 22 1033 559 bf 19 22 1353 559 bf 18 22 1372 559 bf 19 22 1955 559 bf 19 22 713 581 bf 18 22 732 581 bf 19 22 769 581 bf 19 22 788 581 bf
 19 22 807 581 bf 18 22 826 581 bf 19 22 863 581 bf 19 22 882 581 bf 19 22 1127 581 bf 18 22 619 603 bf 19 22 750 603 bf 19 22 769 603 bf 19 22 788 603 bf 18 22 826 603 bf 19 22 863 603 bf 19 22 882 603 bf 19 22 901 603 bf 18 22 1052 603 bf 19 22
 1202 603 bf 19 22 1315 603 bf 19 22 600 625 bf 19 22 637 625 bf 19 22 656 625 bf 18 22 732 625 bf 19 22 769 625 bf 19 22 844 625 bf 18 22 939 625 bf 19 22 976 625 bf 19 22 1033 625 bf 18 22 1052 625 bf 19 22 1315 625 bf 19 22 1823 625 bf 19 22 562
 647 bf 19 22 581 647 bf 19 22 600 647 bf 18 22 619 647 bf 19 22 675 647 bf 19 22 694 647 bf 19 22 750 647 bf 19 22 788 647 bf 19 22 863 647 bf 19 22 1033 647 bf 19 22 1070 647 bf 19 23 637 669 bf 19 23 694 669 bf 19 23 863 669 bf 19 23 901 669 bf 19
 23 1014 669 bf 18 23 1146 669 bf 19 23 1221 669 bf 19 22 543 692 bf 19 22 581 692 bf 19 22 600 692 bf 18 22 619 692 bf 19 22 656 692 bf 19 22 675 692 bf 18 22 732 692 bf 19 22 750 692 bf 18 22 826 692 bf 19 22 863 692 bf 19 22 920 692 bf 19 22 957
 692 bf 19 22 506 714 bf 19 22 581 714 bf 19 22 600 714 bf 19 22 656 714 bf 19 22 694 714 bf 19 22 769 714 bf 18 22 826 714 bf 19 22 1033 714 bf 19 22 449 736 bf 19 22 468 736 bf 19 22 487 736 bf 19 22 581 736 bf 19 22 637 736 bf 19 22 675 736 bf 19
 22 694 736 bf 19 22 750 736 bf 19 22 920 736 bf 19 22 449 758 bf 19 22 487 758 bf 19 22 506 758 bf 19 22 543 758 bf 19 22 562 758 bf 19 22 581 758 bf 18 22 619 758 bf 19 22 637 758 bf 19 22 863 758 bf 18 22 939 758 bf 18 22 412 780 bf 19 22 449 780
 bf 19 22 487 780 bf 19 22 506 780 bf 18 22 525 780 bf 19 22 543 780 bf 19 22 581 780 bf 19 22 1202 780 bf 19 22 355 802 bf 19 22 374 802 bf 19 22 393 802 bf 18 22 412 802 bf 19 22 506 802 bf 18 22 525 802 bf 19 22 543 802 bf 19 22 637 802 bf 19 22
 694 802 bf 19 22 750 802 bf 1 7.94729e-08 0 c 19 22 336 824 bf 0.2 0 1 c 19 22 355 824 bf 0.386667 0 1 c 19 22 374 824 bf 19 22 393 824 bf 18 22 412 824 bf 19 22 430 824 bf 19 22 449 824 bf 19 22 468 824 bf 19 22 487 824 bf 19 22 637 824 bf 19 22
 694 824 bf 0 1 0.52 c 19 22 336 846 bf 0.2 0 1 c 19 22 355 846 bf 0.386667 0 1 c 19 22 430 846 bf 19 22 449 846 bf 19 22 468 846 bf 19 22 487 846 bf 19 22 713 846 bf 18 22 826 846 bf 18 22 939 846 bf 19 22 355 868 bf 18 22 412 868 bf 19 22 468 868
 bf 19 22 487 868 bf 19 22 506 868 bf 19 22 600 868 bf 19 22 995 868 bf 18 22 412 890 bf 19 22 449 890 bf 19 22 487 890 bf 19 22 581 890 bf 18 22 619 890 bf 19 22 807 890 bf 19 22 430 912 bf 19 22 468 912 bf 19 22 487 912 bf 19 22 506 912 bf 19 22
 543 912 bf 19 22 600 912 bf 19 22 694 912 bf 19 22 844 912 bf 19 22 1014 912 bf 19 22 468 934 bf 19 22 506 934 bf 19 22 600 934 bf 18 22 619 934 bf 19 22 656 934 bf 19 22 694 934 bf 19 22 769 934 bf 19 22 788 934 bf 18 22 939 934 bf 19 22 1597 934
 bf 19 22 1616 934 bf 18 22 619 956 bf 19 22 656 956 bf 19 22 675 956 bf 19 22 788 956 bf 18 22 525 978 bf 19 22 562 978 bf 19 22 581 978 bf 19 22 600 978 bf 19 22 656 978 bf 19 22 713 978 bf 19 22 788 978 bf 19 22 901 978 bf 19 22 1183 978 bf 19 22
 1447 978 bf 19 22 581 1000 bf 19 22 600 1000 bf 18 22 619 1000 bf 19 22 713 1000 bf 18 22 732 1000 bf 19 22 788 1000 bf 19 22 995 1000 bf 19 22 600 1022 bf 19 22 656 1022 bf 19 22 694 1022 bf 19 22 713 1022 bf 19 22 807 1022 bf 18 22 1052 1022 bf 19
 22 581 1044 bf 19 22 675 1044 bf 18 22 826 1044 bf 19 22 882 1044 bf 19 22 901 1044 bf 18 22 939 1044 bf 19 22 976 1044 bf 19 22 995 1044 bf 19 22 1861 1044 bf 18 22 619 1066 bf 19 22 656 1066 bf 19 22 675 1066 bf 19 22 713 1066 bf 19 22 788 1066 bf
 18 22 826 1066 bf 19 22 976 1066 bf 19 22 995 1066 bf 19 22 1033 1066 bf 19 22 1334 1066 bf 19 22 1767 1066 bf 19 22 581 1088 bf 19 22 656 1088 bf 19 22 750 1088 bf 19 22 788 1088 bf 18 22 826 1088 bf 19 22 863 1088 bf 19 22 901 1088 bf 18 22 939
 1088 bf 19 22 957 1088 bf 19 22 1221 1088 bf 19 22 600 1110 bf 19 22 637 1110 bf 18 22 732 1110 bf 19 22 750 1110 bf 19 22 788 1110 bf 18 22 826 1110 bf 19 22 844 1110 bf 19 22 863 1110 bf 19 22 882 1110 bf 19 22 920 1110 bf 19 22 957 1110 bf 19 22
 1033 1110 bf 18 22 1052 1110 bf 19 22 1070 1110 bf 19 22 1127 1110 bf 19 22 637 1132 bf 19 22 694 1132 bf 19 22 713 1132 bf 18 22 732 1132 bf 19 22 788 1132 bf 19 22 807 1132 bf 18 22 826 1132 bf 19 22 844 1132 bf 19 22 863 1132 bf 19 22 920 1132 bf
 19 22 957 1132 bf 18 22 1052 1132 bf 18 22 1146 1132 bf 19 22 1164 1132 bf 19 22 656 1154 bf 19 22 675 1154 bf 19 22 750 1154 bf 19 22 769 1154 bf 19 22 807 1154 bf 18 22 826 1154 bf 19 22 844 1154 bf 19 22 863 1154 bf 19 22 882 1154 bf 19 22 901
 1154 bf 19 22 920 1154 bf 19 22 957 1154 bf 18 22 1052 1154 bf 19 22 1202 1154 bf 19 22 1221 1154 bf 19 22 1484 1154 bf 19 22 1917 1154 bf 19 23 713 1176 bf 19 23 788 1176 bf 19 23 807 1176 bf 19 23 844 1176 bf 19 23 863 1176 bf 19 23 901 1176 bf 18
 23 939 1176 bf 19 23 957 1176 bf 19 23 976 1176 bf 19 23 995 1176 bf 18 23 1052 1176 bf 19 23 1070 1176 bf 18 23 1673 1176 bf 56 66 2211 185 bf 0.2 0 1 c 56 66 2211 251 bf 0 0.0800001 1 c 56 66 2211 317 bf 0 0.266667 1 c 56 66 2211 383 bf 0 0.546667
 1 c 56 66 2211 449 bf 0 0.733333 1 c 56 66 2211 515 bf 0 1 0.986667 c 56 66 2211 581 bf 0 1 0.8 c 56 67 2211 647 bf 0 1 0.52 c 56 66 2211 714 bf 0 1 0.333333 c 56 66 2211 780 bf 0 1 0.0533334 c 56 66 2211 846 bf 0.133333 1 0 c 56 66 2211 912 bf
 0.413333 1 0 c 56 66 2211 978 bf 0.6 1 0 c 56 66 2211 1044 bf 0.88 1 0 c 56 66 2211 1110 bf 1 0.933333 0 c 56 67 2211 1176 bf 1 0.653333 0 c 56 66 2211 1243 bf 1 0.466667 0 c 56 66 2211 1309 bf 1 0.186667 0 c 56 66 2211 1375 bf 1 7.94729e-08 0 c 56
 66 2211 1441 bf black 2267 185 m 1322 Y s 2208 185 m 59 X s 2208 299 m 59 X s 2208 413 m 59 X s 2208 527 m 59 X s 2208 641 m 59 X s 2208 755 m 59 X s 2208 869 m 59 X s 2208 983 m 59 X s 2208 1097 m 59 X s 2208 1211 m 59 X s 2208 1325 m 59 X s 2208
 1439 m 59 X s 2208 1439 m 59 X s
 gsave  2268 1538 0 0 C 2277.49 153.136 t 0 r /Helvetica findfont 84.7135 sf 0 0 m (0) show NC gr 
 gsave  2268 1538 0 0 C 2277.49 267.173 t 0 r /Helvetica findfont 84.7135 sf 0 0 m (0.02) show NC gr 
 gsave  2268 1538 0 0 C 2277.49 381.211 t 0 r /Helvetica findfont 84.7135 sf 0 0 m (0.04) show NC gr 
 gsave  2268 1538 0 0 C 2277.49 495.248 t 0 r /Helvetica findfont 84.7135 sf 0 0 m (0.06) show NC gr 
 gsave  2268 1538 0 0 C 2277.49 609.286 t 0 r /Helvetica findfont 84.7135 sf 0 0 m (0.08) show NC gr 
 gsave  2268 1538 0 0 C 2277.49 723.323 t 0 r /Helvetica findfont 84.7135 sf 0 0 m (0.1) show NC gr 
 gsave  2268 1538 0 0 C 2277.49 837.361 t 0 r /Helvetica findfont 84.7135 sf 0 0 m (0.12) show NC gr 
 gsave  2268 1538 0 0 C 2277.49 951.398 t 0 r /Helvetica findfont 84.7135 sf 0 0 m (0.14) show NC gr 
 gsave  2268 1538 0 0 C 2277.49 1065.44 t 0 r /Helvetica findfont 84.7135 sf 0 0 m (0.16) show NC gr 
 gsave  2268 1538 0 0 C 2277.49 1179.47 t 0 r /Helvetica findfont 84.7135 sf 0 0 m (0.18) show NC gr 
 gsave  2268 1538 0 0 C 2277.49 1293.51 t 0 r /Helvetica findfont 84.7135 sf 0 0 m (0.2) show NC gr 
 gsave  2268 1538 0 0 C 2277.49 1407.55 t 0 r /Helvetica findfont 84.7135 sf 0 0 m (0.22) show NC gr  1 1 1 c black 317 185 m 1883 X s
 gsave  2268 1538 0 0 C 1736.63 13.0329 t 0 r /Helvetica findfont 84.7135 sf 0 0 m ( mass [GeV]) show NC gr  317 223 m -38 Y s 355 204 m -19 Y s 393 204 m -19 Y s 430 204 m -19 Y s 468 204 m -19 Y s 506 223 m -38 Y s 543 204 m -19 Y s 581 204 m -19 Y
 s 619 204 m -19 Y s 656 204 m -19 Y s 694 223 m -38 Y s 732 204 m -19 Y s 769 204 m -19 Y s 807 204 m -19 Y s 844 204 m -19 Y s 882 223 m -38 Y s 920 204 m -19 Y s 957 204 m -19 Y s 995 204 m -19 Y s 1033 204 m -19 Y s 1070 223 m -38 Y s 1108 204 m
 -19 Y s 1146 204 m -19 Y s 1183 204 m -19 Y s 1221 204 m -19 Y s 1259 223 m -38 Y s 1296 204 m -19 Y s 1334 204 m -19 Y s 1372 204 m -19 Y s 1409 204 m -19 Y s 1447 223 m -38 Y s 1484 204 m -19 Y s 1522 204 m -19 Y s 1560 204 m -19 Y s 1597 204 m
 -19 Y s 1635 223 m -38 Y s 1673 204 m -19 Y s 1710 204 m -19 Y s 1748 204 m -19 Y s 1786 204 m -19 Y s 1823 223 m -38 Y s 1861 204 m -19 Y s 1899 204 m -19 Y s 1936 204 m -19 Y s 1974 204 m -19 Y s 2011 223 m -38 Y s 2049 204 m -19 Y s 2087 204 m
 -19 Y s 2124 204 m -19 Y s 2162 204 m -19 Y s 2200 223 m -38 Y s
 gsave  2268 1538 0 0 C 293.239 104.263 t 0 r /Helvetica findfont 84.7135 sf 0 0 m (0) show NC gr 
 gsave  2268 1538 0 0 C 459.408 104.263 t 0 r /Helvetica findfont 84.7135 sf 0 0 m (10) show NC gr 
 gsave  2268 1538 0 0 C 645.126 104.263 t 0 r /Helvetica findfont 84.7135 sf 0 0 m (20) show NC gr 
 gsave  2268 1538 0 0 C 834.103 104.263 t 0 r /Helvetica findfont 84.7135 sf 0 0 m (30) show NC gr 
 gsave  2268 1538 0 0 C 1023.08 104.263 t 0 r /Helvetica findfont 84.7135 sf 0 0 m (40) show NC gr 
 gsave  2268 1538 0 0 C 1212.06 104.263 t 0 r /Helvetica findfont 84.7135 sf 0 0 m (50) show NC gr 
 gsave  2268 1538 0 0 C 1401.03 104.263 t 0 r /Helvetica findfont 84.7135 sf 0 0 m (60) show NC gr 
 gsave  2268 1538 0 0 C 1586.75 104.263 t 0 r /Helvetica findfont 84.7135 sf 0 0 m (70) show NC gr 
 gsave  2268 1538 0 0 C 1775.73 104.263 t 0 r /Helvetica findfont 84.7135 sf 0 0 m (80) show NC gr 
 gsave  2268 1538 0 0 C 1964.7 104.263 t 0 r /Helvetica findfont 84.7135 sf 0 0 m (90) show NC gr 
 gsave  2268 1538 0 0 C 2127.61 104.263 t 0 r /Helvetica findfont 84.7135 sf 0 0 m (100) show NC gr  317 1507 m 1883 X s 317 1469 m 38 Y s 355 1488 m 19 Y s 393 1488 m 19 Y s 430 1488 m 19 Y s 468 1488 m 19 Y s 506 1469 m 38 Y s 543 1488 m 19 Y s 581
 1488 m 19 Y s 619 1488 m 19 Y s 656 1488 m 19 Y s 694 1469 m 38 Y s 732 1488 m 19 Y s 769 1488 m 19 Y s 807 1488 m 19 Y s 844 1488 m 19 Y s 882 1469 m 38 Y s 920 1488 m 19 Y s 957 1488 m 19 Y s 995 1488 m 19 Y s 1033 1488 m 19 Y s 1070 1469 m 38 Y s
 1108 1488 m 19 Y s 1146 1488 m 19 Y s 1183 1488 m 19 Y s 1221 1488 m 19 Y s 1259 1469 m 38 Y s 1296 1488 m 19 Y s 1334 1488 m 19 Y s 1372 1488 m 19 Y s 1409 1488 m 19 Y s 1447 1469 m 38 Y s 1484 1488 m 19 Y s 1522 1488 m 19 Y s 1560 1488 m 19 Y s
 1597 1488 m 19 Y s 1635 1469 m 38 Y s 1673 1488 m 19 Y s 1710 1488 m 19 Y s 1748 1488 m 19 Y s 1786 1488 m 19 Y s 1823 1469 m 38 Y s 1861 1488 m 19 Y s 1899 1488 m 19 Y s 1936 1488 m 19 Y s 1974 1488 m 19 Y s 2011 1469 m 38 Y s 2049 1488 m 19 Y s
 2087 1488 m 19 Y s 2124 1488 m 19 Y s 2162 1488 m 19 Y s 2200 1469 m 38 Y s 317 185 m 1322 Y s
 gsave  2268 1538 0 0 C 120.554 1257.67 t 90 r /Helvetica findfont 84.7135 sf 0 0 m (*q1*q2) show NC gr 
 gsave  2268 1538 0 0 C 120.554 1215.31 t 90 r /Symbol findfont 84.7135 sf 0 0 m (f) show NC gr 
 gsave  2268 1538 0 0 C 120.554 1163.18 t 90 r /Symbol findfont 84.7135 sf 0 0 m (D) show NC gr  376 185 m -59 X s 347 240 m -30 X s 347 295 m -30 X s 347 350 m -30 X s 376 405 m -59 X s 347 460 m -30 X s 347 515 m -30 X s 347 570 m -30 X s 376 625 m
 -59 X s 347 681 m -30 X s 347 736 m -30 X s 347 791 m -30 X s 376 846 m -59 X s 347 901 m -30 X s 347 956 m -30 X s 347 1011 m -30 X s 376 1066 m -59 X s 347 1121 m -30 X s 347 1176 m -30 X s 347 1232 m -30 X s 376 1287 m -59 X s 347 1342 m -30 X s
 347 1397 m -30 X s 347 1452 m -30 X s 376 1507 m -59 X s
 gsave  2268 1538 0 0 C 231.333 153.136 t 0 r /Helvetica findfont 84.7135 sf 0 0 m (\2556) show NC gr 
 gsave  2268 1538 0 0 C 228.075 374.695 t 0 r /Helvetica findfont 84.7135 sf 0 0 m (\2554) show NC gr 
 gsave  2268 1538 0 0 C 231.333 592.995 t 0 r /Helvetica findfont 84.7135 sf 0 0 m (\2552) show NC gr 
 gsave  2268 1538 0 0 C 257.399 814.553 t 0 r /Helvetica findfont 84.7135 sf 0 0 m (0) show NC gr 
 gsave  2268 1538 0 0 C 257.399 1036.11 t 0 r /Helvetica findfont 84.7135 sf 0 0 m (2) show NC gr 
 gsave  2268 1538 0 0 C 257.399 1254.41 t 0 r /Helvetica findfont 84.7135 sf 0 0 m (4) show NC gr 
 gsave  2268 1538 0 0 C 257.399 1475.97 t 0 r /Helvetica findfont 84.7135 sf 0 0 m (6) show NC gr  2200 185 m 1322 Y s 2141 185 m 59 X s 2170 240 m 30 X s 2170 295 m 30 X s 2170 350 m 30 X s 2141 405 m 59 X s 2170 460 m 30 X s 2170 515 m 30 X s 2170
 570 m 30 X s 2141 625 m 59 X s 2170 681 m 30 X s 2170 736 m 30 X s 2170 791 m 30 X s 2141 846 m 59 X s 2170 901 m 30 X s 2170 956 m 30 X s 2170 1011 m 30 X s 2141 1066 m 59 X s 2170 1121 m 30 X s 2170 1176 m 30 X s 2170 1232 m 30 X s 2141 1287 m 59
 X s 2170 1342 m 30 X s 2170 1397 m 30 X s 2170 1452 m 30 X s 2141 1507 m 59 X s
 gr  gr showpage
end
%%EOF
