%!PS-Adobe-2.0 EPSF-2.0
%%BoundingBox:  0 0 567 345
%%Title: : c1_n3
%%Creator: ROOT Version 5.34/14
%%CreationDate: Fri Sep 12 05:00:58 2014
%%EndComments
%%BeginProlog
80 dict begin
/s {stroke} def /l {lineto} def /m {moveto} def /t {translate} def
/r {rotate} def /rl {roll}  def /R {repeat} def
/d {rlineto} def /rm {rmoveto} def /gr {grestore} def /f {eofill} def
/c {setrgbcolor} def /black {0 setgray} def /sd {setdash} def
/cl {closepath} def /sf {scalefont setfont} def /lw {setlinewidth} def
/box {m dup 0 exch d exch 0 d 0 exch neg d cl} def
/NC{systemdict begin initclip end}def/C{NC box clip newpath}def
/bl {box s} def /bf {box f} def /Y { 0 exch d} def /X { 0 d} def 
/K {{pop pop 0 moveto} exch kshow} bind def
/ita {/ang 15 def gsave [1 0 ang dup sin exch cos div 1 0 0] concat} def 
/mp {newpath /y exch def /x exch def} def
/side {[w .77 mul w .23 mul] .385 w mul sd w 0 l currentpoint t -144 r} def
/mr {mp x y w2 0 360 arc} def /m24 {mr s} def /m20 {mr f} def
/mb {mp x y w2 add m w2 neg 0 d 0 w neg d w 0 d 0 w d cl} def
/mt {mp x y w2 add m w2 neg w neg d w 0 d cl} def
/m21 {mb f} def /m25 {mb s} def /m22 {mt f} def /m26{mt s} def
/m23 {mp x y w2 sub m w2 w d w neg 0 d cl f} def
/m27 {mp x y w2 add m w3 neg w2 neg d w3 w2 neg d w3 w2 d cl s} def
/m28 {mp x w2 sub y w2 sub w3 add m w3 0 d  0 w3 neg d w3 0 d 0 w3 d w3 0 d  0 w3 d w3 neg 0 d 0 w3 d w3 neg 0 d 0 w3 neg d w3 neg 0 d cl s } def
/m29 {mp gsave x w2 sub y w2 add w3 sub m currentpoint t 4 {side} repeat cl fill gr} def
/m30 {mp gsave x w2 sub y w2 add w3 sub m currentpoint t 4 {side} repeat cl s gr} def
/m31 {mp x y w2 sub m 0 w d x w2 sub y m w 0 d x w2 sub y w2 add m w w neg d x w2 sub y w2 sub m w w d s} def
/m32 {mp x y w2 sub m w2 w d w neg 0 d cl s} def
/m33 {mp x y w2 add m w3 neg w2 neg d w3 w2 neg d w3 w2 d cl f} def
/m34 {mp x w2 sub y w2 sub w3 add m w3 0 d  0 w3 neg d w3 0 d 0 w3 d w3 0 d  0 w3 d w3 neg 0 d 0 w3 d w3 neg 0 d 0 w3 neg d w3 neg 0 d cl f } def
/m2 {mp x y w2 sub m 0 w d x w2 sub y m w 0 d s} def
/m5 {mp x w2 sub y w2 sub m w w d x w2 sub y w2 add m w w neg d s} def
/reEncode {exch findfont dup length dict begin {1 index /FID eq  {pop pop} {def} ifelse } forall /Encoding exch def currentdict end dup /FontName get exch definefont pop } def [/Times-Bold /Times-Italic /Times-BoldItalic /Helvetica /Helvetica-Oblique
 /Helvetica-Bold /Helvetica-BoldOblique /Courier /Courier-Oblique /Courier-Bold /Courier-BoldOblique /Times-Roman /AvantGarde-Book /AvantGarde-BookOblique /AvantGarde-Demi /AvantGarde-DemiOblique /Bookman-Demi /Bookman-DemiItalic /Bookman-Light
 /Bookman-LightItalic /Helvetica-Narrow /Helvetica-Narrow-Bold /Helvetica-Narrow-BoldOblique /Helvetica-Narrow-Oblique /NewCenturySchlbk-Roman /NewCenturySchlbk-Bold /NewCenturySchlbk-BoldItalic /NewCenturySchlbk-Italic /Palatino-Bold
 /Palatino-BoldItalic /Palatino-Italic /Palatino-Roman ] {ISOLatin1Encoding reEncode } forall
%%EndProlog
%%BeginSetup
%%EndSetup
newpath  gsave  .25 .25 scale  gsave  0 0 t black[  ] 0 sd 3 lw 1 1 1 c 2268 1381 0 0 bf black 1 1 1 c 1694 1188 313 167 bf black 1694 1188 313 167 bl 1 1 1 c 1694 1188 313 167 bf black 1694 1188 313 167 bl 1 1 1 c 0 1 0.986667 c 42 119 525 167 bf 0
 1 0.52 c 42 119 737 167 bf 0 1 0.0533334 c 43 119 948 167 bf 0.413333 1 0 c 43 119 1160 167 bf 42 119 1372 167 bf 42 119 1584 167 bf 42 119 1796 167 bf 0 1 0.986667 c 42 118 525 286 bf 0 1 0.52 c 42 118 737 286 bf 0.133333 1 0 c 43 118 948 286 bf
 0.88 1 0 c 43 118 1160 286 bf 1 0.466667 0 c 42 118 1372 286 bf 42 118 1584 286 bf 1 7.94729e-08 0 c 42 118 1796 286 bf 0 0.733333 1 c 42 119 525 404 bf 0 1 0.8 c 42 119 737 404 bf 0 1 0.0533334 c 43 119 948 404 bf 0.6 1 0 c 43 119 1160 404 bf 1
 0.933333 0 c 42 119 1372 404 bf 42 119 1584 404 bf 1 0.186667 0 c 42 119 1796 404 bf 0 0.0800001 1 c 42 119 525 523 bf 0 0.546667 1 c 42 119 737 523 bf 0 1 0.8 c 43 119 948 523 bf 0 1 0.0533334 c 43 119 1160 523 bf 1 0.653333 0 c 42 119 1372 523 bf
 0.413333 1 0 c 42 119 1584 523 bf 0.88 1 0 c 42 119 1796 523 bf 0 0.0800001 1 c 42 119 525 642 bf 0 0.266667 1 c 42 119 737 642 bf 0 0.733333 1 c 43 119 948 642 bf 43 119 1160 642 bf 0 1 0.8 c 42 119 1372 642 bf 0.386667 0 1 c 42 119 525 761 bf 0.2
 0 1 c 42 119 737 761 bf 0 0.266667 1 c 43 119 948 761 bf 0 0.546667 1 c 43 119 1160 761 bf 0 0.266667 1 c 42 118 525 880 bf 0.88 1 0 c 42 118 737 880 bf 0 0.546667 1 c 43 118 948 880 bf 43 118 1160 880 bf 42 118 1372 880 bf 42 119 525 1236 bf 1 1 1
 c black
 gsave  2268 1381 0 0 C 491.582 207.752 t 0 r /Helvetica findfont 52.6695 sf 0 0 m ( 0.8 ) show NC gr 
 gsave  2268 1381 0 0 C 702.261 207.752 t 0 r /Helvetica findfont 52.6695 sf 0 0 m ( 1.0 ) show NC gr 
 gsave  2268 1381 0 0 C 915.865 207.752 t 0 r /Helvetica findfont 52.6695 sf 0 0 m ( 1.3 ) show NC gr 
 gsave  2268 1381 0 0 C 1126.54 207.752 t 0 r /Helvetica findfont 52.6695 sf 0 0 m ( 1.6 ) show NC gr 
 gsave  2268 1381 0 0 C 1340.15 207.752 t 0 r /Helvetica findfont 52.6695 sf 0 0 m ( 1.6 ) show NC gr 
 gsave  2268 1381 0 0 C 1550.83 207.752 t 0 r /Helvetica findfont 52.6695 sf 0 0 m ( 1.6 ) show NC gr 
 gsave  2268 1381 0 0 C 1761.5 207.752 t 0 r /Helvetica findfont 52.6695 sf 0 0 m ( 1.5 ) show NC gr 
 gsave  2268 1381 0 0 C 491.582 324.796 t 0 r /Helvetica findfont 52.6695 sf 0 0 m ( 0.8 ) show NC gr 
 gsave  2268 1381 0 0 C 702.261 324.796 t 0 r /Helvetica findfont 52.6695 sf 0 0 m ( 1.0 ) show NC gr 
 gsave  2268 1381 0 0 C 915.865 324.796 t 0 r /Helvetica findfont 52.6695 sf 0 0 m ( 1.4 ) show NC gr 
 gsave  2268 1381 0 0 C 1126.54 324.796 t 0 r /Helvetica findfont 52.6695 sf 0 0 m ( 1.8 ) show NC gr 
 gsave  2268 1381 0 0 C 1343.07 324.796 t 0 r /Helvetica findfont 52.6695 sf 0 0 m ( 2.1 ) show NC gr 
 gsave  2268 1381 0 0 C 1553.75 324.796 t 0 r /Helvetica findfont 52.6695 sf 0 0 m ( 2.1 ) show NC gr 
 gsave  2268 1381 0 0 C 1761.5 324.796 t 0 r /Helvetica findfont 52.6695 sf 0 0 m ( 2.5 ) show NC gr 
 gsave  2268 1381 0 0 C 491.582 444.765 t 0 r /Helvetica findfont 52.6695 sf 0 0 m ( 0.7 ) show NC gr 
 gsave  2268 1381 0 0 C 702.261 444.765 t 0 r /Helvetica findfont 52.6695 sf 0 0 m ( 0.9 ) show NC gr 
 gsave  2268 1381 0 0 C 915.865 444.765 t 0 r /Helvetica findfont 52.6695 sf 0 0 m ( 1.3 ) show NC gr 
 gsave  2268 1381 0 0 C 1126.54 444.765 t 0 r /Helvetica findfont 52.6695 sf 0 0 m ( 1.7 ) show NC gr 
 gsave  2268 1381 0 0 C 1340.15 444.765 t 0 r /Helvetica findfont 52.6695 sf 0 0 m ( 2.0 ) show NC gr 
 gsave  2268 1381 0 0 C 1550.83 444.765 t 0 r /Helvetica findfont 52.6695 sf 0 0 m ( 2.0 ) show NC gr 
 gsave  2268 1381 0 0 C 1761.5 444.765 t 0 r /Helvetica findfont 52.6695 sf 0 0 m ( 2.2 ) show NC gr 
 gsave  2268 1381 0 0 C 491.582 564.735 t 0 r /Helvetica findfont 52.6695 sf 0 0 m ( 0.4 ) show NC gr 
 gsave  2268 1381 0 0 C 702.261 564.735 t 0 r /Helvetica findfont 52.6695 sf 0 0 m ( 0.6 ) show NC gr 
 gsave  2268 1381 0 0 C 915.865 564.735 t 0 r /Helvetica findfont 52.6695 sf 0 0 m ( 0.9 ) show NC gr 
 gsave  2268 1381 0 0 C 1126.54 564.735 t 0 r /Helvetica findfont 52.6695 sf 0 0 m ( 1.2 ) show NC gr 
 gsave  2268 1381 0 0 C 1340.15 564.735 t 0 r /Helvetica findfont 52.6695 sf 0 0 m ( 2.0 ) show NC gr 
 gsave  2268 1381 0 0 C 1550.83 564.735 t 0 r /Helvetica findfont 52.6695 sf 0 0 m ( 1.5 ) show NC gr 
 gsave  2268 1381 0 0 C 1761.5 564.735 t 0 r /Helvetica findfont 52.6695 sf 0 0 m ( 1.7 ) show NC gr 
 gsave  2268 1381 0 0 C 491.582 681.778 t 0 r /Helvetica findfont 52.6695 sf 0 0 m ( 0.3 ) show NC gr 
 gsave  2268 1381 0 0 C 702.261 681.778 t 0 r /Helvetica findfont 52.6695 sf 0 0 m ( 0.4 ) show NC gr 
 gsave  2268 1381 0 0 C 915.865 681.778 t 0 r /Helvetica findfont 52.6695 sf 0 0 m ( 0.7 ) show NC gr 
 gsave  2268 1381 0 0 C 1126.54 681.778 t 0 r /Helvetica findfont 52.6695 sf 0 0 m ( 0.7 ) show NC gr 
 gsave  2268 1381 0 0 C 1340.15 681.778 t 0 r /Helvetica findfont 52.6695 sf 0 0 m ( 0.9 ) show NC gr 
 gsave  2268 1381 0 0 C 494.509 801.747 t 0 r /Helvetica findfont 52.6695 sf 0 0 m ( 0.1 ) show NC gr 
 gsave  2268 1381 0 0 C 705.187 801.747 t 0 r /Helvetica findfont 52.6695 sf 0 0 m ( 0.1 ) show NC gr 
 gsave  2268 1381 0 0 C 915.865 801.747 t 0 r /Helvetica findfont 52.6695 sf 0 0 m ( 0.4 ) show NC gr 
 gsave  2268 1381 0 0 C 1126.54 801.747 t 0 r /Helvetica findfont 52.6695 sf 0 0 m ( 0.6 ) show NC gr 
 gsave  2268 1381 0 0 C 491.582 918.791 t 0 r /Helvetica findfont 52.6695 sf 0 0 m ( 0.4 ) show NC gr 
 gsave  2268 1381 0 0 C 702.261 918.791 t 0 r /Helvetica findfont 52.6695 sf 0 0 m ( 1.7 ) show NC gr 
 gsave  2268 1381 0 0 C 915.865 918.791 t 0 r /Helvetica findfont 52.6695 sf 0 0 m ( 0.6 ) show NC gr 
 gsave  2268 1381 0 0 C 1126.54 918.791 t 0 r /Helvetica findfont 52.6695 sf 0 0 m ( 0.6 ) show NC gr 
 gsave  2268 1381 0 0 C 1340.15 918.791 t 0 r /Helvetica findfont 52.6695 sf 0 0 m ( 0.6 ) show NC gr 
 gsave  2268 1381 0 0 C 491.582 1275.77 t 0 r /Helvetica findfont 52.6695 sf 0 0 m ( 0.6 ) show NC gr  313 167 m 1694 X s
 gsave  2268 1381 0 0 C 1884.4 26.3348 t 0 r /Helvetica findfont 76.0782 sf 0 0 m ( cut) show NC gr 
 gsave  2268 1381 0 0 C 1852.21 -14.6304 t 0 r /Helvetica findfont 52.6695 sf 0 0 m (T) show NC gr 
 gsave  2268 1381 0 0 C 1442.56 26.3348 t 0 r /Helvetica findfont 76.0782 sf 0 0 m (B\255electron p) show NC gr  313 198 m -31 Y s 355 182 m -15 Y s 398 182 m -15 Y s 440 182 m -15 Y s 483 182 m -15 Y s 525 198 m -31 Y s 567 182 m -15 Y s 610 182 m
 -15 Y s 652 182 m -15 Y s 694 182 m -15 Y s 737 198 m -31 Y s 779 182 m -15 Y s 821 182 m -15 Y s 864 182 m -15 Y s 906 182 m -15 Y s 948 198 m -31 Y s 991 182 m -15 Y s 1033 182 m -15 Y s 1075 182 m -15 Y s 1118 182 m -15 Y s 1160 198 m -31 Y s
 1203 182 m -15 Y s 1245 182 m -15 Y s 1287 182 m -15 Y s 1330 182 m -15 Y s 1372 198 m -31 Y s 1414 182 m -15 Y s 1457 182 m -15 Y s 1499 182 m -15 Y s 1541 182 m -15 Y s 1584 198 m -31 Y s 1626 182 m -15 Y s 1668 182 m -15 Y s 1711 182 m -15 Y s
 1753 182 m -15 Y s 1796 198 m -31 Y s 1838 182 m -15 Y s 1880 182 m -15 Y s 1923 182 m -15 Y s 1965 182 m -15 Y s 2007 198 m -31 Y s
 gsave  2268 1381 0 0 C 292.609 93.6347 t 0 r /Helvetica findfont 76.0782 sf 0 0 m (0) show NC gr 
 gsave  2268 1381 0 0 C 503.287 93.6347 t 0 r /Helvetica findfont 76.0782 sf 0 0 m (5) show NC gr 
 gsave  2268 1381 0 0 C 693.482 93.6347 t 0 r /Helvetica findfont 76.0782 sf 0 0 m (10) show NC gr 
 gsave  2268 1381 0 0 C 907.087 93.6347 t 0 r /Helvetica findfont 76.0782 sf 0 0 m (15) show NC gr 
 gsave  2268 1381 0 0 C 1117.76 93.6347 t 0 r /Helvetica findfont 76.0782 sf 0 0 m (20) show NC gr 
 gsave  2268 1381 0 0 C 1328.44 93.6347 t 0 r /Helvetica findfont 76.0782 sf 0 0 m (25) show NC gr 
 gsave  2268 1381 0 0 C 1542.05 93.6347 t 0 r /Helvetica findfont 76.0782 sf 0 0 m (30) show NC gr 
 gsave  2268 1381 0 0 C 1752.73 93.6347 t 0 r /Helvetica findfont 76.0782 sf 0 0 m (35) show NC gr 
 gsave  2268 1381 0 0 C 1966.33 93.6347 t 0 r /Helvetica findfont 76.0782 sf 0 0 m (40) show NC gr  313 1355 m 1694 X s 313 1324 m 31 Y s 355 1339 m 16 Y s 398 1339 m 16 Y s 440 1339 m 16 Y s 483 1339 m 16 Y s 525 1324 m 31 Y s 567 1339 m 16 Y s 610
 1339 m 16 Y s 652 1339 m 16 Y s 694 1339 m 16 Y s 737 1324 m 31 Y s 779 1339 m 16 Y s 821 1339 m 16 Y s 864 1339 m 16 Y s 906 1339 m 16 Y s 948 1324 m 31 Y s 991 1339 m 16 Y s 1033 1339 m 16 Y s 1075 1339 m 16 Y s 1118 1339 m 16 Y s 1160 1324 m 31 Y
 s 1203 1339 m 16 Y s 1245 1339 m 16 Y s 1287 1339 m 16 Y s 1330 1339 m 16 Y s 1372 1324 m 31 Y s 1414 1339 m 16 Y s 1457 1339 m 16 Y s 1499 1339 m 16 Y s 1541 1339 m 16 Y s 1584 1324 m 31 Y s 1626 1339 m 16 Y s 1668 1339 m 16 Y s 1711 1339 m 16 Y s
 1753 1339 m 16 Y s 1796 1324 m 31 Y s 1838 1339 m 16 Y s 1880 1339 m 16 Y s 1923 1339 m 16 Y s 1965 1339 m 16 Y s 2007 1324 m 31 Y s 313 167 m 1188 Y s
 gsave  2268 1381 0 0 C 114.117 634.961 t 90 r /Helvetica findfont 76.0782 sf 0 0 m (B\255electron multiplicity) show NC gr  372 226 m -59 X s 342 250 m -29 X s 342 274 m -29 X s 342 297 m -29 X s 342 321 m -29 X s 372 345 m -59 X s 342 369 m -29 X s
 342 393 m -29 X s 342 416 m -29 X s 342 440 m -29 X s 372 464 m -59 X s 342 488 m -29 X s 342 511 m -29 X s 342 535 m -29 X s 342 559 m -29 X s 372 583 m -59 X s 342 606 m -29 X s 342 630 m -29 X s 342 654 m -29 X s 342 678 m -29 X s 372 701 m -59 X
 s 342 725 m -29 X s 342 749 m -29 X s 342 773 m -29 X s 342 796 m -29 X s 372 820 m -59 X s 342 844 m -29 X s 342 868 m -29 X s 342 891 m -29 X s 342 915 m -29 X s 372 939 m -59 X s 342 963 m -29 X s 342 987 m -29 X s 342 1010 m -29 X s 342 1034 m
 -29 X s 372 1058 m -59 X s 342 1082 m -29 X s 342 1105 m -29 X s 342 1129 m -29 X s 342 1153 m -29 X s 372 1177 m -59 X s 342 1200 m -29 X s 342 1224 m -29 X s 342 1248 m -29 X s 342 1272 m -29 X s 372 1295 m -59 X s 372 226 m -59 X s 342 202 m -29
 X s 342 179 m -29 X s 372 1295 m -59 X s 342 1319 m -29 X s 342 1343 m -29 X s
 gsave  2268 1381 0 0 C 272.126 198.974 t 0 r /Helvetica findfont 76.0782 sf 0 0 m (1) show NC gr 
 gsave  2268 1381 0 0 C 260.422 316.017 t 0 r /Helvetica findfont 76.0782 sf 0 0 m (2) show NC gr 
 gsave  2268 1381 0 0 C 260.422 435.987 t 0 r /Helvetica findfont 76.0782 sf 0 0 m (3) show NC gr 
 gsave  2268 1381 0 0 C 260.422 555.956 t 0 r /Helvetica findfont 76.0782 sf 0 0 m (4) show NC gr 
 gsave  2268 1381 0 0 C 260.422 673 t 0 r /Helvetica findfont 76.0782 sf 0 0 m (5) show NC gr 
 gsave  2268 1381 0 0 C 260.422 792.969 t 0 r /Helvetica findfont 76.0782 sf 0 0 m (6) show NC gr 
 gsave  2268 1381 0 0 C 260.422 910.013 t 0 r /Helvetica findfont 76.0782 sf 0 0 m (7) show NC gr 
 gsave  2268 1381 0 0 C 260.422 1029.98 t 0 r /Helvetica findfont 76.0782 sf 0 0 m (8) show NC gr 
 gsave  2268 1381 0 0 C 260.422 1149.95 t 0 r /Helvetica findfont 76.0782 sf 0 0 m (9) show NC gr 
 gsave  2268 1381 0 0 C 219.456 1267 t 0 r /Helvetica findfont 76.0782 sf 0 0 m (10) show NC gr  2007 167 m 1188 Y s 1949 226 m 58 X s 1978 250 m 29 X s 1978 274 m 29 X s 1978 297 m 29 X s 1978 321 m 29 X s 1949 345 m 58 X s 1978 369 m 29 X s 1978
 393 m 29 X s 1978 416 m 29 X s 1978 440 m 29 X s 1949 464 m 58 X s 1978 488 m 29 X s 1978 511 m 29 X s 1978 535 m 29 X s 1978 559 m 29 X s 1949 583 m 58 X s 1978 606 m 29 X s 1978 630 m 29 X s 1978 654 m 29 X s 1978 678 m 29 X s 1949 701 m 58 X s
 1978 725 m 29 X s 1978 749 m 29 X s 1978 773 m 29 X s 1978 796 m 29 X s 1949 820 m 58 X s 1978 844 m 29 X s 1978 868 m 29 X s 1978 891 m 29 X s 1978 915 m 29 X s 1949 939 m 58 X s 1978 963 m 29 X s 1978 987 m 29 X s 1978 1010 m 29 X s 1978 1034 m 29
 X s 1949 1058 m 58 X s 1978 1082 m 29 X s 1978 1105 m 29 X s 1978 1129 m 29 X s 1978 1153 m 29 X s 1949 1177 m 58 X s 1978 1200 m 29 X s 1978 1224 m 29 X s 1978 1248 m 29 X s 1978 1272 m 29 X s 1949 1295 m 58 X s 1949 226 m 58 X s 1978 202 m 29 X s
 1978 179 m 29 X s 1949 1295 m 58 X s 1978 1319 m 29 X s 1978 1343 m 29 X s 0.386667 0 1 c 58 59 2031 170 bf 0.2 0 1 c 58 60 2031 229 bf 0 0.0800001 1 c 58 59 2031 289 bf 0 0.266667 1 c 58 59 2031 348 bf 0 0.546667 1 c 58 60 2031 407 bf 0 0.733333 1
 c 58 59 2031 467 bf 0 1 0.986667 c 58 60 2031 526 bf 0 1 0.8 c 58 59 2031 586 bf 0 1 0.52 c 58 59 2031 645 bf 0 1 0.333333 c 58 60 2031 704 bf 0 1 0.0533334 c 58 59 2031 764 bf 0.133333 1 0 c 58 60 2031 823 bf 0.413333 1 0 c 58 59 2031 883 bf 0.6 1
 0 c 58 59 2031 942 bf 0.88 1 0 c 58 60 2031 1001 bf 1 0.933333 0 c 58 59 2031 1061 bf 1 0.653333 0 c 58 60 2031 1120 bf 1 0.466667 0 c 58 59 2031 1180 bf 1 0.186667 0 c 58 59 2031 1239 bf 1 7.94729e-08 0 c 58 60 2031 1298 bf black 2089 170 m 1188 Y
 s 2031 170 m 58 X s 2031 266 m 58 X s 2031 362 m 58 X s 2031 458 m 58 X s 2031 554 m 58 X s 2031 650 m 58 X s 2031 746 m 58 X s 2031 843 m 58 X s 2031 939 m 58 X s 2031 1035 m 58 X s 2031 1131 m 58 X s 2031 1227 m 58 X s 2031 1323 m 58 X s 2031 1323
 m 58 X s
 gsave  2268 1381 0 0 C 2098 140.452 t 0 r /Helvetica findfont 76.0782 sf 0 0 m (0) show NC gr 
 gsave  2268 1381 0 0 C 2098 237.013 t 0 r /Helvetica findfont 76.0782 sf 0 0 m (0.2) show NC gr 
 gsave  2268 1381 0 0 C 2098 333.574 t 0 r /Helvetica findfont 76.0782 sf 0 0 m (0.4) show NC gr 
 gsave  2268 1381 0 0 C 2098 430.135 t 0 r /Helvetica findfont 76.0782 sf 0 0 m (0.6) show NC gr 
 gsave  2268 1381 0 0 C 2098 526.695 t 0 r /Helvetica findfont 76.0782 sf 0 0 m (0.8) show NC gr 
 gsave  2268 1381 0 0 C 2098 623.256 t 0 r /Helvetica findfont 76.0782 sf 0 0 m (1) show NC gr 
 gsave  2268 1381 0 0 C 2098 719.817 t 0 r /Helvetica findfont 76.0782 sf 0 0 m (1.2) show NC gr 
 gsave  2268 1381 0 0 C 2098 813.452 t 0 r /Helvetica findfont 76.0782 sf 0 0 m (1.4) show NC gr 
 gsave  2268 1381 0 0 C 2098 910.013 t 0 r /Helvetica findfont 76.0782 sf 0 0 m (1.6) show NC gr 
 gsave  2268 1381 0 0 C 2098 1006.57 t 0 r /Helvetica findfont 76.0782 sf 0 0 m (1.8) show NC gr 
 gsave  2268 1381 0 0 C 2098 1103.13 t 0 r /Helvetica findfont 76.0782 sf 0 0 m (2) show NC gr 
 gsave  2268 1381 0 0 C 2098 1199.7 t 0 r /Helvetica findfont 76.0782 sf 0 0 m (2.2) show NC gr 
 gsave  2268 1381 0 0 C 2098 1296.26 t 0 r /Helvetica findfont 76.0782 sf 0 0 m (2.4) show NC gr 
 gr  gr showpage
end
%%EOF
