%!PS-Adobe-2.0 EPSF-2.0
%%BoundingBox:  0 0 567 384
%%Title: tightLLhmass_deltaPhiq1q2_ZeeNp.eps: c1
%%Creator: ROOT Version 5.34/14
%%CreationDate: Wed Sep 10 08:45:34 2014
%%EndComments
%%BeginProlog
80 dict begin
/s {stroke} def /l {lineto} def /m {moveto} def /t {translate} def
/r {rotate} def /rl {roll}  def /R {repeat} def
/d {rlineto} def /rm {rmoveto} def /gr {grestore} def /f {eofill} def
/c {setrgbcolor} def /black {0 setgray} def /sd {setdash} def
/cl {closepath} def /sf {scalefont setfont} def /lw {setlinewidth} def
/box {m dup 0 exch d exch 0 d 0 exch neg d cl} def
/NC{systemdict begin initclip end}def/C{NC box clip newpath}def
/bl {box s} def /bf {box f} def /Y { 0 exch d} def /X { 0 d} def 
/K {{pop pop 0 moveto} exch kshow} bind def
/ita {/ang 15 def gsave [1 0 ang dup sin exch cos div 1 0 0] concat} def 
/mp {newpath /y exch def /x exch def} def
/side {[w .77 mul w .23 mul] .385 w mul sd w 0 l currentpoint t -144 r} def
/mr {mp x y w2 0 360 arc} def /m24 {mr s} def /m20 {mr f} def
/mb {mp x y w2 add m w2 neg 0 d 0 w neg d w 0 d 0 w d cl} def
/mt {mp x y w2 add m w2 neg w neg d w 0 d cl} def
/m21 {mb f} def /m25 {mb s} def /m22 {mt f} def /m26{mt s} def
/m23 {mp x y w2 sub m w2 w d w neg 0 d cl f} def
/m27 {mp x y w2 add m w3 neg w2 neg d w3 w2 neg d w3 w2 d cl s} def
/m28 {mp x w2 sub y w2 sub w3 add m w3 0 d  0 w3 neg d w3 0 d 0 w3 d w3 0 d  0 w3 d w3 neg 0 d 0 w3 d w3 neg 0 d 0 w3 neg d w3 neg 0 d cl s } def
/m29 {mp gsave x w2 sub y w2 add w3 sub m currentpoint t 4 {side} repeat cl fill gr} def
/m30 {mp gsave x w2 sub y w2 add w3 sub m currentpoint t 4 {side} repeat cl s gr} def
/m31 {mp x y w2 sub m 0 w d x w2 sub y m w 0 d x w2 sub y w2 add m w w neg d x w2 sub y w2 sub m w w d s} def
/m32 {mp x y w2 sub m w2 w d w neg 0 d cl s} def
/m33 {mp x y w2 add m w3 neg w2 neg d w3 w2 neg d w3 w2 d cl f} def
/m34 {mp x w2 sub y w2 sub w3 add m w3 0 d  0 w3 neg d w3 0 d 0 w3 d w3 0 d  0 w3 d w3 neg 0 d 0 w3 d w3 neg 0 d 0 w3 neg d w3 neg 0 d cl f } def
/m2 {mp x y w2 sub m 0 w d x w2 sub y m w 0 d s} def
/m5 {mp x w2 sub y w2 sub m w w d x w2 sub y w2 add m w w neg d s} def
/reEncode {exch findfont dup length dict begin {1 index /FID eq  {pop pop} {def} ifelse } forall /Encoding exch def currentdict end dup /FontName get exch definefont pop } def [/Times-Bold /Times-Italic /Times-BoldItalic /Helvetica /Helvetica-Oblique
 /Helvetica-Bold /Helvetica-BoldOblique /Courier /Courier-Oblique /Courier-Bold /Courier-BoldOblique /Times-Roman /AvantGarde-Book /AvantGarde-BookOblique /AvantGarde-Demi /AvantGarde-DemiOblique /Bookman-Demi /Bookman-DemiItalic /Bookman-Light
 /Bookman-LightItalic /Helvetica-Narrow /Helvetica-Narrow-Bold /Helvetica-Narrow-BoldOblique /Helvetica-Narrow-Oblique /NewCenturySchlbk-Roman /NewCenturySchlbk-Bold /NewCenturySchlbk-BoldItalic /NewCenturySchlbk-Italic /Palatino-Bold
 /Palatino-BoldItalic /Palatino-Italic /Palatino-Roman ] {ISOLatin1Encoding reEncode } forall
%%EndProlog
%%BeginSetup
%%EndSetup
newpath  gsave  .25 .25 scale  gsave  0 0 t black[  ] 0 sd 3 lw 1 1 1 c 2268 1538 0 0 bf black 1 1 1 c 1883 1322 317 185 bf black 1883 1322 317 185 bl 1 1 1 c 0.386667 0 1 c 19 22 600 493 bf 18 22 619 493 bf 19 22 637 493 bf 19 22 656 493 bf 19 22
 675 493 bf 19 22 694 493 bf 19 22 713 493 bf 18 22 732 493 bf 19 22 750 493 bf 19 22 769 493 bf 19 22 788 493 bf 19 22 807 493 bf 18 22 826 493 bf 19 22 844 493 bf 19 22 863 493 bf 19 22 882 493 bf 19 22 901 493 bf 19 22 920 493 bf 18 22 939 493 bf
 19 22 957 493 bf 19 22 976 493 bf 19 22 995 493 bf 19 22 1014 493 bf 19 22 1033 493 bf 18 22 1052 493 bf 19 22 1070 493 bf 19 22 1089 493 bf 19 22 1108 493 bf 18 22 1146 493 bf 19 22 1202 493 bf 19 22 1240 493 bf 19 22 1296 493 bf 19 22 1315 493 bf
 19 22 1353 493 bf 19 22 1390 493 bf 19 22 1409 493 bf 19 22 600 515 bf 18 22 619 515 bf 19 22 637 515 bf 19 22 656 515 bf 19 22 675 515 bf 19 22 694 515 bf 19 22 713 515 bf 18 22 732 515 bf 19 22 750 515 bf 19 22 769 515 bf 19 22 788 515 bf 19 22
 807 515 bf 18 22 826 515 bf 19 22 844 515 bf 19 22 863 515 bf 19 22 882 515 bf 19 22 901 515 bf 19 22 920 515 bf 18 22 939 515 bf 19 22 957 515 bf 19 22 976 515 bf 19 22 995 515 bf 19 22 1014 515 bf 19 22 1033 515 bf 18 22 1052 515 bf 19 22 1070 515
 bf 19 22 1089 515 bf 19 22 1108 515 bf 19 22 1127 515 bf 18 22 1146 515 bf 19 22 1164 515 bf 19 22 1202 515 bf 19 22 1221 515 bf 18 22 1259 515 bf 19 22 1277 515 bf 19 22 1409 515 bf 19 22 1447 515 bf 18 22 1466 515 bf 19 22 1503 515 bf 18 22 1786
 515 bf 19 22 581 537 bf 19 22 600 537 bf 18 22 619 537 bf 19 22 637 537 bf 19 22 656 537 bf 19 22 675 537 bf 19 22 694 537 bf 19 22 713 537 bf 18 22 732 537 bf 19 22 750 537 bf 19 22 769 537 bf 19 22 788 537 bf 19 22 807 537 bf 18 22 826 537 bf 19
 22 844 537 bf 19 22 863 537 bf 19 22 882 537 bf 19 22 901 537 bf 19 22 920 537 bf 18 22 939 537 bf 19 22 957 537 bf 19 22 976 537 bf 19 22 995 537 bf 19 22 1014 537 bf 19 22 1033 537 bf 18 22 1052 537 bf 19 22 1070 537 bf 19 22 1089 537 bf 19 22
 1108 537 bf 19 22 1127 537 bf 18 22 1146 537 bf 19 22 1164 537 bf 19 22 1183 537 bf 19 22 1202 537 bf 19 22 1221 537 bf 18 22 1259 537 bf 19 22 1277 537 bf 19 22 1296 537 bf 19 22 1315 537 bf 19 22 1409 537 bf 19 22 1522 537 bf 19 22 1616 537 bf 19
 22 562 559 bf 19 22 581 559 bf 19 22 600 559 bf 18 22 619 559 bf 19 22 637 559 bf 19 22 656 559 bf 19 22 675 559 bf 19 22 694 559 bf 19 22 713 559 bf 18 22 732 559 bf 19 22 750 559 bf 19 22 769 559 bf 19 22 788 559 bf 19 22 807 559 bf 18 22 826 559
 bf 19 22 844 559 bf 19 22 863 559 bf 19 22 882 559 bf 19 22 901 559 bf 19 22 920 559 bf 18 22 939 559 bf 19 22 957 559 bf 19 22 976 559 bf 19 22 1014 559 bf 19 22 1033 559 bf 18 22 1052 559 bf 19 22 1070 559 bf 19 22 1089 559 bf 19 22 1108 559 bf 19
 22 1127 559 bf 18 22 1146 559 bf 19 22 1164 559 bf 19 22 1183 559 bf 19 22 1202 559 bf 18 22 1259 559 bf 19 22 1315 559 bf 19 22 1334 559 bf 19 22 1353 559 bf 18 22 1372 559 bf 19 22 1409 559 bf 19 22 1428 559 bf 19 22 1710 559 bf 19 22 1955 559 bf
 19 22 581 581 bf 19 22 600 581 bf 18 22 619 581 bf 19 22 637 581 bf 19 22 656 581 bf 19 22 675 581 bf 19 22 694 581 bf 19 22 713 581 bf 18 22 732 581 bf 19 22 750 581 bf 19 22 769 581 bf 19 22 788 581 bf 19 22 807 581 bf 18 22 826 581 bf 19 22 844
 581 bf 19 22 863 581 bf 19 22 882 581 bf 19 22 901 581 bf 19 22 920 581 bf 18 22 939 581 bf 19 22 957 581 bf 19 22 976 581 bf 19 22 995 581 bf 19 22 1014 581 bf 19 22 1033 581 bf 19 22 1070 581 bf 19 22 1089 581 bf 19 22 1127 581 bf 19 22 1202 581
 bf 19 22 1277 581 bf 18 22 1372 581 bf 19 22 1390 581 bf 19 22 1409 581 bf 18 22 1993 581 bf 19 22 562 603 bf 19 22 581 603 bf 19 22 600 603 bf 18 22 619 603 bf 19 22 637 603 bf 19 22 656 603 bf 19 22 675 603 bf 19 22 694 603 bf 19 22 713 603 bf 18
 22 732 603 bf 19 22 750 603 bf 19 22 769 603 bf 19 22 788 603 bf 19 22 807 603 bf 18 22 826 603 bf 19 22 844 603 bf 19 22 863 603 bf 19 22 882 603 bf 19 22 901 603 bf 19 22 920 603 bf 18 22 939 603 bf 19 22 957 603 bf 19 22 976 603 bf 19 22 995 603
 bf 19 22 1033 603 bf 18 22 1052 603 bf 19 22 1070 603 bf 19 22 1089 603 bf 19 22 1108 603 bf 19 22 1127 603 bf 19 22 1183 603 bf 19 22 1202 603 bf 19 22 1221 603 bf 19 22 1240 603 bf 18 22 1259 603 bf 19 22 1277 603 bf 19 22 1447 603 bf 19 22 1541
 603 bf 18 22 1579 603 bf 19 22 581 625 bf 19 22 600 625 bf 18 22 619 625 bf 19 22 637 625 bf 19 22 656 625 bf 19 22 675 625 bf 19 22 694 625 bf 19 22 713 625 bf 18 22 732 625 bf 19 22 750 625 bf 19 22 769 625 bf 19 22 788 625 bf 19 22 807 625 bf 18
 22 826 625 bf 19 22 844 625 bf 19 22 863 625 bf 19 22 882 625 bf 19 22 901 625 bf 19 22 920 625 bf 18 22 939 625 bf 19 22 957 625 bf 19 22 976 625 bf 19 22 995 625 bf 19 22 1014 625 bf 19 22 1033 625 bf 18 22 1052 625 bf 19 22 1089 625 bf 19 22 1108
 625 bf 19 22 1127 625 bf 18 22 1146 625 bf 19 22 1164 625 bf 19 22 1183 625 bf 19 22 1202 625 bf 19 22 1221 625 bf 19 22 1240 625 bf 19 22 1277 625 bf 19 22 1334 625 bf 19 22 1353 625 bf 19 22 1484 625 bf 18 22 1579 625 bf 19 22 1597 625 bf 19 22
 1917 625 bf 18 22 525 647 bf 19 22 543 647 bf 19 22 562 647 bf 19 22 581 647 bf 19 22 600 647 bf 18 22 619 647 bf 19 22 637 647 bf 19 22 656 647 bf 19 22 675 647 bf 19 22 694 647 bf 19 22 713 647 bf 18 22 732 647 bf 19 22 750 647 bf 19 22 769 647 bf
 19 22 788 647 bf 19 22 807 647 bf 18 22 826 647 bf 19 22 844 647 bf 19 22 863 647 bf 19 22 882 647 bf 19 22 901 647 bf 19 22 920 647 bf 18 22 939 647 bf 19 22 957 647 bf 19 22 976 647 bf 19 22 995 647 bf 19 22 1014 647 bf 19 22 1033 647 bf 18 22
 1052 647 bf 19 22 1070 647 bf 19 22 1089 647 bf 19 22 1108 647 bf 19 22 1164 647 bf 19 22 1183 647 bf 19 22 1202 647 bf 19 22 1221 647 bf 18 22 1259 647 bf 19 22 1353 647 bf 18 22 1372 647 bf 19 22 2124 647 bf 19 23 506 669 bf 18 23 525 669 bf 19 23
 543 669 bf 19 23 562 669 bf 19 23 581 669 bf 19 23 600 669 bf 18 23 619 669 bf 19 23 637 669 bf 19 23 656 669 bf 19 23 675 669 bf 19 23 694 669 bf 19 23 713 669 bf 18 23 732 669 bf 19 23 750 669 bf 19 23 769 669 bf 19 23 788 669 bf 19 23 807 669 bf
 18 23 826 669 bf 19 23 844 669 bf 19 23 863 669 bf 19 23 882 669 bf 19 23 901 669 bf 19 23 920 669 bf 18 23 939 669 bf 19 23 957 669 bf 19 23 976 669 bf 19 23 995 669 bf 19 23 1014 669 bf 18 23 1052 669 bf 19 23 1089 669 bf 19 23 1108 669 bf 18 23
 1146 669 bf 19 23 1164 669 bf 19 23 1183 669 bf 18 23 1259 669 bf 19 23 1296 669 bf 19 23 1315 669 bf 19 23 1428 669 bf 19 23 1447 669 bf 19 23 1522 669 bf 19 22 506 692 bf 18 22 525 692 bf 19 22 543 692 bf 19 22 562 692 bf 19 22 581 692 bf 19 22
 600 692 bf 18 22 619 692 bf 19 22 637 692 bf 19 22 656 692 bf 19 22 675 692 bf 19 22 694 692 bf 19 22 713 692 bf 18 22 732 692 bf 19 22 750 692 bf 19 22 769 692 bf 19 22 788 692 bf 19 22 807 692 bf 18 22 826 692 bf 19 22 844 692 bf 19 22 863 692 bf
 19 22 882 692 bf 19 22 920 692 bf 18 22 939 692 bf 19 22 957 692 bf 19 22 976 692 bf 19 22 995 692 bf 19 22 1033 692 bf 19 22 1108 692 bf 19 22 1164 692 bf 19 22 1183 692 bf 19 22 1296 692 bf 19 22 1334 692 bf 18 22 1372 692 bf 18 22 1673 692 bf 19
 22 1710 692 bf 19 22 449 714 bf 19 22 468 714 bf 19 22 487 714 bf 19 22 506 714 bf 18 22 525 714 bf 19 22 543 714 bf 19 22 562 714 bf 19 22 581 714 bf 19 22 600 714 bf 18 22 619 714 bf 19 22 637 714 bf 19 22 656 714 bf 19 22 675 714 bf 19 22 694 714
 bf 19 22 713 714 bf 18 22 732 714 bf 19 22 750 714 bf 19 22 769 714 bf 19 22 788 714 bf 19 22 807 714 bf 18 22 826 714 bf 19 22 844 714 bf 19 22 863 714 bf 19 22 901 714 bf 19 22 920 714 bf 19 22 976 714 bf 18 22 1052 714 bf 19 22 1070 714 bf 19 22
 1127 714 bf 19 22 1164 714 bf 19 22 1183 714 bf 19 22 1409 714 bf 19 22 1503 714 bf 18 22 1786 714 bf 18 22 412 736 bf 19 22 430 736 bf 19 22 449 736 bf 19 22 468 736 bf 19 22 487 736 bf 19 22 506 736 bf 18 22 525 736 bf 19 22 543 736 bf 19 22 562
 736 bf 19 22 581 736 bf 19 22 600 736 bf 18 22 619 736 bf 19 22 637 736 bf 19 22 656 736 bf 19 22 675 736 bf 19 22 694 736 bf 19 22 713 736 bf 18 22 732 736 bf 19 22 750 736 bf 19 22 769 736 bf 19 22 788 736 bf 19 22 807 736 bf 18 22 826 736 bf 19
 22 844 736 bf 19 22 863 736 bf 19 22 901 736 bf 19 22 920 736 bf 18 22 939 736 bf 19 22 976 736 bf 19 22 1033 736 bf 18 22 1052 736 bf 19 22 1108 736 bf 19 22 1127 736 bf 19 22 1183 736 bf 19 22 1221 736 bf 19 22 1334 736 bf 19 22 1353 736 bf 19 22
 1560 736 bf 19 22 1710 736 bf 18 22 412 758 bf 19 22 430 758 bf 19 22 449 758 bf 19 22 468 758 bf 19 22 487 758 bf 19 22 506 758 bf 18 22 525 758 bf 19 22 543 758 bf 19 22 562 758 bf 19 22 581 758 bf 19 22 600 758 bf 18 22 619 758 bf 19 22 637 758
 bf 19 22 656 758 bf 19 22 675 758 bf 19 22 694 758 bf 19 22 713 758 bf 18 22 732 758 bf 19 22 769 758 bf 19 22 788 758 bf 18 22 826 758 bf 19 22 844 758 bf 19 22 863 758 bf 19 22 882 758 bf 19 22 901 758 bf 19 22 920 758 bf 18 22 939 758 bf 19 22
 957 758 bf 19 22 995 758 bf 19 22 1014 758 bf 19 22 1033 758 bf 18 22 1052 758 bf 19 22 1070 758 bf 19 22 1089 758 bf 19 22 1127 758 bf 18 22 1146 758 bf 19 22 1183 758 bf 19 22 1202 758 bf 18 22 1259 758 bf 19 22 1277 758 bf 19 22 1409 758 bf 19 22
 374 780 bf 19 22 393 780 bf 18 22 412 780 bf 19 22 430 780 bf 19 22 449 780 bf 19 22 468 780 bf 19 22 487 780 bf 19 22 506 780 bf 18 22 525 780 bf 19 22 543 780 bf 19 22 562 780 bf 19 22 581 780 bf 19 22 600 780 bf 18 22 619 780 bf 19 22 637 780 bf
 19 22 656 780 bf 19 22 675 780 bf 19 22 694 780 bf 19 22 713 780 bf 18 22 732 780 bf 19 22 750 780 bf 19 22 769 780 bf 19 22 807 780 bf 18 22 826 780 bf 19 22 844 780 bf 19 22 863 780 bf 19 22 882 780 bf 19 22 901 780 bf 19 22 920 780 bf 18 22 939
 780 bf 19 22 957 780 bf 19 22 995 780 bf 19 22 1070 780 bf 19 22 1202 780 bf 19 22 1221 780 bf 19 22 1240 780 bf 18 22 1259 780 bf 19 22 1277 780 bf 19 22 1353 780 bf 19 22 1654 780 bf 19 22 1974 780 bf 19 22 336 802 bf 0.2 0 1 c 19 22 355 802 bf 19
 22 374 802 bf 19 22 393 802 bf 0.386667 0 1 c 18 22 412 802 bf 19 22 430 802 bf 19 22 449 802 bf 19 22 468 802 bf 19 22 487 802 bf 19 22 506 802 bf 18 22 525 802 bf 19 22 543 802 bf 19 22 562 802 bf 19 22 581 802 bf 19 22 600 802 bf 19 22 637 802 bf
 19 22 656 802 bf 19 22 675 802 bf 19 22 694 802 bf 19 22 713 802 bf 18 22 732 802 bf 19 22 750 802 bf 19 22 769 802 bf 19 22 788 802 bf 19 22 807 802 bf 18 22 826 802 bf 19 22 844 802 bf 19 22 882 802 bf 19 22 920 802 bf 19 22 957 802 bf 19 22 976
 802 bf 19 22 995 802 bf 18 22 1052 802 bf 19 22 1089 802 bf 19 22 1127 802 bf 19 22 1277 802 bf 19 22 1296 802 bf 19 22 1353 802 bf 19 22 1409 802 bf 1 0.186667 0 c 19 22 317 824 bf 1 7.94729e-08 0 c 19 22 336 824 bf 0 0.266667 1 c 19 22 355 824 bf
 0.2 0 1 c 19 22 374 824 bf 0.386667 0 1 c 19 22 393 824 bf 18 22 412 824 bf 19 22 430 824 bf 19 22 449 824 bf 19 22 468 824 bf 19 22 487 824 bf 19 22 506 824 bf 18 22 525 824 bf 19 22 543 824 bf 19 22 562 824 bf 19 22 581 824 bf 19 22 600 824 bf 18
 22 619 824 bf 19 22 637 824 bf 19 22 656 824 bf 19 22 675 824 bf 19 22 694 824 bf 19 22 713 824 bf 18 22 732 824 bf 19 22 750 824 bf 19 22 769 824 bf 19 22 788 824 bf 19 22 807 824 bf 18 22 826 824 bf 19 22 863 824 bf 19 22 901 824 bf 18 22 939 824
 bf 19 22 976 824 bf 19 22 995 824 bf 19 22 1014 824 bf 19 22 1033 824 bf 18 22 1052 824 bf 19 22 1070 824 bf 19 22 1108 824 bf 19 22 1221 824 bf 19 22 1296 824 bf 19 22 1823 824 bf 56 66 2211 185 bf 0.2 0 1 c 56 66 2211 251 bf 0 0.0800001 1 c 56 66
 2211 317 bf 0 0.266667 1 c 56 66 2211 383 bf 0 0.546667 1 c 56 66 2211 449 bf 0 0.733333 1 c 56 66 2211 515 bf 0 1 0.986667 c 56 66 2211 581 bf 0 1 0.8 c 56 67 2211 647 bf 0 1 0.52 c 56 66 2211 714 bf 0 1 0.333333 c 56 66 2211 780 bf 0 1 0.0533334 c
 56 66 2211 846 bf 0.133333 1 0 c 56 66 2211 912 bf 0.413333 1 0 c 56 66 2211 978 bf 0.6 1 0 c 56 66 2211 1044 bf 0.88 1 0 c 56 66 2211 1110 bf 1 0.933333 0 c 56 67 2211 1176 bf 1 0.653333 0 c 56 66 2211 1243 bf 1 0.466667 0 c 56 66 2211 1309 bf 1
 0.186667 0 c 56 66 2211 1375 bf 1 7.94729e-08 0 c 56 66 2211 1441 bf black 2267 185 m 1322 Y s 2208 185 m 59 X s 2208 357 m 59 X s 2208 529 m 59 X s 2208 702 m 59 X s 2208 874 m 59 X s 2208 1046 m 59 X s 2208 1218 m 59 X s 2208 1391 m 59 X s 2208
 1391 m 59 X s
 gsave  2268 1538 0 0 C 2277.49 153.136 t 0 r /Helvetica findfont 84.7135 sf 0 0 m (0) show NC gr 
 gsave  2268 1538 0 0 C 2277.49 325.821 t 0 r /Helvetica findfont 84.7135 sf 0 0 m (0.02) show NC gr 
 gsave  2268 1538 0 0 C 2277.49 498.507 t 0 r /Helvetica findfont 84.7135 sf 0 0 m (0.04) show NC gr 
 gsave  2268 1538 0 0 C 2277.49 671.192 t 0 r /Helvetica findfont 84.7135 sf 0 0 m (0.06) show NC gr 
 gsave  2268 1538 0 0 C 2277.49 843.877 t 0 r /Helvetica findfont 84.7135 sf 0 0 m (0.08) show NC gr 
 gsave  2268 1538 0 0 C 2277.49 1016.56 t 0 r /Helvetica findfont 84.7135 sf 0 0 m (0.1) show NC gr 
 gsave  2268 1538 0 0 C 2277.49 1185.99 t 0 r /Helvetica findfont 84.7135 sf 0 0 m (0.12) show NC gr 
 gsave  2268 1538 0 0 C 2277.49 1358.67 t 0 r /Helvetica findfont 84.7135 sf 0 0 m (0.14) show NC gr  1 1 1 c black 317 185 m 1883 X s
 gsave  2268 1538 0 0 C 1736.63 13.0329 t 0 r /Helvetica findfont 84.7135 sf 0 0 m ( mass [GeV]) show NC gr  317 223 m -38 Y s 355 204 m -19 Y s 393 204 m -19 Y s 430 204 m -19 Y s 468 204 m -19 Y s 506 223 m -38 Y s 543 204 m -19 Y s 581 204 m -19 Y
 s 619 204 m -19 Y s 656 204 m -19 Y s 694 223 m -38 Y s 732 204 m -19 Y s 769 204 m -19 Y s 807 204 m -19 Y s 844 204 m -19 Y s 882 223 m -38 Y s 920 204 m -19 Y s 957 204 m -19 Y s 995 204 m -19 Y s 1033 204 m -19 Y s 1070 223 m -38 Y s 1108 204 m
 -19 Y s 1146 204 m -19 Y s 1183 204 m -19 Y s 1221 204 m -19 Y s 1259 223 m -38 Y s 1296 204 m -19 Y s 1334 204 m -19 Y s 1372 204 m -19 Y s 1409 204 m -19 Y s 1447 223 m -38 Y s 1484 204 m -19 Y s 1522 204 m -19 Y s 1560 204 m -19 Y s 1597 204 m
 -19 Y s 1635 223 m -38 Y s 1673 204 m -19 Y s 1710 204 m -19 Y s 1748 204 m -19 Y s 1786 204 m -19 Y s 1823 223 m -38 Y s 1861 204 m -19 Y s 1899 204 m -19 Y s 1936 204 m -19 Y s 1974 204 m -19 Y s 2011 223 m -38 Y s 2049 204 m -19 Y s 2087 204 m
 -19 Y s 2124 204 m -19 Y s 2162 204 m -19 Y s 2200 223 m -38 Y s
 gsave  2268 1538 0 0 C 293.239 104.263 t 0 r /Helvetica findfont 84.7135 sf 0 0 m (0) show NC gr 
 gsave  2268 1538 0 0 C 459.408 104.263 t 0 r /Helvetica findfont 84.7135 sf 0 0 m (10) show NC gr 
 gsave  2268 1538 0 0 C 645.126 104.263 t 0 r /Helvetica findfont 84.7135 sf 0 0 m (20) show NC gr 
 gsave  2268 1538 0 0 C 834.103 104.263 t 0 r /Helvetica findfont 84.7135 sf 0 0 m (30) show NC gr 
 gsave  2268 1538 0 0 C 1023.08 104.263 t 0 r /Helvetica findfont 84.7135 sf 0 0 m (40) show NC gr 
 gsave  2268 1538 0 0 C 1212.06 104.263 t 0 r /Helvetica findfont 84.7135 sf 0 0 m (50) show NC gr 
 gsave  2268 1538 0 0 C 1401.03 104.263 t 0 r /Helvetica findfont 84.7135 sf 0 0 m (60) show NC gr 
 gsave  2268 1538 0 0 C 1586.75 104.263 t 0 r /Helvetica findfont 84.7135 sf 0 0 m (70) show NC gr 
 gsave  2268 1538 0 0 C 1775.73 104.263 t 0 r /Helvetica findfont 84.7135 sf 0 0 m (80) show NC gr 
 gsave  2268 1538 0 0 C 1964.7 104.263 t 0 r /Helvetica findfont 84.7135 sf 0 0 m (90) show NC gr 
 gsave  2268 1538 0 0 C 2127.61 104.263 t 0 r /Helvetica findfont 84.7135 sf 0 0 m (100) show NC gr  317 1507 m 1883 X s 317 1469 m 38 Y s 355 1488 m 19 Y s 393 1488 m 19 Y s 430 1488 m 19 Y s 468 1488 m 19 Y s 506 1469 m 38 Y s 543 1488 m 19 Y s 581
 1488 m 19 Y s 619 1488 m 19 Y s 656 1488 m 19 Y s 694 1469 m 38 Y s 732 1488 m 19 Y s 769 1488 m 19 Y s 807 1488 m 19 Y s 844 1488 m 19 Y s 882 1469 m 38 Y s 920 1488 m 19 Y s 957 1488 m 19 Y s 995 1488 m 19 Y s 1033 1488 m 19 Y s 1070 1469 m 38 Y s
 1108 1488 m 19 Y s 1146 1488 m 19 Y s 1183 1488 m 19 Y s 1221 1488 m 19 Y s 1259 1469 m 38 Y s 1296 1488 m 19 Y s 1334 1488 m 19 Y s 1372 1488 m 19 Y s 1409 1488 m 19 Y s 1447 1469 m 38 Y s 1484 1488 m 19 Y s 1522 1488 m 19 Y s 1560 1488 m 19 Y s
 1597 1488 m 19 Y s 1635 1469 m 38 Y s 1673 1488 m 19 Y s 1710 1488 m 19 Y s 1748 1488 m 19 Y s 1786 1488 m 19 Y s 1823 1469 m 38 Y s 1861 1488 m 19 Y s 1899 1488 m 19 Y s 1936 1488 m 19 Y s 1974 1488 m 19 Y s 2011 1469 m 38 Y s 2049 1488 m 19 Y s
 2087 1488 m 19 Y s 2124 1488 m 19 Y s 2162 1488 m 19 Y s 2200 1469 m 38 Y s 317 185 m 1322 Y s
 gsave  2268 1538 0 0 C 120.554 1257.67 t 90 r /Helvetica findfont 84.7135 sf 0 0 m (*q1*q2) show NC gr 
 gsave  2268 1538 0 0 C 120.554 1215.31 t 90 r /Symbol findfont 84.7135 sf 0 0 m (f) show NC gr 
 gsave  2268 1538 0 0 C 120.554 1163.18 t 90 r /Symbol findfont 84.7135 sf 0 0 m (D) show NC gr  376 185 m -59 X s 347 240 m -30 X s 347 295 m -30 X s 347 350 m -30 X s 376 405 m -59 X s 347 460 m -30 X s 347 515 m -30 X s 347 570 m -30 X s 376 625 m
 -59 X s 347 681 m -30 X s 347 736 m -30 X s 347 791 m -30 X s 376 846 m -59 X s 347 901 m -30 X s 347 956 m -30 X s 347 1011 m -30 X s 376 1066 m -59 X s 347 1121 m -30 X s 347 1176 m -30 X s 347 1232 m -30 X s 376 1287 m -59 X s 347 1342 m -30 X s
 347 1397 m -30 X s 347 1452 m -30 X s 376 1507 m -59 X s
 gsave  2268 1538 0 0 C 231.333 153.136 t 0 r /Helvetica findfont 84.7135 sf 0 0 m (\2556) show NC gr 
 gsave  2268 1538 0 0 C 228.075 374.695 t 0 r /Helvetica findfont 84.7135 sf 0 0 m (\2554) show NC gr 
 gsave  2268 1538 0 0 C 231.333 592.995 t 0 r /Helvetica findfont 84.7135 sf 0 0 m (\2552) show NC gr 
 gsave  2268 1538 0 0 C 257.399 814.553 t 0 r /Helvetica findfont 84.7135 sf 0 0 m (0) show NC gr 
 gsave  2268 1538 0 0 C 257.399 1036.11 t 0 r /Helvetica findfont 84.7135 sf 0 0 m (2) show NC gr 
 gsave  2268 1538 0 0 C 257.399 1254.41 t 0 r /Helvetica findfont 84.7135 sf 0 0 m (4) show NC gr 
 gsave  2268 1538 0 0 C 257.399 1475.97 t 0 r /Helvetica findfont 84.7135 sf 0 0 m (6) show NC gr  2200 185 m 1322 Y s 2141 185 m 59 X s 2170 240 m 30 X s 2170 295 m 30 X s 2170 350 m 30 X s 2141 405 m 59 X s 2170 460 m 30 X s 2170 515 m 30 X s 2170
 570 m 30 X s 2141 625 m 59 X s 2170 681 m 30 X s 2170 736 m 30 X s 2170 791 m 30 X s 2141 846 m 59 X s 2170 901 m 30 X s 2170 956 m 30 X s 2170 1011 m 30 X s 2141 1066 m 59 X s 2170 1121 m 30 X s 2170 1176 m 30 X s 2170 1232 m 30 X s 2141 1287 m 59
 X s 2170 1342 m 30 X s 2170 1397 m 30 X s 2170 1452 m 30 X s 2141 1507 m 59 X s
 gr  gr showpage
end
%%EOF
