%!PS-Adobe-2.0 EPSF-2.0
%%BoundingBox:  0 0 567 384
%%Title: tightLLhmass_deltaEtaq1q2_ZeeNp.eps: c1
%%Creator: ROOT Version 5.34/14
%%CreationDate: Wed Sep 10 08:45:34 2014
%%EndComments
%%BeginProlog
80 dict begin
/s {stroke} def /l {lineto} def /m {moveto} def /t {translate} def
/r {rotate} def /rl {roll}  def /R {repeat} def
/d {rlineto} def /rm {rmoveto} def /gr {grestore} def /f {eofill} def
/c {setrgbcolor} def /black {0 setgray} def /sd {setdash} def
/cl {closepath} def /sf {scalefont setfont} def /lw {setlinewidth} def
/box {m dup 0 exch d exch 0 d 0 exch neg d cl} def
/NC{systemdict begin initclip end}def/C{NC box clip newpath}def
/bl {box s} def /bf {box f} def /Y { 0 exch d} def /X { 0 d} def 
/K {{pop pop 0 moveto} exch kshow} bind def
/ita {/ang 15 def gsave [1 0 ang dup sin exch cos div 1 0 0] concat} def 
/mp {newpath /y exch def /x exch def} def
/side {[w .77 mul w .23 mul] .385 w mul sd w 0 l currentpoint t -144 r} def
/mr {mp x y w2 0 360 arc} def /m24 {mr s} def /m20 {mr f} def
/mb {mp x y w2 add m w2 neg 0 d 0 w neg d w 0 d 0 w d cl} def
/mt {mp x y w2 add m w2 neg w neg d w 0 d cl} def
/m21 {mb f} def /m25 {mb s} def /m22 {mt f} def /m26{mt s} def
/m23 {mp x y w2 sub m w2 w d w neg 0 d cl f} def
/m27 {mp x y w2 add m w3 neg w2 neg d w3 w2 neg d w3 w2 d cl s} def
/m28 {mp x w2 sub y w2 sub w3 add m w3 0 d  0 w3 neg d w3 0 d 0 w3 d w3 0 d  0 w3 d w3 neg 0 d 0 w3 d w3 neg 0 d 0 w3 neg d w3 neg 0 d cl s } def
/m29 {mp gsave x w2 sub y w2 add w3 sub m currentpoint t 4 {side} repeat cl fill gr} def
/m30 {mp gsave x w2 sub y w2 add w3 sub m currentpoint t 4 {side} repeat cl s gr} def
/m31 {mp x y w2 sub m 0 w d x w2 sub y m w 0 d x w2 sub y w2 add m w w neg d x w2 sub y w2 sub m w w d s} def
/m32 {mp x y w2 sub m w2 w d w neg 0 d cl s} def
/m33 {mp x y w2 add m w3 neg w2 neg d w3 w2 neg d w3 w2 d cl f} def
/m34 {mp x w2 sub y w2 sub w3 add m w3 0 d  0 w3 neg d w3 0 d 0 w3 d w3 0 d  0 w3 d w3 neg 0 d 0 w3 d w3 neg 0 d 0 w3 neg d w3 neg 0 d cl f } def
/m2 {mp x y w2 sub m 0 w d x w2 sub y m w 0 d s} def
/m5 {mp x w2 sub y w2 sub m w w d x w2 sub y w2 add m w w neg d s} def
/reEncode {exch findfont dup length dict begin {1 index /FID eq  {pop pop} {def} ifelse } forall /Encoding exch def currentdict end dup /FontName get exch definefont pop } def [/Times-Bold /Times-Italic /Times-BoldItalic /Helvetica /Helvetica-Oblique
 /Helvetica-Bold /Helvetica-BoldOblique /Courier /Courier-Oblique /Courier-Bold /Courier-BoldOblique /Times-Roman /AvantGarde-Book /AvantGarde-BookOblique /AvantGarde-Demi /AvantGarde-DemiOblique /Bookman-Demi /Bookman-DemiItalic /Bookman-Light
 /Bookman-LightItalic /Helvetica-Narrow /Helvetica-Narrow-Bold /Helvetica-Narrow-BoldOblique /Helvetica-Narrow-Oblique /NewCenturySchlbk-Roman /NewCenturySchlbk-Bold /NewCenturySchlbk-BoldItalic /NewCenturySchlbk-Italic /Palatino-Bold
 /Palatino-BoldItalic /Palatino-Italic /Palatino-Roman ] {ISOLatin1Encoding reEncode } forall
%%EndProlog
%%BeginSetup
%%EndSetup
newpath  gsave  .25 .25 scale  gsave  0 0 t black[  ] 0 sd 3 lw 1 1 1 c 2268 1538 0 0 bf black 1 1 1 c 1883 1322 317 185 bf black 1883 1322 317 185 bl 1 1 1 c 0.386667 0 1 c 19 26 901 185 bf 18 26 939 185 bf 19 26 976 185 bf 19 26 995 185 bf 19 26
 1014 185 bf 19 26 1033 185 bf 18 26 1052 185 bf 19 26 1070 185 bf 19 26 1089 185 bf 19 26 1108 185 bf 19 26 1183 185 bf 19 26 1202 185 bf 19 26 1221 185 bf 19 26 1240 185 bf 19 26 1277 185 bf 19 26 1334 185 bf 19 26 1353 185 bf 19 26 1409 185 bf 19
 26 1447 185 bf 18 26 1466 185 bf 19 26 1503 185 bf 19 26 1522 185 bf 18 26 939 211 bf 19 26 957 211 bf 19 26 976 211 bf 19 26 1014 211 bf 19 26 1033 211 bf 19 26 1070 211 bf 19 26 1108 211 bf 19 26 1127 211 bf 19 26 1164 211 bf 19 26 1183 211 bf 19
 26 1221 211 bf 18 26 1259 211 bf 19 26 1277 211 bf 19 26 1315 211 bf 19 26 1353 211 bf 19 26 1447 211 bf 19 26 1560 211 bf 19 26 1597 211 bf 19 27 863 237 bf 19 27 882 237 bf 19 27 901 237 bf 19 27 976 237 bf 19 27 995 237 bf 19 27 1014 237 bf 19 27
 1033 237 bf 18 27 1052 237 bf 19 27 1070 237 bf 19 27 1089 237 bf 19 27 1108 237 bf 19 27 1127 237 bf 18 27 1146 237 bf 19 27 1164 237 bf 19 27 1183 237 bf 19 27 1202 237 bf 19 27 1221 237 bf 19 27 1240 237 bf 19 27 1277 237 bf 19 27 1296 237 bf 19
 27 1390 237 bf 19 27 1409 237 bf 19 26 863 264 bf 19 26 901 264 bf 19 26 920 264 bf 18 26 939 264 bf 19 26 976 264 bf 19 26 995 264 bf 19 26 1014 264 bf 19 26 1033 264 bf 18 26 1052 264 bf 19 26 1070 264 bf 19 26 1108 264 bf 19 26 1127 264 bf 19 26
 1164 264 bf 19 26 1183 264 bf 19 26 1202 264 bf 18 26 1259 264 bf 19 26 1277 264 bf 19 26 1296 264 bf 19 26 1484 264 bf 19 26 1541 264 bf 18 26 1579 264 bf 19 27 750 290 bf 19 27 807 290 bf 18 27 826 290 bf 19 27 844 290 bf 19 27 863 290 bf 19 27
 882 290 bf 19 27 901 290 bf 19 27 920 290 bf 19 27 957 290 bf 19 27 976 290 bf 19 27 995 290 bf 19 27 1014 290 bf 19 27 1033 290 bf 18 27 1052 290 bf 19 27 1089 290 bf 19 27 1108 290 bf 18 27 1146 290 bf 19 27 1164 290 bf 19 27 1202 290 bf 19 27
 1221 290 bf 18 27 1259 290 bf 19 27 1277 290 bf 19 27 1296 290 bf 19 27 1334 290 bf 19 27 1353 290 bf 19 27 1428 290 bf 19 27 1522 290 bf 18 26 732 317 bf 19 26 750 317 bf 19 26 788 317 bf 18 26 826 317 bf 19 26 844 317 bf 19 26 863 317 bf 19 26 882
 317 bf 19 26 901 317 bf 19 26 920 317 bf 18 26 939 317 bf 19 26 957 317 bf 19 26 976 317 bf 19 26 995 317 bf 19 26 1014 317 bf 19 26 1033 317 bf 18 26 1052 317 bf 19 26 1070 317 bf 19 26 1089 317 bf 19 26 1108 317 bf 19 26 1127 317 bf 18 26 1146 317
 bf 19 26 1164 317 bf 19 26 1183 317 bf 19 26 1202 317 bf 19 26 1221 317 bf 18 26 1259 317 bf 19 26 1296 317 bf 19 26 1334 317 bf 18 26 1372 317 bf 19 26 1390 317 bf 19 26 1409 317 bf 19 27 769 343 bf 19 27 807 343 bf 18 27 826 343 bf 19 27 844 343
 bf 19 27 863 343 bf 19 27 882 343 bf 19 27 901 343 bf 19 27 920 343 bf 18 27 939 343 bf 19 27 957 343 bf 19 27 976 343 bf 19 27 995 343 bf 19 27 1014 343 bf 19 27 1033 343 bf 18 27 1052 343 bf 19 27 1070 343 bf 19 27 1089 343 bf 19 27 1108 343 bf 19
 27 1127 343 bf 19 27 1164 343 bf 19 27 1202 343 bf 19 27 1240 343 bf 18 27 1259 343 bf 18 27 1372 343 bf 19 26 675 370 bf 19 26 713 370 bf 19 26 750 370 bf 19 26 769 370 bf 19 26 788 370 bf 19 26 807 370 bf 18 26 826 370 bf 19 26 844 370 bf 19 26
 863 370 bf 19 26 882 370 bf 19 26 901 370 bf 19 26 920 370 bf 18 26 939 370 bf 19 26 957 370 bf 19 26 976 370 bf 19 26 995 370 bf 19 26 1014 370 bf 19 26 1033 370 bf 18 26 1052 370 bf 19 26 1089 370 bf 19 26 1108 370 bf 19 26 1127 370 bf 18 26 1146
 370 bf 19 26 1164 370 bf 19 26 1183 370 bf 19 26 1202 370 bf 19 26 1221 370 bf 19 26 1240 370 bf 19 26 1315 370 bf 19 26 1409 370 bf 19 27 675 396 bf 19 27 694 396 bf 19 27 713 396 bf 18 27 732 396 bf 19 27 750 396 bf 19 27 769 396 bf 19 27 788 396
 bf 19 27 807 396 bf 18 27 826 396 bf 19 27 844 396 bf 19 27 863 396 bf 19 27 882 396 bf 19 27 901 396 bf 19 27 920 396 bf 18 27 939 396 bf 19 27 957 396 bf 19 27 976 396 bf 19 27 995 396 bf 19 27 1014 396 bf 19 27 1033 396 bf 18 27 1052 396 bf 19 27
 1070 396 bf 19 27 1089 396 bf 19 27 1108 396 bf 19 27 1127 396 bf 19 27 1164 396 bf 19 27 1183 396 bf 19 27 1240 396 bf 19 27 1277 396 bf 19 26 637 423 bf 19 26 656 423 bf 19 26 675 423 bf 19 26 694 423 bf 19 26 713 423 bf 18 26 732 423 bf 19 26 750
 423 bf 19 26 769 423 bf 19 26 788 423 bf 19 26 807 423 bf 18 26 826 423 bf 19 26 844 423 bf 19 26 863 423 bf 19 26 882 423 bf 19 26 901 423 bf 19 26 920 423 bf 18 26 939 423 bf 19 26 957 423 bf 19 26 976 423 bf 19 26 995 423 bf 19 26 1014 423 bf 18
 26 1052 423 bf 19 26 1070 423 bf 19 26 1089 423 bf 19 26 1108 423 bf 19 26 1127 423 bf 18 26 1146 423 bf 19 26 1164 423 bf 19 26 1183 423 bf 19 26 1221 423 bf 19 27 600 449 bf 19 27 637 449 bf 19 27 656 449 bf 19 27 675 449 bf 19 27 694 449 bf 19 27
 713 449 bf 18 27 732 449 bf 19 27 750 449 bf 19 27 769 449 bf 19 27 788 449 bf 19 27 807 449 bf 18 27 826 449 bf 19 27 844 449 bf 19 27 863 449 bf 19 27 882 449 bf 19 27 901 449 bf 19 27 920 449 bf 18 27 939 449 bf 19 27 957 449 bf 19 27 976 449 bf
 19 27 995 449 bf 19 27 1014 449 bf 19 27 1070 449 bf 19 27 1127 449 bf 18 27 1259 449 bf 19 26 637 476 bf 19 26 656 476 bf 19 26 675 476 bf 19 26 694 476 bf 19 26 713 476 bf 18 26 732 476 bf 19 26 750 476 bf 19 26 769 476 bf 19 26 788 476 bf 19 26
 807 476 bf 18 26 826 476 bf 19 26 844 476 bf 19 26 863 476 bf 19 26 882 476 bf 19 26 901 476 bf 19 26 920 476 bf 18 26 939 476 bf 19 26 957 476 bf 19 26 976 476 bf 19 26 1014 476 bf 19 26 1033 476 bf 18 26 1052 476 bf 18 26 1146 476 bf 19 26 562 502
 bf 19 26 581 502 bf 18 26 619 502 bf 19 26 637 502 bf 19 26 656 502 bf 19 26 675 502 bf 19 26 694 502 bf 19 26 713 502 bf 18 26 732 502 bf 19 26 750 502 bf 19 26 769 502 bf 19 26 788 502 bf 19 26 807 502 bf 18 26 826 502 bf 19 26 844 502 bf 19 26
 863 502 bf 19 26 882 502 bf 19 26 901 502 bf 19 26 920 502 bf 18 26 939 502 bf 19 26 957 502 bf 19 26 976 502 bf 19 26 995 502 bf 19 26 1014 502 bf 18 26 1052 502 bf 19 26 1070 502 bf 18 27 525 528 bf 19 27 562 528 bf 19 27 581 528 bf 19 27 600 528
 bf 18 27 619 528 bf 19 27 637 528 bf 19 27 656 528 bf 19 27 675 528 bf 19 27 694 528 bf 19 27 713 528 bf 18 27 732 528 bf 19 27 750 528 bf 19 27 769 528 bf 19 27 788 528 bf 19 27 807 528 bf 18 27 826 528 bf 19 27 844 528 bf 19 27 863 528 bf 19 27
 882 528 bf 19 27 901 528 bf 19 27 920 528 bf 18 27 939 528 bf 19 27 957 528 bf 19 27 976 528 bf 19 27 1033 528 bf 19 27 1070 528 bf 19 27 1108 528 bf 19 26 543 555 bf 19 26 562 555 bf 19 26 581 555 bf 19 26 600 555 bf 18 26 619 555 bf 19 26 637 555
 bf 19 26 656 555 bf 19 26 675 555 bf 19 26 694 555 bf 19 26 713 555 bf 18 26 732 555 bf 19 26 750 555 bf 19 26 769 555 bf 19 26 788 555 bf 19 26 807 555 bf 18 26 826 555 bf 19 26 844 555 bf 19 26 863 555 bf 19 26 882 555 bf 19 26 901 555 bf 19 26
 920 555 bf 18 26 939 555 bf 19 26 957 555 bf 19 26 995 555 bf 19 26 1014 555 bf 19 26 1108 555 bf 19 27 487 581 bf 19 27 506 581 bf 18 27 525 581 bf 19 27 543 581 bf 19 27 562 581 bf 19 27 581 581 bf 19 27 600 581 bf 18 27 619 581 bf 19 27 637 581
 bf 19 27 656 581 bf 19 27 675 581 bf 19 27 694 581 bf 19 27 713 581 bf 18 27 732 581 bf 19 27 750 581 bf 19 27 769 581 bf 19 27 788 581 bf 19 27 807 581 bf 18 27 826 581 bf 19 27 844 581 bf 19 27 863 581 bf 19 27 882 581 bf 19 27 901 581 bf 19 27
 920 581 bf 18 27 939 581 bf 19 27 995 581 bf 19 27 1014 581 bf 18 27 1052 581 bf 19 27 1070 581 bf 19 26 468 608 bf 19 26 487 608 bf 19 26 506 608 bf 18 26 525 608 bf 19 26 543 608 bf 19 26 562 608 bf 19 26 581 608 bf 19 26 600 608 bf 18 26 619 608
 bf 19 26 637 608 bf 19 26 656 608 bf 19 26 675 608 bf 19 26 694 608 bf 19 26 713 608 bf 18 26 732 608 bf 19 26 750 608 bf 19 26 769 608 bf 19 26 788 608 bf 19 26 807 608 bf 18 26 826 608 bf 19 26 844 608 bf 19 26 863 608 bf 19 26 882 608 bf 19 26
 901 608 bf 19 26 920 608 bf 18 26 939 608 bf 19 26 957 608 bf 19 26 976 608 bf 19 26 1014 608 bf 19 26 1033 608 bf 19 26 1108 608 bf 19 27 468 634 bf 19 27 487 634 bf 19 27 506 634 bf 18 27 525 634 bf 19 27 543 634 bf 19 27 562 634 bf 19 27 581 634
 bf 19 27 600 634 bf 18 27 619 634 bf 19 27 637 634 bf 19 27 656 634 bf 19 27 675 634 bf 19 27 694 634 bf 19 27 713 634 bf 18 27 732 634 bf 19 27 750 634 bf 19 27 769 634 bf 19 27 788 634 bf 19 27 807 634 bf 18 27 826 634 bf 19 27 844 634 bf 19 27
 863 634 bf 19 27 882 634 bf 19 27 901 634 bf 19 27 920 634 bf 18 27 939 634 bf 19 27 995 634 bf 19 26 430 661 bf 19 26 468 661 bf 19 26 487 661 bf 19 26 506 661 bf 18 26 525 661 bf 19 26 543 661 bf 19 26 562 661 bf 19 26 581 661 bf 19 26 600 661 bf
 18 26 619 661 bf 19 26 637 661 bf 19 26 656 661 bf 19 26 675 661 bf 19 26 694 661 bf 19 26 713 661 bf 18 26 732 661 bf 19 26 750 661 bf 19 26 769 661 bf 19 26 788 661 bf 19 26 807 661 bf 18 26 826 661 bf 19 26 844 661 bf 19 26 863 661 bf 19 26 882
 661 bf 19 26 901 661 bf 19 26 920 661 bf 19 26 976 661 bf 18 27 412 687 bf 19 27 430 687 bf 19 27 449 687 bf 19 27 468 687 bf 19 27 487 687 bf 19 27 506 687 bf 18 27 525 687 bf 19 27 543 687 bf 19 27 562 687 bf 19 27 581 687 bf 19 27 600 687 bf 18
 27 619 687 bf 19 27 637 687 bf 19 27 656 687 bf 19 27 675 687 bf 19 27 694 687 bf 19 27 713 687 bf 18 27 732 687 bf 19 27 750 687 bf 19 27 769 687 bf 19 27 788 687 bf 19 27 807 687 bf 18 27 826 687 bf 19 27 844 687 bf 19 27 882 687 bf 19 27 901 687
 bf 19 27 920 687 bf 19 27 957 687 bf 19 27 976 687 bf 19 26 393 714 bf 18 26 412 714 bf 19 26 430 714 bf 19 26 449 714 bf 19 26 468 714 bf 19 26 487 714 bf 19 26 506 714 bf 18 26 525 714 bf 19 26 543 714 bf 19 26 562 714 bf 19 26 581 714 bf 19 26
 600 714 bf 18 26 619 714 bf 19 26 637 714 bf 19 26 656 714 bf 19 26 675 714 bf 19 26 694 714 bf 19 26 713 714 bf 18 26 732 714 bf 19 26 750 714 bf 19 26 769 714 bf 19 26 788 714 bf 19 26 807 714 bf 18 26 826 714 bf 19 26 844 714 bf 19 26 863 714 bf
 19 26 882 714 bf 19 26 901 714 bf 19 26 920 714 bf 18 26 939 714 bf 19 26 374 740 bf 19 26 393 740 bf 18 26 412 740 bf 19 26 430 740 bf 19 26 449 740 bf 19 26 468 740 bf 19 26 487 740 bf 19 26 506 740 bf 18 26 525 740 bf 19 26 543 740 bf 19 26 562
 740 bf 19 26 581 740 bf 19 26 600 740 bf 18 26 619 740 bf 19 26 637 740 bf 19 26 656 740 bf 19 26 675 740 bf 19 26 694 740 bf 19 26 713 740 bf 18 26 732 740 bf 19 26 750 740 bf 19 26 769 740 bf 19 26 788 740 bf 19 26 807 740 bf 18 26 826 740 bf 19
 26 844 740 bf 19 26 882 740 bf 19 26 901 740 bf 19 26 920 740 bf 19 27 355 766 bf 19 27 374 766 bf 19 27 393 766 bf 18 27 412 766 bf 19 27 430 766 bf 19 27 449 766 bf 19 27 468 766 bf 19 27 487 766 bf 19 27 506 766 bf 18 27 525 766 bf 19 27 543 766
 bf 19 27 562 766 bf 19 27 581 766 bf 19 27 600 766 bf 18 27 619 766 bf 19 27 637 766 bf 19 27 656 766 bf 19 27 675 766 bf 19 27 694 766 bf 19 27 713 766 bf 18 27 732 766 bf 19 27 750 766 bf 19 27 769 766 bf 19 27 788 766 bf 19 27 807 766 bf 18 27
 826 766 bf 19 27 844 766 bf 19 27 901 766 bf 19 27 920 766 bf 18 27 939 766 bf 19 27 1014 766 bf 19 27 1033 766 bf 19 26 317 793 bf 0 0.546667 1 c 19 26 336 793 bf 0 0.0800001 1 c 19 26 355 793 bf 0.386667 0 1 c 19 26 374 793 bf 19 26 393 793 bf 18
 26 412 793 bf 19 26 430 793 bf 19 26 449 793 bf 19 26 468 793 bf 19 26 487 793 bf 19 26 506 793 bf 18 26 525 793 bf 19 26 543 793 bf 19 26 562 793 bf 19 26 581 793 bf 19 26 600 793 bf 18 26 619 793 bf 19 26 637 793 bf 19 26 656 793 bf 19 26 675 793
 bf 19 26 694 793 bf 19 26 713 793 bf 18 26 732 793 bf 19 26 750 793 bf 19 26 769 793 bf 19 26 788 793 bf 19 26 807 793 bf 18 26 826 793 bf 19 26 844 793 bf 19 26 863 793 bf 19 26 882 793 bf 19 26 901 793 bf 19 26 920 793 bf 1 7.94729e-08 0 c 19 27
 317 819 bf 1 0.466667 0 c 19 27 336 819 bf 0.2 0 1 c 19 27 355 819 bf 0.386667 0 1 c 19 27 374 819 bf 19 27 393 819 bf 18 27 412 819 bf 19 27 430 819 bf 19 27 449 819 bf 19 27 468 819 bf 19 27 487 819 bf 19 27 506 819 bf 18 27 525 819 bf 19 27 543
 819 bf 19 27 562 819 bf 19 27 581 819 bf 19 27 600 819 bf 18 27 619 819 bf 19 27 637 819 bf 19 27 656 819 bf 19 27 675 819 bf 19 27 694 819 bf 19 27 713 819 bf 18 27 732 819 bf 19 27 750 819 bf 19 27 769 819 bf 19 27 788 819 bf 19 27 807 819 bf 18
 27 826 819 bf 19 27 844 819 bf 19 27 863 819 bf 19 27 882 819 bf 19 27 901 819 bf 19 27 920 819 bf 19 27 957 819 bf 56 66 2211 185 bf 0.2 0 1 c 56 66 2211 251 bf 0 0.0800001 1 c 56 66 2211 317 bf 0 0.266667 1 c 56 66 2211 383 bf 0 0.546667 1 c 56 66
 2211 449 bf 0 0.733333 1 c 56 66 2211 515 bf 0 1 0.986667 c 56 66 2211 581 bf 0 1 0.8 c 56 67 2211 647 bf 0 1 0.52 c 56 66 2211 714 bf 0 1 0.333333 c 56 66 2211 780 bf 0 1 0.0533334 c 56 66 2211 846 bf 0.133333 1 0 c 56 66 2211 912 bf 0.413333 1 0 c
 56 66 2211 978 bf 0.6 1 0 c 56 66 2211 1044 bf 0.88 1 0 c 56 66 2211 1110 bf 1 0.933333 0 c 56 67 2211 1176 bf 1 0.653333 0 c 56 66 2211 1243 bf 1 0.466667 0 c 56 66 2211 1309 bf 1 0.186667 0 c 56 66 2211 1375 bf 1 7.94729e-08 0 c 56 66 2211 1441 bf
 black 2267 185 m 1322 Y s 2208 185 m 59 X s 2208 367 m 59 X s 2208 550 m 59 X s 2208 733 m 59 X s 2208 916 m 59 X s 2208 1099 m 59 X s 2208 1281 m 59 X s 2208 1464 m 59 X s 2208 1464 m 59 X s
 gsave  2268 1538 0 0 C 2277.49 153.136 t 0 r /Helvetica findfont 84.7135 sf 0 0 m (0) show NC gr 
 gsave  2268 1538 0 0 C 2277.49 335.596 t 0 r /Helvetica findfont 84.7135 sf 0 0 m (0.02) show NC gr 
 gsave  2268 1538 0 0 C 2277.49 518.056 t 0 r /Helvetica findfont 84.7135 sf 0 0 m (0.04) show NC gr 
 gsave  2268 1538 0 0 C 2277.49 700.516 t 0 r /Helvetica findfont 84.7135 sf 0 0 m (0.06) show NC gr 
 gsave  2268 1538 0 0 C 2277.49 886.234 t 0 r /Helvetica findfont 84.7135 sf 0 0 m (0.08) show NC gr 
 gsave  2268 1538 0 0 C 2277.49 1068.69 t 0 r /Helvetica findfont 84.7135 sf 0 0 m (0.1) show NC gr 
 gsave  2268 1538 0 0 C 2277.49 1251.15 t 0 r /Helvetica findfont 84.7135 sf 0 0 m (0.12) show NC gr 
 gsave  2268 1538 0 0 C 2277.49 1433.61 t 0 r /Helvetica findfont 84.7135 sf 0 0 m (0.14) show NC gr  1 1 1 c black 317 185 m 1883 X s
 gsave  2268 1538 0 0 C 1736.63 13.0329 t 0 r /Helvetica findfont 84.7135 sf 0 0 m ( mass [GeV]) show NC gr  317 223 m -38 Y s 355 204 m -19 Y s 393 204 m -19 Y s 430 204 m -19 Y s 468 204 m -19 Y s 506 223 m -38 Y s 543 204 m -19 Y s 581 204 m -19 Y
 s 619 204 m -19 Y s 656 204 m -19 Y s 694 223 m -38 Y s 732 204 m -19 Y s 769 204 m -19 Y s 807 204 m -19 Y s 844 204 m -19 Y s 882 223 m -38 Y s 920 204 m -19 Y s 957 204 m -19 Y s 995 204 m -19 Y s 1033 204 m -19 Y s 1070 223 m -38 Y s 1108 204 m
 -19 Y s 1146 204 m -19 Y s 1183 204 m -19 Y s 1221 204 m -19 Y s 1259 223 m -38 Y s 1296 204 m -19 Y s 1334 204 m -19 Y s 1372 204 m -19 Y s 1409 204 m -19 Y s 1447 223 m -38 Y s 1484 204 m -19 Y s 1522 204 m -19 Y s 1560 204 m -19 Y s 1597 204 m
 -19 Y s 1635 223 m -38 Y s 1673 204 m -19 Y s 1710 204 m -19 Y s 1748 204 m -19 Y s 1786 204 m -19 Y s 1823 223 m -38 Y s 1861 204 m -19 Y s 1899 204 m -19 Y s 1936 204 m -19 Y s 1974 204 m -19 Y s 2011 223 m -38 Y s 2049 204 m -19 Y s 2087 204 m
 -19 Y s 2124 204 m -19 Y s 2162 204 m -19 Y s 2200 223 m -38 Y s
 gsave  2268 1538 0 0 C 293.239 104.263 t 0 r /Helvetica findfont 84.7135 sf 0 0 m (0) show NC gr 
 gsave  2268 1538 0 0 C 459.408 104.263 t 0 r /Helvetica findfont 84.7135 sf 0 0 m (10) show NC gr 
 gsave  2268 1538 0 0 C 645.126 104.263 t 0 r /Helvetica findfont 84.7135 sf 0 0 m (20) show NC gr 
 gsave  2268 1538 0 0 C 834.103 104.263 t 0 r /Helvetica findfont 84.7135 sf 0 0 m (30) show NC gr 
 gsave  2268 1538 0 0 C 1023.08 104.263 t 0 r /Helvetica findfont 84.7135 sf 0 0 m (40) show NC gr 
 gsave  2268 1538 0 0 C 1212.06 104.263 t 0 r /Helvetica findfont 84.7135 sf 0 0 m (50) show NC gr 
 gsave  2268 1538 0 0 C 1401.03 104.263 t 0 r /Helvetica findfont 84.7135 sf 0 0 m (60) show NC gr 
 gsave  2268 1538 0 0 C 1586.75 104.263 t 0 r /Helvetica findfont 84.7135 sf 0 0 m (70) show NC gr 
 gsave  2268 1538 0 0 C 1775.73 104.263 t 0 r /Helvetica findfont 84.7135 sf 0 0 m (80) show NC gr 
 gsave  2268 1538 0 0 C 1964.7 104.263 t 0 r /Helvetica findfont 84.7135 sf 0 0 m (90) show NC gr 
 gsave  2268 1538 0 0 C 2127.61 104.263 t 0 r /Helvetica findfont 84.7135 sf 0 0 m (100) show NC gr  317 1507 m 1883 X s 317 1469 m 38 Y s 355 1488 m 19 Y s 393 1488 m 19 Y s 430 1488 m 19 Y s 468 1488 m 19 Y s 506 1469 m 38 Y s 543 1488 m 19 Y s 581
 1488 m 19 Y s 619 1488 m 19 Y s 656 1488 m 19 Y s 694 1469 m 38 Y s 732 1488 m 19 Y s 769 1488 m 19 Y s 807 1488 m 19 Y s 844 1488 m 19 Y s 882 1469 m 38 Y s 920 1488 m 19 Y s 957 1488 m 19 Y s 995 1488 m 19 Y s 1033 1488 m 19 Y s 1070 1469 m 38 Y s
 1108 1488 m 19 Y s 1146 1488 m 19 Y s 1183 1488 m 19 Y s 1221 1488 m 19 Y s 1259 1469 m 38 Y s 1296 1488 m 19 Y s 1334 1488 m 19 Y s 1372 1488 m 19 Y s 1409 1488 m 19 Y s 1447 1469 m 38 Y s 1484 1488 m 19 Y s 1522 1488 m 19 Y s 1560 1488 m 19 Y s
 1597 1488 m 19 Y s 1635 1469 m 38 Y s 1673 1488 m 19 Y s 1710 1488 m 19 Y s 1748 1488 m 19 Y s 1786 1488 m 19 Y s 1823 1469 m 38 Y s 1861 1488 m 19 Y s 1899 1488 m 19 Y s 1936 1488 m 19 Y s 1974 1488 m 19 Y s 2011 1469 m 38 Y s 2049 1488 m 19 Y s
 2087 1488 m 19 Y s 2124 1488 m 19 Y s 2162 1488 m 19 Y s 2200 1469 m 38 Y s 317 185 m 1322 Y s
 gsave  2268 1538 0 0 C 120.554 1257.67 t 90 r /Helvetica findfont 84.7135 sf 0 0 m (*q1*q2) show NC gr 
 gsave  2268 1538 0 0 C 120.554 1212.06 t 90 r /Symbol findfont 84.7135 sf 0 0 m (h) show NC gr 
 gsave  2268 1538 0 0 C 120.554 1159.92 t 90 r /Symbol findfont 84.7135 sf 0 0 m (D) show NC gr  376 185 m -59 X s 347 229 m -30 X s 347 273 m -30 X s 347 317 m -30 X s 347 361 m -30 X s 376 405 m -59 X s 347 449 m -30 X s 347 493 m -30 X s 347 537 m
 -30 X s 347 581 m -30 X s 376 625 m -59 X s 347 669 m -30 X s 347 714 m -30 X s 347 758 m -30 X s 347 802 m -30 X s 376 846 m -59 X s 347 890 m -30 X s 347 934 m -30 X s 347 978 m -30 X s 347 1022 m -30 X s 376 1066 m -59 X s 347 1110 m -30 X s 347
 1154 m -30 X s 347 1199 m -30 X s 347 1243 m -30 X s 376 1287 m -59 X s 347 1331 m -30 X s 347 1375 m -30 X s 347 1419 m -30 X s 347 1463 m -30 X s 376 1507 m -59 X s
 gsave  2268 1538 0 0 C 231.333 153.136 t 0 r /Helvetica findfont 84.7135 sf 0 0 m (\2553) show NC gr 
 gsave  2268 1538 0 0 C 231.333 374.695 t 0 r /Helvetica findfont 84.7135 sf 0 0 m (\2552) show NC gr 
 gsave  2268 1538 0 0 C 244.366 592.995 t 0 r /Helvetica findfont 84.7135 sf 0 0 m (\2551) show NC gr 
 gsave  2268 1538 0 0 C 257.399 814.553 t 0 r /Helvetica findfont 84.7135 sf 0 0 m (0) show NC gr 
 gsave  2268 1538 0 0 C 270.432 1036.11 t 0 r /Helvetica findfont 84.7135 sf 0 0 m (1) show NC gr 
 gsave  2268 1538 0 0 C 257.399 1254.41 t 0 r /Helvetica findfont 84.7135 sf 0 0 m (2) show NC gr 
 gsave  2268 1538 0 0 C 257.399 1475.97 t 0 r /Helvetica findfont 84.7135 sf 0 0 m (3) show NC gr  2200 185 m 1322 Y s 2141 185 m 59 X s 2170 229 m 30 X s 2170 273 m 30 X s 2170 317 m 30 X s 2170 361 m 30 X s 2141 405 m 59 X s 2170 449 m 30 X s 2170
 493 m 30 X s 2170 537 m 30 X s 2170 581 m 30 X s 2141 625 m 59 X s 2170 669 m 30 X s 2170 714 m 30 X s 2170 758 m 30 X s 2170 802 m 30 X s 2141 846 m 59 X s 2170 890 m 30 X s 2170 934 m 30 X s 2170 978 m 30 X s 2170 1022 m 30 X s 2141 1066 m 59 X s
 2170 1110 m 30 X s 2170 1154 m 30 X s 2170 1199 m 30 X s 2170 1243 m 30 X s 2141 1287 m 59 X s 2170 1331 m 30 X s 2170 1375 m 30 X s 2170 1419 m 30 X s 2170 1463 m 30 X s 2141 1507 m 59 X s
 gr  gr showpage
end
%%EOF
